#FIG 3.2  Produced by xfig version 3.2.5-alpha5
Landscape
Center
Inches
A4      
100.00
Single
-2
1200 2
0 32 #4f4f4f
5 1 0 1 0 7 40 -1 -1 0.000 0 0 0 0 1339.425 1597.307 2935 1249 2971 1669 2936 1941
6 225 300 6075 1950
1 3 0 1 32 7 50 -1 -1 0.000 1 -0.0000 3387 1594 347 347 3387 1594 3734 1594
1 3 0 1 32 7 50 -1 -1 0.000 1 -0.0000 609 1594 347 347 609 1594 956 1596
1 3 0 1 32 7 50 -1 -1 0.000 1 0.4049 5812 554 207 207 5812 554 5730 363
1 3 0 1 32 7 50 -1 -1 0.000 1 0.4049 3387 1594 207 207 3387 1594 3305 1402
2 1 0 1 32 7 50 -1 -1 0.000 0 0 -1 0 0 2
	 609 1941 3387 1941
2 1 0 1 32 7 50 -1 -1 0.000 0 0 -1 0 0 2
	 609 1246 3387 1246
2 1 0 1 32 7 50 -1 -1 0.000 0 0 -1 0 0 2
	 3299 1403 5730 363
2 1 0 1 32 7 50 -1 -1 0.000 0 0 -1 0 0 2
	 3463 1788 5894 745
2 1 1 1 32 7 60 -1 -1 4.000 0 0 -1 0 0 3
	 609 1594 3387 1594 5816 553
-6
1 3 0 1 0 7 35 -1 46 0.000 1 0.0000 2248 1488 135 135 2248 1488 2383 1488
1 3 0 1 0 0 30 -1 20 0.000 1 0.0000 2971 1557 32 32 2971 1557 3003 1557
2 1 0 1 0 7 30 -1 -1 0.000 0 0 -1 1 0 2
	1 1 1.00 45.00 75.00
	 955 989 1200 1500
2 1 0 1 0 7 30 -1 -1 0.000 0 0 -1 1 0 2
	1 1 1.00 45.00 75.00
	 1725 2025 1950 1725
2 1 0 1 0 7 30 -1 -1 0.000 0 0 -1 1 0 2
	1 1 1.00 45.00 75.00
	 2100 1125 2175 1350
2 1 0 1 0 7 30 -1 -1 0.000 0 0 -1 1 0 2
	1 1 1.00 45.00 75.00
	 3225 2100 3000 1800
2 1 0 1 0 7 30 -1 -1 0.000 0 0 -1 1 0 2
	1 1 1.00 45.00 75.00
	 3975 750 3600 1425
2 1 0 1 0 7 30 -1 -1 0.000 0 0 -1 1 0 2
	1 1 1.00 45.00 75.00
	 2631 1085 2937 1507
2 1 0 1 0 7 37 -1 20 0.000 0 0 -1 0 0 5
	 1350 1668 1050 1668 1050 1518 1350 1518 1350 1668
3 0 0 1 0 7 40 -1 -1 0.000 0 0 0 4
	 600 1595 3040 1592 3707 1456 5824 548
	 0.000 1.000 1.000 0.000
3 0 0 1 0 7 30 -1 -1 0.000 0 0 0 4
	 1349 1595 1671 1624 2254 1795 2973 1557
	 0.000 1.000 1.000 0.000
4 0 0 40 -1 0 10 0.0000 2 150 630 1500 2175 Final plan\001
4 0 0 40 -1 0 10 0.0000 2 135 765 3225 2175 Sensor range\001
4 0 0 40 -1 0 10 0.0000 2 150 885 3450 750 Trackline path\001
4 0 0 40 -1 0 10 0.0000 2 150 765 2475 1050 Target point\001
4 2 0 40 -1 0 10 0.0000 2 105 480 1200 975 Vehicle\001
4 0 0 40 -1 0 10 0.0000 2 105 540 1425 1125 Obstacle\001
