%!PS-Adobe-3.0 EPSF-3.0
%%Creator: MATLAB, The Mathworks, Inc.
%%Title: /home/lars/postmortem/yawcrash.eps
%%CreationDate: 12/01/2005  18:58:39
%%DocumentNeededFonts: Helvetica
%%DocumentProcessColors: Cyan Magenta Yellow Black
%%LanguageLevel: 2
%%Pages: 1
%%BoundingBox:    59   211   550   580
%%EndComments

%%BeginProlog
% MathWorks dictionary
/MathWorks 160 dict begin
% definition operators
/bdef {bind def} bind def
/ldef {load def} bind def
/xdef {exch def} bdef
/xstore {exch store} bdef
% operator abbreviations
/c  /clip ldef
/cc /concat ldef
/cp /closepath ldef
/gr /grestore ldef
/gs /gsave ldef
/mt /moveto ldef
/np /newpath ldef
/cm /currentmatrix ldef
/sm /setmatrix ldef
/rm /rmoveto ldef
/rl /rlineto ldef
/s {show newpath} bdef
/sc {setcmykcolor} bdef
/sr /setrgbcolor ldef
/sg /setgray ldef
/w /setlinewidth ldef
/j /setlinejoin ldef
/cap /setlinecap ldef
/rc {rectclip} bdef
/rf {rectfill} bdef
% page state control
/pgsv () def
/bpage {/pgsv save def} bdef
/epage {pgsv restore} bdef
/bplot /gsave ldef
/eplot {stroke grestore} bdef
% orientation switch
/portraitMode 0 def /landscapeMode 1 def /rotateMode 2 def
% coordinate system mappings
/dpi2point 0 def
% font control
/FontSize 0 def
/FMS {/FontSize xstore findfont [FontSize 0 0 FontSize neg 0 0]
  makefont setfont} bdef
/reencode {exch dup where {pop load} {pop StandardEncoding} ifelse
  exch dup 3 1 roll findfont dup length dict begin
  { 1 index /FID ne {def}{pop pop} ifelse } forall
  /Encoding exch def currentdict end definefont pop} bdef
/isroman {findfont /CharStrings get /Agrave known} bdef
/FMSR {3 1 roll 1 index dup isroman {reencode} {pop pop} ifelse
  exch FMS} bdef
/csm {1 dpi2point div -1 dpi2point div scale neg translate
 dup landscapeMode eq {pop -90 rotate}
  {rotateMode eq {90 rotate} if} ifelse} bdef
% line types: solid, dotted, dashed, dotdash
/SO { [] 0 setdash } bdef
/DO { [.5 dpi2point mul 4 dpi2point mul] 0 setdash } bdef
/DA { [6 dpi2point mul] 0 setdash } bdef
/DD { [.5 dpi2point mul 4 dpi2point mul 6 dpi2point mul 4
  dpi2point mul] 0 setdash } bdef
% macros for lines and objects
/L {lineto stroke} bdef
/MP {3 1 roll moveto 1 sub {rlineto} repeat} bdef
/AP {{rlineto} repeat} bdef
/PDlw -1 def
/W {/PDlw currentlinewidth def setlinewidth} def
/PP {closepath eofill} bdef
/DP {closepath stroke} bdef
/MR {4 -2 roll moveto dup  0 exch rlineto exch 0 rlineto
  neg 0 exch rlineto closepath} bdef
/FR {MR stroke} bdef
/PR {MR fill} bdef
/L1i {{currentfile picstr readhexstring pop} image} bdef
/tMatrix matrix def
/MakeOval {newpath tMatrix currentmatrix pop translate scale
0 0 1 0 360 arc tMatrix setmatrix} bdef
/FO {MakeOval stroke} bdef
/PO {MakeOval fill} bdef
/PD {currentlinewidth 2 div 0 360 arc fill
   PDlw -1 eq not {PDlw w /PDlw -1 def} if} def
/FA {newpath tMatrix currentmatrix pop translate scale
  0 0 1 5 -2 roll arc tMatrix setmatrix stroke} bdef
/PA {newpath tMatrix currentmatrix pop	translate 0 0 moveto scale
  0 0 1 5 -2 roll arc closepath tMatrix setmatrix fill} bdef
/FAn {newpath tMatrix currentmatrix pop translate scale
  0 0 1 5 -2 roll arcn tMatrix setmatrix stroke} bdef
/PAn {newpath tMatrix currentmatrix pop translate 0 0 moveto scale
  0 0 1 5 -2 roll arcn closepath tMatrix setmatrix fill} bdef
/vradius 0 def /hradius 0 def /lry 0 def
/lrx 0 def /uly 0 def /ulx 0 def /rad 0 def
/MRR {/vradius xdef /hradius xdef /lry xdef /lrx xdef /uly xdef
  /ulx xdef newpath tMatrix currentmatrix pop ulx hradius add uly
  vradius add translate hradius vradius scale 0 0 1 180 270 arc 
  tMatrix setmatrix lrx hradius sub uly vradius add translate
  hradius vradius scale 0 0 1 270 360 arc tMatrix setmatrix
  lrx hradius sub lry vradius sub translate hradius vradius scale
  0 0 1 0 90 arc tMatrix setmatrix ulx hradius add lry vradius sub
  translate hradius vradius scale 0 0 1 90 180 arc tMatrix setmatrix
  closepath} bdef
/FRR {MRR stroke } bdef
/PRR {MRR fill } bdef
/MlrRR {/lry xdef /lrx xdef /uly xdef /ulx xdef /rad lry uly sub 2 div def
  newpath tMatrix currentmatrix pop ulx rad add uly rad add translate
  rad rad scale 0 0 1 90 270 arc tMatrix setmatrix lrx rad sub lry rad
  sub translate rad rad scale 0 0 1 270 90 arc tMatrix setmatrix
  closepath} bdef
/FlrRR {MlrRR stroke } bdef
/PlrRR {MlrRR fill } bdef
/MtbRR {/lry xdef /lrx xdef /uly xdef /ulx xdef /rad lrx ulx sub 2 div def
  newpath tMatrix currentmatrix pop ulx rad add uly rad add translate
  rad rad scale 0 0 1 180 360 arc tMatrix setmatrix lrx rad sub lry rad
  sub translate rad rad scale 0 0 1 0 180 arc tMatrix setmatrix
  closepath} bdef
/FtbRR {MtbRR stroke } bdef
/PtbRR {MtbRR fill } bdef
/stri 6 array def /dtri 6 array def
/smat 6 array def /dmat 6 array def
/tmat1 6 array def /tmat2 6 array def /dif 3 array def
/asub {/ind2 exch def /ind1 exch def dup dup
  ind1 get exch ind2 get sub exch } bdef
/tri_to_matrix {
  2 0 asub 3 1 asub 4 0 asub 5 1 asub
  dup 0 get exch 1 get 7 -1 roll astore } bdef
/compute_transform {
  dmat dtri tri_to_matrix tmat1 invertmatrix 
  smat stri tri_to_matrix tmat2 concatmatrix } bdef
/ds {stri astore pop} bdef
/dt {dtri astore pop} bdef
/db {2 copy /cols xdef /rows xdef mul dup 3 mul string
  currentfile 
  3 index 0 eq {/ASCIIHexDecode filter}
  {/ASCII85Decode filter 3 index 2 eq {/RunLengthDecode filter} if }
  ifelse exch readstring pop
  dup 0 3 index getinterval /rbmap xdef
  dup 2 index dup getinterval /gbmap xdef
  1 index dup 2 mul exch getinterval /bbmap xdef pop pop}bdef
/it {gs np dtri aload pop moveto lineto lineto cp c
  cols rows 8 compute_transform 
  rbmap gbmap bbmap true 3 colorimage gr}bdef
/il {newpath moveto lineto stroke}bdef
currentdict end def
%%EndProlog

%%BeginSetup
MathWorks begin

0 cap

end
%%EndSetup

%%Page: 1 1
%%BeginPageSetup
%%PageBoundingBox:    59   211   550   580
MathWorks begin
bpage
%%EndPageSetup

%%BeginObject: obj1
bplot

/dpi2point 12 def
portraitMode 0708 6960 csm

    0     0  5903  4424 rc
85 dict begin %Colortable dictionary
/c0 { 0.000000 0.000000 0.000000 sr} bdef
/c1 { 1.000000 1.000000 1.000000 sr} bdef
/c2 { 0.900000 0.000000 0.000000 sr} bdef
/c3 { 0.000000 0.820000 0.000000 sr} bdef
/c4 { 0.000000 0.000000 0.800000 sr} bdef
/c5 { 0.910000 0.820000 0.320000 sr} bdef
/c6 { 1.000000 0.260000 0.820000 sr} bdef
/c7 { 0.000000 0.820000 0.820000 sr} bdef
c0
1 j
1 sg
   0    0 5904 4425 rf
6 w
0 3605 4575 0 0 -3605 767 3937 4 MP
PP
-4575 0 0 3605 4575 0 0 -3605 767 3937 5 MP stroke
4 w
DO
0 sg
 767 3937 mt  767  332 L
 767  332 mt  767  332 L
1529 3937 mt 1529  332 L
1529  332 mt 1529  332 L
2292 3937 mt 2292  332 L
2292  332 mt 2292  332 L
3054 3937 mt 3054  332 L
3054  332 mt 3054  332 L
3817 3937 mt 3817  332 L
3817  332 mt 3817  332 L
4579 3937 mt 4579  332 L
4579  332 mt 4579  332 L
5342 3937 mt 5342  332 L
5342  332 mt 5342  332 L
 767 3937 mt 5342 3937 L
5342 3937 mt 5342 3937 L
 767 3336 mt 5342 3336 L
5342 3336 mt 5342 3336 L
 767 2735 mt 5342 2735 L
5342 2735 mt 5342 2735 L
 767 2134 mt 5342 2134 L
5342 2134 mt 5342 2134 L
 767 1533 mt 5342 1533 L
5342 1533 mt 5342 1533 L
 767  932 mt 5342  932 L
5342  932 mt 5342  932 L
 767  332 mt 5342  332 L
5342  332 mt 5342  332 L
SO
6 w
 767 3937 mt 5342 3937 L
 767  332 mt 5342  332 L
 767 3937 mt  767  332 L
5342 3937 mt 5342  332 L
 767 3937 mt 5342 3937 L
 767 3937 mt  767  332 L
 767 3937 mt  767 3891 L
 767  332 mt  767  377 L
%%IncludeResource: font Helvetica
/Helvetica /ISOLatin1Encoding 144 FMSR

 607 4105 mt 
(1860) s
1529 3937 mt 1529 3891 L
1529  332 mt 1529  377 L
1369 4105 mt 
(1870) s
2292 3937 mt 2292 3891 L
2292  332 mt 2292  377 L
2132 4105 mt 
(1880) s
3054 3937 mt 3054 3891 L
3054  332 mt 3054  377 L
2894 4105 mt 
(1890) s
3817 3937 mt 3817 3891 L
3817  332 mt 3817  377 L
3657 4105 mt 
(1900) s
4579 3937 mt 4579 3891 L
4579  332 mt 4579  377 L
4419 4105 mt 
(1910) s
5342 3937 mt 5342 3891 L
5342  332 mt 5342  377 L
5182 4105 mt 
(1920) s
 767 3937 mt  812 3937 L
5342 3937 mt 5296 3937 L
 408 3990 mt 
(-260) s
 767 3336 mt  812 3336 L
5342 3336 mt 5296 3336 L
 408 3389 mt 
(-240) s
 767 2735 mt  812 2735 L
5342 2735 mt 5296 2735 L
 408 2788 mt 
(-220) s
 767 2134 mt  812 2134 L
5342 2134 mt 5296 2134 L
 408 2187 mt 
(-200) s
 767 1533 mt  812 1533 L
5342 1533 mt 5296 1533 L
 408 1586 mt 
(-180) s
 767  932 mt  812  932 L
5342  932 mt 5296  932 L
 408  985 mt 
(-160) s
 767  332 mt  812  332 L
5342  332 mt 5296  332 L
 408  385 mt 
(-140) s
 767 3937 mt 5342 3937 L
 767  332 mt 5342  332 L
 767 3937 mt  767  332 L
5342 3937 mt 5342  332 L
gs 767 332 4576 3606 rc
/c8 { 0.000000 0.000000 1.000000 sr} bdef
c8
0 293 2 102 0 1 0 -1 1 380 0 0 0 13 1 31 
0 92 0 -92 0 91 1 33 0 1 0 -12 1 89 0 60 
1 3 1 77 1 43 0 -11 1 31 1 30 0 49 1 7 
1 19 0 34 1 31 1 -1 1 19 0 22 1 17 1 15 
0 25 1 30 1 3 0 14 1 23 1 -8 1 20 0 20 
1 7 1 23 0 11 1 -6 1 21 1 11 0 10 1 11 
1 -7 0 4 1 1 1 13 1 -11 0 3 1 10 1 8 
1 -3 0 -2 1 -2 1 2 0 6 1 -1 1 -7 0 1 
1 16 1 -2 1 -12 0 15 1 3 1 1 1 15 0 -7 
1 4 1 5 1 11 1 6 1 0 -1 0 2 9 1 0 
0 9 1 2 1 -3 0 -3 1 0 1 0 0 9 1 -8 
1 -12 1 0 -1 0 2 0 1 -8 1 -6 0 -10 1 7 
1 -7 0 -3 1 -12 1 8 0 3 1 -5 1 -11 1 -4 
0 15 1 0 1 -4 0 1 1 -6 1 4 0 2 1 -4 
1 -7 1 -2 0 -5 1 -2 1 -5 0 1 1 -7 1 -2 
0 -3 1 -7 1 0 1 2 0 -1 1 -11 1 -4 1 -2 
1 -1 0 4 1 -13 1 0 1 1 1 -4 1 2 1 -10 
0 -4 1 7 1 -3 0 -7 1 -1 0 1 0 -5 0 4 
1 -3 1 10 0 1 0 -5 1 3 0 -3 0 3 1 -16 
0 0 0 -7 1 2 0 -2 0 3 1 -7 0 -2 0 1 
1 -10 0 -4 0 11 1 -7 1 -2 0 -13 1 1 1 4 
0 -10 1 -15 1 -16 1 -6 0 4 1 -14 0 5 1 -19 
1 -3 1 -16 1 10 0 2 1 -6 1 -2 0 -11 1 -2 
1 4 0 -3 1 -8 1 -1 0 -8 1 -7 1 -9 1 -18 
0 -2 1 4 1 1 0 -3 1 -15 1 -1 0 -7 1 10 
1 -13 1 -5 0 -6 1 -10 0 -5 1 11 1 -18 1 21 
0 9 1 -1 1 -10 1 9 0 11 1 19 1 8 1 21 
0 -7 1 9 0 6 1 20 1 19 1 -20 0 5 1 2 
1 -13 0 1 1 -12 1 -15 0 -14 1 -17 1 -17 1 -25 
0 -7 1 -8 1 3 1 -21 0 -10 1 9 1 6 0 102 
0 -18 1 -10 0 -82 1 16 3 -2 0 4 0 -7 1 3 
0 17 0 -13 1 5 0 127 0 -141 0 96 1 -6 1 -9 
0 -9 1 -8 1 -20 1 10 0 11 1 -5 1 2 0 -3 
1 13 0 -3 0 8 1 2 0 3 0 -11 1 -1 0 -2 
0 9 1 2 0 -2 0 5 1 1 0 8 0 -6 1 8 
0 25 0 -4 1 1 0 -16 0 8 1 -6 0 -10 0 93 
1 15 0 33 1 7 0 16 1 9 1 -1 1 10 0 9 
1 8 1 17 0 -9 1965 2278 300 MP stroke
1 18 1 10 0 4 1 0 1 9 1 13 0 13 1 1 
1 -8 0 7 1 3 1 6 0 1 1 -2 1 8 0 10 
1 2 1 -2 1 9 0 8 1 4 1 4 0 2 1 6 
1 5 0 -1 1 9 1 3 0 6 1 4 1 -2 0 4 
1 5 1 5 1 7 0 6 1 10 1 4 1 2 0 14 
1 0 1 9 1 6 0 11 1 11 0 7 1 4 1 -1 
1 2 0 -7 1 -8 1 -12 0 -3 1 -5 1 -11 0 -13 
1 -11 1 -13 1 -20 0 -9 1 -3 1 6 1 4 0 2 
1 9 1 5 0 6 0 -1 1 -3 0 -6 0 10 1 2 
0 -1 0 4 1 -1 0 10 1 4 0 40 0 -25 1 -6 
0 -22 0 9 2 14 0 21 0 -23 1 7 0 22 0 -24 
1 7 0 22 0 -25 0 5 1 1 0 28 0 -30 0 7 
1 6 0 27 0 -28 1 8 0 24 0 -25 1 5 0 24 
0 -23 1 -1 0 19 0 -17 1 6 0 -12 0 153 1 -1 
0 5 1 2 1 1 1 8 0 -5 1 7 1 2 1 4 
0 -6 1 -1 0 -2 1 5 1 5 1 4 0 6 1 10 
1 9 1 7 0 6 1 1 1 -5 0 7 1 8 1 12 
1 7 0 2 1 3 1 7 0 6 1 1 1 1 0 4 
1 11 1 0 0 5 1 7 1 8 1 11 1 11 0 9 
1 7 1 7 0 5 1 4 1 11 1 3 1 -1 0 11 
1 -1 1 8 0 5 1 4 1 1 1 -2 1 1 0 2 
1 0 1 -4 1 4 0 1 1 5 1 1 1 0 1 5 
0 2 1 -1 1 -1 0 6 1 4 1 5 1 1 0 3 
1 3 1 -3 0 5 1 3 1 6 1 -2 0 3 1 1 
1 7 0 -5 1 0 0 -3 1 3 1 1 1 5 1 1 
0 2 1 -6 1 2 0 -3 1 5 1 -1 1 5 1 0 
-1 0 2 4 1 1 1 -2 0 -2 1 -3 1 -3 0 -5 
1 1 1 -2 1 -4 0 -4 1 2 1 -9 0 -6 1 3 
1 5 0 -4 1 3 1 1 1 -1 0 3 1 0 1 0 
1 1 1 -2 1 -1 0 -7 1 1 1 0 0 4 1 1 
1 -6 0 -8 1 -3 1 -3 1 -2 0 -6 1 -12 1 -10 
0 -3 1 -3 1 -6 1 -1 0 -1 1 -3 1 3 1 -2 
0 9 1 -3 0 11 1 -3 1 3 1 7 1 10 0 5 
1 -2 0 11 2 5 0 -8 1 4 1 -2 1 5 0 -7 
1 -8 1 -9 0 -4 1 -5 1 1 1 -11 0 -4 1 1 
1 -3 0 2 1 4 1 14 0 9 1 4 1 7 1 9 
0 8 2 13 1 0 1 -19 1 2 2 -4 1 -18 1 -21 
0 -3 0 3 1 4 1764 1660 300 MP stroke
0 -5 0 16 1 8 0 1 0 -6 0 5 1 -2 0 1 
0 -6 1 -7 0 0 0 -1 1 -4 0 -4 0 3 1 1 
0 -4 0 5 1 -7 0 1 0 -21 0 17 1 1 0 4 
1 5 1 4 0 -7 1 -11 1 -10 1 4 1 -5 0 -5 
1 0 1 -16 0 -36 3 -7 0 -9 5 7 0 2 2 2 
1 6 1 -3 0 3 1 2 1 -2 0 5 1 4 1 -11 
1 -7 0 -3 1 8 1 -5 0 4 1 4 1 -7 1 -4 
0 -3 1 -4 1 -7 1 -8 1 10 0 -1 1 -1 1 4 
0 -3 1 -5 1 -8 1 3 0 9 1 4 1 10 0 -7 
1 3 1 -15 0 7 1 -4 1 5 1 -8 0 -8 1 15 
1 -2 1 6 0 5 1 6 1 13 1 -4 0 3 1 8 
1 9 0 11 1 10 1 3 0 -1 1 -2 1 -7 0 4 
1 2 1 -1 1 2 1 2 1 2 1 -5 0 -10 1 0 
1 0 1 2 0 8 1 1 1 4 0 -1 1 -1 1 -9 
0 -3 1 -3 1 5 1 3 0 -7 1 3 0 -1 1 3 
1 2 1 -11 1 -4 1 2 0 1 1 -2 1 -1 2 -9 
0 0 0 -6 0 1 2 -1 0 -1 0 1 1 -9 0 -11 
1 -6 1 -4 0 -1 0 1 1 -4 0 -2 0 7 1 3 
0 12 0 -13 1 -2 1 -5 1 -13 0 1 1 -4 1 -3 
1 2 0 -13 1 1 0 -7 1 -2 1 -10 1 5 0 -2 
1 1 1 -7 0 -2 1 -5 1 7 0 -4 1 11 1 -10 
0 3 1 3 1 8 1 5 0 -5 1 1 1 7 0 2 
1 -3 0 5 1 2 1 9 1 2 1 3 1 2 0 9 
1 2 1 6 0 -1 1 10 1 1 1 10 1 -1 1 4 
1 2 0 3 1 3 1 8 0 7 1 -2 0 10 1 -2 
0 2 0 -2 1 -3 0 -6 0 3 1 0 0 2 0 -3 
1 4 0 9 0 -1 1 1 0 7 1 2 0 -7 0 2 
1 -1 0 3 2 -4 0 0 0 -2 0 1 1 -9 0 1 
0 -4 1 1 0 0 0 -2 1 -2 1 -5 1 0 0 3 
1 -7 0 -1 1 -9 0 1 0 -6 1 -6 0 28 0 -29 
0 28 1 -9 1 -13 0 -14 1 1 1 -1 1 -3 0 -7 
1 3 1 2 1 -4 0 -6 1 -8 1 -5 0 -3 1 11 
1 6 1 2 0 6 1 -2 1 -7 0 -7 1 0 1 9 
1 -4 1 1 1 7 0 -4 1 2 1 1 0 -1 1 -6 
1 -1 1 11 0 2 1 4 1 -8 0 1 1 -4 1 -1 
0 2 1 4 1 -3 1 4 0 3 1 6 1 5 0 4 
1 6 1 -1 0 6 1 10 1 10 1 9 1 5 1 -5 
1 4 0 5 1 -6 1568 1701 300 MP stroke
1 0 0 -2 1 8 1 11 0 -4 1 3 1 -2 0 5 
1 0 0 5 1 -1 0 -2 0 8 1 -1 0 2 1 4 
0 1 0 -2 0 1 1 -1 0 4 0 -3 1 -1 0 -3 
0 5 1 2 0 2 0 -5 0 2 1 9 0 6 1 0 
0 1 0 -2 0 1 1 -1 0 -25 1 -14 0 -4 0 7 
1 5 0 8 1 8 1 -2 1 -3 0 -4 1 1 1 -12 
0 -8 2 -10 0 1 0 -3 0 2 1 10 0 -3 0 4 
1 -8 0 0 0 -4 0 3 1 -1 0 1 0 -6 0 2 
1 -9 0 -5 0 5 1 2 0 -5 0 15 1 1 0 -5 
0 2 1 -1 0 2 0 -42 1 3 1 0 0 2 1 -3 
1 -11 0 2 1 5 1 6 1 0 0 8 1 -2 0 9 
1 1 1 -18 1 -9 0 13 1 15 1 9 0 4 1 -9 
1 -6 1 -1 1 5 0 12 1 8 1 -1 1 0 0 -2 
1 -3 1 1 0 -4 1 -5 1 -5 0 -1 1 -1 1 6 
1 -1 0 -5 1 -10 1 0 1 -4 0 -3 1 0 0 -13 
1 -1 1 -2 1 -4 0 11 1 -2 1 1 0 -1 1 2 
1 -6 0 4 1 -11 1 5 1 7 0 2 1 -1 1 1 
0 -14 1 0 1 -2 1 -1 0 -5 1 -8 1 -7 0 -5 
1 -3 1 -3 1 6 -1 0 2 6 1 7 1 -3 0 -2 
1 4 1 8 1 -3 1 4 1 -3 1 -7 0 -2 0 2 
1 1 0 -9 0 5 1 -3 1 2 0 -4 1 3 1 -8 
1 -4 0 1 1 6 1 -8 0 2 1 -7 1 8 0 -9 
1 -1 1 -7 1 -1 1 0 0 -6 1 -3 1 -1 0 -5 
1 0 0 1 0 -2 1 -3 0 -4 0 0 1 0 0 2 
0 -1 1 -2 0 3 1 -1 0 -1 0 5 1 -4 0 1 
1 6 0 0 0 -1 1 -5 0 -1 0 3 1 -3 1 7 
0 -3 1 -1 1 4 1 3 0 -3 1 0 1 3 0 1 
2 4 0 -2 1 -1 0 3 0 -4 0 3 1 -1 0 -1 
0 2 1 1 0 3 1 -2 0 -1 0 4 1 3 0 -4 
0 2 1 4 0 1 0 -6 1 0 0 -5 2 4 0 2 
0 -2 1 -5 0 3 0 -12 1 -2 0 2 0 -3 0 2 
1 -3 0 3 0 -4 1 -8 0 4 0 -5 1 -6 0 27 
1 -2 0 -4 1 2 1 1 1 1 0 -2 1 2 1 -2 
1 -3 0 -2 1 -3 1 2 0 -9 1 2 1 -6 1 -4 
0 -4 1 -1 1 -5 1 -10 0 -1 1 -10 0 -4 1 0 
1 1 0 -4 1 5 1 -5 0 -5 0 2 1 4 0 11 
0 -9 1 -4 0 -2 1 6 0 7 0 -7 0 4 2 12 
0 5 0 -6 1 6 1404 1865 300 MP stroke
0 5 0 -5 1 -1 0 5 0 -6 1 1 0 6 0 -7 
1 1 0 5 0 -6 0 4 1 5 0 -2 0 47 1 1 
0 4 1 2 1 -2 1 -1 0 1 1 2 1 -3 0 4 
1 6 1 1 0 4 1 -6 0 2 1 -1 1 3 1 4 
1 9 0 6 1 -2 1 6 0 2 1 0 1 5 0 1 
1 -4 1 -1 1 2 0 5 1 1 1 1 1 2 0 -5 
1 -2 0 -1 1 4 1 6 1 2 0 4 1 0 1 -5 
1 4 0 -3 1 -8 0 -7 1 8 1 -1 1 10 0 -5 
1 6 1 -3 1 -10 1 3 1 1 1 5 1 1 0 7 
1 -9 1 3 0 -2 1 7 1 -2 1 5 0 -2 1 8 
1 5 0 -3 1 2 1 1 1 -3 1 1 1 3 0 -2 
1 2 1 7 0 -11 1 -5 1 5 1 -2 0 5 1 0 
1 7 1 -4 0 -2 1 1 1 0 -1 0 2 9 1 6 
1 4 1 0 0 9 1 8 0 2 1 4 1 4 1 -2 
0 4 1 8 1 7 1 6 0 5 1 0 1 -9 0 7 
1 3 1 -1 0 7 1 6 1 0 -1 0 2 4 1 -3 
1 4 0 1 1 -2 1 -5 0 1 1 -1 1 11 1 -3 
0 4 1 0 1 -4 1 -4 0 -3 1 -9 0 -1 1 -2 
1 5 1 2 0 3 1 3 1 -3 0 -4 1 1 1 0 
1 1 0 -3 1 4 1 -4 0 -4 1 -1 1 1 0 2 
1 13 1 -1 1 0 0 2 1 2 1 -3 0 9 1 -1 
1 1 1 -1 0 6 1 1 1 5 0 3 1 -2 1 -4 
0 2 1 -4 1 2 0 3 1 -1 1 -4 1 0 0 -3 
1 -3 0 -1 1 -3 1 -1 1 -2 1 -2 1 2 0 -4 
1 -2 1 -1 1 10 0 -7 1 1 0 5 1 -2 1 0 
1 5 0 -1 1 -6 1 8 0 4 1 -2 1 3 1 0 
0 -3 1 1 1 1 0 -11 1 1 1 8 0 -6 1 11 
1 4 0 -5 1 0 1 5 1 8 0 5 1 3 1 10 
1 8 0 -3 1 7 1 -2 0 -22 2 0 0 -14 0 5 
1 0 0 6 8 2 0 1 0 -1 1 1 0 16 0 -18 
0 10 1 -1 1 -2 0 -4 1 -4 0 -4 1 -1 1 -4 
0 -1 2 9 0 3 0 -2 1 2 0 27 0 -31 0 29 
1 -2 1 2 0 -8 1 -2 1 -1 1 -4 0 -3 1 5 
1 -2 0 -4 1 -6 1 3 1 4 1 -7 0 1 1 7 
0 -2 1 -2 1 4 1 -9 1 4 0 2 1 -2 1 -3 
1 3 1 1 1 1 0 -2 1 4 1 -1 1 0 0 6 
1 0 1 3 1 9 0 -2 1 4 1 4 0 10 1 3 
1 2 1 6 1 0 1194 1559 300 MP stroke
0 6 1 -3 1 10 0 1 1 2 1 -1 1 6 0 3 
1 1 1 -6 1 4 0 1 1 -5 1 0 -1 0 2 -7 
1 3 1 1 0 -3 1 -5 1 4 1 -4 0 -6 1 2 
1 3 1 3 0 -1 1 -1 1 3 0 -2 1 2 1 -1 
0 -2 1 -1 1 5 1 2 0 5 1 0 1 3 0 -2 
1 -2 1 -3 0 5 1 -2 1 1 0 5 1 -5 1 6 
1 6 0 3 1 -4 1 2 1 1 0 -7 1 2 1 2 
0 4 1 2 1 -3 0 -2 1 -1 1 -6 0 -6 1 5 
1 1 1 1 0 -3 1 -8 1 -2 0 -4 1 2 1 2 
1 8 0 -4 1 3 1 2 0 -7 1 7 1 9 0 -1 
1 4 0 1 1 -1 1 1 0 12 1 5 0 -12 1 9 
1 -3 1 19 1 3 1 3 0 13 1 9 1 -2 0 6 
1 10 1 7 1 -5 0 -1 1 12 1 0 1 -3 0 8 
1 3 1 -7 0 6 1 2 1 -8 0 -2 1 -3 1 3 
1 -1 0 -1 1 13 1 3 1 -8 0 -2 1 -13 1 -8 
1 2 0 1 1 12 1 5 1 1 0 -5 1 -1 1 3 
0 2 1 -1 1 -3 1 10 0 -4 1 -4 1 6 1 6 
0 -10 1 -1 1 0 0 5 1 1 1 4 0 -4 1 -2 
1 -4 0 -7 1 7 1 -1 1 5 0 -2 1 5 0 -2 
1 -1 1 -8 1 0 1 3 1 8 1 -2 0 -1 1 -2 
1 4 1 1 1 -9 1 3 0 8 1 -3 0 6 1 0 
1 -4 1 0 0 2 1 -6 0 4 1 3 1 0 1 7 
0 -2 1 -4 1 -4 1 6 0 6 1 -8 0 8 1 0 
1 -8 1 2 0 1 1 -6 1 2 0 -4 1 -5 0 3 
1 -6 1 8 0 -4 1 -2 1 -2 0 5 1 -3 0 -9 
0 10 1 3 0 1 0 -5 0 1 1 5 0 -10 1 5 
0 1 0 -4 1 1 0 10 1 6 0 -9 0 1 1 6 
0 -3 0 5 1 5 0 3 0 -8 1 2 0 -1 0 8 
1 1 0 -6 0 6 1 -2 0 -2 0 7 1 1 0 -5 
0 6 1 4 0 5 0 -6 0 4 1 1 0 2 0 -2 
1 -1 0 3 0 -2 1 4 0 9 1 2 0 -3 0 8 
1 3 0 0 0 -5 0 5 1 -1 0 1 0 -4 0 1 
1 -1 0 7 0 -10 1 -2 0 11 0 -12 0 11 1 -2 
0 2 0 -7 1 -2 0 3 0 -3 0 2 1 -1 0 -1 
0 2 1 -1 0 8 1 3 0 6 1 -5 0 0 0 -6 
1 3 0 -5 1 -1 0 2 0 -7 1 1 0 -1 0 7 
1 -1 0 1 0 -4 1 5 0 -2 0 3 1 3 0 5 
0 -15 1 1 0 -3 1020 1386 300 MP stroke
1 2 0 -7 0 34 1 8 0 21 0 -19 1 -12 0 -10 
1 -8 1 -2 0 5 1 -1 1 -15 1 3 0 -5 1 -7 
0 9 1 -4 0 0 0 6 1 -1 0 -10 1 3 0 4 
0 -2 1 1 0 -8 0 13 1 -2 0 -17 1 4 0 -4 
0 61 1 11 0 6 0 -71 1 -7 0 -2 1 5 4 10 
0 2 0 -4 0 1 1 2 0 12 0 -13 1 -2 0 12 
0 -13 1 4 0 14 0 -16 0 2 1 11 0 13 0 -13 
1 1 0 83 0 -87 0 85 1 6 0 -2 1 8 0 -4 
1 7 1 -2 1 -1 1 2 0 7 1 5 0 -2 1 6 
1 -5 1 -1 1 1 1 -5 1 -1 1 6 0 2 1 0 
1 -6 0 2 1 1 1 4 1 2 0 2 1 1 1 -2 
1 4 0 3 1 1 1 0 1 6 0 4 1 2 1 -4 
0 6 1 7 1 0 1 5 0 3 1 1 1 12 0 6 
1 9 1 0 1 3 0 -1 1 8 1 10 1 9 0 2 
1 -8 1 1 1 3 1 -4 1 -6 0 -5 1 2 1 -2 
1 -6 0 -11 1 -1 1 0 1 5 0 -9 1 3 1 -7 
0 3 0 -6 1 -1 0 5 0 0 1 1 0 4 0 1 
1 -5 0 7 0 -4 1 1 0 2 0 -7 1 2 0 4 
0 -6 1 -1 0 6 0 -7 0 1 1 -2 0 10 0 -3 
1 -1 0 7 0 -4 1 2 0 5 0 -6 1 2 0 8 
0 -4 1 -4 0 19 0 -9 1 -2 0 0 0 -2 2 7 
0 5 0 -4 1 -4 0 -2 0 47 1 1 1 3 1 2 
0 3 1 4 1 4 0 7 1 -2 1 2 1 -1 1 -6 
0 -2 1 0 1 -4 1 -6 0 1 1 -6 1 1 1 -5 
0 3 1 0 1 -5 0 -3 1 2 1 2 1 2 0 -6 
1 3 0 6 1 1 1 -1 1 -1 0 4 1 1 0 3 
1 3 1 8 0 5 1 -4 1 -2 1 8 0 3 1 2 
1 2 1 5 0 -5 1 -2 1 1 1 -2 1 1 1 -7 
0 2 1 2 1 4 1 1 0 -5 1 3 1 9 0 2 
1 0 0 1 0 -5 1 1 0 8 0 -9 0 9 1 -1 
0 0 0 -3 0 1 1 1 0 1 0 -2 1 3 0 3 
0 -9 1 3 0 5 0 0 1 1 0 5 1 1 0 -4 
0 3 1 1 0 0 0 4 1 3 0 2 0 -4 0 2 
1 -1 0 1 0 -3 0 0 1 4 0 2 0 -3 0 1 
1 1 0 7 1 1 0 4 1 3 0 6 0 -1 1 2 
0 4 0 -2 1 1 0 -5 0 16 1 0 0 2 0 -13 
1 -1 0 -3 0 4 1 -2 0 7 0 -9 0 6 3 -4 
0 1 0 -2 1 1 860 1066 300 MP stroke
0 6 0 -6 1 -3 0 6 0 -7 1 -6 0 -2 0 41 
1 -4 0 -4 1 0 1 -2 0 -2 1 3 1 -6 1 2 
1 -1 0 -7 1 0 1 0 1 1 0 2 1 -2 1 7 
1 2 1 -1 1 -3 0 4 1 -2 1 2 0 -4 1 3 
1 2 1 -4 0 4 1 -3 1 1 0 -1 1 1 1 -1 
1 3 0 -1 1 3 1 -7 0 3 1 0 1 4 1 -2 
0 4 1 3 0 7 1 5 1 5 1 -1 0 4 1 5 
1 9 1 5 1 6 0 6 1 7 0 -5 1 2 1 7 
1 5 1 -1 1 -3 1 -2 0 -9 1 -1 0 -3 1 -4 
1 1 1 -3 1 2 2 -10 1 3 0 2 2 -3 0 10 
0 -11 0 2 2 0 0 4 0 -11 0 4 1 -2 0 36 
0 -20 1 -2 1 -3 1 1 1 -1 0 12 7 9 1 9 
1 0 0 4 0 -3 1 2 0 0 0 -4 0 3 1 3 
0 11 1 -4 0 -9 1 4 0 -2 0 6 1 2 0 23 
0 -1 1 -6 1 -4 1 -2 0 -1 1 -10 1 -7 1 -5 
0 -1 1 -6 1 -6 0 -3 1 -4 1 0 1 -7 0 -2 
1 -5 0 7 1 -2 1 4 1 3 0 5 767 984 135 MP stroke
1 111 0 221 1 57 1 56 0 109 1 71 1 87 0 2 
1 76 1 61 0 107 1 -15 1 40 0 30 1 90 1 27 
0 -7 1 37 1 53 1 -7 0 21 1 39 1 30 1 20 
0 -16 1 2 0 10 1 -5 1 19 1 -5 0 -1 1 3 
1 10 0 -3 1 4 1 -7 1 11 0 -1 0 17 1 2 
0 -9 0 3 1 7 0 -19 0 2 1 3 0 12 0 -16 
0 15 1 -7 0 11 0 -13 0 8 1 -9 0 0 0 -16 
1 5 0 4 0 -13 1 9 0 2 0 -4 0 3 1 5 
0 -9 0 5 1 -7 0 3 0 -8 0 2 1 -2 0 6 
0 -11 1 -12 0 16 0 -18 1 -3 0 -19 1 3 0 23 
1 -1 0 -14 0 2 1 7 0 8 0 -8 0 1 1 -12 
0 7 0 -17 1 14 0 7 0 -12 1 -11 0 9 0 -9 
0 7 1 -8 0 9 0 -9 1 1 0 6 0 -7 0 1 
1 -2 0 8 0 -8 1 -1 0 9 0 -9 1 -9 0 40 
0 -42 0 40 1 -12 0 5 1 -18 1 -14 1 -3 0 11 
1 -25 1 -31 0 -18 1 -3 1 5 0 -28 1 -49 1 2 
1 7 0 -60 1 -14 1 -19 0 -15 1 -33 1 2 0 -80 
1 25 0 13 0 -60 1 30 0 9 0 -66 0 10 1 19 
0 -75 0 13 1 -16 0 -63 1 53 0 -58 0 3 1 15 
0 -110 0 25 1 23 0 -90 0 1 1 17 0 -67 0 8 
1 48 0 -104 1 21 0 -97 0 25 1 21 0 -92 0 47 
1 42 0 -39 1 -115 1 -35 0 43 1 -98 0 20 1 -63 
1 3 0 -91 1 -60 1 9 0 -59 2174 3938 182 MP stroke
0 1040 1 264 0 297 1 217 1 -631 1 539 0 -295 1 9 
0 105 1 -193 1 30 0 -74 1 -79 1 58 0 -50 1 -48 
1 -81 0 18 1 38 1 0 0 -46 1 -46 1 -11 0 114 
1 25 1 -40 1 5 0 102 1 75 1 -41 1 31 1 30 
0 45 1 8 1 16 0 23 1 56 1 -2 0 -15 1 21 
1 7 0 -3 1 -16 1 -4 0 -50 1 52 1 -16 0 -48 
1 -56 1 -58 1 35 0 -63 1 -53 0 19 1 -99 1 26 
1 -34 0 -153 1 -5 0 -14 1 -65 1 -72 1 -101 0 -97 
1 97 0 -67 1 -265 1 -33 1 -67 0 -44 1 -267 2272 3938 72 MP stroke
0 476 1 843 0 -1319 2321 3938 4 MP stroke
0 509 1 40 0 -549 2324 3938 4 MP stroke
1 124 0 -124 2327 3938 3 MP stroke
0 153 1 353 0 -506 2328 3938 4 MP stroke
1 461 0 225 1 52 1 -200 1 12 0 102 1 -5 0 285 
1 -143 1 -234 1 298 0 -180 1 101 0 326 1 -226 1 7 
1 307 0 -7 1 13 0 24 1 -198 1 155 1 56 0 3 
1 74 1 -69 0 127 1 86 1 -129 1 -55 0 -97 1 118 
1 -85 0 -22 1 -125 1 -46 0 165 1 114 1 -371 0 29 
1 165 1 -132 0 8 1 -254 0 -257 1 154 1 154 1 -353 
0 26 1 36 1 11 0 -178 1 264 0 -592 2330 3938 55 MP stroke
1 983 1 85 1 -564 0 203 1 -22 1 298 0 -63 1 -807 
0 333 1 361 1 -49 0 149 1 -907 2366 3938 14 MP stroke
0 703 1 -494 1 484 0 34 1 -658 1 786 1 51 0 -262 
1 -232 1 139 0 512 1 -241 1 -38 1 87 0 -245 1 467 
1 -296 0 -51 1 -21 0 173 1 233 1 -105 0 -450 1 546 
1 -264 0 193 1 -115 1 -761 0 787 1 135 1 -397 0 273 
1 -262 1 70 0 283 1 -226 1 92 1 -577 0 452 1 242 
1 -476 0 240 1 87 0 -898 2375 3938 45 MP stroke
1 687 0 -493 1 220 0 225 1 -639 2405 3938 6 MP stroke
0 484 1 -93 1 321 0 -1 1 -711 2408 3938 6 MP stroke
0 706 1 146 0 -852 2412 3938 4 MP stroke
1 828 0 -73 1 -92 1 -495 0 442 1 452 1 -560 1 8 
0 64 1 -472 1 652 0 119 1 -239 0 -209 1 -70 1 445 
1 -173 0 -451 1 461 0 -637 2414 3938 21 MP stroke
1 662 0 420 1 -452 0 358 1 -517 1 -471 2427 3938 7 MP stroke
0 573 1 174 0 -713 1 355 1 197 0 -188 1 324 1 -714 
0 615 1 -119 1 270 0 74 1 -848 2431 3938 14 MP stroke
1 432 0 119 1 58 1 -121 0 -479 1 136 0 480 1 -501 
1 324 1 -99 0 -349 2440 3938 12 MP stroke
0 187 1 527 1 -330 0 319 1 -703 2447 3938 6 MP stroke
0 664 1 -255 1 -217 0 186 1 185 1 130 0 -693 2451 3938 8 MP stroke
0 280 1 583 0 -327 1 -248 1 215 0 -503 2456 3938 7 MP stroke
1 796 0 -386 1 -69 0 -341 2460 3938 5 MP stroke
1 504 0 -335 1 -169 2462 3938 4 MP stroke
1 626 0 344 1 -970 2464 3938 4 MP stroke
0 824 1 -517 1 136 0 -443 2467 3938 5 MP stroke
1 517 1 63 0 20 1 -600 2470 3938 5 MP stroke
1 786 0 -478 1 -308 2473 3938 4 MP stroke
0 -23 2476 3938 2 MP stroke
0 -456 0 340 1 278 1 -367 0 -251 2477 3938 6 MP stroke
0 -544 2481 3938 2 MP stroke
0 159 1 298 0 -457 2482 3938 4 MP stroke
0 631 1 12 0 -643 2484 3938 4 MP stroke
1 647 0 -647 2486 3938 3 MP stroke
0 94 1 167 1 503 0 -764 2488 3938 5 MP stroke
0 543 1 -147 0 250 1 -646 2491 3938 5 MP stroke
0 961 1 -961 2494 3938 3 MP stroke
1 278 0 -278 2497 3938 3 MP stroke
0 485 1 167 0 -652 2498 3938 4 MP stroke
0 727 1 -727 2501 3938 3 MP stroke
0 -358 2504 3938 2 MP stroke
0 666 1 -352 0 -314 2505 3938 4 MP stroke
0 36 1 169 0 218 1 105 1 -528 2507 3938 6 MP stroke
0 531 1 -110 1 -386 0 -35 2511 3938 5 MP stroke
0 -78 2514 3938 2 MP stroke
0 419 1 106 1 -525 2515 3938 4 MP stroke
0 624 1 -162 1 -255 0 -207 2518 3938 5 MP stroke
0 373 1 178 1 -480 1 -28 0 -43 2521 3938 6 MP stroke
0 364 1 82 0 -446 2525 3938 4 MP stroke
0 79 1 159 0 479 1 -9 0 -708 2528 3938 6 MP stroke
1 710 0 -187 1 -523 2531 3938 4 MP stroke
0 414 1 285 0 -699 2535 3938 4 MP stroke
0 379 1 42 0 -421 2538 3938 4 MP stroke
1 504 1 12 0 -516 2541 3938 4 MP stroke
0 172 1 58 1 144 0 -374 2544 3938 5 MP stroke
0 554 1 -458 0 -96 2547 3938 4 MP stroke
0 75 1 419 1 -494 2550 3938 4 MP stroke
0 -63 2553 3938 2 MP stroke
0 620 1 -562 0 -58 2554 3938 4 MP stroke
0 364 1 -364 2556 3938 3 MP stroke
0 476 1 -146 0 -330 2558 3938 4 MP stroke
1 385 0 -84 1 -224 0 -77 2560 3938 5 MP stroke
0 551 1 -551 2563 3938 3 MP stroke
0 33 1 54 0 -87 2565 3938 4 MP stroke
0 401 1 149 0 -550 2567 3938 4 MP stroke
1 483 0 -483 2570 3938 3 MP stroke
0 136 1 -136 2572 3938 3 MP stroke
1 433 0 -433 2574 3938 3 MP stroke
0 349 1 45 1 -197 0 -197 2576 3938 5 MP stroke
1 303 0 -303 2579 3938 3 MP stroke
0 -637 2581 3938 2 MP stroke
1 367 1 308 0 -675 2583 3938 4 MP stroke
0 314 1 -52 0 -58 1 227 0 -431 2586 3938 6 MP stroke
0 506 1 -506 2589 3938 3 MP stroke
1 362 0 -362 2593 3938 3 MP stroke
0 181 1 -181 2594 3938 3 MP stroke
0 -471 2597 3938 2 MP stroke
1 371 0 -315 1 311 0 -367 2599 3938 5 MP stroke
0 -135 2602 3938 2 MP stroke
0 523 1 -523 2603 3938 3 MP stroke
1 96 0 595 1 -691 2605 3938 4 MP stroke
0 -347 0 160 1 -160 2608 3938 4 MP stroke
0 252 1 -252 2610 3938 3 MP stroke
0 583 1 -583 2612 3938 3 MP stroke
0 57 1 -42 1 213 0 -228 2614 3938 5 MP stroke
1 548 0 -548 2619 3938 3 MP stroke
1 198 0 -198 2621 3938 3 MP stroke
1 635 0 -635 2626 3938 3 MP stroke
0 419 1 21 0 -440 2628 3938 4 MP stroke
0 -399 2630 3938 2 MP stroke
1 268 0 -268 2632 3938 3 MP stroke
1 230 0 388 1 -618 2634 3938 4 MP stroke
0 520 1 -520 2638 3938 3 MP stroke
0 10 1 194 0 -204 2642 3938 4 MP stroke
0 457 1 -457 2645 3938 3 MP stroke
0 496 1 -7 0 -489 2649 3938 4 MP stroke
0 -131 2651 3938 2 MP stroke
0 -258 2653 3938 2 MP stroke
0 186 1 229 0 -415 2655 3938 4 MP stroke
1 181 0 -181 2658 3938 3 MP stroke
1 617 0 -617 2659 3938 3 MP stroke
0 688 1 -688 2661 3938 3 MP stroke
1 42 0 -42 2663 3938 3 MP stroke
0 -458 2665 3938 2 MP stroke
1 712 0 -712 2668 3938 3 MP stroke
1 202 0 -202 2670 3938 3 MP stroke
0 -36 2672 3938 2 MP stroke
1 609 0 -609 2675 3938 3 MP stroke
0 -282 2677 3938 2 MP stroke
0 438 1 -438 2678 3938 3 MP stroke
0 -381 2681 3938 2 MP stroke
0 3 1 146 0 -149 2682 3938 4 MP stroke
0 323 1 -132 1 -132 0 -59 2684 3938 5 MP stroke
0 -679 2688 3938 2 MP stroke
0 105 1 295 0 -400 2689 3938 4 MP stroke
0 186 1 298 0 -484 2691 3938 4 MP stroke
0 -54 2693 3938 2 MP stroke
0 151 1 -66 0 334 1 -419 2694 3938 5 MP stroke
0 450 1 246 0 -696 2698 3938 4 MP stroke
1 288 0 -288 2701 3938 3 MP stroke
1 108 0 -108 2703 3938 3 MP stroke
0 14 1 297 0 -311 2705 3938 4 MP stroke
0 -65 2707 3938 2 MP stroke
0 -28 2711 3938 2 MP stroke
1 271 0 -271 2712 3938 3 MP stroke
0 -72 2714 3938 2 MP stroke
1 555 0 -555 2715 3938 3 MP stroke
1 758 0 -758 2717 3938 3 MP stroke
0 -94 2719 3938 2 MP stroke
0 -269 2721 3938 2 MP stroke
0 -349 2724 3938 2 MP stroke
0 -110 2726 3938 2 MP stroke
0 441 1 -175 0 -266 2727 3938 4 MP stroke
1 325 0 -147 1 29 0 -207 2730 3938 5 MP stroke
0 -266 2733 3938 2 MP stroke
0 208 1 -189 0 -19 2734 3938 4 MP stroke
0 543 1 -543 2736 3938 3 MP stroke
1 526 0 -526 2738 3938 3 MP stroke
1 325 0 -325 2740 3938 3 MP stroke
0 627 1 -627 2743 3938 3 MP stroke
0 -358 2747 3938 2 MP stroke
1 240 0 -240 2748 3938 3 MP stroke
0 -94 2750 3938 2 MP stroke
1 269 0 -269 2752 3938 3 MP stroke
1 319 0 -78 1 -241 2753 3938 4 MP stroke
0 53 1 -53 2757 3938 3 MP stroke
0 343 1 -281 0 -62 2760 3938 4 MP stroke
0 -42 2763 3938 2 MP stroke
1 338 0 -338 2766 3938 3 MP stroke
0 -194 2768 3938 2 MP stroke
0 347 1 -269 0 -78 2769 3938 4 MP stroke
0 -197 2771 3938 2 MP stroke
1 597 0 -597 2773 3938 3 MP stroke
0 -178 2777 3938 2 MP stroke
0 651 1 -651 2779 3938 3 MP stroke
0 -249 2782 3938 2 MP stroke
0 279 1 56 0 -335 2783 3938 4 MP stroke
0 -8 2785 3938 2 MP stroke
0 392 1 -392 0 135 1 -33 0 -102 2787 3938 6 MP stroke
0 -308 2791 3938 2 MP stroke
0 507 1 -507 2793 3938 3 MP stroke
0 394 1 -394 2795 3938 3 MP stroke
1 245 0 -245 2797 3938 3 MP stroke
0 775 1 -775 2799 3938 3 MP stroke
0 196 1 194 0 -390 2802 3938 4 MP stroke
1 283 0 -283 2804 3938 3 MP stroke
0 -458 2806 3938 2 MP stroke
0 120 1 -120 2807 3938 3 MP stroke
0 -396 0 361 1 -361 2809 3938 4 MP stroke
0 519 1 -519 2812 3938 3 MP stroke
0 -28 2814 3938 2 MP stroke
0 518 1 -518 2816 3938 3 MP stroke
1 151 0 -151 2818 3938 3 MP stroke
1 514 0 -514 2820 3938 3 MP stroke
0 175 1 28 1 -20 0 -183 2822 3938 5 MP stroke
0 -415 2826 3938 2 MP stroke
1 613 0 -613 2827 3938 3 MP stroke
1 644 0 -644 2829 3938 3 MP stroke
0 -216 2833 3938 2 MP stroke
0 -671 2836 3938 2 MP stroke
0 -101 2840 3938 2 MP stroke
0 -397 2841 3938 2 MP stroke
0 67 1 396 0 -463 2843 3938 4 MP stroke
0 -335 2845 3938 2 MP stroke
1 365 1 -323 0 -42 2846 3938 4 MP stroke
0 420 1 -420 2849 3938 3 MP stroke
0 329 1 -329 2851 3938 3 MP stroke
0 -408 2854 3938 2 MP stroke
0 675 1 -675 2856 3938 3 MP stroke
0 -103 2859 3938 2 MP stroke
0 541 1 -541 2860 3938 3 MP stroke
0 -182 2863 3938 2 MP stroke
0 -173 2864 3938 2 MP stroke
0 208 1 283 0 -491 2866 3938 4 MP stroke
0 641 1 -404 0 -237 2869 3938 4 MP stroke
0 -283 2873 3938 2 MP stroke
1 370 0 -370 2876 3938 3 MP stroke
1 172 0 -172 2878 3938 3 MP stroke
0 337 1 -337 2879 3938 3 MP stroke
1 335 0 -335 2883 3938 3 MP stroke
1 482 0 -449 1 -33 2885 3938 4 MP stroke
0 -193 2889 3938 2 MP stroke
0 -318 2890 3938 2 MP stroke
0 -604 2892 3938 2 MP stroke
0 135 1 -76 1 348 0 -407 2895 3938 5 MP stroke
0 -545 2899 3938 2 MP stroke
0 484 1 -294 0 -190 2902 3938 4 MP stroke
0 388 1 -347 0 -41 2905 3938 4 MP stroke
0 414 1 -414 2909 3938 3 MP stroke
1 420 0 -420 2911 3938 3 MP stroke
0 542 1 -542 2914 3938 3 MP stroke
0 195 1 -195 2916 3938 3 MP stroke
1 578 0 -578 2918 3938 3 MP stroke
0 -186 2922 3938 2 MP stroke
0 -583 2925 3938 2 MP stroke
0 69 1 271 0 -340 2928 3938 4 MP stroke
0 209 1 -192 0 -17 2931 3938 4 MP stroke
0 -415 2934 3938 2 MP stroke
0 407 1 -407 2935 3938 3 MP stroke
0 320 1 -320 2937 3938 3 MP stroke
0 -274 2939 3938 2 MP stroke
0 -592 2941 3938 2 MP stroke
1 202 0 -202 2944 3938 3 MP stroke
0 -237 2946 3938 2 MP stroke
0 -700 2948 3938 2 MP stroke
0 -230 2950 3938 2 MP stroke
0 715 1 -715 2951 3938 3 MP stroke
0 635 1 -635 2954 3938 3 MP stroke
1 135 0 -135 2956 3938 3 MP stroke
0 555 1 -555 2958 3938 3 MP stroke
0 35 1 357 0 -392 2961 3938 4 MP stroke
1 424 0 -424 2965 3938 3 MP stroke
1 411 0 -411 2967 3938 3 MP stroke
0 -114 2969 3938 2 MP stroke
0 -75 2971 3938 2 MP stroke
0 -215 2974 3938 2 MP stroke
0 -184 2976 3938 2 MP stroke
0 -423 2978 3938 2 MP stroke
1 140 0 -140 2981 3938 3 MP stroke
0 263 1 188 0 -451 2984 3938 4 MP stroke
1 564 0 -564 2988 3938 3 MP stroke
0 516 1 -265 0 -251 2991 3938 4 MP stroke
0 -582 2995 3938 2 MP stroke
0 195 1 -54 0 -141 2997 3938 4 MP stroke
1 42 0 -42 3000 3938 3 MP stroke
0 644 1 -644 3003 3938 3 MP stroke
1 494 0 -494 3007 3938 3 MP stroke
0 -283 3011 3938 2 MP stroke
0 442 1 -419 0 -23 3013 3938 4 MP stroke
0 -393 3016 3938 2 MP stroke
0 215 1 301 0 -516 3017 3938 4 MP stroke
1 203 0 -203 3020 3938 3 MP stroke
0 -369 3023 3938 2 MP stroke
0 -155 3025 3938 2 MP stroke
0 122 1 98 0 -220 3026 3938 4 MP stroke
0 -589 3030 3938 2 MP stroke
0 -140 3032 3938 2 MP stroke
1 230 0 -230 3033 3938 3 MP stroke
0 671 1 -671 3036 3938 3 MP stroke
0 430 1 -192 0 -238 3040 3938 4 MP stroke
0 370 1 -370 3043 3938 3 MP stroke
0 66 1 -38 1 213 0 -241 3045 3938 5 MP stroke
0 -409 3049 3938 2 MP stroke
0 -84 3053 3938 2 MP stroke
0 -393 3054 3938 2 MP stroke
0 -625 3056 3938 2 MP stroke
0 -200 3058 3938 2 MP stroke
0 234 1 390 0 -624 3059 3938 4 MP stroke
0 -5 3061 3938 2 MP stroke
0 -110 3063 3938 2 MP stroke
0 482 1 -106 0 -376 3066 3938 4 MP stroke
0 -192 3070 3938 2 MP stroke
1 363 0 71 0 -434 3073 3938 4 MP stroke
0 191 1 28 1 -219 3075 3938 4 MP stroke
0 468 1 -176 1 -292 3079 3938 4 MP stroke
0 365 1 -365 3082 3938 3 MP stroke
0 -191 3084 3938 2 MP stroke
0 479 1 -479 3087 3938 3 MP stroke
1 404 0 -404 3089 3938 3 MP stroke
0 -140 3091 3938 2 MP stroke
0 -354 3093 3938 2 MP stroke
1 341 0 -341 3094 3938 3 MP stroke
0 533 1 -533 3096 3938 3 MP stroke
0 476 1 -476 3099 3938 3 MP stroke
1 265 0 -265 3101 3938 3 MP stroke
1 746 0 -746 3103 3938 3 MP stroke
0 455 1 -455 3106 3938 3 MP stroke
0 -680 3110 3938 2 MP stroke
0 387 1 -385 0 -2 3113 3938 4 MP stroke
0 210 1 -210 3115 3938 3 MP stroke
0 404 1 9 0 -413 3117 3938 4 MP stroke
0 46 1 -46 3119 3938 3 MP stroke
0 -349 3121 3938 2 MP stroke
0 -289 3123 3938 2 MP stroke
1 433 0 -433 3126 3938 3 MP stroke
0 -158 3128 3938 2 MP stroke
1 639 0 -639 3129 3938 3 MP stroke
0 257 1 -257 3132 3938 3 MP stroke
1 360 0 -360 3134 3938 3 MP stroke
0 576 1 -576 3136 3938 3 MP stroke
0 -200 3142 3938 2 MP stroke
0 -255 3146 3938 2 MP stroke
0 18 1 470 0 -488 3150 3938 4 MP stroke
1 500 0 -500 3152 3938 3 MP stroke
0 -379 3154 3938 2 MP stroke
0 -23 3156 3938 2 MP stroke
0 371 1 -14 0 -357 3159 3938 4 MP stroke
0 663 1 -663 3162 3938 3 MP stroke
0 -596 3166 3938 2 MP stroke
0 -61 3168 3938 2 MP stroke
0 591 1 -591 3169 3938 3 MP stroke
0 -128 3172 3938 2 MP stroke
0 -208 3173 3938 2 MP stroke
1 612 0 -612 3176 3938 3 MP stroke
1 209 0 -209 3178 3938 3 MP stroke
1 324 0 -324 3180 3938 3 MP stroke
0 302 1 -302 3185 3938 3 MP stroke
0 -429 3187 3938 2 MP stroke
0 47 1 320 0 -367 3192 3938 4 MP stroke
0 -100 3196 3938 2 MP stroke
1 588 0 -588 3199 3938 3 MP stroke
1 180 0 -180 3201 3938 3 MP stroke
0 -106 0 71 1 -71 3202 3938 4 MP stroke
0 -8 3205 3938 2 MP stroke
0 103 1 484 0 -587 3206 3938 4 MP stroke
0 4 1 494 0 -498 3208 3938 4 MP stroke
0 -166 3210 3938 2 MP stroke
0 -47 3213 3938 2 MP stroke
0 -449 3215 3938 2 MP stroke
0 308 1 -308 3216 3938 3 MP stroke
0 437 1 -437 3218 3938 3 MP stroke
0 81 1 62 0 455 1 -598 3221 3938 5 MP stroke
1 675 0 -675 3225 3938 3 MP stroke
1 277 0 -277 3227 3938 3 MP stroke
1 305 0 -305 3229 3938 3 MP stroke
0 -197 3231 3938 2 MP stroke
0 -458 3234 3938 2 MP stroke
0 -142 3236 3938 2 MP stroke
0 -109 3239 3938 2 MP stroke
0 -117 3241 3938 2 MP stroke
0 612 1 -612 3244 3938 3 MP stroke
0 -21 3246 3938 2 MP stroke
1 468 0 -468 3248 3938 3 MP stroke
0 326 1 -326 3249 3938 3 MP stroke
0 628 1 -628 3251 3938 3 MP stroke
0 350 1 -350 3253 3938 3 MP stroke
0 466 1 -466 3258 3938 3 MP stroke
0 511 1 -511 3260 3938 3 MP stroke
0 -115 3264 3938 2 MP stroke
0 -127 3266 3938 2 MP stroke
1 73 0 -73 3268 3938 3 MP stroke
1 448 0 -448 3271 3938 3 MP stroke
1 344 0 -187 1 -157 3274 3938 4 MP stroke
0 -116 0 3 1 64 0 8 0 -334 1 -17 0 39 0 -281 
1 74 0 494 0 -505 0 387 1 -509 0 398 0 -175 1 113 
0 -148 0 11 1 -30 0 -400 0 3 1 -79 0 337 0 -7 
1 -105 0 37 0 -129 0 38 1 33 0 83 0 -102 0 62 
1 38 0 -37 0 74 1 -98 0 -98 0 127 1 -21 0 -44 
0 50 1 -60 0 111 0 -63 1 -47 0 71 1 -42 0 75 
0 -103 0 1 1 16 0 5 0 -111 0 108 1 -12 0 38 
0 -186 0 41 1 59 0 61 0 -127 1 -2 0 167 1 -93 
0 -1 0 164 1 26 0 -198 0 94 1 -7 0 140 0 -173 
1 44 0 42 0 -116 0 1 1 -40 0 -53 0 174 1 -100 
0 -78 0 193 1 13 0 -90 0 22 1 146 0 -200 1 19 
0 108 1 43 0 -103 1 -4 0 45 0 -35 1 24 0 37 
0 -82 1 7 0 44 0 -16 1 0 0 24 0 -103 0 66 
1 17 0 -78 1 39 0 -1 0 79 1 -29 0 25 1 -15 
0 -9 0 3 1 137 0 1 0 -181 1 -27 0 -7 0 7 
1 -73 0 -7 0 122 1 139 0 6 0 -10 0 9 1 -281 
0 -57 0 14 1 185 1 66 0 -98 1 95 1 -238 1 105 
0 -23 1 26 1 -75 1 -84 0 -23 0 4 2 137 0 -44 
2 -35 0 2 0 -14 0 12 1 82 0 -12 0 11 1 -130 
0 25 0 -237 1 76 0 -10 0 267 1 -59 0 98 3 23 
1 229 1 -1 2 -21 0 -3 0 70 1 42 1 -10 0 -178 
1 41 1 8 0 241 1 30 0 4 2 20 0 -53 0 28 
2 -13 0 -3 1 -2 0 5 0 -9 1 -6 0 1 0 -48 
0 0 1 -1 0 14 0 -25 0 12 1 -28 0 -30 1 -15 
0 45 0 -3 1 -4 0 -30 1 -6 0 34 0 -39 0 21 
1 -13 0 -85 1 -68 0 -167 1 17 0 224 1 -30 1 -42 
0 -56 5 -81 2 -46 0 37 0 -29 1 30 0 -9 0 38 
1 -10 0 -9 0 39 1 -16 0 -28 0 1 1 7 0 1 
0 -24 1 2 0 57 1 -1 0 -21 0 14 1 -8 0 2 
0 -43 0 3 1 18 0 5 0 -16 0 15 1 -15 0 -25 
0 1 1 -11 0 -34 0 25 1 -17 0 -6 0 10 1 -1 
0 -57 0 5 1 -11 0 19 0 -7 1 -1 0 10 0 -15 
0 1 1 -8 0 5 0 -21 0 14 1 18 0 9 0 -208 
1 -14 0 -15 0 53 1 53 0 57 1 57 1 -1 1 40 
0 36 1 36 1 70 1 -47 1 32 0 69 0 -70 0 69 
1 -8 0 -37 0 5 1 17 0 13 0 -62 1 -7 0 25 
0 -41 0 19 1 37 0 11 0 -59 1 16 0 6 0 -25 
1 2 0 -15 0 31 4886 1097 300 MP stroke
1 -45 0 24 0 -52 1 19 0 -122 1 21 0 -11 0 6 
1 -66 0 12 0 -52 0 2 1 33 0 1 0 -77 0 1 
1 -33 0 57 0 -45 1 -25 0 -101 1 -54 0 12 0 -37 
1 11 0 68 0 -114 1 -42 0 50 0 -132 1 -23 0 -12 
0 125 1 -4 0 -57 1 -25 0 -99 0 7 1 1 0 109 
0 -79 1 90 0 -76 0 10 1 -33 0 2 0 -115 0 18 
1 -17 0 132 1 36 0 -105 1 74 0 -104 0 55 1 34 
0 -22 0 154 1 52 0 42 0 -59 0 58 1 -33 0 121 
0 -176 0 147 1 -8 0 -16 0 115 1 68 0 -35 0 57 
1 30 0 70 0 -1 1 85 0 53 0 -54 0 17 1 15 
0 48 1 20 0 -60 0 37 1 34 0 -40 1 -16 0 54 
0 -22 1 -1 0 17 0 -38 0 1 1 19 0 49 0 -3 
1 -38 0 29 0 -74 0 26 1 26 0 15 0 -20 0 17 
1 2 0 -45 0 12 1 -27 0 1 0 -63 0 44 1 -55 
0 1 0 -43 0 29 1 25 0 33 0 -121 1 -7 0 -90 
0 1 1 14 0 34 0 -102 1 33 0 2 0 -87 0 1 
1 -3 0 174 0 -198 1 32 0 8 0 -141 1 -91 0 222 
0 -147 1 10 0 65 0 -237 0 99 1 -14 0 68 0 -140 
0 42 1 26 0 -158 0 1 1 -32 0 161 0 -1 1 53 
0 34 0 -90 1 103 0 92 0 -143 1 -42 0 242 0 -243 
0 109 1 5 0 321 1 -58 0 -68 0 7 1 12 0 15 
3 7 2 13 1 8 0 3 1 -1 0 1 0 -4 0 2 
1 3 0 -9 0 6 1 -2 0 -4 0 8 1 2 0 3 
0 -5 0 5 1 4 0 7 1 -1 0 -4 0 1 1 -2 
0 -5 0 1 1 1 0 3 0 -7 0 4 1 2 0 -2 
1 4 0 -7 0 3 1 1 0 1 0 -5 0 3 1 3 
0 1 1 -2 0 -10 0 3 1 -5 0 -5 0 2 1 3 
0 -3 0 1 1 2 0 11 1 -6 0 -11 0 1 1 -2 
0 2 1 2 1 -1 0 4 0 -6 1 -2 0 2 0 -5 
0 5 1 3 0 0 0 -4 0 1 1 2 0 3 0 -3 
1 -7 0 -1 0 3 1 -5 0 -1 0 8 1 1 0 -1 
0 7 1 -3 0 4 0 -9 1 -7 0 3 0 -7 1 -1 
0 2 1 7 0 4 1 1 0 1 0 -1 1 -3 0 1 
0 -1 1 -6 0 -9 1 -1 0 4 1 2 0 1 0 -2 
1 1 0 -4 0 2 1 -3 0 -7 0 3 1 -3 0 0 
0 4 1 -4 0 -8 0 5 1 -5 0 -6 0 5 1 1 
0 4 0 -8 0 6 1 -2 0 5 0 -3 1 -4 0 2 
0 -4 0 2 1 -6 4782 1416 300 MP stroke
0 -9 1 -7 0 9 1 -1 0 6 1 1 0 1 0 -3 
0 2 1 -3 0 4 0 -2 1 -3 0 -3 0 1 1 -5 
0 -9 0 2 1 1 0 -7 0 4 1 -1 0 2 0 -4 
0 3 1 -3 0 6 0 -7 0 4 1 -3 0 -2 1 2 
0 4 1 1 0 -9 1 -2 0 -5 0 2 1 2 0 -1 
0 11 1 -2 0 -3 0 10 1 1 0 -5 0 3 1 2 
0 -5 0 1 1 2 0 -1 1 -1 0 -8 1 -3 0 8 
1 1 0 1 0 -3 1 0 0 4 1 2 0 -6 1 2 
0 2 0 -5 1 -2 0 5 0 -2 1 -1 0 6 1 2 
0 -8 1 5 1 0 0 3 1 9 2 -13 0 -2 1 -2 
0 14 3 1 1 0 0 -4 1 -10 0 1 1 -2 0 2 
0 -4 1 2 0 6 1 3 0 3 0 -4 0 1 1 -3 
1 2 0 1 1 -3 0 -6 0 3 1 -2 0 -1 0 8 
1 -2 0 -4 0 2 1 0 0 1 0 -1 1 6 0 -3 
1 -2 0 -2 0 1 1 4 0 -9 1 5 0 -4 0 3 
1 -1 0 -4 0 2 1 -3 0 -3 0 4 1 5 0 2 
0 -3 0 1 1 1 0 6 0 -2 1 3 0 1 0 -8 
1 2 0 -1 0 3 1 3 0 -6 1 -1 0 -4 1 1 
0 5 1 1 0 8 1 2 0 2 0 -6 1 -3 0 -7 
1 1 0 1 0 -6 1 2 0 2 0 -3 0 2 1 3 
0 -6 0 3 1 2 0 1 0 -3 0 3 1 2 0 -3 
0 3 1 -1 0 1 0 -3 0 1 1 -5 0 2 0 -1 
1 -2 0 6 0 -2 1 -1 1 1 0 3 0 -7 1 2 
0 3 0 -3 1 3 0 3 0 -1 1 -4 0 2 0 -3 
1 -1 0 5 0 -3 1 -1 0 -9 1 1 0 1 0 -2 
1 6 0 3 1 1 0 -2 0 3 1 1 0 -7 0 2 
1 -3 0 -3 0 2 1 3 0 3 0 -5 0 3 1 -4 
0 -5 0 6 1 -3 0 1 0 -4 0 2 1 -4 0 10 
0 -1 1 -2 0 4 0 -5 1 -4 0 2 0 -2 1 -3 
0 10 1 3 0 3 0 -5 0 2 1 -3 0 -11 2 10 
0 3 1 -1 0 -4 0 2 1 -1 0 -2 0 5 1 -6 
0 -1 1 -2 0 -2 1 2 0 1 0 -1 1 3 0 9 
1 -2 0 3 0 -7 0 4 1 -4 0 -6 1 -2 0 -2 
1 -1 0 -3 0 3 1 1 0 -1 0 8 1 2 0 3 
0 -2 1 2 0 -3 1 -1 0 -6 0 6 1 -3 0 -6 
1 -4 0 1 1 1 0 4 0 -6 0 5 1 1 0 4 
1 4 0 -4 1 -1 0 1 0 -2 0 1 1 -2 0 -5 
1 1 0 5 1 -2 4665 1454 300 MP stroke
0 -1 0 1 1 1 0 -2 1 -1 0 -2 0 2 1 4 
0 -7 1 -7 1 5 0 5 1 6 1 -1 1 -2 1 -8 
0 5 1 2 0 5 0 -1 1 -2 0 2 0 -5 0 2 
1 1 0 2 0 -3 1 1 0 7 1 3 0 1 0 -5 
1 -1 0 -5 1 -1 0 1 0 -2 0 1 1 -1 0 -2 
0 4 1 2 0 7 0 -1 1 -1 0 4 0 -5 0 4 
1 -1 0 1 0 -4 1 -2 0 0 0 -2 0 0 1 1 
0 1 0 -4 1 3 0 1 0 -3 1 1 0 0 0 3 
1 -1 0 -7 0 3 1 2 0 -4 1 -1 0 2 1 -1 
0 -2 0 2 1 -1 0 6 0 -1 1 -1 0 -6 0 5 
1 -3 0 -1 2 6 0 -3 1 -1 0 1 0 -4 0 3 
1 -1 0 5 0 -6 0 5 1 -3 0 1 0 -3 1 1 
0 3 1 1 0 3 1 1 0 3 1 -2 0 -8 1 -3 
0 1 0 -2 1 -2 0 -6 1 0 0 8 1 1 0 2 
0 -3 0 1 1 -1 0 -2 0 1 1 -2 1 -4 0 10 
1 -2 0 -10 1 1 0 -6 0 1 1 -1 0 5 0 -1 
1 -1 0 3 0 -4 0 3 1 1 0 2 0 1 1 -5 
0 4 0 -5 0 3 1 -3 0 5 0 -1 1 -1 0 1 
0 1 1 -6 0 5 0 -1 1 1 0 4 0 -5 1 4 
0 -8 1 0 0 3 0 -6 1 -2 0 -4 0 5 1 1 
0 -3 0 4 1 -1 0 3 0 -1 1 5 0 -1 0 1 
1 -3 0 3 0 -5 1 -2 0 3 0 -5 1 1 0 -4 
0 1 1 7 0 -5 1 2 1 1 0 -1 1 1 0 -1 
0 1 1 -2 0 -8 1 -3 1 -2 1 3 0 -5 1 5 
1 -1 0 -2 1 -3 1 -6 1 -1 0 4 1 -1 1 0 
1 0 0 3 1 -3 1 8 0 -5 1 3 1 -3 0 5 
1 3 1 -6 1 4 1 2 1 0 0 -4 1 3 1 3 
0 -3 0 0 1 3 0 -6 1 2 0 3 0 -3 1 -2 
0 9 1 -3 0 3 1 1 0 -6 0 1 1 -1 0 4 
1 -2 0 6 0 -2 1 -3 0 -1 0 2 1 -2 0 -1 
0 8 1 1 0 3 0 -3 1 -1 1 1 0 4 0 -3 
1 -1 0 -4 0 1 1 -1 0 8 1 -2 0 -2 0 6 
1 -2 0 -5 0 3 1 1 0 -4 0 3 1 -2 0 -7 
1 1 0 5 0 -3 1 -1 0 -2 0 4 1 -4 0 1 
1 1 0 2 0 -4 0 1 1 2 0 4 0 -8 0 2 
1 4 0 2 0 -13 1 3 0 -3 0 1 1 2 0 -4 
0 4 1 3 0 -3 0 6 1 1 0 -5 0 1 1 -1 
0 -4 0 1 1 -4 4542 1488 300 MP stroke
1 -5 1 -1 0 -6 2 -1 1 -9 0 -2 0 1 1 1 
0 1 0 -7 1 -1 1 -3 1 1 1 -2 1 -2 1 1 
1 -9 0 3 1 -2 1 0 1 4 0 -2 1 -1 0 4 
0 -1 1 -1 0 2 0 -2 1 1 0 -2 0 1 1 1 
0 1 0 -2 0 1 1 -3 0 5 0 -1 1 -1 0 5 
1 -5 0 4 0 -3 1 1 0 7 0 -1 1 -3 0 5 
0 -1 1 1 0 5 1 -1 0 -3 1 1 0 3 0 -2 
1 -1 0 6 0 -7 0 6 1 5 0 2 0 -3 1 -4 
0 3 0 -3 0 2 1 -4 0 -5 0 5 1 3 0 -6 
0 2 1 -1 0 2 0 -3 0 2 1 -1 1 1 0 -1 
0 1 1 -2 0 -1 0 1 1 7 0 -1 0 1 1 -1 
0 -1 0 1 1 -5 0 0 0 -1 1 -2 0 -1 0 3 
1 4 0 -1 0 1 2 -10 0 2 1 -3 0 -1 0 4 
1 4 0 1 0 -9 1 -1 0 -3 1 -2 1 7 1 3 
0 -12 1 7 1 0 0 5 1 7 1 -4 0 5 0 -1 
1 -2 0 1 0 -4 0 2 1 0 0 -2 0 6 1 5 
0 1 0 -3 1 3 0 3 0 -1 1 -2 0 1 0 -9 
1 -1 0 3 1 2 0 5 0 -7 1 4 0 2 0 -1 
1 2 0 -10 0 4 1 4 0 3 0 -4 1 -2 0 -3 
0 2 1 2 0 7 1 -2 0 1 0 -7 1 -3 0 1 
0 -4 0 1 1 -2 0 4 0 -6 0 4 1 -1 0 4 
0 -6 1 -1 0 4 0 -2 1 0 0 2 0 -6 1 -7 
0 4 0 -2 1 -4 0 3 0 -8 0 1 1 2 0 -6 
1 -1 0 1 0 -16 1 4 0 1 1 -2 1 -4 0 2 
0 -2 1 -13 0 2 0 -3 1 -5 0 2 0 -10 0 4 
1 5 0 9 0 -1 1 -10 0 7 1 -2 1 -3 1 -10 
0 -2 1 -1 1 -6 1 2 1 -3 1 -1 0 -4 1 3 
1 -4 1 -1 1 -1 1 -2 0 -5 1 3 1 2 0 4 
1 -1 1 1 0 4 1 -3 0 3 1 0 0 -1 0 6 
1 -1 0 5 0 -2 1 2 0 4 0 -4 1 3 0 2 
0 -5 1 4 0 -4 1 1 0 -1 0 6 1 0 0 -3 
0 4 1 -1 0 -6 1 -1 0 -3 1 -1 0 8 1 0 
0 -5 1 -1 0 -6 1 1 0 -3 0 1 1 4 0 3 
0 -4 1 -6 0 -5 0 1 1 1 0 -4 0 7 1 -4 
0 8 0 -14 1 -1 0 5 1 -3 0 3 0 -2 1 -1 
0 2 0 -2 1 -14 0 -2 0 24 1 2 1 3 1 -3 
0 -2 1 5 0 2 1 -5 1 -2 1 1 1 -4 0 8 
1 4 0 -1 1 4 4410 1586 300 MP stroke
1 1 1 2 1 2 0 -2 1 5 1 -3 1 -7 0 4 
1 -6 1 -6 1 -11 0 3 1 0 1 -5 0 1 1 -5 
1 2 0 3 1 9 0 1 1 9 0 14 0 -4 1 -3 
0 -10 0 10 1 9 0 20 7 3 0 1 0 -1 1 1 
0 2 0 -2 1 5 0 -3 0 5 1 4 0 2 1 0 
1 2 0 2 1 0 1 1 1 1 0 -4 1 -1 1 8 
1 1 0 -2 1 0 1 -3 1 -1 1 -4 1 -2 0 4 
1 1 1 1 0 -5 1 0 1 5 0 -5 1 3 1 -5 
1 0 0 -2 1 6 1 0 0 -4 1 2 1 3 1 -5 
1 6 1 -4 0 5 1 -4 1 6 0 -1 1 2 0 3 
1 -1 0 -1 0 2 1 -4 0 3 0 -7 0 6 1 2 
0 7 0 -1 1 -2 0 2 0 -5 0 1 1 -1 0 4 
1 -2 0 5 1 -3 0 6 0 -1 1 -2 0 8 0 -8 
1 2 0 -6 1 -2 0 6 1 -3 0 2 0 -4 0 2 
1 -2 0 -2 1 -1 0 -2 0 4 1 2 0 -8 1 -1 
0 -4 1 -2 0 1 0 -1 1 1 0 -2 0 11 1 -5 
0 4 0 -3 1 -8 0 -1 1 -2 1 -1 0 3 1 -3 
1 1 1 -4 1 2 -1 0 2 0 1 0 1 -4 0 -3 
1 2 1 -2 0 4 1 -6 1 4 1 3 1 -7 0 1 
1 -8 1 17 1 2 0 1 1 9 1 -9 1 10 0 -3 
1 -2 1 7 0 7 1 0 1 -2 0 3 1 -1 1 5 
0 -3 1 1 1 -5 0 11 1 1 1 -5 1 6 0 -2 
1 10 1 0 1 2 0 -2 1 0 1 -1 0 1 1 3 
1 7 0 -4 1 1 1 -5 1 2 0 1 1 -9 1 0 
1 1 0 -6 0 2 1 -2 1 -7 0 -2 1 1 1 -6 
1 3 0 -8 1 1 1 3 1 -3 0 2 1 -8 1 2 
0 4 1 -1 1 4 0 -4 1 14 1 3 0 4 1 -4 
1 -1 0 2 1 7 1 3 1 4 0 8 1 -1 1 2 
1 -9 0 6 0 -12 1 -4 1 10 0 4 1 -1 1 -1 
0 -1 1 -4 1 -6 1 1 0 -1 1 2 1 1 1 -3 
1 -4 0 -1 1 -2 1 -3 1 2 1 -2 1 0 0 -2 
1 -4 1 0 0 2 1 -3 1 0 1 -2 0 7 1 -7 
1 4 0 -1 1 -3 1 1 1 2 0 3 1 2 1 7 
0 -1 1 4 1 4 0 -1 1 7 1 1 0 -2 1 5 
1 8 1 4 0 -1 1 2 1 9 0 -3 1 6 0 -5 
0 1 1 3 0 -4 0 8 1 -6 0 -2 0 12 1 -6 
0 14 0 -3 1 -3 0 11 1 -4 0 3 0 -4 1 7 
0 4 0 -8 1 2 4222 1449 300 MP stroke
0 1 0 -8 1 0 0 4 1 3 0 -5 0 0 1 2 
0 6 0 -10 0 9 1 -7 1 2 0 2 0 -7 1 2 
0 -5 0 6 1 -13 0 -5 0 4 1 -4 0 2 0 -8 
1 2 0 -12 1 -6 1 -3 0 -1 1 -6 1 -5 1 -8 
0 1 1 -6 1 9 0 -7 1 -2 1 -1 0 4 1 2 
1 -3 1 -3 0 -3 1 3 1 3 0 2 1 -3 1 4 
0 6 1 0 1 -6 1 -2 1 2 1 5 1 4 0 -8 
1 -2 1 1 1 -3 0 -1 1 1 0 3 1 -4 1 -8 
1 -3 0 3 1 0 1 -4 0 -2 1 -3 1 2 1 0 
0 -8 1 -2 1 1 1 0 0 5 1 7 0 -6 1 5 
1 -1 1 -5 1 -8 0 2 1 9 1 0 0 -3 1 -3 
0 1 1 -1 1 3 1 -10 0 -4 1 6 1 2 1 0 
0 -8 1 3 1 -3 1 4 0 -4 1 -4 1 -2 0 2 
1 1 1 -5 1 -6 1 3 1 -7 0 1 1 1 1 -1 
1 2 0 5 1 -2 1 4 1 -1 1 3 1 8 0 5 
1 2 1 5 1 4 0 -1 1 4 1 -2 0 -3 1 7 
1 -2 0 7 1 -7 1 -1 1 -9 1 3 0 -6 1 9 
0 3 7 7 0 1 1 3 0 0 0 -3 1 3 0 -3 
0 2 1 -2 0 2 0 -21 0 4 1 6 1 6 0 -5 
1 -2 1 3 1 -1 1 -1 1 0 1 -7 1 -4 1 -7 
1 4 1 -7 0 1 1 -2 1 0 0 -6 1 0 1 -8 
0 2 1 6 1 -3 1 1 1 6 1 -4 0 -2 1 6 
1 -4 0 9 1 1 1 1 1 -3 0 7 1 4 1 6 
0 -1 1 4 1 -3 1 0 0 -3 1 -4 1 2 1 -2 
1 -4 1 0 0 7 1 -2 1 -9 0 -9 1 -2 1 11 
0 2 1 -1 1 -3 0 2 1 2 1 -3 0 -6 1 -11 
1 7 1 -1 1 0 1 6 1 1 0 -8 1 -7 1 6 
0 6 1 0 1 0 0 3 1 1 1 5 1 -4 0 -2 
1 -9 1 -4 0 11 1 5 1 -9 0 -10 1 3 1 9 
1 4 0 -12 1 -2 1 -1 1 -4 0 -1 1 6 1 1 
0 8 1 4 1 -10 0 -2 1 4 1 3 0 9 1 3 
1 3 1 2 0 7 1 2 0 3 0 -4 1 -1 0 2 
0 -1 1 -1 0 -4 0 3 1 3 0 -3 0 2 1 3 
0 3 1 -4 1 -6 0 1 0 -1 1 -5 0 -1 0 10 
1 -1 0 -3 1 1 1 -12 1 -10 1 2 1 -4 1 -2 
1 -4 0 -6 1 1 1 0 1 -2 0 -8 1 6 1 6 
0 -6 1 8 1 1 0 1 1 -7 1 1 1 11 0 9 
1 0 1 0 0 -3 4018 1560 300 MP stroke
1 3 1 1 0 7 1 -1 1 0 1 3 1 -1 1 12 
0 -3 1 -2 1 5 1 -4 0 -4 1 6 1 4 0 3 
1 -2 1 -4 1 -1 1 -5 0 -1 1 -1 1 6 0 -4 
1 -7 1 1 1 -7 0 5 1 -1 1 -1 1 0 0 3 
1 9 1 -2 1 5 1 3 0 2 1 11 1 4 0 -2 
1 -8 1 -10 1 0 0 3 1 0 1 0 0 -10 1 -8 
1 -9 1 -5 0 -10 1 2 1 5 1 0 0 -4 1 -5 
0 -1 1 1 1 3 1 1 0 11 1 -1 1 3 0 2 
1 3 1 8 1 0 0 9 1 8 1 -1 0 -3 1 -3 
1 10 1 1 0 5 1 -1 1 0 1 -7 0 -5 1 -1 
1 -9 0 -10 1 1 1 -2 0 -3 1 -9 1 3 1 -1 
0 2 1 -4 1 14 0 1 1 -4 1 -5 1 -1 0 1 
1 7 1 1 1 2 0 -3 1 -7 1 -4 0 -3 1 -2 
1 3 1 6 1 -3 1 -9 0 9 1 -5 1 -3 1 5 
0 4 1 1 1 1 1 -6 0 2 1 0 1 3 0 -1 
1 5 1 -5 1 -7 0 8 1 3 0 -6 1 0 1 -5 
1 0 0 8 1 -4 1 -9 1 -3 0 8 1 -7 1 -6 
1 -2 0 5 1 2 1 -4 0 -3 1 -14 1 7 1 10 
0 11 1 -3 1 -4 0 5 1 3 1 2 0 4 1 4 
1 -4 0 5 1 -4 1 -7 1 -4 0 -1 1 -4 1 -11 
1 -4 0 -5 1 4 1 3 0 -8 1 -3 1 -7 1 4 
0 4 2 0 0 12 3 -2 1 2 0 -5 1 9 1 4 
0 11 1 -6 1 2 0 3 1 0 1 1 1 6 0 -4 
1 10 1 4 1 -1 0 -5 1 2 0 -3 1 1 1 7 
1 -3 1 3 0 -3 1 -4 1 -8 0 2 1 8 1 10 
0 2 1 -5 1 -4 1 3 0 -1 1 -1 1 -1 0 9 
1 5 1 -11 1 2 0 -10 1 0 1 0 0 -2 1 2 
1 -4 0 5 1 -3 1 5 1 -3 0 -13 1 -11 1 3 
0 7 1 0 1 -7 1 -3 0 -6 0 2 1 1 1 -2 
1 1 1 4 0 -7 1 -2 1 0 1 5 0 9 1 -8 
1 -3 0 -2 1 7 1 -4 0 -10 1 2 1 1 0 4 
1 4 1 1 1 -6 0 -2 1 2 0 15 1 -10 1 1 
1 6 0 6 1 -3 1 -4 0 4 1 3 1 7 1 -9 
0 -7 1 6 1 -8 0 4 1 6 1 3 0 -6 1 -4 
1 5 1 -7 1 -3 0 4 1 3 1 -3 1 -3 0 1 
1 -2 1 2 1 5 1 -7 0 5 1 -2 0 -5 1 -6 
1 -8 1 4 0 -2 1 7 1 -6 0 7 1 0 1 -3 
1 -1 0 -13 1 4 3800 1610 300 MP stroke
1 6 0 7 0 -5 3 -4 0 -3 2 -4 0 10 1 -15 
1 9 0 4 1 9 1 -1 1 -10 0 1 1 -6 1 7 
0 -5 1 0 1 2 0 4 1 0 1 -1 1 3 1 9 
0 -7 1 -11 1 2 0 10 1 9 1 -1 1 -8 0 -4 
1 -8 1 -2 0 1 1 1 1 4 1 5 1 2 1 -13 
1 0 1 0 0 -7 1 -1 1 8 0 -5 1 1 1 -5 
0 -1 1 -7 1 3 1 -2 0 -1 1 11 1 0 1 4 
0 -2 1 -4 0 4 1 6 1 4 1 -4 1 2 1 5 
0 -1 1 7 1 1 0 -9 1 6 1 -6 1 3 1 6 
0 -1 1 -1 1 -1 0 5 1 -1 1 -2 1 3 0 1 
1 1 1 0 -1 0 2 -6 1 2 1 2 0 7 1 -9 
1 -4 0 -2 1 2 1 -9 1 -2 1 0 1 5 0 -16 
1 -1 1 -2 0 4 1 1 1 0 0 -7 1 -1 1 2 
1 8 0 -1 1 2 1 6 1 -4 0 -3 1 -6 0 1 
1 19 1 -3 2 -13 0 1 2 3 1 -2 1 7 0 3 
1 -5 1 -7 1 -13 0 3 1 6 1 5 0 -3 1 -2 
1 -2 1 -4 0 -1 1 -6 1 0 0 7 1 -3 1 4 
0 4 1 0 1 -7 0 2 1 0 1 3 1 4 1 -2 
0 6 1 7 1 5 0 -14 1 2 1 -2 0 4 1 4 
1 -2 1 7 1 -18 0 -10 1 0 1 -6 0 -2 1 -14 
1 -3 0 10 1 6 1 1 0 -8 1 -8 1 -5 1 3 
0 9 1 3 1 -3 0 -5 1 -2 1 -6 0 13 1 -5 
1 -2 1 2 0 8 1 -3 1 3 1 -8 0 1 1 11 
1 2 0 8 1 7 1 -3 1 -7 0 5 1 4 1 10 
0 1 1 -6 1 -11 1 1 0 2 1 -4 1 -6 0 -7 
1 -1 1 -2 0 -2 1 -10 1 -5 1 -2 0 -1 1 3 
1 -2 1 -3 0 3 1 -3 1 -6 0 3 1 8 1 6 
1 1 0 4 1 -2 1 6 0 7 1 2 1 2 1 3 
0 -4 1 3 1 1 0 5 1 2 1 -5 1 -1 0 -4 
1 2 1 1 1 -6 0 -1 1 -3 1 -1 0 1 1 2 
1 -5 0 1 1 -5 1 0 1 1 0 4 1 0 1 -5 
1 2 0 -1 1 2 1 1 1 -5 0 7 1 -8 1 5 
0 -6 1 0 1 -3 1 3 0 -2 1 -8 1 -3 0 2 
1 -6 1 -6 1 -11 0 6 1 -8 1 4 0 -2 1 -3 
1 -1 1 -6 1 -1 1 2 0 -4 1 9 1 -1 0 -8 
1 3 1 4 0 8 1 0 1 0 1 -6 0 2 1 1 
1 0 0 5 1 8 1 12 1 -6 0 -4 1 2 1 3 
1 1 0 1 1 -5 3580 1680 300 MP stroke
1 0 1 -5 0 5 1 -16 1 -9 0 -11 1 -1 1 -1 
1 -4 0 -4 1 -3 1 4 1 -8 1 2 0 12 1 11 
1 1 1 1 0 2 1 -6 1 -5 0 3 1 0 1 -1 
1 1 0 1 1 1 1 -6 1 -9 0 8 1 4 0 3 
1 10 1 7 1 -7 0 -3 1 9 1 3 1 1 0 -15 
1 0 0 2 1 9 1 0 1 -6 0 -9 1 8 1 -5 
0 -8 1 -4 1 14 0 4 1 2 1 3 1 -3 0 -6 
1 9 1 3 1 -3 0 9 1 1 1 -3 0 -11 1 -1 
1 2 0 -7 1 5 1 -3 1 -11 0 -6 1 2 1 3 
0 -7 1 -4 1 9 1 -17 1 -1 1 -2 0 11 1 -6 
1 -10 0 6 1 5 1 -4 0 1 1 9 1 -10 0 -11 
1 5 1 5 1 -3 0 -3 1 6 1 -3 0 4 1 -10 
1 4 0 6 1 -5 1 -4 1 0 0 7 1 -7 1 -2 
0 -1 1 -8 1 10 0 4 1 -4 1 -9 1 2 0 2 
1 -9 1 -10 0 4 1 3 1 -3 0 -5 1 -9 1 -7 
1 3 0 5 1 -12 1 -11 1 8 0 2 1 -5 1 2 
0 -7 1 -2 1 -2 0 3 1 -7 1 3 0 3 1 4 
1 1 0 -3 1 7 1 -2 0 -4 1 -5 1 6 1 -11 
0 -2 1 2 1 -5 1 -13 0 -11 1 -5 0 2 1 -2 
1 -10 0 -6 1 -8 1 1 0 5 1 -4 1 -7 1 5 
0 10 1 -2 1 -5 0 2 1 8 1 -3 1 5 1 1 
1 -2 1 -7 1 4 1 2 1 -1 0 -1 1 -21 1 13 
0 -10 1 1 1 -8 1 0 1 -3 1 -2 0 -8 1 -5 
1 -8 0 -6 1 -9 1 0 1 -1 0 -3 1 -14 1 -21 
0 -10 1 -6 1 0 0 -13 1 -9 1 -5 1 -2 0 -7 
1 -10 0 -5 1 -18 1 2 1 -5 1 -1 0 2 1 -16 
1 -8 1 -2 1 2 0 5 1 -11 1 1 1 7 0 -2 
1 9 1 8 0 2 1 10 1 11 0 5 1 11 1 5 
1 1 0 7 1 0 1 5 0 6 1 -4 1 -4 1 -11 
0 10 1 -2 1 -21 0 -10 1 4 1 -3 1 -20 0 -7 
1 -8 1 -11 0 4 1 -12 1 -29 1 -2 0 -9 1 -5 
1 -6 1 -8 0 -16 1 7 1 1 0 -13 1 -3 1 -19 
0 -2 1 3 1 -1 0 -15 1 -9 1 0 1 -11 0 -8 
1 -21 1 1 0 10 1 -19 1 -19 1 -4 0 3 1 -3 
1 -13 0 -7 1 -12 1 5 1 1 1 -17 0 -4 1 -2 
0 8 1 -2 1 -6 1 -1 1 -1 1 2 0 -11 1 -1 
1 1 1 -3 0 3 1 -3 1 0 0 -9 1 1 1 0 
-1 0 2 2 1 -3 3364 2357 300 MP stroke
1 -17 0 1 1 6 1 3 1 -1 0 -4 1 -3 0 -2 
1 7 1 1 1 -4 0 -8 1 6 1 4 1 -9 0 -3 
1 -1 0 3 1 11 1 10 1 -3 0 -8 1 13 1 -3 
0 -2 1 3 1 6 0 -3 1 4 1 -3 1 -1 0 6 
1 4 1 -6 1 -12 0 4 1 3 1 2 0 2 1 -10 
1 -9 0 -4 1 2 1 3 1 10 0 -4 1 -1 1 -13 
1 -4 0 9 1 8 1 9 0 -3 1 -17 1 -3 0 13 
1 -2 1 -2 1 11 0 -8 1 -1 1 6 0 -6 1 -12 
1 7 1 -4 0 -2 1 -4 0 -15 1 5 1 6 1 -19 
0 3 1 3 1 -11 1 -11 0 -12 1 11 1 16 0 -10 
1 -21 1 -11 0 12 1 -17 1 -22 0 8 1 24 1 -2 
1 -6 0 -5 1 -20 1 -13 0 26 1 -38 1 -25 0 -3 
1 11 1 2 0 -38 1 -16 1 -28 1 -10 0 -15 1 -38 
1 -49 1 -121 0 -11 1 8 1 27 0 -86 1 -12 1 41 
0 -172 1 -90 1 50 0 -192 1 -55 1 -36 1 -237 0 128 
1 -230 1 571 1 -425 0 -386 3277 3938 125 MP stroke
0 -289 1 48 0 -7 0 248 5011 332 5 MP stroke
1 -112 0 62 0 -180 1 60 0 4 0 -80 1 -1 0 122 
1 60 0 65 0 -222 1 32 0 71 0 -92 0 88 1 -1 
0 -63 0 152 1 -100 0 91 0 -103 1 -41 0 -126 0 218 
1 -108 0 204 0 -58 1 21 0 4 0 -179 1 -88 0 191 
1 109 0 -88 0 88 5013 332 36 MP stroke
0 104 1 -3 1 -8 1 17 0 -2 1 -25 1 -5 1 14 
0 14 1 -3 1 -5 1 4 0 -12 1 -2 0 -10 1 1 
1 11 1 -13 0 -6 1 6 1 10 0 16 1 -23 1 19 
0 -4 0 2 1 3 0 8 0 -10 0 2 1 -11 0 -6 
0 5 1 6 0 1 0 -7 0 5 1 12 0 -4 0 8 
1 9 0 -19 0 2 1 -12 0 6 0 -10 1 -2 0 7 
0 -13 1 1 0 -12 1 10 0 1 0 -5 1 3 0 6 
0 -13 1 3 0 13 0 -4 1 6 0 -1 0 16 1 4 
0 1 0 -13 1 -4 0 -5 0 15 1 6 0 10 0 -10 
1 -9 0 7 0 -11 0 1 1 -13 0 10 0 -12 1 11 
0 -2 0 24 1 -1 0 10 0 -12 1 -6 0 10 0 -10 
1 16 0 7 0 -7 1 8 0 5 0 -4 1 -10 0 9 
0 -2 1 -8 0 -9 0 8 1 7 0 12 0 -4 1 -2 
0 -1 0 1 1 -3 0 5 0 -5 1 15 0 4 0 -4 
1 -13 0 -1 0 6 1 -4 0 3 0 -6 0 3 1 -6 
0 26 0 -15 1 5 1 -21 1 5 0 -7 1 -2 1 16 
1 26 0 24 1 -13 1 2 0 29 1 8 0 51 1 2 
0 37 0 -40 0 33 1 7 0 15 0 -5 1 -9 0 33 
1 -13 0 21 2 31 0 -6 0 5 1 18 0 13 1 -13 
0 13 0 -40 0 23 1 -20 0 -54 1 4 0 3 0 -7 
1 -14 0 9 0 -14 1 -4 0 -47 0 42 1 -28 0 -47 
0 8 1 -12 0 -43 1 25 1 -51 1 -11 0 -17 1 44 
1 -5 0 27 1 -18 0 -23 0 35 1 14 0 17 0 -46 
0 43 1 15 0 -46 0 50 1 67 1 101 0 2 0 -15 
1 12 0 -2 0 77 1 -3 0 79 0 -81 0 79 1 28 
0 -48 0 26 1 92 0 -36 0 80 1 -38 0 84 0 -99 
0 98 1 -26 0 58 0 -67 0 51 1 14 0 -40 0 43 
1 -26 0 147 1 -14 0 19 0 -91 0 50 1 22 0 45 
0 -106 0 29 1 30 0 30 0 -135 0 31 1 5 0 49 
0 -99 1 17 0 -97 1 0 0 143 0 -25 1 6 0 110 
0 -322 0 103 1 65 0 24 0 -95 0 4 1 12 0 -49 
0 55 1 -92 0 41 0 -232 1 98 0 -153 0 49 1 -5 
0 119 0 -82 1 -89 0 -117 1 51 0 -24 0 242 1 72 
0 -255 1 -70 0 7 0 -44 0 9 1 7 0 -40 0 62 
1 5 0 -119 1 10 0 58 0 -23 1 -14 0 28 0 -93 
0 1 1 -18 0 102 0 -3 1 -6 0 29 0 -60 0 55 
1 1 0 -67 1 -6 0 -4 0 11 1 16 0 18 0 -1 
1 -9 0 1 0 -27 5107 1266 300 MP stroke
0 2 1 -2 0 -3 0 10 1 -1 0 25 0 -1 1 10 
0 3 0 -36 0 6 1 4 0 -41 0 2 1 7 0 28 
0 -2 1 -6 0 11 0 -20 0 15 1 11 0 -33 0 8 
1 6 0 -39 0 87 1 1 0 55 0 -52 1 -26 1 -14 
1 -22 0 -9 1 -49 1 13 0 7 1 -23 1 -9 1 53 
0 6 0 -22 1 11 0 -60 0 16 1 16 0 1 0 -1 
1 -4 0 -12 0 14 1 2 0 -15 0 28 1 9 0 -12 
0 17 1 12 0 15 1 1 0 18 1 -1 0 -9 0 19 
1 3 0 14 1 10 0 20 1 -4 0 -8 0 3 1 21 
0 -8 0 20 1 5 0 15 0 -1 1 2 0 -2 0 23 
1 5 0 -1 0 45 1 7 0 40 1 2 0 10 0 -27 
0 13 1 5 0 33 0 -40 0 19 1 5 0 30 0 -1 
1 2 0 29 0 -22 1 32 0 -9 0 18 1 9 0 35 
0 -14 1 9 0 7 0 -4 1 22 0 37 0 -6 1 11 
0 9 0 -12 0 11 1 1 0 10 1 11 0 -4 0 17 
1 9 0 57 1 3 0 -1 0 48 1 1 0 -1 0 36 
1 -19 0 29 1 -22 0 72 0 -47 1 -12 0 54 0 -12 
1 -27 0 3 0 -34 1 -17 0 27 0 -74 1 -16 0 26 
0 -71 0 15 1 5 0 1 0 -29 0 2 1 -7 0 -126 
0 1 1 -26 0 -44 0 10 1 -1 0 11 0 -50 0 8 
1 -55 0 -185 1 -3 0 65 1 23 0 1 0 -115 1 -58 
0 1 0 -135 1 -10 0 -2 0 129 1 -18 0 -74 1 -24 
0 7 0 -25 0 24 1 21 0 101 1 25 0 4 0 -27 
1 -25 0 -66 0 32 1 1 0 80 0 -81 0 73 1 -1 
0 1 0 -62 0 36 1 0 0 -7 0 118 1 19 0 119 
0 -11 1 -3 0 55 0 -56 0 38 1 -14 0 0 0 -42 
0 7 1 153 0 54 0 -95 0 94 1 -33 0 215 0 -2 
1 -17 0 16 0 -38 0 12 1 2 0 -15 0 55 1 145 
0 62 0 -134 0 31 1 90 0 -169 0 39 1 147 0 -147 
1 30 0 -3 0 187 1 -33 0 143 5025 332 238 MP stroke
/c9 { 0.000000 0.500000 0.000000 sr} bdef
c9
0 1 1 1 1 2 1 1 0 2 1 1 1 1 1 2 
0 1 1 2 1 1 1 1 0 2 2 2 1 2 1 1 
1 1 1 1 0 1 1 1 1 0 1 1 1 1 1 1 
1 1 0 1 2 2 1 0 -1 0 2 2 0 1 2 2 
1 1 1 1 0 2 2 2 1 2 1 2 0 1 1 1 
1 2 0 1 1 1 1 1 1 2 1 2 1 1 1 2 
0 1 2 2 0 3 1 0 1 2 1 1 0 1 1 1 
1 1 1 1 1 1 1 1 0 1 1 1 1 0 1 1 
1 1 1 0 1 1 1 0 1 0 1 0 1 0 -1 0 
3 -2 1 0 1 -1 1 -1 1 -1 1 -1 1 0 1 -1 
1 0 -1 0 2 -2 1 0 1 0 1 0 1 -1 1 0 
1 0 1 -1 1 -1 1 0 1 -1 1 -1 0 -1 2 -2 
0 -1 2 -2 0 -1 1 -1 0 -2 2 -2 0 -2 2 -2 
1 -1 1 -1 1 -1 0 -2 2 -2 1 -1 1 0 1 1 
1 0 1 1 1 1 1 0 0 2 1 1 0 3 1 1 
0 3 1 1 0 4 1 1 0 4 1 2 0 3 1 1 
0 4 1 1 0 5 1 1 0 4 1 3 0 3 1 1 
0 3 1 2 0 6 1 1 0 5 1 1 0 5 1 1 
0 4 1 1 0 6 1 1 0 4 1 2 0 4 1 1 
0 5 1 1 0 4 1 1 0 5 1 4 1 5 1 4 
0 4 1 4 1 4 0 4 1 4 1 3 1 4 0 3 
1 1 0 3 1 1 0 2 1 1 0 3 1 1 0 2 
1 1 0 2 1 1 0 2 1 1 1 1 1 1 1 1 
1 1 1 0 1 0 1 -1 1 0 1 -1 1 -1 1 -1 
1 -1 1 -1 1 -1 1 -1 1 0 -1 0 2 -2 1 -1 
1 -1 1 -1 0 -2 2 -2 1 -1 0 -2 2 -2 0 -2 
2 -2 0 -2 2 -2 0 -2 1 -1 0 -2 2 -2 0 -2 
1 -1 0 -1 1 -1 0 -2 1 -1 0 -1 1 -1 0 -2 
1 -1 0 -1 1 -1 0 -2 1 -1 0 -1 1 -1 0 -1 
1 -1 0 -2 1 -1 0 -1 1 -1 0 -2 1 -1 0 -1 
1 -1 0 -2 1 -1 0 -3 1 -1 0 -2 1 -1 0 -2 
1 -2 0 -2 1 -1 0 -4 1 -1 0 -2 1 -5 0 -1 
1 -2 0 -3 1 -2 0 -5 1 -1 0 -5 1 -3 0 -4 
1 -2 0 -7 1 -4 0 -3 1 -2 0 -6 1 -2 0 -6 
1 -2 0 -7 1 -2 0 -9 1 -2 0 -7 1 -4 0 -8 
1 -4 0 -4 1 -4 0 -8 1 -2 0 -10 1 -2 0 -9 
1 -2 0 -12 1 -2 0 -10 1 -3 0 -10 1 -2 0 -10 
1 -2 0 -9 1 -3 5009 807 300 MP stroke
0 -11 1 -3 0 -9 1 -3 0 -8 1 -4 0 -10 1 -2 
0 -9 1 -2 0 -6 1 -2 0 -8 1 -2 0 -9 1 -2 
0 -8 1 -1 0 -3 2 -2 0 -2 2 -2 0 -1 2 -2 
1 -1 1 -1 1 -1 1 -1 1 -1 1 -1 1 -1 1 -1 
1 -1 1 -1 1 -1 1 0 1 -1 1 -1 1 0 1 -1 
1 -1 1 -1 1 0 0 -1 2 -2 1 -1 1 -1 1 -1 
1 -1 1 -1 1 -1 1 -1 1 -1 1 -2 1 -1 1 -2 
1 -1 1 -1 2 -2 2 -3 1 -1 1 -2 1 -2 0 -1 
1 -1 0 -4 3 -4 1 -6 1 -4 2 -5 0 -3 1 -4 
1 -3 0 -4 1 -4 1 -3 0 -7 1 -10 0 -10 2 -2 
2 -6 0 -1 1 -2 0 -4 1 -1 0 -5 1 -1 0 -4 
1 -4 0 -2 1 -1 0 -2 1 -3 0 -4 1 -1 0 -4 
1 -1 0 -4 1 -1 0 -3 1 -1 0 -7 1 -6 1 -5 
0 -6 5 -5 2 -6 0 -2 1 -1 0 -2 1 -1 0 -3 
1 -1 0 -3 1 -1 0 -4 1 -1 0 -3 1 -1 0 -3 
1 -1 0 -4 1 -1 0 -3 1 -1 0 -3 1 -1 0 -4 
1 -1 0 -2 1 -1 0 -3 1 -1 0 -2 1 -1 0 -3 
1 -1 0 -2 1 -1 0 -2 1 -1 0 -1 1 -2 0 -1 
1 -2 1 -1 1 -2 0 -2 1 -1 1 -2 1 -2 1 -1 
0 -1 1 -1 0 -2 2 -2 0 -2 2 -2 0 -1 1 -1 
1 -1 0 -2 2 -2 0 -1 2 -2 0 -1 1 -1 0 -1 
2 -2 1 0 1 -1 1 0 1 -1 1 0 1 0 1 1 
1 0 0 1 2 2 0 2 1 1 0 1 1 1 1 1 
1 0 1 0 1 0 -1 0 2 -2 0 -2 1 -1 0 -2 
1 -1 0 -2 1 -1 0 -4 1 -1 0 -3 1 -1 0 -2 
1 -1 0 -3 1 -1 0 -2 1 -1 0 -3 1 -1 0 -3 
1 -1 0 -2 1 -1 0 -2 1 -1 0 -2 1 -1 1 -1 
0 -1 2 -2 0 -2 1 -1 1 -1 1 0 1 1 1 1 
0 2 1 1 0 1 1 1 0 2 1 1 0 2 1 1 
1 1 1 -1 1 -1 1 0 -1 0 4 -2 2 -1 1 0 
1 -1 1 -1 1 -1 0 -1 2 -2 1 -1 1 -1 0 -1 
2 -2 1 -1 0 -1 2 -2 0 -1 2 -2 1 -1 1 -1 
1 -1 0 -1 2 -2 1 -1 0 -1 2 -2 1 -1 1 -1 
0 -1 2 -2 1 -1 1 -1 0 -1 2 -2 1 -1 1 -1 
1 -1 1 -1 0 -1 2 -2 1 -1 1 -1 1 0 1 -1 
1 -1 1 0 1 -1 1 0 1 0 1 0 1 -1 1 0 
1 0 1 -1 1 0 1 0 1 0 1 0 1 0 1 0 
1 0 1 1 1 0 4767 1323 300 MP stroke
1 0 1 0 1 -1 1 0 1 0 1 1 1 0 1 0 
1 0 1 0 1 0 1 0 1 1 1 0 1 0 2 0 
1 0 3 0 1 0 1 0 1 0 1 1 1 0 1 0 
1 -1 1 0 1 0 1 0 1 0 1 0 1 0 1 0 
1 -1 1 0 1 0 1 0 1 0 1 -1 1 0 1 0 
1 0 1 0 1 0 1 -1 1 0 1 -1 1 0 1 0 
1 0 1 -1 1 0 1 -1 1 0 1 0 1 0 1 -1 
1 0 1 0 1 0 1 0 1 0 1 0 1 0 1 0 
1 -1 1 0 1 1 1 0 1 0 1 0 1 0 1 0 
1 -1 1 1 2 0 1 -1 1 0 1 0 1 0 1 0 
1 0 1 -1 1 0 1 0 1 0 1 0 1 -1 1 0 
1 0 1 0 1 0 1 0 1 0 1 0 1 -1 1 0 
1 0 1 0 1 -1 1 0 1 0 1 0 1 -1 1 0 
1 0 1 -1 1 0 1 0 1 -1 1 0 1 -1 1 0 
1 -1 1 0 1 -1 1 0 1 -1 1 0 1 -1 1 0 
1 -1 1 0 1 0 1 -1 1 0 1 -1 1 0 1 0 
1 -1 2 -1 1 0 1 0 1 -1 1 0 1 -1 1 -1 
1 0 1 -1 1 0 1 -1 1 0 1 -1 1 0 1 0 
1 -1 1 0 1 0 1 0 1 0 1 -1 1 0 1 0 
1 0 1 -1 1 0 1 0 1 0 1 0 1 -1 1 0 
1 0 1 0 1 0 1 0 1 -1 1 0 1 0 1 0 
1 0 1 0 1 0 1 -1 1 0 1 0 1 -1 1 0 
1 0 1 0 1 -1 1 0 1 0 1 -1 1 0 1 -1 
1 0 1 0 1 0 1 -1 1 0 1 0 1 -1 1 0 
1 0 1 -1 1 0 1 -1 1 0 1 0 1 -1 1 0 
1 -1 1 0 1 -1 1 0 1 0 1 0 1 -1 1 0 
1 0 1 0 1 0 1 -1 1 0 1 0 1 0 1 0 
1 -1 1 0 1 0 1 -1 1 0 1 0 2 0 1 0 
1 0 1 0 1 0 1 0 1 0 1 0 1 0 1 0 
1 1 1 0 1 0 1 0 1 0 1 0 1 0 1 1 
1 0 1 0 1 0 1 0 1 0 1 0 1 0 1 0 
1 0 1 0 1 0 1 0 1 -1 1 0 1 0 1 0 
1 -1 1 0 1 0 1 0 1 0 2 0 1 0 1 0 
1 0 1 -1 1 0 1 0 1 0 1 0 1 0 1 -1 
1 0 1 0 1 -1 1 0 1 -1 1 0 1 -1 1 0 
1 -1 1 0 1 -1 1 0 1 -1 1 0 1 0 1 0 
1 -1 1 0 1 0 1 0 1 0 1 0 1 1 1 0 
1 0 1 0 1 1 4461 1381 300 MP stroke
1 1 1 0 1 0 1 1 1 0 1 0 1 1 1 0 
1 1 1 0 1 0 1 0 1 1 1 0 1 0 1 0 
1 0 1 1 1 0 1 0 1 0 1 1 1 0 1 0 
1 0 1 1 1 0 1 0 1 0 1 1 1 0 1 0 
1 1 1 0 1 1 1 0 1 0 1 1 1 1 1 0 
1 1 1 0 1 1 1 0 1 1 1 1 1 0 1 0 
1 1 1 1 1 0 1 1 1 0 1 1 1 0 1 1 
1 1 1 0 1 1 1 0 1 1 1 0 1 1 1 1 
1 1 1 0 1 1 0 1 1 1 7 1 1 0 1 0 
1 0 1 0 1 0 1 0 1 0 1 0 1 0 1 0 
1 -1 1 0 1 0 1 0 1 0 1 0 1 -1 1 0 
1 0 1 0 1 0 1 0 1 0 1 0 1 0 1 -1 
1 0 1 0 1 0 1 0 1 0 1 0 1 0 1 0 
1 0 1 0 1 0 1 0 1 0 1 0 1 1 1 0 
1 0 1 0 1 1 1 0 1 0 1 0 1 1 1 0 
1 1 1 0 1 0 1 1 1 0 1 1 1 0 1 0 
1 0 1 1 1 0 1 0 1 0 1 0 1 0 1 0 
1 0 1 0 1 0 1 0 1 0 1 0 1 0 1 -1 
1 0 1 0 1 0 1 -1 1 0 1 0 1 0 1 -1 
1 0 1 0 1 -1 1 0 1 0 1 0 1 0 1 -1 
1 0 1 0 1 0 1 0 1 -1 1 0 1 0 1 0 
1 0 1 -1 1 0 1 0 1 0 1 0 1 0 1 0 
1 0 1 -1 1 0 1 0 1 0 1 0 1 0 1 -1 
1 0 1 0 1 -1 1 0 1 0 1 0 1 -1 1 0 
1 0 1 -1 1 0 1 0 1 -1 1 0 1 0 1 -1 
1 0 1 0 1 -1 1 0 1 0 1 -1 1 0 1 -1 
1 0 1 0 1 -1 1 0 1 -1 1 0 1 0 1 -1 
1 0 1 -1 1 -1 1 0 1 -1 1 -1 1 0 1 -1 
1 0 1 -1 1 -1 1 0 1 -1 1 -1 1 -1 1 0 
1 -1 1 -1 1 -1 1 -1 0 -1 2 -2 1 0 1 -1 
1 -1 1 -1 1 0 1 -1 1 -1 1 -1 1 0 1 -1 
1 0 1 -1 1 0 1 -1 1 -1 1 0 1 -1 1 -1 
1 0 1 -1 1 0 1 -1 1 -1 1 0 1 -1 1 -1 
1 0 1 -1 1 0 1 0 1 -1 1 0 1 0 1 0 
1 0 1 0 1 0 1 -1 1 0 1 0 1 0 1 0 
1 0 1 0 1 0 1 0 1 0 1 -1 1 0 1 0 
1 0 1 -1 1 0 1 0 1 0 1 0 1 0 1 -1 
1 0 1 0 1 0 4157 1405 300 MP stroke
1 0 1 0 1 -1 1 0 1 0 1 0 1 0 1 -1 
1 0 1 0 1 -1 1 0 1 0 1 0 1 -1 1 0 
1 0 1 -1 1 0 1 0 1 -1 1 0 1 0 1 0 
-1 0 2 -2 7 0 1 -1 1 0 1 0 1 -1 1 0 
1 -1 1 0 1 -1 1 0 1 0 1 -1 1 0 1 0 
1 0 1 0 1 -1 1 0 1 0 1 0 1 0 1 0 
1 0 1 0 1 0 1 -1 1 0 1 0 1 0 1 0 
1 -1 1 0 1 -1 1 0 1 0 1 0 1 0 1 0 
1 -1 1 0 1 0 1 0 1 0 1 0 1 0 1 0 
1 0 1 0 1 0 1 0 1 0 1 0 1 0 1 0 
1 -1 1 0 1 0 1 0 1 0 1 0 1 0 1 0 
1 -1 1 0 1 0 1 1 1 0 1 0 1 0 1 0 
1 0 1 0 1 0 1 0 1 1 1 0 1 0 1 0 
1 0 1 0 1 -1 1 0 1 0 1 0 1 0 1 0 
1 0 1 0 1 1 1 0 1 0 1 0 1 0 1 1 
1 0 1 0 1 0 1 0 1 0 1 1 1 0 1 0 
1 0 1 0 1 0 1 -1 1 0 1 0 1 -1 1 0 
1 0 1 -1 1 0 1 0 1 -1 1 0 1 -1 1 0 
1 0 1 -1 1 0 1 0 1 -1 1 0 1 -1 1 0 
1 -1 1 0 1 0 1 0 1 -1 1 0 1 0 1 -1 
1 0 1 0 1 -1 1 0 1 -1 1 0 1 -1 1 0 
1 0 1 -1 1 0 1 0 1 0 1 -1 1 0 1 0 
1 -1 1 0 1 0 1 -1 1 0 1 -1 1 0 1 -1 
1 -1 1 0 1 -1 1 -1 1 0 1 -1 1 -1 1 0 
1 -1 1 0 1 -1 1 0 1 -1 1 0 1 -1 1 0 
1 -1 1 -1 1 0 1 -1 1 -1 1 0 1 -1 1 0 
1 -1 1 0 1 -1 1 0 1 -1 1 0 1 0 1 -1 
1 0 1 0 1 -1 1 0 1 0 1 0 1 -1 1 0 
1 0 1 -1 1 0 1 0 1 -1 1 0 1 0 1 -1 
1 0 1 0 1 0 1 -1 1 0 1 0 1 0 1 -1 
1 0 1 0 1 -1 1 0 1 0 1 -1 1 0 1 -1 
1 0 1 0 1 0 1 -1 1 0 1 0 1 0 1 -1 
1 0 -1 0 3 -1 0 -1 3 0 1 0 1 -1 1 0 
1 -1 1 0 1 -1 1 0 1 -1 1 0 1 -1 1 0 
1 -1 1 0 1 -1 1 0 1 0 1 -1 1 -1 1 0 
1 -1 1 0 1 -1 1 0 1 -1 1 0 1 -1 1 0 
1 -1 1 0 1 -1 1 0 1 0 1 -1 1 0 1 0 
1 -1 1 0 1 0 3852 1490 300 MP stroke
1 0 1 -1 1 0 1 0 1 -1 1 0 1 0 1 -1 
1 0 1 0 1 -1 1 0 1 0 1 -1 1 0 1 -1 
1 0 1 0 1 -1 1 0 1 0 1 -1 1 0 1 -1 
1 0 1 -1 1 0 1 -1 1 0 1 -1 1 0 1 0 
1 -1 1 0 1 -1 1 0 1 0 1 -1 1 0 1 0 
1 -1 1 0 1 -1 1 0 1 0 1 -1 1 0 1 0 
1 -1 1 0 1 -1 1 0 1 0 -1 0 4 -1 0 -1 
2 0 1 0 1 -1 1 0 1 -1 1 0 1 0 1 -1 
1 0 1 0 1 -1 1 0 1 0 1 0 1 -1 1 0 
1 -1 1 0 1 0 1 -1 1 0 1 0 1 -1 1 0 
1 0 1 -1 1 0 1 0 1 -1 1 0 1 0 1 0 
1 -1 1 0 1 0 1 0 1 -1 1 0 1 -1 1 0 
1 -1 1 0 1 -1 1 -1 1 -1 1 -1 1 -1 1 0 
1 -1 1 -1 1 -1 1 0 1 -1 1 -1 1 -1 1 -1 
1 -1 1 -1 1 0 1 -1 1 -1 1 0 1 -1 1 -1 
1 -1 1 0 1 -1 1 0 1 -1 1 0 1 -1 1 0 
1 -1 1 0 1 -1 1 -1 1 0 1 0 1 -1 1 -1 
2 -1 0 -1 2 -1 1 -1 1 0 1 -1 1 -1 1 0 
1 -1 1 -1 1 -1 1 0 1 -1 1 -1 1 0 1 -1 
1 -1 1 -1 1 0 1 -1 1 -1 1 0 1 -1 1 -1 
1 -1 1 -1 1 0 1 -1 1 0 1 -1 1 0 1 -1 
1 0 1 -1 1 0 1 -1 1 0 1 -1 1 -1 1 0 
1 -1 1 0 1 -1 1 -1 1 -1 1 0 1 -1 1 -1 
1 0 1 -1 1 -1 1 0 -1 0 2 -2 1 0 1 -1 
1 -1 1 -1 1 -1 1 -1 1 -1 1 -1 1 -1 1 -1 
1 -1 1 0 1 -1 1 -1 1 -1 1 -1 1 -1 1 -1 
1 -1 1 -1 1 -1 1 -1 0 -1 1 -1 1 -1 0 -1 
1 -2 1 -1 1 -1 0 -1 1 -1 1 -1 0 -1 1 -1 
1 -1 1 -2 0 -1 1 -1 1 -1 1 -1 0 -1 1 -1 
1 -1 0 -1 1 -1 1 -1 0 -1 1 -1 1 -1 1 -1 
0 -1 1 -1 1 -1 1 -1 0 -1 1 -1 1 -1 1 -1 
0 -1 1 -1 1 0 -1 0 2 -2 1 -1 1 -1 0 -1 
1 -1 1 -1 0 -1 1 -1 1 -1 1 -1 1 -1 1 -1 
0 -1 1 -1 1 -1 1 -1 0 -1 1 -1 1 -2 1 -1 
1 -1 0 -2 1 -1 1 -1 0 -1 1 -1 1 -2 1 -1 
0 -1 1 -1 1 -1 0 -1 1 -1 1 -2 1 -1 0 -1 
1 -2 1 -1 1 -1 0 -1 1 -1 1 -2 1 -1 0 -1 
1 -2 1 0 0 -2 3576 1705 300 MP stroke
1 -1 1 -1 1 -1 0 -1 1 -1 0 -1 1 -2 1 -1 
1 -1 0 -2 1 -1 1 -2 1 -1 0 -2 1 -1 1 -2 
0 -1 1 -2 1 -2 1 -2 0 -2 1 -2 1 -2 1 -2 
0 -1 1 -2 0 -1 1 -3 1 -2 1 -2 0 -2 1 -3 
1 -2 1 -2 0 -3 1 -1 0 -2 1 -3 1 -2 1 -2 
0 -2 1 -3 1 -2 0 -2 1 -1 1 -3 0 -2 1 -3 
1 -2 1 -3 0 -2 1 -2 1 -3 1 -2 0 -3 1 -2 
1 -3 0 -2 1 -2 1 -2 0 -3 1 -2 1 -3 1 -2 
0 -2 1 -2 1 -3 0 -2 1 -2 1 -2 0 -3 1 -2 
1 -3 1 -2 0 -3 1 -2 1 -3 0 -2 1 -3 1 -2 
0 -2 1 -3 1 -2 0 -3 1 -2 1 -3 1 -3 0 -3 
1 -3 1 -2 0 -3 1 -3 1 -2 0 -3 1 -3 1 -3 
1 -3 0 -3 1 -3 1 -2 0 -3 1 -2 1 -3 0 -3 
1 -3 1 -3 1 -2 0 -3 1 -3 1 -3 0 -2 1 -3 
1 -2 0 -3 1 -2 1 -3 1 -3 0 -2 1 -2 1 -3 
1 -3 0 -2 1 -2 1 -2 0 -2 1 -3 1 -2 0 -3 
1 -1 1 -3 0 -3 1 -1 1 -3 0 -2 1 -2 1 -2 
0 -3 1 -2 1 -2 1 -2 0 -3 1 -2 1 -3 1 -2 
0 -2 1 -1 0 -3 1 -2 1 -2 0 -2 1 -3 1 -2 
0 -1 1 -2 1 -3 1 -3 0 -2 1 -2 1 -3 0 -2 
1 -3 1 -2 1 -2 0 -3 1 -2 1 -3 0 -2 1 -2 
1 -3 1 -2 1 -3 0 -2 1 -2 1 -2 0 -2 1 -3 
1 -1 0 -2 1 -2 1 -2 1 -2 0 -2 1 -2 1 -1 
0 -2 1 -2 1 -1 1 -2 0 -1 1 -2 1 -1 0 -2 
1 -1 1 -1 0 -2 1 -1 1 -1 1 -2 0 -1 1 -1 
0 -1 1 -1 1 -2 1 -1 1 -1 0 -2 1 -2 1 -1 
1 -1 0 -1 1 -1 0 -2 1 -1 1 -2 1 -1 0 -1 
1 -2 1 -2 0 -1 1 -2 1 -1 0 -2 1 -2 1 -1 
1 -2 0 -2 1 -2 1 -2 0 -1 1 -2 1 -1 1 -2 
0 -1 1 -2 1 -2 0 -1 1 -1 1 -1 1 -2 0 -1 
1 -1 1 -1 0 -1 1 -1 1 -1 1 -1 0 -1 1 -1 
1 -1 1 -1 1 -1 1 0 1 -1 1 -1 1 0 1 -1 
1 0 1 0 1 0 1 -1 1 0 1 1 1 0 1 0 
1 0 1 0 1 1 1 0 1 0 1 1 1 0 1 1 
1 0 1 0 1 1 1 0 1 1 1 1 1 0 1 1 
1 0 -1 0 2 2 1 0 1 1 1 1 1 1 1 1 
1 1 1 0 -1 0 2 2 1 1 1 1 1 1 1 1 
1 1 1 1 0 1 3353 2190 300 MP stroke
1 1 1 1 1 1 1 1 1 1 1 1 0 1 1 1 
1 1 1 1 1 1 1 1 0 1 1 1 1 1 1 1 
1 1 1 1 0 1 1 1 1 1 1 1 1 1 1 1 
1 1 1 1 1 1 1 1 1 1 1 1 1 0 1 1 
1 1 1 0 1 1 1 1 1 1 1 0 1 0 1 1 
1 1 1 0 1 1 1 1 1 0 1 0 1 1 1 1 
1 0 1 1 1 0 1 1 1 1 1 0 1 0 1 1 
1 0 1 1 1 0 1 1 1 0 1 1 1 0 1 0 
1 0 1 1 1 0 1 0 1 0 1 0 1 0 1 0 
1 0 1 0 1 0 1 0 1 0 1 0 1 0 1 0 
1 0 1 0 1 0 1 0 1 0 1 0 1 0 1 0 
1 0 1 0 1 0 1 0 1 0 1 0 1 0 1 0 
1 0 1 0 1 0 1 0 1 0 1 0 1 0 1 0 
1 0 1 0 1 0 1 0 1 0 1 0 1 0 1 0 
1 0 1 0 1 0 1 0 1 0 1 0 1 0 1 0 
1 0 1 0 1 0 1 0 1 0 1 0 1 0 1 0 
1 0 1 0 1 0 1 0 1 0 1 0 1 0 1 0 
1 0 1 0 1 0 1 0 1 0 1 0 1 0 1 0 
1 0 1 0 1 0 1 0 1 0 1 0 1 0 1 0 
1 0 1 0 1 0 1 0 1 0 1 0 1 0 1 0 
1 0 1 0 1 0 1 0 1 0 1 0 1 0 1 0 
1 0 1 0 1 0 1 0 1 0 1 0 1 0 1 0 
1 0 1 0 1 0 1 0 1 0 1 0 1 0 1 0 
1 0 1 0 1 0 1 0 1 0 1 0 1 0 1 0 
1 0 1 0 1 0 1 0 1 0 1 0 1 0 1 0 
1 0 1 0 1 0 1 0 1 0 1 0 1 0 1 0 
1 0 1 0 1 0 1 0 1 0 1 0 1 0 1 0 
1 0 1 0 1 0 1 0 1 0 1 0 1 0 1 0 
1 0 1 0 1 0 1 0 1 0 1 0 1 0 1 0 
1 0 1 0 1 0 1 0 1 0 1 0 1 0 1 0 
1 0 1 0 1 0 1 0 1 0 1 0 1 0 1 0 
1 0 1 0 1 0 1 0 1 0 1 0 1 0 1 0 
1 0 1 0 1 0 1 0 1 0 1 0 1 0 1 0 
1 0 1 0 1 0 1 0 1 0 1 0 1 0 1 0 
1 0 1 0 1 0 1 0 1 0 1 0 1 0 1 0 
1 0 1 0 1 0 1 0 1 0 1 0 1 0 1 0 
1 0 1 0 1 0 1 0 1 0 1 0 1 0 1 0 
1 0 1 0 1 0 3057 2141 300 MP stroke
1 0 1 0 1 0 1 0 1 0 1 0 1 0 1 0 
1 0 1 0 1 0 1 0 1 0 1 0 1 0 1 0 
1 0 1 0 1 0 1 0 1 0 1 0 1 0 1 0 
1 0 1 0 1 0 1 0 1 0 1 0 1 0 1 0 
1 0 1 0 1 0 1 0 1 0 1 0 1 0 1 0 
1 0 1 0 1 0 1 0 1 0 1 0 1 0 1 0 
1 0 1 0 1 0 1 0 1 0 1 0 1 0 1 0 
1 0 1 0 1 0 1 0 1 0 1 0 1 0 1 0 
1 0 1 0 1 0 1 0 1 0 1 0 1 0 1 0 
1 0 1 0 1 0 1 0 1 0 1 0 1 0 1 0 
1 0 1 0 1 0 1 0 1 0 1 0 1 0 1 0 
1 0 1 0 1 0 1 0 1 0 1 0 1 0 1 0 
1 0 1 0 1 0 1 0 1 0 1 0 1 0 1 0 
1 0 1 0 1 0 1 0 1 0 1 0 1 0 1 0 
1 0 1 0 1 0 1 0 1 0 1 0 1 0 1 0 
1 0 1 0 1 0 1 0 1 0 1 0 1 0 1 0 
1 0 1 0 1 0 1 0 1 0 1 0 1 0 1 0 
1 0 1 0 1 0 1 0 1 0 1 0 1 0 1 0 
1 0 1 0 1 0 1 0 1 0 1 0 1 0 1 0 
1 0 1 0 1 0 1 0 1 0 1 0 1 0 1 0 
1 0 1 0 1 0 1 0 1 0 1 0 1 0 1 0 
1 0 1 0 1 0 1 0 1 0 1 0 1 0 1 0 
1 0 1 0 1 0 1 0 1 0 1 0 1 0 1 0 
1 0 1 0 1 0 1 0 1 0 1 0 1 0 1 0 
1 0 1 0 1 0 1 0 1 0 1 0 1 0 1 0 
1 0 1 0 1 0 1 0 1 0 1 0 1 0 1 0 
1 0 1 0 1 0 1 0 1 0 1 0 1 0 1 0 
1 0 1 0 1 0 1 0 1 0 1 0 1 0 1 0 
1 0 1 0 1 0 1 0 1 0 1 0 1 0 1 0 
1 0 1 0 1 0 1 0 1 0 1 0 1 0 1 0 
1 0 1 0 1 0 1 0 1 0 1 0 1 0 1 0 
1 0 1 0 1 0 2 0 1 0 1 0 1 0 1 0 
1 0 1 0 1 0 1 0 1 0 1 0 1 0 1 0 
1 0 1 0 1 0 1 0 1 0 1 0 1 0 1 0 
1 0 1 0 1 0 1 0 1 0 2 0 2 0 1 0 
1 0 1 0 1 0 1 0 1 0 1 0 1 0 1 0 
1 0 1 0 1 0 1 0 1 0 1 0 1 0 1 0 
1 0 1 0 1 0 2755 2141 300 MP stroke
1 0 1 0 1 0 1 0 1 0 1 0 1 0 1 0 
1 0 1 0 1 0 1 0 1 0 1 0 1 0 1 0 
1 0 1 0 1 0 1 0 1 0 1 0 1 0 1 0 
1 0 1 0 1 0 1 0 1 0 1 0 1 0 1 0 
1 0 1 0 1 0 1 0 1 0 1 0 1 0 1 0 
1 0 1 0 1 0 1 0 1 0 1 0 1 0 1 0 
1 0 1 0 1 0 1 0 1 0 1 0 1 0 1 0 
1 0 1 0 1 0 1 0 1 0 1 0 1 0 1 0 
1 0 1 0 1 0 1 0 1 0 1 0 1 0 1 0 
1 0 1 0 1 0 1 0 1 0 1 0 1 0 1 0 
1 0 1 0 1 0 1 0 1 0 1 0 1 0 1 0 
1 0 1 0 1 0 1 0 1 0 1 0 1 0 1 0 
1 0 1 0 1 0 1 0 1 0 1 0 1 0 1 0 
1 0 1 0 1 0 1 0 1 0 1 0 1 0 1 0 
1 0 1 0 1 0 1 0 1 0 1 0 1 0 1 0 
1 0 1 0 1 0 1 0 1 0 1 0 1 0 1 0 
1 0 1 0 1 0 1 0 1 0 1 0 1 0 1 0 
1 0 1 0 1 0 1 0 1 0 1 0 1 0 1 0 
1 0 1 0 1 0 1 0 1 0 1 0 1 0 1 0 
1 0 1 0 1 0 1 0 1 0 1 0 1 0 1 0 
1 0 1 0 1 0 1 0 1 0 1 0 1 0 1 0 
1 0 1 0 1 0 1 0 1 0 1 0 1 0 1 0 
1 0 1 0 1 0 1 0 1 0 1 0 1 0 1 0 
1 0 1 0 1 0 1 0 1 0 1 0 1 0 1 0 
1 0 1 0 1 0 1 0 1 0 1 0 1 0 1 0 
1 0 1 0 1 0 1 0 1 0 1 0 1 0 1 0 
1 0 1 0 1 0 1 0 1 0 1 0 1 0 1 0 
1 0 1 0 1 0 1 0 1 0 1 0 1 0 1 0 
1 0 1 0 1 0 1 0 1 0 1 0 1 0 1 0 
1 0 1 0 1 0 1 0 1 0 1 0 1 0 1 0 
1 0 1 0 1 0 1 0 1 0 1 0 1 0 1 0 
1 0 1 0 1 0 1 0 1 0 1 0 1 0 1 0 
1 0 1 0 1 0 1 0 1 0 1 0 1 0 1 0 
1 0 1 0 1 0 1 0 1 0 1 0 1 0 1 0 
1 0 1 0 1 0 1 0 1 0 1 0 1 0 1 0 
1 0 1 0 1 0 1 0 1 0 1 0 1 0 1 0 
1 0 1 0 1 0 1 0 1 0 1 0 1 0 1 0 
1 0 1 0 1 0 2456 2141 300 MP stroke
1 0 1 0 1 0 1 0 1 0 1 0 1 0 1 0 
1 0 1 0 1 0 1 0 1 0 1 0 1 0 1 0 
1 0 1 0 1 0 1 0 1 0 1 0 1 0 1 0 
1 0 1 0 1 0 1 0 1 0 1 0 1 0 1 0 
1 0 1 0 1 0 1 0 1 0 1 0 1 0 1 0 
1 0 1 0 1 0 1 0 1 0 1 0 1 0 1 0 
1 0 1 0 1 0 1 0 1 0 1 0 1 0 1 0 
1 0 1 0 1 0 1 0 1 0 1 0 1 0 1 0 
1 0 1 0 1 0 1 0 1 0 1 0 1 0 1 0 
1 0 1 0 1 0 1 0 1 0 1 0 1 0 1 0 
1 0 1 0 1 0 1 0 1 0 1 0 1 0 1 0 
1 0 1 0 1 0 1 0 1 0 1 0 1 0 1 0 
1 0 1 0 1 0 1 0 1 0 1 0 1 0 1 0 
1 0 1 0 1 0 1 0 1 0 1 0 1 0 1 0 
1 0 1 0 1 0 1 0 1 0 1 0 1 0 1 1 
1 0 1 0 1 0 1 0 1 0 1 0 1 0 1 0 
1 -1 1 0 1 0 1 0 1 0 1 0 1 0 1 0 
1 0 1 0 1 0 1 0 1 0 1 0 1 0 1 0 
1 0 1 0 1 0 1 1 1 0 1 0 1 0 1 0 
1 0 1 0 1 0 1 0 1 0 1 0 1 0 1 0 
1 0 1 0 1 0 1 0 1 -1 1 0 1 0 1 0 
1 0 1 0 1 0 1 0 1 0 1 0 1 0 1 0 
1 1 1 0 1 0 1 0 1 0 1 0 1 0 1 1 
1 0 1 0 1 -1 1 0 1 0 1 0 1 0 1 0 
1 0 1 -1 1 0 1 0 1 0 1 0 1 0 1 0 
1 0 1 0 1 0 1 0 1 1 1 0 1 0 1 0 
1 1 1 0 1 1 1 0 1 1 1 0 1 1 1 0 
1 1 1 1 1 1 1 0 1 1 1 1 1 1 1 1 
1 1 1 1 1 1 1 1 1 1 1 1 1 1 0 1 
2 2 1 1 1 1 1 1 0 1 2 2 1 1 1 1 
1 1 1 1 1 1 1 1 1 1 1 1 1 0 1 1 
1 0 1 1 1 1 1 0 1 1 1 1 1 0 1 1 
1 0 1 0 1 1 1 0 1 1 1 0 1 0 1 1 
1 0 1 0 1 1 1 0 1 0 1 0 1 1 1 0 
1 0 1 0 1 0 1 0 1 0 1 0 1 0 1 0 
1 0 1 0 1 0 1 0 1 0 1 0 1 0 1 -1 
1 0 1 0 1 0 1 0 1 0 1 1 1 0 1 0 
1 0 1 0 1 0 2157 2094 300 MP stroke
1 0 1 0 1 0 1 1 1 0 2 0 1 0 1 0 
1 0 1 0 1 0 1 0 1 0 1 0 1 0 1 0 
1 0 1 0 1 0 1 0 1 -1 1 0 1 0 1 -1 
1 0 1 0 1 0 1 -1 1 0 1 -1 1 0 1 -1 
1 0 1 -1 1 0 1 -1 1 0 1 -1 1 0 1 -1 
1 -1 1 0 1 -1 1 -1 1 -1 1 0 1 -1 0 -1 
1 -1 1 0 1 -1 0 -1 1 -1 1 -1 1 -1 1 -1 
1 -1 1 -1 1 -1 0 -1 1 -1 1 -1 1 -1 1 -1 
0 -1 1 -1 1 0 1 -1 1 -1 1 -1 1 -1 1 -1 
1 0 1 -1 1 0 1 -1 1 -1 1 0 1 -1 1 0 
1 -1 1 0 1 0 1 -1 1 0 1 -1 1 0 1 0 
1 0 1 -1 1 0 1 0 1 -1 1 0 1 0 1 0 
1 -1 1 0 1 0 1 -1 1 0 1 0 1 -1 1 0 
1 0 1 0 1 -1 1 0 1 0 1 -1 1 0 1 0 
1 0 1 0 1 0 1 -1 1 0 1 0 1 1 1 0 
1 0 1 0 1 0 1 0 1 1 1 0 1 0 1 1 
1 0 1 0 1 1 1 0 1 1 1 0 1 1 1 1 
1 0 1 1 1 0 1 1 1 1 1 1 1 1 1 0 
-1 0 2 2 1 0 1 1 0 1 1 1 1 1 1 0 
-1 0 2 2 0 1 1 1 1 1 1 1 1 1 1 1 
0 2 1 1 1 1 0 1 1 1 1 1 1 2 0 1 
1 2 1 2 1 2 0 1 1 2 1 1 0 2 1 1 
0 9 1 4 3 3 1 0 1 3 0 1 1 2 1 3 
0 2 1 3 1 3 1 3 0 2 1 3 1 2 0 3 
1 3 0 1 1 1 0 3 1 1 0 3 1 1 0 3 
1 1 0 2 1 2 0 3 1 1 0 3 1 4 1 1 
0 2 1 3 0 4 1 2 1 3 1 4 0 3 1 3 
1 4 0 2 1 3 1 2 0 3 1 4 1 3 1 4 
0 2 1 4 1 3 0 4 1 2 1 3 0 3 1 3 
1 4 0 3 1 4 1 3 1 3 0 4 1 4 1 3 
0 3 1 3 1 4 0 4 1 2 1 4 0 3 1 3 
1 3 0 3 1 4 1 3 1 4 0 3 1 4 1 4 
1 3 0 4 1 3 1 3 1 4 0 3 1 3 0 3 
1 4 1 3 1 4 0 3 1 4 1 4 0 3 1 4 
1 3 0 3 1 3 1 4 1 4 0 4 1 4 1 5 
1 3 0 4 1 4 1 3 0 4 1 1 0 4 1 1 
0 4 1 1 0 4 1 1 0 4 1 1 0 5 2 8 
1 4 1 5 0 1 1909 1715 300 MP stroke
1 4 0 1 1 4 1 5 1 5 1 4 1 4 0 1 
1 2 0 4 1 4 1 3 1 4 0 2 1 4 1 3 
1 4 0 3 1 2 0 4 1 3 1 3 1 4 0 3 
1 4 1 3 1 3 0 3 1 3 1 2 0 3 1 3 
1 3 1 2 0 2 1 2 1 3 0 2 1 3 1 1 
0 2 1 2 1 3 0 2 1 2 1 2 1 2 1 1 
0 2 1 1 1 2 1 2 1 1 0 1 1 1 1 1 
1 1 1 1 0 1 1 1 1 0 1 0 1 1 1 0 
1 0 1 1 1 -1 1 0 1 0 1 -1 1 -1 1 0 
1 -1 1 -1 1 -1 0 -1 1 -1 1 -1 0 -1 1 -1 
1 -1 1 -1 0 -1 1 -1 1 -1 0 -1 1 -1 0 -1 
1 -1 1 -1 1 -1 1 -1 0 -1 1 -1 1 -1 1 -1 
1 -1 0 -1 1 -1 1 -1 0 -1 1 -1 1 -1 1 -1 
0 -1 1 -1 1 0 -1 0 2 -2 1 -1 1 -1 1 -1 
1 -1 0 -1 1 -1 1 -1 1 -1 1 -1 1 -1 0 -1 
1 -1 1 -1 1 -1 0 -1 1 -1 1 -1 0 -1 1 -1 
1 -1 0 -2 1 -1 1 -1 0 -1 1 -1 1 -1 1 -1 
1 -1 1 -1 0 -1 1 -1 1 -1 1 -1 1 -1 1 -1 
1 -1 0 -1 1 -1 0 -1 1 -1 1 -1 1 -2 1 -1 
0 -2 1 -1 0 -1 2 -2 0 -2 1 -1 1 -2 1 -1 
0 -2 1 -2 1 -1 0 -1 1 -2 1 -2 1 -1 0 -1 
1 -2 1 -2 0 -2 1 -1 1 -1 0 -2 1 -2 1 -2 
1 -1 0 -1 2 -3 1 -3 1 -2 1 -3 2 -2 1 -2 
1 -1 1 -1 0 -1 2 -2 1 -1 1 -1 1 -1 1 0 
0 -1 2 -2 1 0 1 -1 1 0 1 0 1 -1 1 0 
1 0 0 2 3 0 0 2 5 0 0 1 2 0 1 1 
1 0 1 1 1 0 1 0 1 0 1 1 1 1 1 0 
1 1 1 0 1 0 1 1 1 0 1 1 1 1 1 0 
1 0 1 1 1 0 1 0 1 0 1 0 1 0 1 0 
1 -1 1 0 1 -1 1 -1 1 0 1 -1 1 -1 1 -1 
1 -1 1 -1 1 -1 0 -1 1 -2 1 -1 0 -1 1 -1 
1 -1 0 -2 1 0 1 -2 1 -2 1 -1 1 -1 1 -2 
0 -1 1 -1 1 -1 1 -1 0 -1 1 -1 1 -1 0 -1 
1 -1 1 -1 1 -1 1 -1 1 -1 1 -1 1 -1 1 -1 
1 -1 1 -1 1 0 1 -1 1 -1 2 0 2 -1 1 0 
1 0 1 0 1 0 1 0 1 0 1 0 1 0 1 1 
1 1 1 0 1 1 1 1 1 1 1 0 1 1 1 1 
1 1 1 0 1 1 1651 1736 300 MP stroke
1 1 1 1 1 0 1 1 1 1 1 0 1 1 1 1 
1 0 1 0 1 1 1 0 1 1 1 0 1 0 1 0 
1 0 1 0 1 0 1 0 1 0 1 0 1 -1 1 0 
1 -1 1 0 1 -1 1 -1 1 0 1 -1 2 -1 1 0 
1 0 1 -1 1 0 1 0 1 0 1 1 1 0 1 0 
1 1 1 1 1 0 1 1 1 1 1 1 1 1 1 1 
1 1 0 1 1 1 1 0 1 1 0 1 1 1 1 0 
-1 0 2 2 1 1 1 1 1 1 1 1 1 1 1 0 
-1 0 2 2 1 0 1 1 1 1 1 0 1 1 1 0 
1 1 1 0 1 0 1 0 1 0 1 0 1 0 1 0 
1 -1 1 0 1 -1 1 0 1 0 1 -1 1 0 1 -1 
1 0 1 0 1 0 1 -1 1 0 1 0 1 -1 1 0 
1 0 1 0 1 -1 1 0 1 -1 1 -1 1 0 1 -1 
1 -1 1 -1 1 -1 1 0 -1 0 3 -2 1 -1 1 -1 
1 -1 1 -1 1 -1 1 -1 1 -1 1 -1 1 -1 0 -1 
1 -1 1 -1 1 -2 1 -1 1 -1 0 -1 1 -1 1 -2 
1 -1 1 -1 0 -1 1 -1 1 -1 0 -1 1 -1 1 -1 
1 -1 1 0 -1 0 2 -2 1 -1 1 0 -1 0 2 -2 
1 -1 1 -1 1 -1 1 -1 1 -1 1 0 -1 0 2 -2 
1 -1 1 -1 1 -1 1 -1 1 -1 1 -1 1 -1 1 -1 
0 -1 1 -1 1 0 -1 0 2 -2 1 -1 1 -1 1 -1 
1 -1 0 -1 1 -1 1 -1 1 -1 1 -1 1 -1 1 -1 
1 -1 1 -1 1 -1 1 -1 1 -1 1 -1 1 -1 1 0 
1 -1 1 -1 1 -1 1 0 1 -1 1 0 1 0 1 0 
1 -1 1 0 1 0 1 0 1 0 1 0 1 1 1 0 
1 0 1 0 1 0 1 0 1 0 1 1 1 0 1 0 
1 0 1 0 1 0 1 0 1 -1 1 0 1 0 1 0 
1 0 1 0 1 0 1 0 1 1 1 0 1 0 1 0 
1 0 1 1 1 0 2 1 1 0 1 1 1 0 1 1 
1 1 1 0 1 1 1 1 1 0 -1 0 2 2 1 0 
1 1 1 1 1 1 1 1 1 1 1 1 1 1 1 1 
1 1 1 1 0 1 1 1 1 0 -1 0 2 2 1 1 
1 1 1 1 1 2 0 1 2 1 1 1 1 1 1 1 
1 1 1 1 0 1 2 2 1 1 1 1 1 1 1 1 
0 1 1 1 1 1 0 1 1 1 1 2 1 1 1 1 
1 1 0 1 1 1 1 1 1 1 1 1 0 1 1 2 
1 1 1 1 0 1 1 1 1 1 1 2 0 1 1 1 
0 1 1 1 1 2 1374 1724 300 MP stroke
1 1 0 1 1 2 1 1 1 1 0 1 1 2 0 1 
1 2 1 1 1 2 0 1 1 2 1 1 0 1 1 2 
1 2 0 1 1 1 1 2 1 1 0 2 1 1 1 2 
0 1 1 2 1 2 1 1 0 1 1 1 1 2 0 1 
1 2 1 1 0 1 1 2 1 1 1 2 0 1 1 1 
1 1 0 1 1 2 1 1 1 1 0 1 1 2 1 1 
1 1 0 1 1 1 1 1 0 1 1 1 0 1 1 1 
1 1 1 1 0 1 1 1 1 1 1 1 1 1 1 1 
1 1 1 1 1 1 1 1 1 1 1 1 1 1 1 1 
1 0 1 1 1 0 1 1 1 0 1 1 1 0 1 0 
1 0 1 0 1 1 1 0 1 1 1 0 1 0 1 0 
1 0 1 1 1 0 1 0 1 0 1 1 1 0 1 0 
1 1 1 0 1 1 1 0 1 1 1 0 1 1 1 0 
1 1 1 0 1 1 1 0 1 1 1 0 -1 0 2 2 
1 0 1 1 1 1 1 1 1 0 1 1 1 1 1 0 
-1 0 2 2 1 0 1 1 1 1 1 0 1 1 1 0 
1 1 1 1 1 0 1 1 1 0 1 1 1 1 1 1 
1 0 1 1 1 0 1 1 1 1 1 0 1 1 1 0 
1 0 1 1 1 0 2 1 0 4 1 1 0 1 8 0 
1 0 1 1 1 0 1 1 1 0 1 1 0 1 2 0 
1 1 1 1 1 1 1 1 1 1 1 0 -1 0 2 2 
1 0 -1 0 2 2 1 1 1 0 1 1 0 1 1 1 
1 1 1 1 1 0 1 1 1 1 1 1 0 1 1 1 
1 0 1 1 0 1 1 1 1 0 1 1 0 1 1 1 
1 0 1 1 0 1 1 1 1 1 1 1 1 1 1 1 
1 0 -1 0 2 2 1 1 1 1 1 1 1 1 0 1 
1 1 1 1 1 1 1 1 1 1 0 1 1 1 1 1 
1 1 0 1 1 1 1 1 1 1 0 1 1 1 1 1 
1 1 0 1 1 2 1 0 0 2 1 1 1 1 0 1 
1 1 1 2 1 1 0 1 1 1 1 2 0 1 1 1 
1 2 0 1 1 1 1 1 0 2 1 1 1 2 1 1 
0 1 1 2 1 1 1 1 0 2 1 1 1 1 0 2 
1 1 1 2 0 1 1 1 1 1 0 2 1 1 1 1 
1 2 0 1 1 1 1 2 0 1 1 2 1 1 1 2 
0 1 1 1 1 1 0 1 1 1 1 2 0 1 1 1 
0 1 1 1 1 0 -1 0 2 2 0 1 1 1 1 1 
1 1 1 1 1 1 0 1 1 1 1 1 1 1 1 1 
1 0 1 1 1 1 1122 1441 300 MP stroke
1 0 1 1 1 0 1 1 1 0 1 1 1 1 1 0 
1 1 1 0 1 0 1 1 1 0 1 1 1 1 1 0 
1 1 1 0 1 1 1 1 1 1 1 0 1 1 1 1 
1 1 1 1 1 1 1 1 1 1 1 1 1 1 1 1 
1 1 1 1 1 1 1 1 1 1 1 1 0 1 1 1 
1 0 1 1 0 1 1 1 1 0 -1 0 2 2 1 1 
1 1 0 1 2 2 1 1 1 1 1 1 0 1 1 1 
1 1 1 1 0 1 1 1 1 1 1 1 0 1 1 1 
0 1 1 1 1 0 1 1 0 1 1 1 1 1 0 1 
1 1 1 1 1 1 0 1 1 1 1 1 1 1 0 1 
2 2 1 1 0 1 2 2 1 1 1 1 1 1 1 1 
1 1 1 1 0 1 2 2 1 1 1 1 1 1 0 1 
2 2 0 1 2 2 1 1 0 1 2 2 0 1 2 2 
0 2 2 2 0 1 2 2 0 2 2 2 0 1 1 1 
0 1 1 1 0 2 1 1 1 1 1 2 0 1 1 2 
1 1 0 2 1 1 1 2 1 1 0 2 1 1 0 2 
1 1 1 1 0 2 1 1 0 1 1 1 0 2 1 1 
0 1 1 1 0 2 1 1 0 2 1 4 0 4 1 5 
4 4 1 0 1 3 1 3 1 3 1 2 0 2 1 1 
0 2 1 1 0 2 1 2 1 2 1 2 1 2 0 2 
1 2 0 2 1 2 1 1 1 2 0 2 1 2 1 2 
1 2 1 2 0 2 1 1 1 1 0 2 1 2 1 1 
1 2 0 1 1 1 1 2 1 1 0 1 1 2 1 1 
1 1 0 1 1 2 1 1 0 1 1 1 1 2 1 1 
0 1 1 2 1 1 0 1 1 1 1 2 1 1 0 2 
1 1 1 1 1 2 0 1 1 1 1 1 0 1 1 2 
1 1 1 1 0 2 1 1 1 1 1 1 0 2 1 1 
1 1 1 1 0 1 1 1 1 1 0 1 1 1 1 1 
0 1 2 2 1 1 0 1 2 2 1 1 0 1 2 2 
1 1 0 1 3 2 1 1 0 1 1 1 1 1 1 1 
1 1 1 1 0 1 1 1 1 2 1 1 1 1 0 2 
1 1 1 1 1 2 0 1 1 2 1 1 1 2 0 1 
1 1 1 2 0 1 1 2 1 2 1 2 1 2 0 1 
1 2 0 1 1 1 1 1 0 1 1 1 0 2 1 1 
1 1 0 1 1 2 1 1 1 1 0 2 1 1 1 1 
1 1 0 1 1 1 1 2 1 1 0 1 1 1 1 1 
0 1 1 1 1 1 1 1 0 1 1 1 1 1 1 1 
0 1 2 2 1 1 880 1060 300 MP stroke
1 1 0 1 2 2 1 1 0 1 2 2 1 1 0 1 
2 2 1 1 0 1 2 2 0 1 2 2 1 1 0 3 
1 2 0 2 3 0 1 1 1 1 1 1 1 1 0 1 
1 1 1 1 0 2 1 1 1 1 1 1 0 1 2 2 
1 2 1 1 1 1 1 1 1 1 0 1 1 1 1 1 
0 1 1 1 1 0 -1 0 2 2 1 1 1 1 0 1 
1 1 1 1 1 2 1 0 1 1 0 1 1 1 1 1 
0 1 1 1 1 1 1 1 0 1 1 1 1 1 1 1 
1 1 1 1 1 1 1 0 1 1 0 1 2 2 1 0 
1 1 1 1 1 0 1 1 1 1 1 1 1 1 1 1 
1 1 2 2 1 1 0 2 2 0 0 1 2 2 1 2 
1 1 1 1 1 2 1 2 0 4 7 1 1 1 1 0 
1 1 1 1 1 1 1 2 1 0 1 1 1 1 1 1 
0 1 1 1 1 1 1 1 1 1 1 1 0 1 1 1 
1 1 1 1 0 1 2 2 1 1 1 1 0 1 767 925 120 MP stroke
gr

c9
0 sg
2468 4266 mt 
(time since start \(s\)) s
 321 3005 mt  -90 rotate
(heading and yaw \(degrees\)) s
90 rotate
gs 767 332 4576 3606 rc
/c10 { 1.000000 0.000000 0.000000 sr} bdef
c10
4577 0 766 1533 2 MP stroke
0 -3606 2099 3938 2 MP stroke
0 -3606 3191 3938 2 MP stroke
0 -3606 4424 3938 2 MP stroke
0 -3606 4825 3938 2 MP stroke
gr

c10
0 sg
1985 1734 mt 
(A) s
3077 1734 mt 
(B) s
4309 1734 mt 
(C) s
4710 1734 mt 
(D) s
1 sg
0 390 1017 0 0 -390 866 3864 4 MP
PP
-1017 0 0 390 1017 0 0 -390 866 3864 5 MP stroke
4 w
DO
SO
6 w
0 sg
 866 3864 mt 1883 3864 L
 866 3474 mt 1883 3474 L
 866 3864 mt  866 3474 L
1883 3864 mt 1883 3474 L
 866 3864 mt 1883 3864 L
 866 3864 mt  866 3474 L
 866 3864 mt 1883 3864 L
 866 3474 mt 1883 3474 L
 866 3864 mt  866 3474 L
1883 3864 mt 1883 3474 L
1322 3632 mt 
(heading) s
gs 866 3474 1018 391 rc
c8
350 0 936 3580 2 MP stroke
gr

c8
0 sg
1322 3809 mt 
(yaw) s
gs 866 3474 1018 391 rc
c9
350 0 936 3757 2 MP stroke
gr

c9

end %%Color Dict

eplot
%%EndObject

epage
end

showpage

%%Trailer
%%EOF
