time latitude longitude easting northing n.velocity e.velocity 

0.232977 -1.99743 9.01852e-314 166223 -221082 2.26817 -1.99969
0.252953 -1.99743 9.01852e-314 166223 -221082 2.26817 -1.99969
0.372952 34.1338 -118.047 403465 3.77748e+06 -0.12207 -0.0126953
0.482946 34.1338 -118.047 403465 3.77748e+06 -0.12207 -0.0126953
1.35298 34.1338 -118.047 403465 3.77748e+06 -0.201172 0.00683594
2.35295 34.1338 -118.047 403465 3.77748e+06 -0.306641 0.0078125
3.35296 34.1338 -118.047 403465 3.77748e+06 -0.537109 0.0205078
4.35296 34.1338 -118.047 403465 3.77748e+06 -0.960938 0.0429688
5.37299 34.1338 -118.047 403465 3.77748e+06 -1.47852 0.0615234
6.35296 34.1337 -118.047 403465 3.77748e+06 -2.1084 0.152344
7.35295 34.1337 -118.047 403465 3.77748e+06 -2.86133 0.18457
8.35295 34.1337 -118.047 403465 3.77747e+06 -3.6123 0.308594
9.35295 34.1336 -118.047 403465 3.77747e+06 -4.23047 0.462891
10.353 34.1336 -118.047 403466 3.77747e+06 -4.86523 0.636719
11.353 34.1336 -118.047 403467 3.77746e+06 -5.44629 0.884766
12.353 34.1335 -118.047 403468 3.77745e+06 -5.89746 1.1543
