% Time [usec] | Scan Points
1115401091948608 201 8191 8191 8191 8191 8191 8191 8191 8191 8191 8191 8191 8191 8191 8191 8191 8191 8191 8191 8191 8191 8191 8191 8191 8191 8191 8191 8191 8191 8191 8191 8191 8191 8191 8191 8191 8191 8191 8191 8191 8191 8191 8191 8191 8191 8191 8191 8191 8191 8191 8191 8191 8191 8191 8191 8191 8191 8191 8191 8191 8191 8191 8191 8191 8191 8191 8191 8191 8191 8191 2927 8191 8191 8191 8191 8191 8191 2891 8191 8191 2877 2875 2856 2860 2868 2862 2843 2838 2831 2836 2829 2835 2836 2842 2828 2828 2835 2847 2829 2831 2817 2825 2813 2827 2830 2834 2838 2836 2829 2846 2829 2846 2834 2839 2857 2856 2852 2863 2859 2870 2866 2870 2880 8191 2893 2903 8191 2932 2922 2933 2928 2951 2945 2964 2961 2986 8191 8191 8191 8191 8191 8191 8191 8191 8191 8191 8191 8191 8191 8191 8191 8191 8191 8191 8191 8191 8191 8191 8191 8191 8191 8191 8191 8191 8191 8191 8191 8191 8191 8191 8191 8191 8191 8191 8191 8191 8191 8191 8191 8191 8191 8191 8191 8191 8191 8191 8191 8191 8191 8191 8191 8191 8191 8191 8191 8191 8191 8191 8191 8191 8191 8191 
1115401092090553 201 8191 8191 8191 8191 8191 8191 8191 8191 8191 8191 8191 8191 8191 8191 8191 8191 8191 8191 8191 8191 8191 8191 8191 8191 8191 8191 8191 8191 8191 8191 8191 8191 8191 8191 8191 8191 8191 8191 8191 8191 8191 8191 8191 8191 8191 8191 8191 8191 8191 8191 8191 8191 8191 8191 8191 8191 8191 8191 8191 8191 8191 8191 8191 8191 8191 8191 8191 8191 8191 2940 8191 2940 8191 8191 8191 8191 2898 8191 8191 8191 8191 2877 2870 2873 2870 2863 2848 2848 2848 2849 2846 2850 2848 2845 2838 2840 2846 2846 2841 2841 2831 2840 8191 2843 2848 2848 2848 2849 2861 2855 2852 2863 2874 8191 2865 2863 2881 2865 2879 2875 2883 2892 2905 2918 8191 2930 2947 2936 2943 2956 2965 2961 2974 2982 2994 2993 8191 8191 8191 8191 8191 8191 8191 8191 8191 8191 8191 8191 8191 8191 8191 8191 8191 8191 8191 8191 8191 8191 8191 8191 8191 8191 8191 8191 8191 8191 8191 8191 8191 8191 8191 8191 8191 8191 8191 8191 8191 8191 8191 8191 8191 8191 8191 8191 8191 8191 8191 8191 8191 8191 8191 8191 8191 8191 8191 8191 8191 8191 8191 8191 8191 
1115401092232531 201 8191 8191 8191 8191 8191 8191 8191 8191 8191 8191 8191 8191 8191 8191 8191 8191 8191 8191 8191 8191 8191 8191 8191 8191 8191 8191 8191 8191 8191 8191 8191 8191 8191 8191 8191 8191 8191 8191 8191 8191 8191 8191 8191 8191 8191 8191 8191 8191 8191 8191 8191 8191 8191 8191 8191 8191 8191 8191 8191 8191 8191 8191 8191 8191 8191 8191 8191 8191 8191 8191 8191 8191 8191 8191 8191 2916 8191 8191 8191 8191 8191 2868 2871 2885 2861 2853 2843 2841 2840 2842 2838 2846 2838 2843 2831 2834 2829 2841 2827 2829 2828 2839 2828 2837 2846 2834 2841 2841 8191 2855 2851 2852 2845 2873 2863 2861 2860 2873 2867 2881 2876 2902 2906 2922 2919 8191 2927 2941 2934 2945 2959 2963 2968 2974 2984 8191 8191 8191 8191 8191 8191 8191 8191 8191 8191 8191 8191 8191 8191 8191 8191 8191 8191 8191 8191 8191 8191 8191 8191 8191 8191 8191 8191 8191 8191 8191 8191 8191 8191 8191 8191 8191 8191 8191 8191 8191 8191 8191 8191 8191 8191 8191 8191 8191 8191 8191 8191 8191 8191 8191 8191 8191 8191 8191 8191 8191 8191 8191 8191 8191 8191 
1115401092374509 201 8191 8191 8191 8191 8191 8191 8191 8191 8191 8191 8191 8191 8191 8191 8191 8191 8191 8191 8191 8191 8191 8191 8191 8191 8191 8191 8191 8191 8191 8191 8191 8191 8191 8191 8191 8191 8191 8191 8191 8191 8191 8191 8191 8191 8191 8191 8191 8191 8191 8191 8191 8191 8191 8191 8191 8191 8191 8191 8191 8191 8191 8191 8191 8191 8191 8191 8191 8191 8191 2927 8191 8191 8191 8191 8191 8191 8191 2882 8191 8191 2874 2859 2861 8191 2858 2840 2841 2830 2831 2828 2826 2839 2838 2828 2826 2835 2836 2826 2821 2821 2813 2821 2830 2834 2829 2830 2829 2840 2844 2835 2833 2842 2839 2847 2851 2852 2861 2859 2860 2864 2872 2882 2880 2907 8191 2907 2914 2931 2929 2937 2948 2950 2964 2963 2972 2988 8191 8191 3016 8191 8191 8191 8191 8191 8191 8191 8191 8191 8191 8191 8191 8191 8191 8191 8191 8191 8191 8191 8191 8191 8191 8191 8191 8191 8191 8191 8191 8191 8191 8191 8191 8191 8191 8191 8191 8191 8191 8191 8191 8191 8191 8191 8191 8191 8191 8191 8191 8191 8191 8191 8191 8191 8191 8191 8191 8191 8191 8191 8191 8191 8191 
1115401092516491 201 8191 8191 8191 8191 8191 8191 8191 8191 8191 8191 8191 8191 8191 8191 8191 8191 8191 8191 8191 8191 8191 8191 8191 8191 8191 8191 8191 8191 8191 8191 8191 8191 8191 8191 8191 8191 8191 8191 8191 8191 8191 8191 8191 8191 8191 8191 8191 8191 8191 8191 8191 8191 8191 8191 8191 8191 8191 8191 8191 8191 8191 8191 8191 8191 8191 8191 8191 8191 8191 8191 8191 8191 8191 8191 8191 8191 8191 2907 8191 2889 8191 2886 2879 2888 2864 2855 2850 2850 2851 2848 2843 2846 2846 2845 2839 2836 2853 2845 2843 2832 2833 2840 2842 2842 2855 2840 2848 2851 2865 2853 2857 8191 2860 2876 8191 2866 2876 2870 2873 2875 2883 2896 2916 2915 8191 2928 2936 2943 2944 2948 2958 2963 2969 2978 8191 8191 8191 8191 8191 8191 8191 8191 8191 8191 8191 8191 8191 8191 8191 8191 8191 8191 8191 8191 8191 8191 8191 8191 8191 8191 8191 8191 8191 8191 8191 8191 8191 8191 8191 8191 8191 8191 8191 8191 8191 8191 8191 8191 8191 8191 8191 8191 8191 8191 8191 8191 8191 8191 8191 8191 8191 8191 8191 8191 8191 8191 8191 8191 8191 8191 8191 
1115401092658470 201 8191 8191 8191 8191 8191 8191 8191 8191 8191 8191 8191 8191 8191 8191 8191 8191 8191 8191 8191 8191 8191 8191 8191 8191 8191 8191 8191 8191 8191 8191 8191 8191 8191 8191 8191 8191 8191 8191 8191 8191 8191 8191 8191 8191 8191 8191 8191 8191 8191 8191 8191 8191 8191 8191 8191 8191 8191 8191 8191 8191 8191 8191 8191 8191 8191 8191 8191 8191 2965 2943 8191 8191 8191 8191 8191 8191 2902 2891 8191 8191 2873 2869 2865 8191 2859 2850 2849 2842 2838 2838 2837 2840 2839 2841 2835 2839 2838 2834 2834 2829 2831 2833 2837 2844 2844 2847 2844 2844 8191 8191 2845 2846 2851 2853 8191 2854 2867 2869 2868 2871 2875 2893 2897 2898 8191 2925 2930 2933 2941 2949 2955 2961 2966 2982 8191 2998 8191 8191 8191 8191 8191 8191 8191 8191 8191 8191 8191 8191 8191 8191 8191 8191 8191 8191 8191 8191 8191 8191 8191 8191 8191 8191 8191 8191 8191 8191 8191 8191 8191 8191 8191 8191 8191 8191 8191 8191 8191 8191 8191 8191 8191 8191 8191 8191 8191 8191 8191 8191 8191 8191 8191 8191 8191 8191 8191 8191 8191 8191 8191 8191 8191 
1115401092800447 201 8191 8191 8191 8191 8191 8191 8191 8191 8191 8191 8191 8191 8191 8191 8191 8191 8191 8191 8191 8191 8191 8191 8191 8191 8191 8191 8191 8191 8191 8191 8191 8191 8191 8191 8191 8191 8191 8191 8191 8191 8191 8191 8191 8191 8191 8191 8191 8191 8191 8191 8191 8191 8191 8191 8191 8191 8191 8191 8191 8191 8191 8191 8191 8191 8191 8191 8191 8191 8191 8191 8191 2926 8191 8191 8191 8191 2901 2898 8191 8191 2874 2867 2861 2875 2854 2847 2838 2837 2829 2832 2828 2842 2839 2838 2824 2829 2830 2832 2826 2822 2819 2827 2822 2829 2834 2840 2828 2839 2837 2861 2835 2844 2840 2855 2841 2848 2868 2863 2862 2866 2869 2889 8191 2905 2894 8191 2918 2935 2929 2940 2952 2946 2968 2973 2981 2992 8191 8191 8191 8191 8191 8191 3058 8191 8191 8191 8191 8191 8191 8191 8191 8191 8191 8191 8191 8191 8191 8191 8191 8191 8191 8191 8191 8191 8191 8191 8191 8191 8191 8191 8191 8191 8191 8191 8191 8191 8191 8191 8191 8191 8191 8191 8191 8191 8191 8191 8191 8191 8191 8191 8191 8191 8191 8191 8191 8191 8191 8191 8191 8191 8191 
1115401092942426 201 8191 8191 8191 8191 8191 8191 8191 8191 8191 8191 8191 8191 8191 8191 8191 8191 8191 8191 8191 8191 8191 8191 8191 8191 8191 8191 8191 8191 8191 8191 8191 8191 8191 8191 8191 8191 8191 8191 8191 8191 8191 8191 8191 8191 8191 8191 8191 8191 8191 8191 8191 8191 8191 8191 8191 8191 8191 8191 8191 8191 8191 8191 8191 8191 8191 8191 8191 8191 8191 8191 8191 8191 8191 8191 8191 8191 8191 8191 2897 2896 2881 2874 2877 2883 8191 2863 2848 2854 2847 2850 2838 2850 2847 2848 2836 8191 2840 2839 2833 2836 2833 2841 2835 2834 2849 2842 2846 2846 2844 8191 2854 2866 8191 2853 2867 2856 2877 2867 2868 2877 2882 2898 2905 2903 8191 2915 2931 2934 2944 2944 2953 2949 2981 2972 8191 2984 8191 8191 8191 8191 8191 8191 8191 8191 8191 8191 8191 8191 8191 8191 8191 8191 8191 8191 8191 8191 8191 8191 8191 8191 8191 8191 8191 8191 8191 8191 8191 8191 8191 8191 8191 8191 8191 8191 8191 8191 8191 8191 8191 8191 8191 8191 8191 8191 8191 8191 8191 8191 8191 8191 8191 8191 8191 8191 8191 8191 8191 8191 8191 8191 8191 
1115401093084403 201 8191 8191 8191 8191 8191 8191 8191 8191 8191 8191 8191 8191 8191 8191 8191 8191 8191 8191 8191 8191 8191 8191 8191 8191 8191 8191 8191 8191 8191 8191 8191 8191 8191 8191 8191 8191 8191 8191 8191 8191 8191 8191 8191 8191 8191 8191 8191 8191 8191 8191 8191 8191 8191 8191 8191 8191 8191 8191 8191 8191 8191 8191 8191 8191 8191 8191 8191 8191 8191 2941 8191 8191 8191 8191 8191 8191 8191 2897 8191 2889 2876 2876 2871 2873 2862 2858 2847 2844 2838 2844 2840 2843 2842 2842 2832 2840 2835 2841 2833 2833 2827 2831 2836 2837 2838 2841 2835 2847 2849 2855 2843 2845 2850 2859 2867 2865 2867 2868 2869 2873 2877 2883 8191 8191 8191 8191 8191 2944 2936 2950 2959 2961 2972 2974 2986 8191 8191 8191 8191 8191 8191 8191 8191 8191 8191 8191 8191 8191 8191 8191 8191 8191 8191 8191 8191 8191 8191 8191 8191 8191 8191 8191 8191 8191 8191 8191 8191 8191 8191 8191 8191 8191 8191 8191 8191 8191 8191 8191 8191 8191 8191 8191 8191 8191 8191 8191 8191 8191 8191 8191 8191 8191 8191 8191 8191 8191 8191 8191 8191 8191 8191 
1115401093226380 201 8191 8191 8191 8191 8191 8191 8191 8191 8191 8191 8191 8191 8191 8191 8191 8191 8191 8191 8191 8191 8191 8191 8191 8191 8191 8191 8191 8191 8191 8191 8191 8191 8191 8191 8191 8191 8191 8191 8191 8191 8191 8191 8191 8191 8191 8191 8191 8191 8191 8191 8191 8191 8191 8191 8191 8191 8191 8191 8191 8191 8191 8191 8191 8191 8191 8191 8191 8191 8191 8191 8191 8191 8191 8191 8191 8191 2897 2886 8191 2888 2876 2866 2862 2860 2858 2840 2842 2833 2833 2824 2836 2842 2843 2833 2829 2829 2838 2825 2831 2819 2822 2823 2826 2833 2831 2838 2836 2837 2835 2849 2839 8191 2842 2845 2851 2852 2860 2861 2867 2865 2874 2880 2881 2901 8191 2913 2915 2938 2928 2946 2946 2950 2959 2967 2978 8191 3000 8191 8191 8191 8191 8191 8191 8191 8191 8191 8191 8191 8191 8191 8191 8191 8191 8191 8191 8191 8191 8191 8191 8191 8191 8191 8191 8191 8191 8191 8191 8191 8191 8191 8191 8191 8191 8191 8191 8191 8191 8191 8191 8191 8191 8191 8191 8191 8191 8191 8191 8191 8191 8191 8191 8191 8191 8191 8191 8191 8191 8191 8191 8191 8191 
1115401093368359 201 8191 8191 8191 8191 8191 8191 8191 8191 8191 8191 8191 8191 8191 8191 8191 8191 8191 8191 8191 8191 8191 8191 8191 8191 8191 8191 8191 8191 8191 8191 8191 8191 8191 8191 8191 8191 8191 8191 8191 8191 8191 8191 8191 8191 8191 8191 8191 8191 8191 8191 8191 8191 8191 8191 8191 8191 8191 8191 8191 8191 8191 8191 8191 8191 8191 8191 8191 8191 8191 8191 8191 8191 8191 8191 8191 8191 2904 8191 8191 8191 8191 2875 2880 2876 8191 2856 2856 2839 2849 2836 2854 2844 2848 2836 2837 2836 2849 2833 2838 2829 2835 2822 2844 2838 2846 2835 2846 2838 8191 2843 2854 2849 2862 2858 2876 2851 2864 2864 2869 2868 2879 2883 2891 2899 8191 8191 2927 2931 2934 2934 2947 2956 2964 2981 2988 2989 8191 8191 8191 8191 8191 8191 8191 8191 8191 8191 8191 8191 8191 8191 8191 8191 8191 8191 8191 8191 8191 8191 8191 8191 8191 8191 8191 8191 8191 8191 8191 8191 8191 8191 8191 8191 8191 8191 8191 8191 8191 8191 8191 8191 8191 8191 8191 8191 8191 8191 8191 8191 8191 8191 8191 8191 8191 8191 8191 8191 8191 8191 8191 8191 8191 
1115401093510338 201 8191 8191 8191 8191 8191 8191 8191 8191 8191 8191 8191 8191 8191 8191 8191 8191 8191 8191 8191 8191 8191 8191 8191 8191 8191 8191 8191 8191 8191 8191 8191 8191 8191 8191 8191 8191 8191 8191 8191 8191 8191 8191 8191 8191 8191 8191 8191 8191 8191 8191 8191 8191 8191 8191 8191 8191 8191 8191 8191 8191 8191 8191 8191 8191 8191 8191 8191 8191 8191 8191 8191 8191 8191 8191 8191 8191 8191 2900 8191 2897 2886 2882 2868 2880 2864 2857 2850 2850 2843 2847 2849 2843 2847 2846 2839 2838 2841 2833 2835 2837 2834 2831 2844 2839 2848 2840 2846 2845 8191 2847 2856 2869 2854 2859 2869 2853 2871 2870 2868 2871 2884 2893 2896 2899 8191 2928 2929 2933 2943 2938 2956 2961 2968 8191 2990 8191 8191 8191 8191 8191 8191 8191 8191 8191 8191 8191 8191 8191 8191 8191 8191 8191 8191 8191 8191 8191 8191 8191 8191 8191 8191 8191 8191 8191 8191 8191 8191 8191 8191 8191 8191 8191 8191 8191 8191 8191 8191 8191 8191 8191 8191 8191 8191 8191 8191 8191 8191 8191 8191 8191 8191 8191 8191 8191 8191 8191 8191 8191 8191 8191 8191 
1115401093652316 201 8191 8191 8191 8191 8191 8191 8191 8191 8191 8191 8191 8191 8191 8191 8191 8191 8191 8191 8191 8191 8191 8191 8191 8191 8191 8191 8191 8191 8191 8191 8191 8191 8191 8191 8191 8191 8191 8191 8191 8191 8191 8191 8191 8191 8191 8191 8191 8191 8191 8191 8191 8191 8191 8191 8191 8191 8191 8191 8191 8191 8191 8191 8191 8191 8191 8191 8191 8191 8191 8191 8191 8191 8191 8191 8191 8191 8191 8191 8191 8191 2869 2864 2859 2861 2854 2839 2835 2838 2831 2826 2825 2836 2835 2833 2823 2835 2835 2834 2822 2824 2822 2822 2824 2839 2834 2832 2824 2833 8191 2837 2837 2839 2844 2847 2845 2853 2860 2870 2862 2864 2870 2886 2887 2897 2909 2901 2919 2933 2928 2938 2949 2954 2962 2966 2981 2989 2990 8191 8191 8191 8191 8191 8191 8191 8191 8191 8191 8191 8191 8191 8191 8191 8191 8191 8191 8191 8191 8191 8191 8191 8191 8191 8191 8191 8191 8191 8191 8191 8191 8191 8191 8191 8191 8191 8191 8191 8191 8191 8191 8191 8191 8191 8191 8191 8191 8191 8191 8191 8191 8191 8191 8191 8191 8191 8191 8191 8191 8191 8191 8191 8191 
1115401093794295 201 8191 8191 8191 8191 8191 8191 8191 8191 8191 8191 8191 8191 8191 8191 8191 8191 8191 8191 8191 8191 8191 8191 8191 8191 8191 8191 8191 8191 8191 8191 8191 8191 8191 8191 8191 8191 8191 8191 8191 8191 8191 8191 8191 8191 8191 8191 8191 8191 8191 8191 8191 8191 8191 8191 8191 8191 8191 8191 8191 8191 8191 8191 8191 8191 8191 8191 8191 8191 8191 8191 8191 8191 8191 8191 8191 8191 8191 2893 2898 8191 8191 2883 2867 2883 2867 2860 2849 2841 2847 2836 2844 2844 2846 2841 2833 2839 2838 2841 2835 2827 2828 2835 2834 2840 2845 2841 2844 2838 2831 2846 8191 2856 2846 2866 2853 2858 2867 2866 2869 2880 2870 2885 2892 8191 2914 8191 2920 2947 2929 2942 2949 2953 2967 2973 2988 2985 8191 8191 8191 8191 8191 8191 8191 8191 8191 8191 8191 8191 8191 8191 8191 8191 8191 8191 8191 8191 8191 8191 8191 8191 8191 8191 8191 8191 8191 8191 8191 8191 8191 8191 8191 8191 8191 8191 8191 8191 8191 8191 8191 8191 8191 8191 8191 8191 8191 8191 8191 8191 8191 8191 8191 8191 8191 8191 8191 8191 8191 8191 8191 8191 8191 
1115401093936276 201 8191 8191 8191 8191 8191 8191 8191 8191 8191 8191 8191 8191 8191 8191 8191 8191 8191 8191 8191 8191 8191 8191 8191 8191 8191 8191 8191 8191 8191 8191 8191 8191 8191 8191 8191 8191 8191 8191 8191 8191 8191 8191 8191 8191 8191 8191 8191 8191 8191 8191 8191 8191 8191 8191 8191 8191 8191 8191 8191 8191 8191 8191 8191 8191 8191 8191 8191 8191 8191 8191 8191 8191 8191 8191 8191 8191 2904 8191 8191 2901 2880 2875 2883 2881 2873 2857 2850 2849 2845 2840 2844 2844 2841 2846 2834 2841 2854 2842 2841 2831 8191 2835 2828 2835 2846 2847 2844 2845 2850 2849 2847 2845 2860 2872 2872 2865 2875 2871 2865 2877 2878 2894 2892 2917 2904 2930 2934 2940 2936 2945 2954 2962 2963 2991 8191 8191 8191 8191 8191 8191 8191 8191 8191 8191 8191 8191 8191 8191 8191 8191 8191 8191 8191 8191 8191 8191 8191 8191 8191 8191 8191 8191 8191 8191 8191 8191 8191 8191 8191 8191 8191 8191 8191 8191 8191 8191 8191 8191 8191 8191 8191 8191 8191 8191 8191 8191 8191 8191 8191 8191 8191 8191 8191 8191 8191 8191 8191 8191 8191 8191 8191 
1115401094078253 201 8191 8191 8191 8191 8191 8191 8191 8191 8191 8191 8191 8191 8191 8191 8191 8191 8191 8191 8191 8191 8191 8191 8191 8191 8191 8191 8191 8191 8191 8191 8191 8191 8191 8191 8191 8191 8191 8191 8191 8191 8191 8191 8191 8191 8191 8191 8191 8191 8191 8191 8191 8191 8191 8191 8191 8191 8191 8191 8191 8191 8191 8191 8191 8191 8191 8191 8191 8191 8191 8191 8191 8191 8191 8191 8191 8191 8191 8191 2873 8191 8191 2871 2852 2864 2854 2845 2835 2837 2834 2832 2821 2839 2842 2845 2827 2830 2828 2825 2825 2828 2819 2824 2827 2834 2838 2846 2833 2840 2831 8191 2833 8191 2832 2849 8191 2856 2864 2864 2868 2872 2869 2890 2888 2899 8191 2910 2919 2931 2936 2940 2946 2957 2965 2975 8191 8191 2992 8191 8191 8191 8191 8191 8191 8191 8191 8191 8191 8191 8191 8191 8191 8191 8191 8191 8191 8191 8191 8191 8191 8191 8191 8191 8191 8191 8191 8191 8191 8191 8191 8191 8191 8191 8191 8191 8191 8191 8191 8191 8191 8191 8191 8191 8191 8191 8191 8191 8191 8191 8191 8191 8191 8191 8191 8191 8191 8191 8191 8191 8191 8191 8191 
1115401094220229 201 8191 8191 8191 8191 8191 8191 8191 8191 8191 8191 8191 8191 8191 8191 8191 8191 8191 8191 8191 8191 8191 8191 8191 8191 8191 8191 8191 8191 8191 8191 8191 8191 8191 8191 8191 8191 8191 8191 8191 8191 8191 8191 8191 8191 8191 8191 8191 8191 8191 8191 8191 8191 8191 8191 8191 8191 8191 8191 8191 8191 8191 8191 8191 8191 8191 8191 8191 8191 8191 2961 8191 8191 8191 8191 8191 2909 8191 2900 8191 8191 2884 2869 2876 2880 2863 2858 2848 2851 2844 2840 2844 2845 2848 2837 2836 2842 2848 2843 2829 2834 2832 2832 2839 2837 2838 2838 2839 2845 8191 2844 2840 2871 8191 2854 2865 2863 2865 2864 2870 2876 2879 2890 2898 2922 2924 8191 2931 2933 2933 2946 2958 2952 2963 2977 2987 2993 8191 8191 8191 8191 8191 8191 8191 8191 8191 8191 8191 8191 8191 8191 8191 8191 8191 8191 8191 8191 8191 8191 8191 8191 8191 8191 8191 8191 8191 8191 8191 8191 8191 8191 8191 8191 8191 8191 8191 8191 8191 8191 8191 8191 8191 8191 8191 8191 8191 8191 8191 8191 8191 8191 8191 8191 8191 8191 8191 8191 8191 8191 8191 8191 8191 
1115401094362209 201 8191 8191 8191 8191 8191 8191 8191 8191 8191 8191 8191 8191 8191 8191 8191 8191 8191 8191 8191 8191 8191 8191 8191 8191 8191 8191 8191 8191 8191 8191 8191 8191 8191 8191 8191 8191 8191 8191 8191 8191 8191 8191 8191 8191 8191 8191 8191 8191 8191 8191 8191 8191 8191 8191 8191 8191 8191 8191 8191 8191 8191 8191 8191 8191 8191 8191 8191 8191 8191 2932 8191 8191 8191 8191 8191 8191 8191 8191 8191 8191 2868 2860 2865 2871 2858 2850 2842 2835 2833 2834 2836 2839 2845 2832 2826 2831 2851 2837 2822 2824 2822 2835 2831 2836 2829 2841 2833 2841 2846 8191 2838 8191 2841 8191 2862 8191 2860 2864 2860 2871 2872 2898 2890 2907 2895 8191 2913 2936 2937 2944 2958 2957 2962 2978 2982 8191 3006 8191 8191 8191 8191 8191 8191 8191 8191 8191 8191 8191 8191 8191 8191 8191 8191 8191 8191 8191 8191 8191 8191 8191 8191 8191 8191 8191 8191 8191 8191 8191 8191 8191 8191 8191 8191 8191 8191 8191 8191 8191 8191 8191 8191 8191 8191 8191 8191 8191 8191 8191 8191 8191 8191 8191 8191 8191 8191 8191 8191 8191 8191 8191 8191 
1115401094504186 201 8191 8191 8191 8191 8191 8191 8191 8191 8191 8191 8191 8191 8191 8191 8191 8191 8191 8191 8191 8191 8191 8191 8191 8191 8191 8191 8191 8191 8191 8191 8191 8191 8191 8191 8191 8191 8191 8191 8191 8191 8191 8191 8191 8191 8191 8191 8191 8191 8191 8191 8191 8191 8191 8191 8191 8191 8191 8191 8191 8191 8191 8191 8191 8191 8191 8191 8191 8191 8191 8191 8191 8191 8191 8191 8191 8191 2898 8191 8191 2880 8191 2859 2864 2869 2855 2846 2842 2836 2837 2831 2830 2840 2834 2835 2828 2834 2838 2830 2831 2827 2820 2821 2832 2834 2837 2837 2832 2839 2836 2831 2842 2837 2844 2858 2851 2854 2861 2861 2863 2875 2867 2887 2886 2897 2901 2916 2921 2936 2935 2937 2942 2953 2956 2976 2977 2990 2990 8191 3014 8191 8191 8191 8191 8191 8191 8191 8191 8191 8191 8191 8191 8191 8191 8191 8191 8191 8191 8191 8191 8191 8191 8191 8191 8191 8191 8191 8191 8191 8191 8191 8191 8191 8191 8191 8191 8191 8191 8191 8191 8191 8191 8191 8191 8191 8191 8191 8191 8191 8191 8191 8191 8191 8191 8191 8191 8191 8191 8191 8191 8191 8191 
1115401094646165 201 8191 8191 8191 8191 8191 8191 8191 8191 8191 8191 8191 8191 8191 8191 8191 8191 8191 8191 8191 8191 8191 8191 8191 8191 8191 8191 8191 8191 8191 8191 8191 8191 8191 8191 8191 8191 8191 8191 8191 8191 8191 8191 8191 8191 8191 8191 8191 8191 8191 8191 8191 8191 8191 8191 8191 8191 8191 8191 8191 8191 8191 8191 8191 8191 8191 8191 8191 8191 8191 8191 8191 8191 8191 8191 8191 2908 2901 8191 8191 8191 8191 2870 2870 2870 2874 2851 2852 2845 2846 2841 2852 2844 2847 2838 2835 2842 2842 2842 2830 2833 2828 2831 2836 2840 2850 2845 2849 2844 2854 2845 2851 2842 2856 8191 2861 2860 2865 2872 2875 2873 2873 2896 2897 2912 8191 8191 2936 2939 2932 2948 2957 2959 2974 2984 2985 2987 8191 8191 8191 8191 8191 8191 8191 8191 8191 8191 8191 8191 8191 8191 8191 8191 8191 8191 8191 8191 8191 8191 8191 8191 8191 8191 8191 8191 8191 8191 8191 8191 8191 8191 8191 8191 8191 8191 8191 8191 8191 8191 8191 8191 8191 8191 8191 8191 8191 8191 8191 8191 8191 8191 8191 8191 8191 8191 8191 8191 8191 8191 8191 8191 8191 
1115401094788145 201 8191 8191 8191 8191 8191 8191 8191 8191 8191 8191 8191 8191 8191 8191 8191 8191 8191 8191 8191 8191 8191 8191 8191 8191 8191 8191 8191 8191 8191 8191 8191 8191 8191 8191 8191 8191 8191 8191 8191 8191 8191 8191 8191 8191 8191 8191 8191 8191 8191 8191 8191 8191 8191 8191 8191 8191 8191 8191 8191 8191 8191 8191 8191 8191 8191 8191 8191 8191 8191 8191 8191 8191 8191 8191 8191 8191 2893 8191 2885 8191 8191 2863 2860 2868 2852 2851 2843 2837 2830 2839 2832 2840 2844 2841 2827 2832 2832 2833 2828 2829 2824 2827 2831 2839 2849 2846 2834 2851 2849 8191 2844 2860 2846 2859 2862 2859 2861 2866 2869 2869 2874 2884 2896 2910 2909 2918 2926 2937 2934 2943 2955 2953 2966 8191 2981 2989 8191 8191 8191 8191 8191 8191 8191 8191 8191 8191 8191 8191 8191 8191 8191 8191 8191 8191 8191 8191 8191 8191 8191 8191 8191 8191 8191 8191 8191 8191 8191 8191 8191 8191 8191 8191 8191 8191 8191 8191 8191 8191 8191 8191 8191 8191 8191 8191 8191 8191 8191 8191 8191 8191 8191 8191 8191 8191 8191 8191 8191 8191 8191 8191 8191 
1115401094930123 201 8191 8191 8191 8191 8191 8191 8191 8191 8191 8191 8191 8191 8191 8191 8191 8191 8191 8191 8191 8191 8191 8191 8191 8191 8191 8191 8191 8191 8191 8191 8191 8191 8191 8191 8191 8191 8191 8191 8191 8191 8191 8191 8191 8191 8191 8191 8191 8191 8191 8191 8191 8191 8191 8191 8191 8191 8191 8191 8191 8191 8191 8191 8191 8191 8191 8191 8191 8191 8191 8191 8191 8191 8191 8191 8191 8191 2899 2892 2888 8191 8191 2864 2866 2875 2860 2849 2841 2834 2833 2839 2828 2841 2837 2839 2826 2839 2840 2834 2825 2829 2819 2830 2825 2837 2837 2844 2836 2838 8191 2852 2832 8191 2844 2860 2863 2862 2866 2858 2863 2871 2869 2881 8191 2906 2900 8191 2929 2935 2931 2939 2951 2950 2963 2971 2983 8191 8191 8191 8191 8191 8191 8191 8191 8191 8191 8191 8191 8191 8191 8191 8191 8191 8191 8191 8191 8191 8191 8191 8191 8191 8191 8191 8191 8191 8191 8191 8191 8191 8191 8191 8191 8191 8191 8191 8191 8191 8191 8191 8191 8191 8191 8191 8191 8191 8191 8191 8191 8191 8191 8191 8191 8191 8191 8191 8191 8191 8191 8191 8191 8191 8191 
1115401095072103 201 8191 8191 8191 8191 8191 8191 8191 8191 8191 8191 8191 8191 8191 8191 8191 8191 8191 8191 8191 8191 8191 8191 8191 8191 8191 8191 8191 8191 8191 8191 8191 8191 8191 8191 8191 8191 8191 8191 8191 8191 8191 8191 8191 8191 8191 8191 8191 8191 8191 8191 8191 8191 8191 8191 8191 8191 8191 8191 8191 8191 8191 8191 8191 8191 8191 8191 8191 8191 8191 8191 8191 8191 8191 8191 8191 8191 2905 8191 8191 2894 2871 2878 2878 2884 2871 2865 2844 2859 2842 2849 2838 2851 2840 2848 2831 2847 2837 2848 2833 2833 2828 2840 2835 2855 2845 2846 2840 2855 2847 8191 2843 2867 2858 2868 2872 2869 2863 2875 2874 2879 2869 2903 2898 2931 2906 2942 2931 2944 2937 2951 2958 2968 2967 2992 2991 3004 8191 8191 8191 8191 8191 8191 8191 8191 8191 8191 8191 8191 8191 8191 8191 8191 8191 8191 8191 8191 8191 8191 8191 8191 8191 8191 8191 8191 8191 8191 8191 8191 8191 8191 8191 8191 8191 8191 8191 8191 8191 8191 8191 8191 8191 8191 8191 8191 8191 8191 8191 8191 8191 8191 8191 8191 8191 8191 8191 8191 8191 8191 8191 8191 8191 
1115401095214081 201 8191 8191 8191 8191 8191 8191 8191 8191 8191 8191 8191 8191 8191 8191 8191 8191 8191 8191 8191 8191 8191 8191 8191 8191 8191 8191 8191 8191 8191 8191 8191 8191 8191 8191 8191 8191 8191 8191 8191 8191 8191 8191 8191 8191 8191 8191 8191 8191 8191 8191 8191 8191 8191 8191 8191 8191 8191 8191 8191 8191 8191 8191 8191 8191 8191 8191 8191 8191 8191 2934 8191 8191 8191 8191 8191 8191 8191 8191 8191 8191 8191 2867 2863 2871 2855 2853 2839 2843 2833 2838 2836 2846 2842 2837 2828 2833 2837 2830 2833 2826 2823 2832 2833 2842 2840 2838 2833 2847 8191 2850 2843 2847 2849 2867 2857 2865 2865 2867 2866 2878 2871 2894 2891 2909 2898 8191 2927 2929 2930 2951 2957 2958 2961 2976 8191 2999 3000 8191 8191 8191 8191 8191 8191 8191 8191 8191 8191 8191 8191 8191 8191 8191 8191 8191 8191 8191 8191 8191 8191 8191 8191 8191 8191 8191 8191 8191 8191 8191 8191 8191 8191 8191 8191 8191 8191 8191 8191 8191 8191 8191 8191 8191 8191 8191 8191 8191 8191 8191 8191 8191 8191 8191 8191 8191 8191 8191 8191 8191 8191 8191 8191 
1115401095356057 201 8191 8191 8191 8191 8191 8191 8191 8191 8191 8191 8191 8191 8191 8191 8191 8191 8191 8191 8191 8191 8191 8191 8191 8191 8191 8191 8191 8191 8191 8191 8191 8191 8191 8191 8191 8191 8191 8191 8191 8191 8191 8191 8191 8191 8191 8191 8191 8191 8191 8191 8191 8191 8191 8191 8191 8191 8191 8191 8191 8191 8191 8191 8191 8191 8191 8191 8191 8191 2949 2925 8191 8191 8191 8191 8191 8191 2897 2878 8191 2866 2875 2861 2866 2860 2863 2839 2844 2824 2836 2822 2845 2834 2840 2822 2825 2821 2833 2815 2837 2812 2826 2817 2836 2825 2837 2823 2840 2829 2844 2831 2843 2837 2847 2843 2858 2840 2869 2858 2870 2863 2874 2876 2894 2904 8191 2911 2935 2922 2933 2931 2954 2942 2965 2960 2977 8191 8191 3007 8191 3020 8191 8191 8191 8191 8191 8191 8191 8191 8191 8191 8191 8191 8191 8191 8191 8191 8191 8191 8191 8191 8191 8191 8191 8191 8191 8191 8191 8191 8191 8191 8191 8191 8191 8191 8191 8191 8191 8191 8191 8191 8191 8191 8191 8191 8191 8191 8191 8191 8191 8191 8191 8191 8191 8191 8191 8191 8191 8191 8191 8191 8191 
1115401095498036 201 8191 8191 8191 8191 8191 8191 8191 8191 8191 8191 8191 8191 8191 8191 8191 8191 8191 8191 8191 8191 8191 8191 8191 8191 8191 8191 8191 8191 8191 8191 8191 8191 8191 8191 8191 8191 8191 8191 8191 8191 8191 8191 8191 8191 8191 8191 8191 8191 8191 8191 8191 8191 8191 8191 8191 8191 8191 8191 8191 8191 8191 8191 8191 8191 8191 8191 8191 8191 8191 8191 2939 8191 8191 8191 8191 8191 2901 8191 8191 8191 2882 2876 2878 2878 2879 2862 2850 2850 2849 2845 2844 2846 2850 2839 2846 2840 2847 2840 2839 2832 2839 2839 2836 2840 2846 2846 2850 2847 2867 2858 2859 8191 2854 2860 2868 2863 2882 2874 2877 2878 2877 2896 2901 2907 8191 2924 2934 2939 2938 2943 2964 2955 2979 2983 2993 2998 3024 8191 8191 8191 8191 8191 8191 8191 8191 8191 8191 8191 8191 8191 8191 8191 8191 8191 8191 8191 8191 8191 8191 8191 8191 8191 8191 8191 8191 8191 8191 8191 8191 8191 8191 8191 8191 8191 8191 8191 8191 8191 8191 8191 8191 8191 8191 8191 8191 8191 8191 8191 8191 8191 8191 8191 8191 8191 8191 8191 8191 8191 8191 8191 8191 
1115401095640013 201 8191 8191 8191 8191 8191 8191 8191 8191 8191 8191 8191 8191 8191 8191 8191 8191 8191 8191 8191 8191 8191 8191 8191 8191 8191 8191 8191 8191 8191 8191 8191 8191 8191 8191 8191 8191 8191 8191 8191 8191 8191 8191 8191 8191 8191 8191 8191 8191 8191 8191 8191 8191 8191 8191 8191 8191 8191 8191 8191 8191 8191 8191 8191 8191 8191 8191 2963 8191 8191 8191 8191 8191 8191 8191 8191 8191 2901 8191 8191 8191 2871 2873 2865 2873 2857 2854 2845 2845 2843 2842 2840 2840 2842 2841 2818 2838 2829 2841 2833 2824 2827 2832 2833 2838 2836 2842 2831 2843 2849 2849 2839 8191 2861 2853 2861 2861 2863 2869 2870 2871 2877 2883 2888 2896 8191 8191 2931 2940 2937 2942 2952 2960 2966 2973 2998 2988 8191 8191 8191 8191 8191 8191 8191 8191 8191 8191 8191 8191 8191 8191 8191 8191 8191 8191 8191 8191 8191 8191 8191 8191 8191 8191 8191 8191 8191 8191 8191 8191 8191 8191 8191 8191 8191 8191 8191 8191 8191 8191 8191 8191 8191 8191 8191 8191 8191 8191 8191 8191 8191 8191 8191 8191 8191 8191 8191 8191 8191 8191 8191 8191 8191 
1115401095781992 201 8191 8191 8191 8191 8191 8191 8191 8191 8191 8191 8191 8191 8191 8191 8191 8191 8191 8191 8191 8191 8191 8191 8191 8191 8191 8191 8191 8191 8191 8191 8191 8191 8191 8191 8191 8191 8191 8191 8191 8191 8191 8191 8191 8191 8191 8191 8191 8191 8191 8191 8191 8191 8191 8191 8191 8191 8191 8191 8191 8191 8191 8191 8191 8191 8191 8191 8191 8191 8191 8191 8191 8191 8191 8191 8191 8191 8191 8191 8191 8191 2860 2865 2862 2874 2851 2848 2833 2841 2823 2834 2824 2840 2830 2838 2816 2834 2822 2831 2817 2824 2815 2825 2817 2830 2825 2838 2829 2836 2826 2839 2832 8191 2831 2852 2855 2854 2860 2863 2859 2871 2869 2888 2888 2901 2901 8191 2901 2936 2918 2941 2940 2953 2964 2973 2975 3000 2988 8191 8191 8191 8191 8191 8191 8191 8191 8191 8191 8191 8191 8191 8191 8191 8191 8191 8191 8191 8191 8191 8191 8191 8191 8191 8191 8191 8191 8191 8191 8191 8191 8191 8191 8191 8191 8191 8191 8191 8191 8191 8191 8191 8191 8191 8191 8191 8191 8191 8191 8191 8191 8191 8191 8191 8191 8191 8191 8191 8191 8191 8191 8191 8191 
1115401095923970 201 8191 8191 8191 8191 8191 8191 8191 8191 8191 8191 8191 8191 8191 8191 8191 8191 8191 8191 8191 8191 8191 8191 8191 8191 8191 8191 8191 8191 8191 8191 8191 8191 8191 8191 8191 8191 8191 8191 8191 8191 8191 8191 8191 8191 8191 8191 8191 8191 8191 8191 8191 8191 8191 8191 8191 8191 8191 8191 8191 8191 8191 8191 8191 8191 8191 8191 8191 8191 8191 8191 8191 8191 8191 8191 8191 2905 8191 2907 8191 2892 2889 2879 2878 2877 2872 2858 2856 2845 2847 2839 2842 2845 2844 2842 2840 2841 2850 2845 2836 2827 2830 2839 2836 2841 2847 2844 2843 2849 2867 2868 2851 2858 2853 2862 2872 2867 2864 2871 2870 2880 2880 2892 2900 8191 2930 8191 2929 2934 2931 2950 2956 2965 8191 2966 2983 3005 8191 8191 8191 8191 8191 8191 8191 8191 8191 8191 8191 8191 8191 8191 8191 8191 8191 8191 8191 8191 8191 8191 8191 8191 8191 8191 8191 8191 8191 8191 8191 8191 8191 8191 8191 8191 8191 8191 8191 8191 8191 8191 8191 8191 8191 8191 8191 8191 8191 8191 8191 8191 8191 8191 8191 8191 8191 8191 8191 8191 8191 8191 8191 8191 8191 
1115401096065951 201 8191 8191 8191 8191 8191 8191 8191 8191 8191 8191 8191 8191 8191 8191 8191 8191 8191 8191 8191 8191 8191 8191 8191 8191 8191 8191 8191 8191 8191 8191 8191 8191 8191 8191 8191 8191 8191 8191 8191 8191 8191 8191 8191 8191 8191 8191 8191 8191 8191 8191 8191 8191 8191 8191 8191 8191 8191 8191 8191 8191 8191 8191 8191 8191 8191 8191 8191 8191 8191 8191 8191 8191 8191 8191 8191 8191 2900 8191 2906 2899 8191 2875 2863 8191 2862 2848 2845 2846 2840 2833 2840 2842 2843 2841 2836 2852 2830 2840 2837 2825 2827 2830 2839 2836 2843 2846 2834 2845 8191 2852 2836 8191 2839 2853 2861 2864 2877 2864 2872 2873 2872 2893 2900 8191 2914 8191 2940 2932 2936 2951 2953 2957 2967 2979 2978 8191 2999 8191 8191 8191 8191 8191 8191 8191 8191 8191 8191 8191 8191 8191 8191 8191 8191 8191 8191 8191 8191 8191 8191 8191 8191 8191 8191 8191 8191 8191 8191 8191 8191 8191 8191 8191 8191 8191 8191 8191 8191 8191 8191 8191 8191 8191 8191 8191 8191 8191 8191 8191 8191 8191 8191 8191 8191 8191 8191 8191 8191 8191 8191 8191 8191 
1115401096207929 201 8191 8191 8191 8191 8191 8191 8191 8191 8191 8191 8191 8191 8191 8191 8191 8191 8191 8191 8191 8191 8191 8191 8191 8191 8191 8191 8191 8191 8191 8191 8191 8191 8191 8191 8191 8191 8191 8191 8191 8191 8191 8191 8191 8191 8191 8191 8191 8191 8191 8191 8191 8191 8191 8191 8191 8191 8191 8191 8191 8191 8191 8191 8191 8191 8191 8191 8191 8191 8191 8191 8191 8191 8191 8191 8191 2905 8191 8191 2885 2872 2883 2881 8191 2867 2858 2841 2843 2833 2838 2835 2835 2838 2844 2830 2829 2831 2842 2827 2828 2821 2818 2825 2836 2832 2850 2839 2839 2837 2854 2834 2839 2841 2853 2846 2859 2849 2861 2862 2860 2869 2872 8191 2894 2895 2911 2908 2921 2929 2940 2940 2954 2958 2964 2977 8191 2992 8191 8191 8191 8191 8191 8191 8191 8191 8191 8191 8191 8191 8191 8191 8191 8191 8191 8191 8191 8191 8191 8191 8191 8191 8191 8191 8191 8191 8191 8191 8191 8191 8191 8191 8191 8191 8191 8191 8191 8191 8191 8191 8191 8191 8191 8191 8191 8191 8191 8191 8191 8191 8191 8191 8191 8191 8191 8191 8191 8191 8191 8191 8191 8191 8191 
1115401096349909 201 8191 8191 8191 8191 8191 8191 8191 8191 8191 8191 8191 8191 8191 8191 8191 8191 8191 8191 8191 8191 8191 8191 8191 8191 8191 8191 8191 8191 8191 8191 8191 8191 8191 8191 8191 8191 8191 8191 8191 8191 8191 8191 8191 8191 8191 8191 8191 8191 8191 8191 8191 8191 8191 8191 8191 8191 8191 8191 8191 8191 8191 8191 8191 8191 8191 8191 8191 8191 8191 8191 8191 8191 8191 8191 8191 8191 2898 2893 2893 2888 8191 2889 2863 2878 2867 2859 2851 2855 2837 2845 2844 2848 2845 2845 2833 2849 2844 2841 2839 2832 2831 2833 2838 2841 2843 2841 2843 2840 2845 2847 2846 2847 2842 2855 2858 2852 2872 2864 2873 2875 2882 2888 8191 8191 8191 8191 2927 8191 2938 2940 2962 2956 8191 2977 2990 2988 8191 8191 8191 8191 8191 8191 8191 8191 8191 8191 8191 8191 8191 8191 8191 8191 8191 8191 8191 8191 8191 8191 8191 8191 8191 8191 8191 8191 8191 8191 8191 8191 8191 8191 8191 8191 8191 8191 8191 8191 8191 8191 8191 8191 8191 8191 8191 8191 8191 8191 8191 8191 8191 8191 8191 8191 8191 8191 8191 8191 8191 8191 8191 8191 8191 
1115401096491884 201 8191 8191 8191 8191 8191 8191 8191 8191 8191 8191 8191 8191 8191 8191 8191 8191 8191 8191 8191 8191 8191 8191 8191 8191 8191 8191 8191 8191 8191 8191 8191 8191 8191 8191 8191 8191 8191 8191 8191 8191 8191 8191 8191 8191 8191 8191 8191 8191 8191 8191 8191 8191 8191 8191 8191 8191 8191 8191 8191 8191 8191 8191 8191 8191 8191 8191 8191 8191 8191 2929 8191 8191 8191 8191 8191 8191 2906 8191 8191 8191 2869 2857 2863 2861 2859 2839 2839 2833 2830 2820 2836 2838 2841 2826 2828 2827 2836 2829 2827 2818 2826 2819 2824 2830 2851 2833 2835 2832 2852 2834 2834 2842 2846 2848 2857 2849 2859 2861 2861 2864 2872 2882 2888 2901 8191 2922 2925 2926 2933 2929 2952 2947 2972 8191 2985 2983 2998 8191 8191 3023 8191 8191 8191 8191 8191 8191 8191 8191 8191 8191 8191 8191 8191 8191 8191 8191 8191 8191 8191 8191 8191 8191 8191 8191 8191 8191 8191 8191 8191 8191 8191 8191 8191 8191 8191 8191 8191 8191 8191 8191 8191 8191 8191 8191 8191 8191 8191 8191 8191 8191 8191 8191 8191 8191 8191 8191 8191 8191 8191 8191 8191 
1115401096633865 201 8191 8191 8191 8191 8191 8191 8191 8191 8191 8191 8191 8191 8191 8191 8191 8191 8191 8191 8191 8191 8191 8191 8191 8191 8191 8191 8191 8191 8191 8191 8191 8191 8191 8191 8191 8191 8191 8191 8191 8191 8191 8191 8191 8191 8191 8191 8191 8191 8191 8191 8191 8191 8191 8191 8191 8191 8191 8191 8191 8191 8191 8191 8191 8191 8191 8191 8191 8191 8191 2946 8191 2932 8191 8191 8191 8191 8191 2894 8191 8191 2892 2872 2874 2871 2875 2853 2851 2846 2845 2837 2851 2844 2846 2843 2841 2850 2848 2844 2837 2826 2825 2824 2835 2838 2852 2840 2846 2843 2864 2850 2865 2873 2854 2858 2867 2854 2873 2865 2869 2873 2869 2890 2906 2905 8191 8191 8191 2928 2935 2941 2957 2956 2963 2971 2989 8191 8191 8191 8191 8191 8191 8191 8191 8191 8191 8191 8191 8191 8191 8191 8191 8191 8191 8191 8191 8191 8191 8191 8191 8191 8191 8191 8191 8191 8191 8191 8191 8191 8191 8191 8191 8191 8191 8191 8191 8191 8191 8191 8191 8191 8191 8191 8191 8191 8191 8191 8191 8191 8191 8191 8191 8191 8191 8191 8191 8191 8191 8191 8191 8191 8191 
1115401096775850 201 8191 8191 8191 8191 8191 8191 8191 8191 8191 8191 8191 8191 8191 8191 8191 8191 8191 8191 8191 8191 8191 8191 8191 8191 8191 8191 8191 8191 8191 8191 8191 8191 8191 8191 8191 8191 8191 8191 8191 8191 8191 8191 8191 8191 8191 8191 8191 8191 8191 8191 8191 8191 8191 8191 8191 8191 8191 8191 8191 8191 8191 8191 8191 8191 8191 8191 8191 8191 8191 2942 2948 8191 8191 8191 8191 8191 8191 8191 8191 2886 2883 2873 2869 2877 2860 2859 2849 2851 2843 2843 2840 2844 2844 2845 2835 2845 2838 2845 2833 2828 2823 2832 2839 2836 2841 2845 2839 2845 2855 8191 2851 8191 2855 2857 8191 2863 2869 2868 2866 2874 2875 2896 2891 8191 8191 2915 8191 2930 2932 2942 2963 2960 2966 2978 2989 2994 8191 8191 8191 8191 8191 8191 8191 8191 8191 8191 8191 8191 8191 8191 8191 8191 8191 8191 8191 8191 8191 8191 8191 8191 8191 8191 8191 8191 8191 8191 8191 8191 8191 8191 8191 8191 8191 8191 8191 8191 8191 8191 8191 8191 8191 8191 8191 8191 8191 8191 8191 8191 8191 8191 8191 8191 8191 8191 8191 8191 8191 8191 8191 8191 8191 
1115401096917820 201 8191 8191 8191 8191 8191 8191 8191 8191 8191 8191 8191 8191 8191 8191 8191 8191 8191 8191 8191 8191 8191 8191 8191 8191 8191 8191 8191 8191 8191 8191 8191 8191 8191 8191 8191 8191 8191 8191 8191 8191 8191 8191 8191 8191 8191 8191 8191 8191 8191 8191 8191 8191 8191 8191 8191 8191 8191 8191 8191 8191 8191 8191 8191 8191 8191 8191 8191 8191 8191 8191 8191 8191 8191 8191 8191 8191 8191 2907 8191 2883 2868 2866 2861 2868 2856 2847 2832 2842 2824 2834 2824 2841 2831 2833 2813 2829 2823 2830 2823 2820 2814 2825 2824 2833 2820 2841 2828 2832 2829 2839 2839 2840 2829 2852 2849 2843 2859 2862 2864 2870 2863 2886 8191 8191 2894 2908 2913 2930 2924 2938 2940 2954 2962 2976 2974 2992 8191 8191 8191 8191 8191 8191 8191 8191 8191 8191 8191 8191 8191 8191 8191 8191 8191 8191 8191 8191 8191 8191 8191 8191 8191 8191 8191 8191 8191 8191 8191 8191 8191 8191 8191 8191 8191 8191 8191 8191 8191 8191 8191 8191 8191 8191 8191 8191 8191 8191 8191 8191 8191 8191 8191 8191 8191 8191 8191 8191 8191 8191 8191 8191 8191 
1115401097059800 201 8191 8191 8191 8191 8191 8191 8191 8191 8191 8191 8191 8191 8191 8191 8191 8191 8191 8191 8191 8191 8191 8191 8191 8191 8191 8191 8191 8191 8191 8191 8191 8191 8191 8191 8191 8191 8191 8191 8191 8191 8191 8191 8191 8191 8191 8191 8191 8191 8191 8191 8191 8191 8191 8191 8191 8191 8191 8191 8191 8191 8191 8191 8191 8191 8191 8191 8191 8191 8191 8191 8191 2936 8191 8191 8191 2897 8191 8191 8191 8191 8191 2868 2878 2874 2865 2850 2846 2842 2845 2835 2843 2845 2843 2839 2833 2837 2839 2834 2836 2829 2833 2834 2837 2839 2854 2840 2845 2837 8191 2847 2844 2844 2844 2856 2868 2856 2871 2864 2871 2872 2873 2885 2907 8191 8191 8191 2923 2930 2940 2943 2957 2951 8191 2961 8191 2992 3012 8191 8191 8191 8191 8191 8191 8191 8191 8191 8191 8191 8191 8191 8191 8191 8191 8191 8191 8191 8191 8191 8191 8191 8191 8191 8191 8191 8191 8191 8191 8191 8191 8191 8191 8191 8191 8191 8191 8191 8191 8191 8191 8191 8191 8191 8191 8191 8191 8191 8191 8191 8191 8191 8191 8191 8191 8191 8191 8191 8191 8191 8191 8191 8191 
1115401097201778 201 8191 8191 8191 8191 8191 8191 8191 8191 8191 8191 8191 8191 8191 8191 8191 8191 8191 8191 8191 8191 8191 8191 8191 8191 8191 8191 8191 8191 8191 8191 8191 8191 8191 8191 8191 8191 8191 8191 8191 8191 8191 8191 8191 8191 8191 8191 8191 8191 8191 8191 8191 8191 8191 8191 8191 8191 8191 8191 8191 8191 8191 8191 8191 8191 8191 8191 8191 8191 8191 8191 8191 8191 8191 8191 8191 8191 2899 8191 8191 8191 8191 2884 2877 2866 2867 2853 2847 2846 2839 2839 2847 2849 2845 2844 2828 2836 2840 2839 2832 2835 2825 2835 2837 2837 2844 2850 2841 2846 8191 2858 2850 2850 2859 8191 8191 2858 2868 2873 2867 2879 2880 2898 2891 2906 2918 2929 8191 2938 2931 2951 2959 2960 2971 2974 8191 2999 3005 8191 8191 8191 8191 8191 8191 8191 8191 8191 8191 8191 8191 8191 8191 8191 8191 8191 8191 8191 8191 8191 8191 8191 8191 8191 8191 8191 8191 8191 8191 8191 8191 8191 8191 8191 8191 8191 8191 8191 8191 8191 8191 8191 8191 8191 8191 8191 8191 8191 8191 8191 8191 8191 8191 8191 8191 8191 8191 8191 8191 8191 8191 8191 8191 
1115401097343756 201 8191 8191 8191 8191 8191 8191 8191 8191 8191 8191 8191 8191 8191 8191 8191 8191 8191 8191 8191 8191 8191 8191 8191 8191 8191 8191 8191 8191 8191 8191 8191 8191 8191 8191 8191 8191 8191 8191 8191 8191 8191 8191 8191 8191 8191 8191 8191 8191 8191 8191 8191 8191 8191 8191 8191 8191 8191 8191 8191 8191 8191 8191 8191 8191 8191 8191 8191 8191 8191 8191 8191 8191 8191 8191 8191 8191 8191 2892 8191 2893 8191 2864 2866 2866 2867 2846 2845 2832 2833 2834 2835 2839 2834 2833 2830 2833 2832 2832 2832 2823 2820 2823 2827 2831 2837 2844 2837 2843 8191 8191 2843 8191 2836 2867 2861 2861 2862 2866 2872 2874 2865 2886 2889 2910 2898 8191 2936 2930 2932 2942 2953 2956 2961 2974 2994 2997 3007 8191 8191 8191 8191 8191 8191 8191 8191 8191 8191 8191 8191 8191 8191 8191 8191 8191 8191 8191 8191 8191 8191 8191 8191 8191 8191 8191 8191 8191 8191 8191 8191 8191 8191 8191 8191 8191 8191 8191 8191 8191 8191 8191 8191 8191 8191 8191 8191 8191 8191 8191 8191 8191 8191 8191 8191 8191 8191 8191 8191 8191 8191 8191 8191 
1115401097485736 201 8191 8191 8191 8191 8191 8191 8191 8191 8191 8191 8191 8191 8191 8191 8191 8191 8191 8191 8191 8191 8191 8191 8191 8191 8191 8191 8191 8191 8191 8191 8191 8191 8191 8191 8191 8191 8191 8191 8191 8191 8191 8191 8191 8191 8191 8191 8191 8191 8191 8191 8191 8191 8191 8191 8191 8191 8191 8191 8191 8191 8191 8191 8191 8191 8191 8191 8191 8191 8191 8191 8191 8191 8191 8191 8191 8191 2903 8191 2891 2879 2881 2863 2871 2870 2867 2850 2850 2833 2848 2832 2834 2840 2843 2837 2831 2835 2841 2834 2827 2827 2822 2820 2832 2831 2835 2833 2837 2835 2842 8191 2842 2842 2841 2850 2856 2858 2866 2862 2867 2861 2877 2888 2890 2893 2897 2902 2935 2933 2932 2935 2955 2952 2959 8191 8191 2986 8191 8191 8191 8191 8191 8191 8191 8191 8191 8191 8191 8191 8191 8191 8191 8191 8191 8191 8191 8191 8191 8191 8191 8191 8191 8191 8191 8191 8191 8191 8191 8191 8191 8191 8191 8191 8191 8191 8191 8191 8191 8191 8191 8191 8191 8191 8191 8191 8191 8191 8191 8191 8191 8191 8191 8191 8191 8191 8191 8191 8191 8191 8191 8191 8191 
1115401097627712 201 8191 8191 8191 8191 8191 8191 8191 8191 8191 8191 8191 8191 8191 8191 8191 8191 8191 8191 8191 8191 8191 8191 8191 8191 8191 8191 8191 8191 8191 8191 8191 8191 8191 8191 8191 8191 8191 8191 8191 8191 8191 8191 8191 8191 8191 8191 8191 8191 8191 8191 8191 8191 8191 8191 8191 8191 8191 8191 8191 8191 8191 8191 8191 8191 8191 8191 8191 8191 8191 8191 8191 8191 8191 8191 8191 8191 8191 8191 8191 8191 2877 2882 2870 2873 2866 2850 2848 2849 2838 2842 2848 2848 2839 2842 2835 2841 2845 2835 2832 2830 2830 2833 2831 2836 2847 2843 2840 2840 2854 2850 2856 2842 2867 2855 2871 2859 2881 2866 2873 2873 2886 2889 2894 8191 8191 8191 8191 2927 2935 2945 2955 2957 2983 2973 2996 8191 3001 8191 8191 8191 8191 8191 8191 8191 8191 8191 8191 8191 8191 8191 8191 8191 8191 8191 8191 8191 8191 8191 8191 8191 8191 8191 8191 8191 8191 8191 8191 8191 8191 8191 8191 8191 8191 8191 8191 8191 8191 8191 8191 8191 8191 8191 8191 8191 8191 8191 8191 8191 8191 8191 8191 8191 8191 8191 8191 8191 8191 8191 8191 8191 8191 
1115401097769690 201 8191 8191 8191 8191 8191 8191 8191 8191 8191 8191 8191 8191 8191 8191 8191 8191 8191 8191 8191 8191 8191 8191 8191 8191 8191 8191 8191 8191 8191 8191 8191 8191 8191 8191 8191 8191 8191 8191 8191 8191 8191 8191 8191 8191 8191 8191 8191 8191 8191 8191 8191 8191 8191 8191 8191 8191 8191 8191 8191 8191 8191 8191 8191 8191 8191 8191 8191 8191 8191 8191 8191 8191 8191 8191 8191 8191 2906 2890 2896 8191 2889 2868 2863 2872 2870 2851 2839 2836 2832 2839 2827 2840 2841 2837 2825 2832 2826 2828 2823 2818 2824 2828 2829 2841 2839 2839 2839 2836 2843 2842 2853 2837 2842 2867 2857 2855 2863 2865 2866 2869 2872 2898 2895 2896 8191 2918 2936 2928 2931 2942 2955 2950 2969 2977 2994 8191 2999 8191 8191 8191 8191 8191 8191 8191 8191 8191 8191 8191 8191 8191 8191 8191 8191 8191 8191 8191 8191 8191 8191 8191 8191 8191 8191 8191 8191 8191 8191 8191 8191 8191 8191 8191 8191 8191 8191 8191 8191 8191 8191 8191 8191 8191 8191 8191 8191 8191 8191 8191 8191 8191 8191 8191 8191 8191 8191 8191 8191 8191 8191 8191 8191 
1115401097911669 201 8191 8191 8191 8191 8191 8191 8191 8191 8191 8191 8191 8191 8191 8191 8191 8191 8191 8191 8191 8191 8191 8191 8191 8191 8191 8191 8191 8191 8191 8191 8191 8191 8191 8191 8191 8191 8191 8191 8191 8191 8191 8191 8191 8191 8191 8191 8191 8191 8191 8191 8191 8191 8191 8191 8191 8191 8191 8191 8191 8191 8191 8191 8191 8191 8191 8191 8191 8191 8191 8191 8191 8191 8191 8191 8191 8191 8191 8191 8191 8191 2870 2866 2879 2869 2871 2854 2838 2841 2841 2839 2833 2845 2838 2838 2826 2837 2840 2835 2827 2826 2822 2828 2828 2832 2834 2845 2831 2841 2835 2843 2842 2838 2838 2853 2854 2860 2862 2870 2865 2868 2870 2887 2890 2896 2898 8191 2915 2934 2930 2944 2952 2950 2956 2972 8191 3001 3004 8191 8191 8191 8191 8191 8191 8191 8191 8191 8191 8191 8191 8191 8191 8191 8191 8191 8191 8191 8191 8191 8191 8191 8191 8191 8191 8191 8191 8191 8191 8191 8191 8191 8191 8191 8191 8191 8191 8191 8191 8191 8191 8191 8191 8191 8191 8191 8191 8191 8191 8191 8191 8191 8191 8191 8191 8191 8191 8191 8191 8191 8191 8191 8191 
1115401098053647 201 8191 8191 8191 8191 8191 8191 8191 8191 8191 8191 8191 8191 8191 8191 8191 8191 8191 8191 8191 8191 8191 8191 8191 8191 8191 8191 8191 8191 8191 8191 8191 8191 8191 8191 8191 8191 8191 8191 8191 8191 8191 8191 8191 8191 8191 8191 8191 8191 8191 8191 8191 8191 8191 8191 8191 8191 8191 8191 8191 8191 8191 8191 8191 8191 8191 8191 8191 8191 8191 8191 8191 8191 8191 8191 8191 8191 8191 8191 8191 8191 2885 2873 2875 2873 2866 2863 2850 2845 2841 2834 2842 2844 2840 2839 2837 2841 2852 2841 2834 2832 2833 2828 2837 2840 2845 2840 2844 2850 2852 8191 2856 2863 2856 2873 2861 2876 2881 2868 2872 2875 2871 2887 2896 8191 2923 2926 2925 2939 2939 2949 2955 2963 2965 8191 8191 3000 8191 8191 8191 3060 8191 8191 8191 8191 8191 8191 8191 8191 8191 8191 8191 8191 8191 8191 8191 8191 8191 8191 8191 8191 8191 8191 8191 8191 8191 8191 8191 8191 8191 8191 8191 8191 8191 8191 8191 8191 8191 8191 8191 8191 8191 8191 8191 8191 8191 8191 8191 8191 8191 8191 8191 8191 8191 8191 8191 8191 8191 8191 8191 8191 8191 
1115401098195625 201 8191 8191 8191 8191 8191 8191 8191 8191 8191 8191 8191 8191 8191 8191 8191 8191 8191 8191 8191 8191 8191 8191 8191 8191 8191 8191 8191 8191 8191 8191 8191 8191 8191 8191 8191 8191 8191 8191 8191 8191 8191 8191 8191 8191 8191 8191 8191 8191 8191 8191 8191 8191 8191 8191 8191 8191 8191 8191 8191 8191 8191 8191 8191 8191 8191 8191 8191 8191 8191 8191 8191 8191 8191 8191 8191 8191 8191 8191 8191 8191 2866 8191 2866 2870 8191 2841 2841 2840 2835 2839 2824 2846 2838 2831 2822 2832 2846 2834 2825 2830 2824 2830 2827 2847 2838 2840 2839 2842 8191 8191 2837 2857 2845 2857 2859 2862 2868 2864 2867 2876 2873 8191 2887 2907 2901 8191 2933 2937 2933 2952 2952 8191 2965 2975 8191 8191 8191 8191 8191 8191 3058 8191 8191 8191 8191 8191 8191 8191 8191 8191 8191 8191 8191 8191 8191 8191 8191 8191 8191 8191 8191 8191 8191 8191 8191 8191 8191 8191 8191 8191 8191 8191 8191 8191 8191 8191 8191 8191 8191 8191 8191 8191 8191 8191 8191 8191 8191 8191 8191 8191 8191 8191 8191 8191 8191 8191 8191 8191 8191 8191 8191 
1115401098337606 201 8191 8191 8191 8191 8191 8191 8191 8191 8191 8191 8191 8191 8191 8191 8191 8191 8191 8191 8191 8191 8191 8191 8191 8191 8191 8191 8191 8191 8191 8191 8191 8191 8191 8191 8191 8191 8191 8191 8191 8191 8191 8191 8191 8191 8191 8191 8191 8191 8191 8191 8191 8191 8191 8191 8191 8191 8191 8191 8191 8191 8191 8191 8191 8191 8191 8191 8191 8191 8191 8191 2934 8191 8191 8191 2914 8191 2907 2890 2889 8191 2872 2861 2869 2867 2865 2846 2843 2840 2839 2835 2842 2841 2842 2834 2827 2828 2845 2827 2835 2823 2829 2823 2831 2832 2837 2826 2833 2834 2849 2843 2840 2842 2845 8191 2856 2849 2864 2854 2865 2867 2873 2875 2887 2882 8191 2900 2916 2922 2932 2934 2957 2945 2964 2959 2972 2981 3014 8191 8191 8191 8191 8191 8191 8191 8191 8191 8191 8191 8191 8191 8191 8191 8191 8191 8191 8191 8191 8191 8191 8191 8191 8191 8191 8191 8191 8191 8191 8191 8191 8191 8191 8191 8191 8191 8191 8191 8191 8191 8191 8191 8191 8191 8191 8191 8191 8191 8191 8191 8191 8191 8191 8191 8191 8191 8191 8191 8191 8191 8191 8191 8191 
