MDF_name	Sample_MDF_Rev_1.2
RNDF	Sample_RNDF_Rev_1.2
format_version	1.0
creation_date	5/18/2006
checkpoints	
num_checkpoints	3
1
2		
end_checkpoints			
speed_limits			
num_speed_limits	4		
1	5	25	
2	0	20
3	0	25	
4	5	20
end_speed_limits		
end_file		
