<kml>
<Document>
<name>trafsim_generated_kml_file</name>
<Folder><name>1</name>
<Placemark>
<Style>
<LineStyle>
<color>ffff1111</color>
<width>2</width>
</LineStyle>
</Style>
<LineString>
  <coordinates>
  -117.75142433,33.67234943,0.0
  -117.75142468,33.67234873,0.0
  -117.75150260,33.67217563,0.0
  -117.75156463,33.67197929,0.0
  -117.75162110,33.67177354,0.0
  -117.75164079,33.67164370,0.0
  -117.75162610,33.67141613,0.0
  -117.75158861,33.67121053,0.0
  -117.75151320,33.67099961,0.0
  -117.75142744,33.67081929,0.0
  -117.75132851,33.67064939,0.0
  -117.75115760,33.67045378,0.0
  -117.75095163,33.67027266,0.0
  -117.75048132,33.66989999,0.0
  -117.74978612,33.66940701,0.0
  -117.74953843,33.66923437,0.0
  -117.74935670,33.66913610,0.0
  -117.74887159,33.66893216,0.0
  -117.74808858,33.66862974,0.0
  -117.74752826,33.66845172,0.0
  -117.74682273,33.66827508,0.0
  -117.74620238,33.66818768,0.0
  -117.74546985,33.66813188,0.0
  -117.74490039,33.66810530,0.0
  -117.74446825,33.66806351,0.0
  -117.74417023,33.66799220,0.0
  -117.74390872,33.66791930,0.0
  -117.74389170,33.66796209,0.0
</coordinates>
</LineString></Placemark>
<Placemark>
<Style>
<LineStyle>
<color>ffff1111</color>
<width>2</width>
</LineStyle>
</Style>
<LineString>
  <coordinates>
  -117.74386497,33.66801129,0.0
  -117.74386914,33.66801282,0.0
  -117.74413390,33.66808664,0.0
  -117.74444780,33.66816121,0.0
  -117.74489209,33.66820426,0.0
  -117.74546114,33.66823082,0.0
  -117.74618755,33.66828611,0.0
  -117.74679387,33.66837129,0.0
  -117.74749016,33.66854567,0.0
  -117.74804109,33.66872065,0.0
  -117.74882008,33.66902153,0.0
  -117.74929972,33.66922312,0.0
  -117.74946571,33.66931276,0.0
  -117.74970973,33.66948292,0.0
  -117.75040195,33.66997373,0.0
  -117.75086841,33.67034338,0.0
  -117.75106590,33.67051672,0.0
  -117.75122630,33.67069972,0.0
  -117.75131856,33.67085872,0.0
  -117.75140098,33.67103182,0.0
  -117.75147265,33.67123145,0.0
  -117.75150796,33.67142533,0.0
  -117.75152219,33.67164141,0.0
  -117.75150487,33.67175359,0.0
  -117.75144936,33.67195574,0.0
  -117.75139004,33.67214431,0.0
  -117.75131432,33.67231227,0.0
  -117.75131469,33.67231154,0.0
</coordinates>
</LineString></Placemark>
<Placemark>
<Style>
<LineStyle>
<color>ffff1111</color>
<width>2</width>
</LineStyle>
</Style>
<LineString>
  <coordinates>
  -117.74052343,33.66777191,0.0
  -117.74052131,33.66777377,0.0
  -117.74051045,33.66778491,0.0
  -117.74049793,33.66779800,0.0
  -117.74048366,33.66781308,0.0
  -117.74046801,33.66782974,0.0
  -117.74045129,33.66784760,0.0
  -117.74043383,33.66786629,0.0
  -117.74041597,33.66788543,0.0
  -117.74039804,33.66790461,0.0
  -117.74038039,33.66792347,0.0
  -117.74036336,33.66794158,0.0
  -117.74034731,33.66795857,0.0
  -117.74033258,33.66797401,0.0
  -117.74031932,33.66798776,0.0
  -117.74030638,33.66800100,0.0
  -117.74029363,33.66801392,0.0
  -117.74028113,33.66802648,0.0
  -117.74026893,33.66803865,0.0
  -117.74025708,33.66805039,0.0
  -117.74024565,33.66806169,0.0
  -117.74023467,33.66807250,0.0
  -117.74022421,33.66808280,0.0
  -117.74021430,33.66809257,0.0
  -117.74020501,33.66810179,0.0
  -117.74019636,33.66811043,0.0
  -117.74018837,33.66811851,0.0
  -117.74018780,33.66811911,0.0
</coordinates>
</LineString></Placemark>
<Placemark>
<Style>
<LineStyle>
<color>ffff1111</color>
<width>2</width>
</LineStyle>
</Style>
<LineString>
  <coordinates>
  -117.73868338,33.66280565,0.0
  -117.73868324,33.66280580,0.0
  -117.73867791,33.66281136,0.0
  -117.73867185,33.66281770,0.0
  -117.73866511,33.66282474,0.0
  -117.73865775,33.66283243,0.0
  -117.73864983,33.66284070,0.0
  -117.73864143,33.66284947,0.0
  -117.73863260,33.66285869,0.0
  -117.73862342,33.66286829,0.0
  -117.73861394,33.66287819,0.0
  -117.73860422,33.66288834,0.0
  -117.73859434,33.66289867,0.0
  -117.73858436,33.66290910,0.0
  -117.73857434,33.66291958,0.0
  -117.73856434,33.66293004,0.0
  -117.73855442,33.66294041,0.0
  -117.73854467,33.66295061,0.0
  -117.73853513,33.66296060,0.0
  -117.73852587,33.66297029,0.0
  -117.73851695,33.66297964,0.0
  -117.73850844,33.66298856,0.0
  -117.73850041,33.66299699,0.0
  -117.73849291,33.66300486,0.0
  -117.73848601,33.66301212,0.0
  -117.73847977,33.66301870,0.0
  -117.73847419,33.66302459,0.0
  -117.73847377,33.66302504,0.0
</coordinates>
</LineString></Placemark>
<Placemark>
<Style>
<LineStyle>
<color>ffff1111</color>
<width>2</width>
</LineStyle>
</Style>
<LineString>
  <coordinates>
  -117.73856757,33.66308577,0.0
  -117.73856732,33.66308605,0.0
  -117.73857270,33.66308037,0.0
  -117.73857889,33.66307384,0.0
  -117.73858575,33.66306664,0.0
  -117.73859321,33.66305880,0.0
  -117.73860121,33.66305040,0.0
  -117.73860970,33.66304151,0.0
  -117.73861859,33.66303219,0.0
  -117.73862783,33.66302251,0.0
  -117.73863736,33.66301254,0.0
  -117.73864710,33.66300234,0.0
  -117.73865700,33.66299199,0.0
  -117.73866699,33.66298155,0.0
  -117.73867700,33.66297108,0.0
  -117.73868698,33.66296065,0.0
  -117.73869686,33.66295033,0.0
  -117.73870657,33.66294018,0.0
  -117.73871604,33.66293028,0.0
  -117.73872523,33.66292069,0.0
  -117.73873405,33.66291147,0.0
  -117.73874245,33.66290270,0.0
  -117.73875036,33.66289443,0.0
  -117.73875772,33.66288674,0.0
  -117.73876447,33.66287969,0.0
  -117.73877054,33.66287335,0.0
  -117.73877587,33.66286779,0.0
  -117.73877591,33.66286775,0.0
</coordinates>
</LineString></Placemark>
<Placemark>
<Style>
<LineStyle>
<color>ffff1111</color>
<width>2</width>
</LineStyle>
</Style>
<LineString>
  <coordinates>
  -117.74115929,33.66355462,0.0
  -117.74115890,33.66355501,0.0
  -117.74115078,33.66356342,0.0
  -117.74114381,33.66357083,0.0
  -117.74113765,33.66357751,0.0
  -117.74113180,33.66358394,0.0
  -117.74112563,33.66359070,0.0
  -117.74111845,33.66359847,0.0
  -117.74110954,33.66360795,0.0
  -117.74109823,33.66361980,0.0
  -117.74108387,33.66363461,0.0
  -117.74106585,33.66365299,0.0
  -117.74104356,33.66367552,0.0
  -117.74101638,33.66370276,0.0
  -117.74098319,33.66373583,0.0
  -117.74094111,33.66377759,0.0
  -117.74089123,33.66382695,0.0
  -117.74083529,33.66388225,0.0
  -117.74077499,33.66394178,0.0
  -117.74071205,33.66400389,0.0
  -117.74064817,33.66406689,0.0
  -117.74058507,33.66412912,0.0
  -117.74052444,33.66418890,0.0
  -117.74046799,33.66424455,0.0
  -117.74041744,33.66429441,0.0
  -117.74037448,33.66433681,0.0
  -117.74034081,33.66437008,0.0
  -117.74034049,33.66437040,0.0
</coordinates>
</LineString></Placemark>
<Placemark>
<Style>
<LineStyle>
<color>ffff1111</color>
<width>2</width>
</LineStyle>
</Style>
<LineString>
  <coordinates>
  -117.74043151,33.66443404,0.0
  -117.74043141,33.66443413,0.0
  -117.74046502,33.66440092,0.0
  -117.74050794,33.66435856,0.0
  -117.74055848,33.66430872,0.0
  -117.74061492,33.66425307,0.0
  -117.74067555,33.66419329,0.0
  -117.74073867,33.66413106,0.0
  -117.74080256,33.66406804,0.0
  -117.74086552,33.66400591,0.0
  -117.74092585,33.66394634,0.0
  -117.74098184,33.66389100,0.0
  -117.74103178,33.66384157,0.0
  -117.74107399,33.66379969,0.0
  -117.74110739,33.66376641,0.0
  -117.74113483,33.66373890,0.0
  -117.74115744,33.66371605,0.0
  -117.74117586,33.66369727,0.0
  -117.74119070,33.66368195,0.0
  -117.74120258,33.66366951,0.0
  -117.74121209,33.66365939,0.0
  -117.74121980,33.66365104,0.0
  -117.74122622,33.66364401,0.0
  -117.74123189,33.66363778,0.0
  -117.74123740,33.66363180,0.0
  -117.74124348,33.66362534,0.0
  -117.74125095,33.66361761,0.0
  -117.74125084,33.66361772,0.0
</coordinates>
</LineString></Placemark>
<Placemark>
<Style>
<LineStyle>
<color>ffff1111</color>
<width>2</width>
</LineStyle>
</Style>
<LineString>
  <coordinates>
  -117.74018614,33.66452632,0.0
  -117.74018637,33.66452608,0.0
  -117.74017406,33.66453817,0.0
  -117.74015966,33.66455227,0.0
  -117.74014337,33.66456819,0.0
  -117.74012536,33.66458577,0.0
  -117.74010583,33.66460484,0.0
  -117.74008493,33.66462522,0.0
  -117.74006287,33.66464674,0.0
  -117.74003981,33.66466922,0.0
  -117.74001593,33.66469250,0.0
  -117.73999142,33.66471641,0.0
  -117.73996644,33.66474077,0.0
  -117.73994118,33.66476541,0.0
  -117.73991582,33.66479016,0.0
  -117.73989053,33.66481486,0.0
  -117.73986549,33.66483932,0.0
  -117.73984088,33.66486339,0.0
  -117.73981688,33.66488688,0.0
  -117.73979366,33.66490964,0.0
  -117.73977140,33.66493148,0.0
  -117.73975028,33.66495224,0.0
  -117.73973047,33.66497175,0.0
  -117.73971215,33.66498985,0.0
  -117.73969550,33.66500636,0.0
  -117.73968067,33.66502112,0.0
  -117.73966765,33.66503419,0.0
  -117.73966626,33.66503573,0.0
</coordinates>
</LineString></Placemark>
<Placemark>
<Style>
<LineStyle>
<color>ffff1111</color>
<width>2</width>
</LineStyle>
</Style>
<LineString>
  <coordinates>
  -117.73976154,33.66509449,0.0
  -117.73975918,33.66509730,0.0
  -117.73977161,33.66508484,0.0
  -117.73978626,33.66507026,0.0
  -117.73980276,33.66505389,0.0
  -117.73982097,33.66503591,0.0
  -117.73984068,33.66501649,0.0
  -117.73986173,33.66499580,0.0
  -117.73988393,33.66497401,0.0
  -117.73990710,33.66495130,0.0
  -117.73993107,33.66492785,0.0
  -117.73995564,33.66490382,0.0
  -117.73998066,33.66487938,0.0
  -117.74000592,33.66485470,0.0
  -117.74003127,33.66482996,0.0
  -117.74005652,33.66480533,0.0
  -117.74008148,33.66478098,0.0
  -117.74010599,33.66475708,0.0
  -117.74012987,33.66473380,0.0
  -117.74015293,33.66471132,0.0
  -117.74017501,33.66468979,0.0
  -117.74019591,33.66466940,0.0
  -117.74021547,33.66465031,0.0
  -117.74023351,33.66463270,0.0
  -117.74024985,33.66461672,0.0
  -117.74026432,33.66460256,0.0
  -117.74027675,33.66459036,0.0
  -117.74027716,33.66458995,0.0
</coordinates>
</LineString></Placemark>
<Placemark>
<Style>
<LineStyle>
<color>ffff1111</color>
<width>2</width>
</LineStyle>
</Style>
<LineString>
  <coordinates>
  -117.73965854,33.66238933,0.0
  -117.73965616,33.66238783,0.0
  -117.73971069,33.66242642,0.0
  -117.73977988,33.66247557,0.0
  -117.73986113,33.66253341,0.0
  -117.73995187,33.66259809,0.0
  -117.74004951,33.66266773,0.0
  -117.74015145,33.66274048,0.0
  -117.74025514,33.66281449,0.0
  -117.74035798,33.66288790,0.0
  -117.74045740,33.66295885,0.0
  -117.74055082,33.66302549,0.0
  -117.74063566,33.66308597,0.0
  -117.74070935,33.66313843,0.0
  -117.74077046,33.66318184,0.0
  -117.74082440,33.66322012,0.0
  -117.74087272,33.66325438,0.0
  -117.74091592,33.66328497,0.0
  -117.74095451,33.66331226,0.0
  -117.74098900,33.66333659,0.0
  -117.74101987,33.66335832,0.0
  -117.74104764,33.66337781,0.0
  -117.74107280,33.66339541,0.0
  -117.74109586,33.66341148,0.0
  -117.74111731,33.66342637,0.0
  -117.74113766,33.66344042,0.0
  -117.74115749,33.66345406,0.0
  -117.74115898,33.66345501,0.0
</coordinates>
</LineString></Placemark>
<Placemark>
<Style>
<LineStyle>
<color>ffff1111</color>
<width>2</width>
</LineStyle>
</Style>
<LineString>
  <coordinates>
  -117.74123008,33.66337574,0.0
  -117.74123262,33.66337728,0.0
  -117.74121315,33.66336388,0.0
  -117.74119299,33.66334996,0.0
  -117.74117173,33.66333521,0.0
  -117.74114885,33.66331927,0.0
  -117.74112385,33.66330178,0.0
  -117.74109622,33.66328239,0.0
  -117.74106547,33.66326074,0.0
  -117.74103108,33.66323647,0.0
  -117.74099257,33.66320924,0.0
  -117.74094942,33.66317869,0.0
  -117.74090115,33.66314447,0.0
  -117.74084725,33.66310622,0.0
  -117.74078622,33.66306286,0.0
  -117.74071260,33.66301046,0.0
  -117.74062780,33.66295001,0.0
  -117.74053441,33.66288339,0.0
  -117.74043501,33.66281244,0.0
  -117.74033217,33.66273904,0.0
  -117.74022848,33.66266502,0.0
  -117.74012651,33.66259226,0.0
  -117.74002885,33.66252260,0.0
  -117.73993807,33.66245789,0.0
  -117.73985673,33.66240000,0.0
  -117.73978742,33.66235076,0.0
  -117.73973266,33.66231200,0.0
  -117.73973109,33.66231098,0.0
</coordinates>
</LineString></Placemark>
<Placemark>
<Style>
<LineStyle>
<color>ffff1111</color>
<width>2</width>
</LineStyle>
</Style>
<LineString>
  <coordinates>
  -117.74137350,33.66360012,0.0
  -117.74137419,33.66360058,0.0
  -117.74144776,33.66364899,0.0
  -117.74154128,33.66370918,0.0
  -117.74164973,33.66377929,0.0
  -117.74176858,33.66385779,0.0
  -117.74189316,33.66394301,0.0
  -117.74201881,33.66403334,0.0
  -117.74215306,33.66413258,0.0
  -117.74231172,33.66424691,0.0
  -117.74247977,33.66436947,0.0
  -117.74264215,33.66449368,0.0
  -117.74278339,33.66461255,0.0
  -117.74288753,33.66471815,0.0
  -117.74294151,33.66480163,0.0
  -117.74295788,33.66486603,0.0
  -117.74294938,33.66491943,0.0
  -117.74292136,33.66497301,0.0
  -117.74287647,33.66503212,0.0
  -117.74282092,33.66509941,0.0
  -117.74276329,33.66517648,0.0
  -117.74269146,33.66526072,0.0
  -117.74259992,33.66535419,0.0
  -117.74249922,33.66544973,0.0
  -117.74240018,33.66554016,0.0
  -117.74231328,33.66561875,0.0
  -117.74224874,33.66567905,0.0
  -117.74224865,33.66567914,0.0
</coordinates>
</LineString></Placemark>
<Placemark>
<Style>
<LineStyle>
<color>ffff1111</color>
<width>2</width>
</LineStyle>
</Style>
<LineString>
  <coordinates>
  -117.74233772,33.66574467,0.0
  -117.74233796,33.66574445,0.0
  -117.74240074,33.66568578,0.0
  -117.74248736,33.66560745,0.0
  -117.74258744,33.66551607,0.0
  -117.74269033,33.66541843,0.0
  -117.74278575,33.66532092,0.0
  -117.74286353,33.66522952,0.0
  -117.74291957,33.66515450,0.0
  -117.74297476,33.66508768,0.0
  -117.74302606,33.66501966,0.0
  -117.74306410,33.66494463,0.0
  -117.74307616,33.66485898,0.0
  -117.74305147,33.66476447,0.0
  -117.74298389,33.66466032,0.0
  -117.74287021,33.66454494,0.0
  -117.74272369,33.66442162,0.0
  -117.74255845,33.66429522,0.0
  -117.74238920,33.66417179,0.0
  -117.74223103,33.66405780,0.0
  -117.74209704,33.66395876,0.0
  -117.74196919,33.66386686,0.0
  -117.74184273,33.66378034,0.0
  -117.74172263,33.66370102,0.0
  -117.74161361,33.66363054,0.0
  -117.74152054,33.66357064,0.0
  -117.74144814,33.66352300,0.0
  -117.74144840,33.66352318,0.0
</coordinates>
</LineString></Placemark>
<Placemark>
<Style>
<LineStyle>
<color>ffff1111</color>
<width>2</width>
</LineStyle>
</Style>
<LineString>
  <coordinates>
  -117.74362989,33.66781200,0.0
  -117.74363453,33.66781357,0.0
  -117.74361581,33.66780524,0.0
  -117.74359524,33.66779557,0.0
  -117.74357298,33.66778472,0.0
  -117.74354962,33.66777302,0.0
  -117.74352567,33.66776078,0.0
  -117.74350160,33.66774832,0.0
  -117.74347790,33.66773594,0.0
  -117.74345503,33.66772393,0.0
  -117.74343317,33.66771242,0.0
  -117.74341139,33.66770081,0.0
  -117.74338966,33.66768909,0.0
  -117.74336817,33.66767736,0.0
  -117.74334712,33.66766572,0.0
  -117.74332672,33.66765429,0.0
  -117.74330718,33.66764317,0.0
  -117.74328870,33.66763248,0.0
  -117.74327157,33.66762237,0.0
  -117.74325557,33.66761257,0.0
  -117.74324013,33.66760277,0.0
  -117.74322529,33.66759310,0.0
  -117.74321108,33.66758366,0.0
  -117.74319755,33.66757457,0.0
  -117.74318471,33.66756595,0.0
  -117.74317254,33.66755787,0.0
  -117.74316103,33.66755044,0.0
  -117.74316020,33.66754993,0.0
</coordinates>
</LineString></Placemark>
<Placemark>
<Style>
<LineStyle>
<color>ffff1111</color>
<width>2</width>
</LineStyle>
</Style>
<LineString>
  <coordinates>
  -117.74309002,33.66762991,0.0
  -117.74308918,33.66762939,0.0
  -117.74309926,33.66763590,0.0
  -117.74311056,33.66764340,0.0
  -117.74312320,33.66765188,0.0
  -117.74313702,33.66766116,0.0
  -117.74315192,33.66767106,0.0
  -117.74316784,33.66768144,0.0
  -117.74318472,33.66769214,0.0
  -117.74320249,33.66770303,0.0
  -117.74322085,33.66771387,0.0
  -117.74324013,33.66772502,0.0
  -117.74326038,33.66773654,0.0
  -117.74328141,33.66774833,0.0
  -117.74330305,33.66776029,0.0
  -117.74332510,33.66777233,0.0
  -117.74334739,33.66778435,0.0
  -117.74336971,33.66779625,0.0
  -117.74339189,33.66780793,0.0
  -117.74341492,33.66782002,0.0
  -117.74343894,33.66783257,0.0
  -117.74346353,33.66784530,0.0
  -117.74348823,33.66785791,0.0
  -117.74351264,33.66787014,0.0
  -117.74353634,33.66788169,0.0
  -117.74355897,33.66789232,0.0
  -117.74358020,33.66790176,0.0
  -117.74358281,33.66790273,0.0
</coordinates>
</LineString></Placemark>
<Placemark>
<Style>
<LineStyle>
<color>ffff1111</color>
<width>2</width>
</LineStyle>
</Style>
<LineString>
  <coordinates>
  -117.74300998,33.66744838,0.0
  -117.74301027,33.66744856,0.0
  -117.74299975,33.66744194,0.0
  -117.74298809,33.66743459,0.0
  -117.74297547,33.66742662,0.0
  -117.74296203,33.66741809,0.0
  -117.74294787,33.66740906,0.0
  -117.74293315,33.66739960,0.0
  -117.74291798,33.66738977,0.0
  -117.74290251,33.66737964,0.0
  -117.74288712,33.66736944,0.0
  -117.74287228,33.66735946,0.0
  -117.74285744,33.66734937,0.0
  -117.74284201,33.66733883,0.0
  -117.74282545,33.66732750,0.0
  -117.74280724,33.66731508,0.0
  -117.74278685,33.66730126,0.0
  -117.74276376,33.66728573,0.0
  -117.74273723,33.66726804,0.0
  -117.74270474,33.66724654,0.0
  -117.74266732,33.66722188,0.0
  -117.74262698,33.66719533,0.0
  -117.74258574,33.66716821,0.0
  -117.74254565,33.66714182,0.0
  -117.74250875,33.66711747,0.0
  -117.74247714,33.66709649,0.0
  -117.74245293,33.66708026,0.0
  -117.74245833,33.66708516,0.0
</coordinates>
</LineString></Placemark>
<Placemark>
<Style>
<LineStyle>
<color>ffff1111</color>
<width>2</width>
</LineStyle>
</Style>
<LineString>
  <coordinates>
  -117.74237698,33.66715642,0.0
  -117.74237837,33.66715743,0.0
  -117.74240323,33.66717410,0.0
  -117.74243516,33.66719528,0.0
  -117.74247221,33.66721974,0.0
  -117.74251237,33.66724618,0.0
  -117.74255362,33.66727331,0.0
  -117.74259392,33.66729982,0.0
  -117.74263121,33.66732440,0.0
  -117.74266342,33.66734571,0.0
  -117.74268956,33.66736314,0.0
  -117.74271228,33.66737842,0.0
  -117.74273235,33.66739203,0.0
  -117.74275036,33.66740431,0.0
  -117.74276687,33.66741561,0.0
  -117.74278247,33.66742627,0.0
  -117.74279771,33.66743663,0.0
  -117.74281313,33.66744699,0.0
  -117.74282914,33.66745760,0.0
  -117.74284510,33.66746805,0.0
  -117.74286068,33.66747815,0.0
  -117.74287576,33.66748784,0.0
  -117.74289021,33.66749706,0.0
  -117.74290388,33.66750574,0.0
  -117.74291665,33.66751380,0.0
  -117.74292837,33.66752119,0.0
  -117.74293895,33.66752785,0.0
  -117.74293942,33.66752814,0.0
</coordinates>
</LineString></Placemark>
<Placemark>
<Style>
<LineStyle>
<color>ffff1111</color>
<width>2</width>
</LineStyle>
</Style>
<LineString>
  <coordinates>
  -117.73830158,33.66322210,0.0
  -117.73830124,33.66322243,0.0
  -117.73829785,33.66322578,0.0
  -117.73829437,33.66322924,0.0
  -117.73829077,33.66323283,0.0
  -117.73828703,33.66323658,0.0
  -117.73828319,33.66324043,0.0
  -117.73827926,33.66324439,0.0
  -117.73827526,33.66324842,0.0
  -117.73827120,33.66325252,0.0
  -117.73826708,33.66325667,0.0
  -117.73826294,33.66326086,0.0
  -117.73825880,33.66326505,0.0
  -117.73825465,33.66326925,0.0
  -117.73825052,33.66327343,0.0
  -117.73824643,33.66327757,0.0
  -117.73824238,33.66328167,0.0
  -117.73823840,33.66328569,0.0
  -117.73823450,33.66328963,0.0
  -117.73823071,33.66329346,0.0
  -117.73822702,33.66329717,0.0
  -117.73822348,33.66330074,0.0
  -117.73822008,33.66330415,0.0
  -117.73821684,33.66330739,0.0
  -117.73821382,33.66331041,0.0
  -117.73821098,33.66331323,0.0
  -117.73820846,33.66331573,0.0
  -117.73820888,33.66331532,0.0
</coordinates>
</LineString></Placemark>
<Placemark>
<Style>
<LineStyle>
<color>ffff1111</color>
<width>2</width>
</LineStyle>
</Style>
<LineString>
  <coordinates>
  -117.73829830,33.66338051,0.0
  -117.73829875,33.66338008,0.0
  -117.73830169,33.66337718,0.0
  -117.73830467,33.66337421,0.0
  -117.73830787,33.66337103,0.0
  -117.73831120,33.66336768,0.0
  -117.73831469,33.66336418,0.0
  -117.73831831,33.66336054,0.0
  -117.73832205,33.66335677,0.0
  -117.73832590,33.66335289,0.0
  -117.73832982,33.66334893,0.0
  -117.73833383,33.66334487,0.0
  -117.73833789,33.66334076,0.0
  -117.73834199,33.66333661,0.0
  -117.73834612,33.66333244,0.0
  -117.73835025,33.66332825,0.0
  -117.73835439,33.66332407,0.0
  -117.73835849,33.66331992,0.0
  -117.73836256,33.66331581,0.0
  -117.73836658,33.66331175,0.0
  -117.73837053,33.66330777,0.0
  -117.73837438,33.66330390,0.0
  -117.73837813,33.66330014,0.0
  -117.73838175,33.66329651,0.0
  -117.73838526,33.66329301,0.0
  -117.73838858,33.66328971,0.0
  -117.73839170,33.66328661,0.0
  -117.73839166,33.66328666,0.0
</coordinates>
</LineString></Placemark>
<Placemark>
<Style>
<LineStyle>
<color>ffff1111</color>
<width>2</width>
</LineStyle>
</Style>
<LineString>
  <coordinates>
  -117.74229199,33.66696971,0.0
  -117.74229300,33.66697034,0.0
  -117.74228453,33.66696467,0.0
  -117.74227535,33.66695841,0.0
  -117.74226552,33.66695164,0.0
  -117.74225511,33.66694441,0.0
  -117.74224420,33.66693679,0.0
  -117.74223286,33.66692885,0.0
  -117.74222117,33.66692064,0.0
  -117.74220919,33.66691224,0.0
  -117.74219698,33.66690369,0.0
  -117.74218462,33.66689505,0.0
  -117.74217216,33.66688639,0.0
  -117.74215966,33.66687777,0.0
  -117.74214710,33.66686916,0.0
  -117.74213386,33.66686013,0.0
  -117.74211996,33.66685067,0.0
  -117.74210558,33.66684092,0.0
  -117.74209091,33.66683100,0.0
  -117.74207616,33.66682102,0.0
  -117.74206150,33.66681112,0.0
  -117.74204714,33.66680143,0.0
  -117.74203328,33.66679206,0.0
  -117.74202010,33.66678316,0.0
  -117.74200781,33.66677485,0.0
  -117.74199661,33.66676726,0.0
  -117.74198671,33.66676053,0.0
  -117.74198670,33.66676052,0.0
</coordinates>
</LineString></Placemark>
<Placemark>
<Style>
<LineStyle>
<color>ffff1111</color>
<width>2</width>
</LineStyle>
</Style>
<LineString>
  <coordinates>
  -117.74191148,33.66683725,0.0
  -117.74191179,33.66683746,0.0
  -117.74192186,33.66684430,0.0
  -117.74193316,33.66685196,0.0
  -117.74194552,33.66686032,0.0
  -117.74195873,33.66686924,0.0
  -117.74197261,33.66687861,0.0
  -117.74198695,33.66688830,0.0
  -117.74200158,33.66689818,0.0
  -117.74201629,33.66690812,0.0
  -117.74203088,33.66691800,0.0
  -117.74204517,33.66692769,0.0
  -117.74205894,33.66693705,0.0
  -117.74207200,33.66694596,0.0
  -117.74208426,33.66695436,0.0
  -117.74209644,33.66696277,0.0
  -117.74210865,33.66697126,0.0
  -117.74212085,33.66697977,0.0
  -117.74213295,33.66698825,0.0
  -117.74214489,33.66699663,0.0
  -117.74215662,33.66700486,0.0
  -117.74216807,33.66701288,0.0
  -117.74217918,33.66702064,0.0
  -117.74218990,33.66702809,0.0
  -117.74220018,33.66703516,0.0
  -117.74220996,33.66704183,0.0
  -117.74221925,33.66704806,0.0
  -117.74222023,33.66704868,0.0
</coordinates>
</LineString></Placemark>
<Placemark>
<Style>
<LineStyle>
<color>ffff1111</color>
<width>2</width>
</LineStyle>
</Style>
<LineString>
  <coordinates>
  -117.73622590,33.66200534,0.0
  -117.73622580,33.66200527,0.0
  -117.73608679,33.66190916,0.0
  -117.73589546,33.66177687,0.0
  -117.73566740,33.66161918,0.0
  -117.73541814,33.66144684,0.0
  -117.73516326,33.66127061,0.0
  -117.73491831,33.66110126,0.0
  -117.73469886,33.66094953,0.0
  -117.73452045,33.66082621,0.0
  -117.73439179,33.66073726,0.0
  -117.73429604,33.66067096,0.0
  -117.73422569,33.66062217,0.0
  -117.73417458,33.66058668,0.0
  -117.73413652,33.66056028,0.0
  -117.73410533,33.66053874,0.0
  -117.73407488,33.66051789,0.0
  -117.73403913,33.66049360,0.0
  -117.73399273,33.66046223,0.0
  -117.73394223,33.66042845,0.0
  -117.73389167,33.66039495,0.0
  -117.73384215,33.66036240,0.0
  -117.73379479,33.66033143,0.0
  -117.73375068,33.66030269,0.0
  -117.73371095,33.66027685,0.0
  -117.73367672,33.66025456,0.0
  -117.73364915,33.66023649,0.0
  -117.73364921,33.66023654,0.0
</coordinates>
</LineString></Placemark>
<Placemark>
<Style>
<LineStyle>
<color>ffff1111</color>
<width>2</width>
</LineStyle>
</Style>
<LineString>
  <coordinates>
  -117.73357559,33.66031433,0.0
  -117.73357585,33.66031451,0.0
  -117.73360374,33.66033277,0.0
  -117.73363810,33.66035515,0.0
  -117.73367782,33.66038098,0.0
  -117.73372180,33.66040963,0.0
  -117.73376895,33.66044047,0.0
  -117.73381816,33.66047282,0.0
  -117.73386832,33.66050605,0.0
  -117.73391832,33.66053950,0.0
  -117.73396442,33.66057066,0.0
  -117.73399988,33.66059475,0.0
  -117.73402993,33.66061534,0.0
  -117.73406084,33.66063668,0.0
  -117.73409880,33.66066301,0.0
  -117.73414993,33.66069851,0.0
  -117.73422034,33.66074735,0.0
  -117.73431617,33.66081370,0.0
  -117.73444486,33.66090267,0.0
  -117.73462326,33.66102599,0.0
  -117.73484271,33.66117771,0.0
  -117.73508766,33.66134707,0.0
  -117.73534254,33.66152330,0.0
  -117.73559179,33.66169563,0.0
  -117.73581986,33.66185333,0.0
  -117.73601118,33.66198561,0.0
  -117.73615020,33.66208173,0.0
  -117.73615030,33.66208180,0.0
</coordinates>
</LineString></Placemark>
<Placemark>
<Style>
<LineStyle>
<color>ffff1111</color>
<width>2</width>
</LineStyle>
</Style>
<LineString>
  <coordinates>
  -117.74185350,33.66666520,0.0
  -117.74185359,33.66666526,0.0
  -117.74184849,33.66666147,0.0
  -117.74184271,33.66665715,0.0
  -117.74183631,33.66665237,0.0
  -117.74182936,33.66664717,0.0
  -117.74182191,33.66664158,0.0
  -117.74181401,33.66663566,0.0
  -117.74180573,33.66662945,0.0
  -117.74179713,33.66662299,0.0
  -117.74178825,33.66661633,0.0
  -117.74177916,33.66660951,0.0
  -117.74176991,33.66660257,0.0
  -117.74176056,33.66659556,0.0
  -117.74175117,33.66658852,0.0
  -117.74174178,33.66658150,0.0
  -117.74173247,33.66657453,0.0
  -117.74172327,33.66656765,0.0
  -117.74171425,33.66656092,0.0
  -117.74170546,33.66655438,0.0
  -117.74169696,33.66654806,0.0
  -117.74168880,33.66654200,0.0
  -117.74168104,33.66653626,0.0
  -117.74167372,33.66653087,0.0
  -117.74166690,33.66652586,0.0
  -117.74166062,33.66652128,0.0
  -117.74165470,33.66651700,0.0
  -117.74165366,33.66651630,0.0
</coordinates>
</LineString></Placemark>
<Placemark>
<Style>
<LineStyle>
<color>ffff1111</color>
<width>2</width>
</LineStyle>
</Style>
<LineString>
  <coordinates>
  -117.74157926,33.66659349,0.0
  -117.74157758,33.66659239,0.0
  -117.74158272,33.66659612,0.0
  -117.74158875,33.66660051,0.0
  -117.74159535,33.66660535,0.0
  -117.74160249,33.66661062,0.0
  -117.74161012,33.66661626,0.0
  -117.74161816,33.66662222,0.0
  -117.74162657,33.66662848,0.0
  -117.74163528,33.66663496,0.0
  -117.74164423,33.66664165,0.0
  -117.74165338,33.66664848,0.0
  -117.74166265,33.66665542,0.0
  -117.74167200,33.66666242,0.0
  -117.74168137,33.66666943,0.0
  -117.74169069,33.66667643,0.0
  -117.74169992,33.66668335,0.0
  -117.74170901,33.66669017,0.0
  -117.74171788,33.66669683,0.0
  -117.74172649,33.66670329,0.0
  -117.74173479,33.66670951,0.0
  -117.74174271,33.66671545,0.0
  -117.74175020,33.66672106,0.0
  -117.74175721,33.66672631,0.0
  -117.74176368,33.66673115,0.0
  -117.74176956,33.66673553,0.0
  -117.74177481,33.66673944,0.0
  -117.74177509,33.66673965,0.0
</coordinates>
</LineString></Placemark>
<Placemark>
<Style>
<LineStyle>
<color>ffff1111</color>
<width>2</width>
</LineStyle>
</Style>
<LineString>
  <coordinates>
  -117.74147490,33.66638738,0.0
  -117.74147348,33.66638630,0.0
  -117.74144414,33.66636579,0.0
  -117.74140964,33.66634239,0.0
  -117.74136873,33.66631488,0.0
  -117.74131959,33.66628167,0.0
  -117.74125746,33.66623952,0.0
  -117.74118208,33.66618854,0.0
  -117.74110301,33.66613485,0.0
  -117.74102987,33.66608457,0.0
  -117.74096955,33.66604194,0.0
  -117.74091645,33.66600314,0.0
  -117.74086744,33.66596671,0.0
  -117.74082011,33.66593175,0.0
  -117.74077317,33.66589836,0.0
  -117.74073158,33.66587083,0.0
  -117.74069331,33.66584572,0.0
  -117.74065237,33.66581673,0.0
  -117.74060288,33.66577761,0.0
  -117.74054975,33.66573018,0.0
  -117.74048907,33.66567423,0.0
  -117.74041562,33.66561004,0.0
  -117.74032390,33.66553790,0.0
  -117.74019926,33.66544850,0.0
  -117.74005564,33.66534903,0.0
  -117.73992009,33.66525619,0.0
  -117.73982026,33.66518715,0.0
  -117.73982101,33.66518768,0.0
</coordinates>
</LineString></Placemark>
<Placemark>
<Style>
<LineStyle>
<color>ffff1111</color>
<width>2</width>
</LineStyle>
</Style>
<LineString>
  <coordinates>
  -117.73974317,33.66526253,0.0
  -117.73974424,33.66526331,0.0
  -117.73984484,33.66533289,0.0
  -117.73998028,33.66542565,0.0
  -117.74012288,33.66552441,0.0
  -117.74024470,33.66561177,0.0
  -117.74033161,33.66568009,0.0
  -117.74040175,33.66574138,0.0
  -117.74046211,33.66579705,0.0
  -117.74051904,33.66584781,0.0
  -117.74057368,33.66589098,0.0
  -117.74061897,33.66592304,0.0
  -117.74065866,33.66594909,0.0
  -117.74069774,33.66597494,0.0
  -117.74074208,33.66600649,0.0
  -117.74078859,33.66604084,0.0
  -117.74083793,33.66607752,0.0
  -117.74089227,33.66611722,0.0
  -117.74095409,33.66616091,0.0
  -117.74102803,33.66621173,0.0
  -117.74110742,33.66626565,0.0
  -117.74118281,33.66631663,0.0
  -117.74124487,33.66635873,0.0
  -117.74129433,33.66639216,0.0
  -117.74133517,33.66641962,0.0
  -117.74136873,33.66644238,0.0
  -117.74139670,33.66646194,0.0
  -117.74139456,33.66646025,0.0
</coordinates>
</LineString></Placemark>
<Placemark>
<Style>
<LineStyle>
<color>ffff1111</color>
<width>2</width>
</LineStyle>
</Style>
<LineString>
  <coordinates>
  -117.73960177,33.66501989,0.0
  -117.73960046,33.66501890,0.0
  -117.73956520,33.66499421,0.0
  -117.73952404,33.66496738,0.0
  -117.73947991,33.66493702,0.0
  -117.73943305,33.66490020,0.0
  -117.73938414,33.66485430,0.0
  -117.73932974,33.66479292,0.0
  -117.73926807,33.66471627,0.0
  -117.73920306,33.66463275,0.0
  -117.73913798,33.66455031,0.0
  -117.73907569,33.66447651,0.0
  -117.73901593,33.66441316,0.0
  -117.73895775,33.66435623,0.0
  -117.73890242,33.66430415,0.0
  -117.73885126,33.66425548,0.0
  -117.73880531,33.66420864,0.0
  -117.73876637,33.66416673,0.0
  -117.73873483,33.66413196,0.0
  -117.73870560,33.66409737,0.0
  -117.73867225,33.66405453,0.0
  -117.73862892,33.66399550,0.0
  -117.73856884,33.66390913,0.0
  -117.73849543,33.66379999,0.0
  -117.73841959,33.66368568,0.0
  -117.73835210,33.66358366,0.0
  -117.73830360,33.66351118,0.0
  -117.73830231,33.66350946,0.0
</coordinates>
</LineString></Placemark>
<Placemark>
<Style>
<LineStyle>
<color>ffff1111</color>
<width>2</width>
</LineStyle>
</Style>
<LineString>
  <coordinates>
  -117.73824756,33.66353826,0.0
  -117.73820029,33.66355996,0.0
  -117.73824836,33.66363180,0.0
  -117.73831578,33.66373371,0.0
  -117.73839184,33.66384835,0.0
  -117.73846583,33.66395834,0.0
  -117.73852722,33.66404657,0.0
  -117.73857200,33.66410760,0.0
  -117.73860757,33.66415325,0.0
  -117.73863943,33.66419093,0.0
  -117.73867246,33.66422736,0.0
  -117.73871233,33.66427027,0.0
  -117.73876124,33.66432010,0.0
  -117.73881381,33.66437012,0.0
  -117.73886842,33.66442153,0.0
  -117.73892423,33.66447611,0.0
  -117.73898033,33.66453553,0.0
  -117.73903963,33.66460579,0.0
  -117.73910364,33.66468688,0.0
  -117.73916901,33.66477086,0.0
  -117.73923273,33.66485004,0.0
  -117.73929243,33.66491724,0.0
  -117.73934881,33.66497005,0.0
  -117.73940234,33.66501208,0.0
  -117.73945065,33.66504533,0.0
  -117.73949114,33.66507171,0.0
  -117.73952233,33.66509355,0.0
  -117.73952123,33.66509272,0.0
</coordinates>
</LineString></Placemark>
<Placemark>
<Style>
<LineStyle>
<color>ffff1111</color>
<width>2</width>
</LineStyle>
</Style>
<LineString>
  <coordinates>
  -117.74177743,33.66679551,0.0
  -117.74177568,33.66679711,0.0
  -117.74174796,33.66682542,0.0
  -117.74171045,33.66686418,0.0
  -117.74166729,33.66690897,0.0
  -117.74162259,33.66695536,0.0
  -117.74158055,33.66699887,0.0
  -117.74154540,33.66703498,0.0
  -117.74151973,33.66706090,0.0
  -117.74150038,33.66708001,0.0
  -117.74148504,33.66709481,0.0
  -117.74147134,33.66710779,0.0
  -117.74145699,33.66712139,0.0
  -117.74143997,33.66713782,0.0
  -117.74141841,33.66715926,0.0
  -117.74139375,33.66718503,0.0
  -117.74136791,33.66721250,0.0
  -117.74134188,33.66723984,0.0
  -117.74131688,33.66726504,0.0
  -117.74129444,33.66728586,0.0
  -117.74127691,33.66729968,0.0
  -117.74126346,33.66730750,0.0
  -117.74125059,33.66731293,0.0
  -117.74123746,33.66731700,0.0
  -117.74122302,33.66732060,0.0
  -117.74120623,33.66732477,0.0
  -117.74118707,33.66733108,0.0
  -117.74118406,33.66733233,0.0
</coordinates>
</LineString></Placemark>
<Placemark>
<Style>
<LineStyle>
<color>ffff1111</color>
<width>2</width>
</LineStyle>
</Style>
<LineString>
  <coordinates>
  -117.74121449,33.66738009,0.0
  -117.74123573,33.66742154,0.0
  -117.74124327,33.66741901,0.0
  -117.74125593,33.66741591,0.0
  -117.74127525,33.66741104,0.0
  -117.74129911,33.66740346,0.0
  -117.74132578,33.66739191,0.0
  -117.74135347,33.66737545,0.0
  -117.74138032,33.66735430,0.0
  -117.74140710,33.66732947,0.0
  -117.74143422,33.66730214,0.0
  -117.74146112,33.66727389,0.0
  -117.74148680,33.66724657,0.0
  -117.74151009,33.66722223,0.0
  -117.74153005,33.66720239,0.0
  -117.74154621,33.66718679,0.0
  -117.74156021,33.66717351,0.0
  -117.74157432,33.66716014,0.0
  -117.74159054,33.66714450,0.0
  -117.74161077,33.66712451,0.0
  -117.74163718,33.66709784,0.0
  -117.74167275,33.66706131,0.0
  -117.74171496,33.66701763,0.0
  -117.74175969,33.66697120,0.0
  -117.74180278,33.66692649,0.0
  -117.74184000,33.66688802,0.0
  -117.74186718,33.66686027,0.0
  -117.74182583,33.66683132,0.0
</coordinates>
</LineString></Placemark>
<Placemark>
<Style>
<LineStyle>
<color>ffff1111</color>
<width>2</width>
</LineStyle>
</Style>
<LineString>
  <coordinates>
  -117.74103650,33.66741830,0.0
  -117.74103565,33.66741889,0.0
  -117.74103110,33.66742227,0.0
  -117.74102642,33.66742576,0.0
  -117.74102130,33.66742961,0.0
  -117.74101581,33.66743374,0.0
  -117.74101001,33.66743812,0.0
  -117.74100392,33.66744273,0.0
  -117.74099760,33.66744753,0.0
  -117.74099107,33.66745249,0.0
  -117.74098438,33.66745758,0.0
  -117.74097758,33.66746277,0.0
  -117.74097069,33.66746803,0.0
  -117.74096376,33.66747333,0.0
  -117.74095683,33.66747864,0.0
  -117.74094995,33.66748392,0.0
  -117.74094315,33.66748915,0.0
  -117.74093647,33.66749430,0.0
  -117.74092995,33.66749932,0.0
  -117.74092364,33.66750420,0.0
  -117.74091757,33.66750890,0.0
  -117.74091179,33.66751339,0.0
  -117.74090633,33.66751764,0.0
  -117.74090122,33.66752163,0.0
  -117.74089652,33.66752532,0.0
  -117.74089224,33.66752870,0.0
  -117.74088803,33.66753205,0.0
  -117.74088689,33.66753305,0.0
</coordinates>
</LineString></Placemark>
<Placemark>
<Style>
<LineStyle>
<color>ffff1111</color>
<width>2</width>
</LineStyle>
</Style>
<LineString>
  <coordinates>
  -117.74093333,33.66757070,0.0
  -117.74097028,33.66760355,0.0
  -117.74097378,33.66760077,0.0
  -117.74097780,33.66759759,0.0
  -117.74098231,33.66759406,0.0
  -117.74098725,33.66759020,0.0
  -117.74099258,33.66758605,0.0
  -117.74099825,33.66758164,0.0
  -117.74100422,33.66757702,0.0
  -117.74101044,33.66757221,0.0
  -117.74101687,33.66756725,0.0
  -117.74102347,33.66756217,0.0
  -117.74103020,33.66755699,0.0
  -117.74103702,33.66755176,0.0
  -117.74104388,33.66754651,0.0
  -117.74105074,33.66754126,0.0
  -117.74105756,33.66753605,0.0
  -117.74106430,33.66753091,0.0
  -117.74107091,33.66752587,0.0
  -117.74107735,33.66752098,0.0
  -117.74108359,33.66751625,0.0
  -117.74108958,33.66751172,0.0
  -117.74109527,33.66750742,0.0
  -117.74110062,33.66750339,0.0
  -117.74110558,33.66749966,0.0
  -117.74111012,33.66749628,0.0
  -117.74111403,33.66749336,0.0
  -117.74111271,33.66749427,0.0
</coordinates>
</LineString></Placemark>
<Placemark>
<Style>
<LineStyle>
<color>ffff1111</color>
<width>2</width>
</LineStyle>
</Style>
<LineString>
  <coordinates>
  -117.74081299,33.66765655,0.0
  -117.74078274,33.66761945,0.0
  -117.74077968,33.66762150,0.0
  -117.74077596,33.66762396,0.0
  -117.74077186,33.66762662,0.0
  -117.74076739,33.66762948,0.0
  -117.74076261,33.66763252,0.0
  -117.74075755,33.66763571,0.0
  -117.74075227,33.66763901,0.0
  -117.74074678,33.66764242,0.0
  -117.74074113,33.66764590,0.0
  -117.74073537,33.66764944,0.0
  -117.74072952,33.66765302,0.0
  -117.74072361,33.66765661,0.0
  -117.74071769,33.66766019,0.0
  -117.74071179,33.66766374,0.0
  -117.74070594,33.66766725,0.0
  -117.74070018,33.66767069,0.0
  -117.74069454,33.66767405,0.0
  -117.74068905,33.66767730,0.0
  -117.74068376,33.66768041,0.0
  -117.74067871,33.66768338,0.0
  -117.74067392,33.66768617,0.0
  -117.74066943,33.66768877,0.0
  -117.74066529,33.66769116,0.0
  -117.74066154,33.66769329,0.0
  -117.74065816,33.66769520,0.0
  -117.74068832,33.66773259,0.0
</coordinates>
</LineString></Placemark>
<Placemark>
<Style>
<LineStyle>
<color>ffff1111</color>
<width>2</width>
</LineStyle>
</Style>
<LineString>
  <coordinates>
  -117.74072199,33.66777872,0.0
  -117.74072366,33.66777791,0.0
  -117.74072852,33.66777518,0.0
  -117.74073241,33.66777297,0.0
  -117.74073690,33.66777038,0.0
  -117.74074168,33.66776761,0.0
  -117.74074674,33.66776466,0.0
  -117.74075203,33.66776155,0.0
  -117.74075754,33.66775831,0.0
  -117.74076322,33.66775494,0.0
  -117.74076906,33.66775147,0.0
  -117.74077502,33.66774791,0.0
  -117.74078106,33.66774429,0.0
  -117.74078716,33.66774061,0.0
  -117.74079328,33.66773691,0.0
  -117.74079940,33.66773319,0.0
  -117.74080548,33.66772948,0.0
  -117.74081149,33.66772579,0.0
  -117.74081739,33.66772214,0.0
  -117.74082317,33.66771856,0.0
  -117.74082878,33.66771505,0.0
  -117.74083421,33.66771163,0.0
  -117.74083942,33.66770832,0.0
  -117.74084438,33.66770514,0.0
  -117.74084909,33.66770208,0.0
  -117.74085353,33.66769915,0.0
  -117.74085829,33.66769594,0.0
  -117.74085974,33.66769481,0.0
</coordinates>
</LineString></Placemark>
<Placemark>
<Style>
<LineStyle>
<color>ffff1111</color>
<width>2</width>
</LineStyle>
</Style>
<LineString>
  <coordinates>
  -117.74111507,33.66729691,0.0
  -117.74111370,33.66729586,0.0
  -117.74108250,33.66727359,0.0
  -117.74104055,33.66724322,0.0
  -117.74099078,33.66720720,0.0
  -117.74093646,33.66716822,0.0
  -117.74088074,33.66712888,0.0
  -117.74082666,33.66709171,0.0
  -117.74077714,33.66705920,0.0
  -117.74073460,33.66703357,0.0
  -117.74070007,33.66701607,0.0
  -117.74067048,33.66700432,0.0
  -117.74064168,33.66699721,0.0
  -117.74061170,33.66699585,0.0
  -117.74058344,33.66700135,0.0
  -117.74056217,33.66701050,0.0
  -117.74054864,33.66701828,0.0
  -117.74054003,33.66702306,0.0
  -117.74052859,33.66702806,0.0
  -117.74050698,33.66703994,0.0
  -117.74048681,33.66705404,0.0
  -117.74046868,33.66706883,0.0
  -117.74045189,33.66708393,0.0
  -117.74043638,33.66709876,0.0
  -117.74042232,33.66711263,0.0
  -117.74041002,33.66712475,0.0
  -117.74039973,33.66713447,0.0
  -117.74039876,33.66713545,0.0
</coordinates>
</LineString></Placemark>
<Placemark>
<Style>
<LineStyle>
<color>ffff1111</color>
<width>2</width>
</LineStyle>
</Style>
<LineString>
  <coordinates>
  -117.74048981,33.66719887,0.0
  -117.74048809,33.66720068,0.0
  -117.74049995,33.66718946,0.0
  -117.74051297,33.66717664,0.0
  -117.74052638,33.66716341,0.0
  -117.74054006,33.66715032,0.0
  -117.74055363,33.66713808,0.0
  -117.74056654,33.66712751,0.0
  -117.74057793,33.66711944,0.0
  -117.74058636,33.66711468,0.0
  -117.74060143,33.66710793,0.0
  -117.74061693,33.66709940,0.0
  -117.74062587,33.66709417,0.0
  -117.74062820,33.66709303,0.0
  -117.74062272,33.66709452,0.0
  -117.74061965,33.66709466,0.0
  -117.74062645,33.66709643,0.0
  -117.74064291,33.66710300,0.0
  -117.74066815,33.66711575,0.0
  -117.74070525,33.66713812,0.0
  -117.74075208,33.66716887,0.0
  -117.74080464,33.66720499,0.0
  -117.74085945,33.66724369,0.0
  -117.74091325,33.66728230,0.0
  -117.74096284,33.66731819,0.0
  -117.74100511,33.66734879,0.0
  -117.74103693,33.66737151,0.0
  -117.74106965,33.66733574,0.0
</coordinates>
</LineString></Placemark>
<Placemark>
<Style>
<LineStyle>
<color>ffff1111</color>
<width>2</width>
</LineStyle>
</Style>
<LineString>
  <coordinates>
  -117.74027521,33.66725424,0.0
  -117.74027422,33.66725517,0.0
  -117.74027066,33.66725885,0.0
  -117.74026761,33.66726209,0.0
  -117.74026438,33.66726558,0.0
  -117.74026109,33.66726918,0.0
  -117.74025778,33.66727286,0.0
  -117.74025443,33.66727662,0.0
  -117.74025105,33.66728045,0.0
  -117.74024765,33.66728433,0.0
  -117.74024425,33.66728825,0.0
  -117.74024083,33.66729220,0.0
  -117.74023742,33.66729616,0.0
  -117.74023403,33.66730012,0.0
  -117.74023067,33.66730405,0.0
  -117.74022735,33.66730794,0.0
  -117.74022408,33.66731178,0.0
  -117.74022088,33.66731553,0.0
  -117.74021774,33.66731920,0.0
  -117.74021470,33.66732276,0.0
  -117.74021176,33.66732619,0.0
  -117.74020893,33.66732948,0.0
  -117.74020624,33.66733259,0.0
  -117.74020370,33.66733550,0.0
  -117.74020131,33.66733821,0.0
  -117.74019913,33.66734066,0.0
  -117.74019727,33.66734271,0.0
  -117.74019856,33.66734142,0.0
</coordinates>
</LineString></Placemark>
<Placemark>
<Style>
<LineStyle>
<color>ffff1111</color>
<width>2</width>
</LineStyle>
</Style>
<LineString>
  <coordinates>
  -117.74029077,33.66740376,0.0
  -117.74029140,33.66740311,0.0
  -117.74029412,33.66740010,0.0
  -117.74029671,33.66739720,0.0
  -117.74029943,33.66739411,0.0
  -117.74030225,33.66739087,0.0
  -117.74030515,33.66738752,0.0
  -117.74030813,33.66738406,0.0
  -117.74031118,33.66738050,0.0
  -117.74031431,33.66737685,0.0
  -117.74031747,33.66737314,0.0
  -117.74032070,33.66736936,0.0
  -117.74032394,33.66736555,0.0
  -117.74032722,33.66736171,0.0
  -117.74033051,33.66735787,0.0
  -117.74033379,33.66735404,0.0
  -117.74033706,33.66735024,0.0
  -117.74034030,33.66734649,0.0
  -117.74034350,33.66734280,0.0
  -117.74034666,33.66733919,0.0
  -117.74034974,33.66733570,0.0
  -117.74035274,33.66733233,0.0
  -117.74035565,33.66732910,0.0
  -117.74035843,33.66732606,0.0
  -117.74036108,33.66732320,0.0
  -117.74036356,33.66732057,0.0
  -117.74036563,33.66731840,0.0
  -117.74036331,33.66732044,0.0
</coordinates>
</LineString></Placemark>
<Placemark>
<Style>
<LineStyle>
<color>ffff1111</color>
<width>2</width>
</LineStyle>
</Style>
<LineString>
  <coordinates>
  -117.74057924,33.66768265,0.0
  -117.74057879,33.66768229,0.0
  -117.74057105,33.66767635,0.0
  -117.74056225,33.66766959,0.0
  -117.74055236,33.66766198,0.0
  -117.74054152,33.66765364,0.0
  -117.74052983,33.66764464,0.0
  -117.74051739,33.66763506,0.0
  -117.74050430,33.66762498,0.0
  -117.74049065,33.66761449,0.0
  -117.74047656,33.66760365,0.0
  -117.74046213,33.66759256,0.0
  -117.74044745,33.66758129,0.0
  -117.74043263,33.66756992,0.0
  -117.74041776,33.66755853,0.0
  -117.74040294,33.66754719,0.0
  -117.74038828,33.66753599,0.0
  -117.74037388,33.66752501,0.0
  -117.74035983,33.66751433,0.0
  -117.74034624,33.66750401,0.0
  -117.74033320,33.66749415,0.0
  -117.74032080,33.66748481,0.0
  -117.74030915,33.66747607,0.0
  -117.74029834,33.66746801,0.0
  -117.74028844,33.66746070,0.0
  -117.74027954,33.66745418,0.0
  -117.74027032,33.66744760,0.0
  -117.74026674,33.66744571,0.0
</coordinates>
</LineString></Placemark>
<Placemark>
<Style>
<LineStyle>
<color>ffff1111</color>
<width>2</width>
</LineStyle>
</Style>
<LineString>
  <coordinates>
  -117.74009532,33.66746120,0.0
  -117.74009202,33.66746369,0.0
  -117.74006397,33.66748930,0.0
  -117.74002611,33.66752356,0.0
  -117.73998115,33.66756441,0.0
  -117.73993249,33.66760920,0.0
  -117.73988337,33.66765540,0.0
  -117.73983696,33.66770057,0.0
  -117.73979632,33.66774241,0.0
  -117.73976426,33.66777904,0.0
  -117.73974284,33.66780813,0.0
  -117.73972792,33.66783075,0.0
  -117.73971662,33.66785245,0.0
  -117.73970996,33.66787671,0.0
  -117.73971178,33.66790357,0.0
  -117.73972244,33.66792766,0.0
  -117.73973651,33.66794651,0.0
  -117.73975166,33.66796353,0.0
  -117.73977087,33.66798423,0.0
  -117.73980226,33.66801167,0.0
  -117.73984042,33.66804028,0.0
  -117.73988291,33.66806959,0.0
  -117.73992737,33.66809877,0.0
  -117.73997103,33.66812661,0.0
  -117.74001100,33.66815176,0.0
  -117.74004420,33.66817278,0.0
  -117.74006736,33.66818805,0.0
  -117.74006650,33.66818745,0.0
</coordinates>
</LineString></Placemark>
<Placemark>
<Style>
<LineStyle>
<color>ffff1111</color>
<width>2</width>
</LineStyle>
</Style>
<LineString>
  <coordinates>
  -117.74026388,33.66439959,0.0
  -117.74026349,33.66439932,0.0
  -117.74023879,33.66438278,0.0
  -117.74020912,33.66436305,0.0
  -117.74017493,33.66434026,0.0
  -117.74013646,33.66431443,0.0
  -117.74009402,33.66428558,0.0
  -117.74004997,33.66425537,0.0
  -117.74000419,33.66422382,0.0
  -117.73995285,33.66418828,0.0
  -117.73989207,33.66414604,0.0
  -117.73981800,33.66409441,0.0
  -117.73972397,33.66402870,0.0
  -117.73961253,33.66395068,0.0
  -117.73949371,33.66386742,0.0
  -117.73937756,33.66378600,0.0
  -117.73927411,33.66371349,0.0
  -117.73918457,33.66365072,0.0
  -117.73910224,33.66359297,0.0
  -117.73902534,33.66353901,0.0
  -117.73895206,33.66348760,0.0
  -117.73888062,33.66343749,0.0
  -117.73880783,33.66338647,0.0
  -117.73873488,33.66333534,0.0
  -117.73866657,33.66328748,0.0
  -117.73860771,33.66324624,0.0
  -117.73856310,33.66321498,0.0
  -117.73856300,33.66321491,0.0
</coordinates>
</LineString></Placemark>
<Placemark>
<Style>
<LineStyle>
<color>ffff1111</color>
<width>2</width>
</LineStyle>
</Style>
<LineString>
  <coordinates>
  -117.73848679,33.66329095,0.0
  -117.73848690,33.66329102,0.0
  -117.73853151,33.66332228,0.0
  -117.73859037,33.66336352,0.0
  -117.73865867,33.66341138,0.0
  -117.73873161,33.66346250,0.0
  -117.73880439,33.66351351,0.0
  -117.73887580,33.66356360,0.0
  -117.73894907,33.66361501,0.0
  -117.73902599,33.66366897,0.0
  -117.73910833,33.66372673,0.0
  -117.73919789,33.66378952,0.0
  -117.73930134,33.66386203,0.0
  -117.73941750,33.66394345,0.0
  -117.73953634,33.66402673,0.0
  -117.73964785,33.66410479,0.0
  -117.73974199,33.66417058,0.0
  -117.73981617,33.66422229,0.0
  -117.73987710,33.66426464,0.0
  -117.73992864,33.66430032,0.0
  -117.73997464,33.66433201,0.0
  -117.74001896,33.66436241,0.0
  -117.74006194,33.66439163,0.0
  -117.74010085,33.66441776,0.0
  -117.74013527,33.66444070,0.0
  -117.74016481,33.66446034,0.0
  -117.74018915,33.66447664,0.0
  -117.74018897,33.66447652,0.0
</coordinates>
</LineString></Placemark>
<Placemark>
<Style>
<LineStyle>
<color>ffff1111</color>
<width>2</width>
</LineStyle>
</Style>
<LineString>
  <coordinates>
  -117.74162871,33.66644686,0.0
  -117.74162822,33.66644736,0.0
  -117.74164082,33.66643483,0.0
  -117.74165564,33.66642012,0.0
  -117.74167245,33.66640344,0.0
  -117.74169106,33.66638499,0.0
  -117.74171129,33.66636495,0.0
  -117.74173293,33.66634350,0.0
  -117.74175581,33.66632084,0.0
  -117.74177973,33.66629715,0.0
  -117.74180450,33.66627263,0.0
  -117.74182993,33.66624746,0.0
  -117.74185583,33.66622182,0.0
  -117.74188201,33.66619591,0.0
  -117.74190828,33.66616991,0.0
  -117.74193445,33.66614402,0.0
  -117.74196033,33.66611841,0.0
  -117.74198572,33.66609328,0.0
  -117.74201045,33.66606882,0.0
  -117.74203432,33.66604520,0.0
  -117.74205714,33.66602263,0.0
  -117.74207871,33.66600128,0.0
  -117.74209886,33.66598134,0.0
  -117.74211738,33.66596301,0.0
  -117.74213409,33.66594647,0.0
  -117.74214881,33.66593190,0.0
  -117.74216133,33.66591950,0.0
  -117.74216147,33.66591935,0.0
</coordinates>
</LineString></Placemark>
<Placemark>
<Style>
<LineStyle>
<color>ffff1111</color>
<width>2</width>
</LineStyle>
</Style>
<LineString>
  <coordinates>
  -117.74207070,33.66585548,0.0
  -117.74207067,33.66585551,0.0
  -117.74205816,33.66586789,0.0
  -117.74204346,33.66588245,0.0
  -117.74202675,33.66589899,0.0
  -117.74200823,33.66591731,0.0
  -117.74198809,33.66593724,0.0
  -117.74196652,33.66595859,0.0
  -117.74194370,33.66598116,0.0
  -117.74191983,33.66600478,0.0
  -117.74189511,33.66602925,0.0
  -117.74186971,33.66605438,0.0
  -117.74184383,33.66607999,0.0
  -117.74181765,33.66610588,0.0
  -117.74179138,33.66613188,0.0
  -117.74176520,33.66615780,0.0
  -117.74173929,33.66618344,0.0
  -117.74171386,33.66620861,0.0
  -117.74168908,33.66623314,0.0
  -117.74166516,33.66625684,0.0
  -117.74164227,33.66627951,0.0
  -117.74162061,33.66630097,0.0
  -117.74160037,33.66632103,0.0
  -117.74158174,33.66633950,0.0
  -117.74156490,33.66635620,0.0
  -117.74155005,33.66637095,0.0
  -117.74153735,33.66638358,0.0
  -117.74153681,33.66638413,0.0
</coordinates>
</LineString></Placemark>
<Placemark>
<Style>
<LineStyle>
<color>ffff1111</color>
<width>2</width>
</LineStyle>
</Style>
<LineString>
  <coordinates>
  -117.74213284,33.66570539,0.0
  -117.74213395,33.66570613,0.0
  -117.74207828,33.66566650,0.0
  -117.74200408,33.66561326,0.0
  -117.74192073,33.66555337,0.0
  -117.74183769,33.66549385,0.0
  -117.74176436,33.66544166,0.0
  -117.74170279,33.66539834,0.0
  -117.74164679,33.66535928,0.0
  -117.74159341,33.66532229,0.0
  -117.74153976,33.66528521,0.0
  -117.74148285,33.66524581,0.0
  -117.74142381,33.66520494,0.0
  -117.74136470,33.66516414,0.0
  -117.74130365,33.66512201,0.0
  -117.74123873,33.66507708,0.0
  -117.74116797,33.66502789,0.0
  -117.74108760,33.66497180,0.0
  -117.74099893,33.66490980,0.0
  -117.74090754,33.66484578,0.0
  -117.74081896,33.66478358,0.0
  -117.74073876,33.66472709,0.0
  -117.74066463,33.66467459,0.0
  -117.74059281,33.66462343,0.0
  -117.74052675,33.66457623,0.0
  -117.74046994,33.66453557,0.0
  -117.74042583,33.66450405,0.0
  -117.74042570,33.66450395,0.0
</coordinates>
</LineString></Placemark>
<Placemark>
<Style>
<LineStyle>
<color>ffff1111</color>
<width>2</width>
</LineStyle>
</Style>
<LineString>
  <coordinates>
  -117.74034866,33.66457940,0.0
  -117.74034879,33.66457949,0.0
  -117.74039280,33.66461095,0.0
  -117.74044963,33.66465162,0.0
  -117.74051580,33.66469891,0.0
  -117.74058783,33.66475020,0.0
  -117.74066223,33.66480290,0.0
  -117.74074261,33.66485952,0.0
  -117.74083130,33.66492179,0.0
  -117.74092279,33.66498588,0.0
  -117.74101153,33.66504794,0.0
  -117.74109202,33.66510411,0.0
  -117.74116300,33.66515345,0.0
  -117.74122809,33.66519850,0.0
  -117.74128919,33.66524067,0.0
  -117.74134822,33.66528141,0.0
  -117.74140715,33.66532219,0.0
  -117.74146415,33.66536166,0.0
  -117.74151778,33.66539873,0.0
  -117.74157094,33.66543556,0.0
  -117.74162658,33.66547437,0.0
  -117.74168768,33.66551736,0.0
  -117.74176057,33.66556925,0.0
  -117.74184343,33.66562863,0.0
  -117.74192677,33.66568851,0.0
  -117.74200117,33.66574190,0.0
  -117.74205725,33.66578183,0.0
  -117.74205830,33.66578254,0.0
</coordinates>
</LineString></Placemark>
<Placemark>
<Style>
<LineStyle>
<color>ffff1111</color>
<width>2</width>
</LineStyle>
</Style>
<LineString>
  <coordinates>
  -117.73801578,33.66347259,0.0
  -117.73801053,33.66347751,0.0
  -117.73797438,33.66352556,0.0
  -117.73794064,33.66357572,0.0
  -117.73790382,33.66359787,0.0
  -117.73782867,33.66359345,0.0
  -117.73769005,33.66355491,0.0
  -117.73751083,33.66349270,0.0
  -117.73730160,33.66342337,0.0
  -117.73705197,33.66335407,0.0
  -117.73676254,33.66327771,0.0
  -117.73648266,33.66319846,0.0
  -117.73626104,33.66312107,0.0
  -117.73608409,33.66304223,0.0
  -117.73594178,33.66296337,0.0
  -117.73583833,33.66288921,0.0
  -117.73578297,33.66282711,0.0
  -117.73576969,33.66277590,0.0
  -117.73577669,33.66272154,0.0
  -117.73579304,33.66266423,0.0
  -117.73581557,33.66262628,0.0
  -117.73585501,33.66258700,0.0
  -117.73591243,33.66253452,0.0
  -117.73598368,33.66246156,0.0
  -117.73607598,33.66236821,0.0
  -117.73616915,33.66227513,0.0
  -117.73623705,33.66220728,0.0
  -117.73623721,33.66220712,0.0
</coordinates>
</LineString></Placemark>
<Placemark>
<Style>
<LineStyle>
<color>ffff1111</color>
<width>2</width>
</LineStyle>
</Style>
<LineString>
  <coordinates>
  -117.73614595,33.66214372,0.0
  -117.73614595,33.66214373,0.0
  -117.73607823,33.66221141,0.0
  -117.73598480,33.66230474,0.0
  -117.73589172,33.66239888,0.0
  -117.73582317,33.66246919,0.0
  -117.73576697,33.66252051,0.0
  -117.73571610,33.66257225,0.0
  -117.73567934,33.66263627,0.0
  -117.73565987,33.66270423,0.0
  -117.73565137,33.66278271,0.0
  -117.73567751,33.66287235,0.0
  -117.73575466,33.66295949,0.0
  -117.73587160,33.66304335,0.0
  -117.73602421,33.66312787,0.0
  -117.73621069,33.66321089,0.0
  -117.73644207,33.66329168,0.0
  -117.73672632,33.66337219,0.0
  -117.73701591,33.66344859,0.0
  -117.73726060,33.66351646,0.0
  -117.73746518,33.66358427,0.0
  -117.73764765,33.66364757,0.0
  -117.73780568,33.66369076,0.0
  -117.73794376,33.66369090,0.0
  -117.73803591,33.66363456,0.0
  -117.73807951,33.66357141,0.0
  -117.73810381,33.66353822,0.0
  -117.73805997,33.66351212,0.0
</coordinates>
</LineString></Placemark>
<Placemark>
<Style>
<LineStyle>
<color>ffff1111</color>
<width>2</width>
</LineStyle>
</Style>
<LineString>
  <coordinates>
  -117.74381469,33.66777084,0.0
  -117.74381466,33.66777068,0.0
  -117.74378442,33.66760405,0.0
  -117.74375121,33.66741925,0.0
  -117.74373383,33.66731394,0.0
  -117.74372054,33.66723365,0.0
  -117.74370037,33.66713382,0.0
  -117.74367751,33.66703536,0.0
  -117.74365502,33.66696324,0.0
  -117.74363234,33.66691042,0.0
  -117.74360912,33.66686084,0.0
  -117.74358341,33.66681299,0.0
  -117.74355835,33.66677335,0.0
  -117.74352894,33.66673605,0.0
  -117.74346309,33.66667307,0.0
  -117.74336161,33.66658404,0.0
  -117.74325328,33.66649607,0.0
  -117.74313917,33.66641067,0.0
  -117.74303067,33.66633246,0.0
  -117.74292920,33.66626263,0.0
  -117.74283432,33.66619720,0.0
  -117.74274693,33.66613557,0.0
  -117.74265539,33.66607113,0.0
  -117.74254973,33.66599740,0.0
  -117.74245425,33.66593067,0.0
  -117.74238054,33.66587860,0.0
  -117.74232637,33.66584017,0.0
  -117.74232623,33.66584007,0.0
</coordinates>
</LineString></Placemark>
<Placemark>
<Style>
<LineStyle>
<color>ffff1111</color>
<width>2</width>
</LineStyle>
</Style>
<LineString>
  <coordinates>
  -117.74224956,33.66591579,0.0
  -117.74224963,33.66591583,0.0
  -117.74230383,33.66595429,0.0
  -117.74237798,33.66600666,0.0
  -117.74247374,33.66607359,0.0
  -117.74257918,33.66614716,0.0
  -117.74267036,33.66621135,0.0
  -117.74275826,33.66627334,0.0
  -117.74285411,33.66633944,0.0
  -117.74295407,33.66640822,0.0
  -117.74306092,33.66648524,0.0
  -117.74317235,33.66656862,0.0
  -117.74327697,33.66665356,0.0
  -117.74337559,33.66674007,0.0
  -117.74343516,33.66679679,0.0
  -117.74345436,33.66682108,0.0
  -117.74347665,33.66685627,0.0
  -117.74349938,33.66689855,0.0
  -117.74352153,33.66694587,0.0
  -117.74354157,33.66699226,0.0
  -117.74356153,33.66705625,0.0
  -117.74358355,33.66715119,0.0
  -117.74360325,33.66724858,0.0
  -117.74361621,33.66732694,0.0
  -117.74363383,33.66743370,0.0
  -117.74366711,33.66761891,0.0
  -117.74369735,33.66778557,0.0
  -117.74369740,33.66778583,0.0
</coordinates>
</LineString></Placemark>
<Placemark>
<Style>
<LineStyle>
<color>ffff1111</color>
<width>2</width>
</LineStyle>
</Style>
<LineString>
  <coordinates>
  -117.73362621,33.66012036,0.0
  -117.73362646,33.66012018,0.0
  -117.73397989,33.65987248,0.0
  -117.73425376,33.65970511,0.0
  -117.73399145,33.65887491,0.0
  -117.73388642,33.65863581,0.0
  -117.73376959,33.65854717,0.0
  -117.73359441,33.65853981,0.0
  -117.73347078,33.65859090,0.0
  -117.73338078,33.65867264,0.0
  -117.73326950,33.65873867,0.0
  -117.73319351,33.65875935,0.0
  -117.73308387,33.65877083,0.0
  -117.73294852,33.65881521,0.0
  -117.73283588,33.65890474,0.0
  -117.73277660,33.65897777,0.0
  -117.73275517,33.65903429,0.0
  -117.73273658,33.65910676,0.0
  -117.73274431,33.65919164,0.0
  -117.73281489,33.65931452,0.0
  -117.73295078,33.65941144,0.0
  -117.73309434,33.65944720,0.0
  -117.73332974,33.65948914,0.0
  -117.73350072,33.65957212,0.0
  -117.73365457,33.65982786,0.0
  -117.73363399,33.65993225,0.0
  -117.73355681,33.66012193,0.0
  -117.73355662,33.66012239,0.0
</coordinates>
</LineString></Placemark>
<Placemark>
<Style>
<LineStyle>
<color>ffff1111</color>
<width>2</width>
</LineStyle>
</Style>
<LineString>
  <coordinates>
  -117.74130618,33.66706696,0.0
  -117.74130629,33.66706703,0.0
  -117.74130868,33.66706843,0.0
  -117.74131119,33.66706992,0.0
  -117.74131381,33.66707146,0.0
  -117.74131652,33.66707307,0.0
  -117.74131935,33.66707473,0.0
  -117.74132225,33.66707644,0.0
  -117.74132521,33.66707819,0.0
  -117.74132823,33.66707998,0.0
  -117.74133130,33.66708179,0.0
  -117.74133442,33.66708363,0.0
  -117.74133756,33.66708548,0.0
  -117.74134071,33.66708734,0.0
  -117.74134387,33.66708921,0.0
  -117.74134701,33.66709106,0.0
  -117.74135016,33.66709292,0.0
  -117.74135327,33.66709475,0.0
  -117.74135635,33.66709657,0.0
  -117.74135936,33.66709835,0.0
  -117.74136233,33.66710010,0.0
  -117.74136523,33.66710182,0.0
  -117.74136804,33.66710348,0.0
  -117.74137077,33.66710509,0.0
  -117.74137339,33.66710663,0.0
  -117.74137590,33.66710812,0.0
  -117.74137828,33.66710952,0.0
  -117.74137840,33.66710959,0.0
</coordinates>
</LineString></Placemark>
<Placemark>
<Style>
<LineStyle>
<color>ffff1111</color>
<width>2</width>
</LineStyle>
</Style>
<LineString>
  <coordinates>
  -117.74144682,33.66702854,0.0
  -117.74144671,33.66702847,0.0
  -117.74144433,33.66702707,0.0
  -117.74144182,33.66702559,0.0
  -117.74143919,33.66702404,0.0
  -117.74143647,33.66702243,0.0
  -117.74143366,33.66702077,0.0
  -117.74143076,33.66701906,0.0
  -117.74142780,33.66701731,0.0
  -117.74142476,33.66701552,0.0
  -117.74142169,33.66701371,0.0
  -117.74141858,33.66701187,0.0
  -117.74141545,33.66701002,0.0
  -117.74141229,33.66700816,0.0
  -117.74140913,33.66700629,0.0
  -117.74140598,33.66700443,0.0
  -117.74140284,33.66700258,0.0
  -117.74139974,33.66700075,0.0
  -117.74139666,33.66699893,0.0
  -117.74139363,33.66699714,0.0
  -117.74139066,33.66699539,0.0
  -117.74138777,33.66699368,0.0
  -117.74138497,33.66699203,0.0
  -117.74138223,33.66699042,0.0
  -117.74137961,33.66698887,0.0
  -117.74137709,33.66698738,0.0
  -117.74137471,33.66698597,0.0
  -117.74137460,33.66698591,0.0
</coordinates>
</LineString></Placemark>
<Placemark>
<Style>
<LineStyle>
<color>ffff1111</color>
<width>2</width>
</LineStyle>
</Style>
<LineString>
  <coordinates>
  -117.74087147,33.66752574,0.0
  -117.74087137,33.66752567,0.0
  -117.74086185,33.66751892,0.0
  -117.74085078,33.66751107,0.0
  -117.74083829,33.66750221,0.0
  -117.74082451,33.66749244,0.0
  -117.74080958,33.66748186,0.0
  -117.74079364,33.66747056,0.0
  -117.74077682,33.66745863,0.0
  -117.74075925,33.66744617,0.0
  -117.74074107,33.66743329,0.0
  -117.74072242,33.66742006,0.0
  -117.74070344,33.66740660,0.0
  -117.74068425,33.66739300,0.0
  -117.74066499,33.66737934,0.0
  -117.74064580,33.66736573,0.0
  -117.74062681,33.66735227,0.0
  -117.74060816,33.66733905,0.0
  -117.74058998,33.66732616,0.0
  -117.74057242,33.66731371,0.0
  -117.74055560,33.66730178,0.0
  -117.74053965,33.66729048,0.0
  -117.74052472,33.66727989,0.0
  -117.74051095,33.66727012,0.0
  -117.74049845,33.66726126,0.0
  -117.74048738,33.66725341,0.0
  -117.74047787,33.66724667,0.0
  -117.74047776,33.66724659,0.0
</coordinates>
</LineString></Placemark>
<Placemark>
<Style>
<LineStyle>
<color>ffff1111</color>
<width>2</width>
</LineStyle>
</Style>
<LineString>
  <coordinates>
  -117.74040103,33.66732226,0.0
  -117.74040113,33.66732233,0.0
  -117.74041065,33.66732908,0.0
  -117.74042172,33.66733693,0.0
  -117.74043421,33.66734579,0.0
  -117.74044799,33.66735556,0.0
  -117.74046292,33.66736614,0.0
  -117.74047886,33.66737745,0.0
  -117.74049568,33.66738937,0.0
  -117.74051325,33.66740183,0.0
  -117.74053143,33.66741472,0.0
  -117.74055008,33.66742794,0.0
  -117.74056906,33.66744140,0.0
  -117.74058825,33.66745501,0.0
  -117.74060751,33.66746866,0.0
  -117.74062670,33.66748227,0.0
  -117.74064569,33.66749573,0.0
  -117.74066434,33.66750895,0.0
  -117.74068251,33.66752184,0.0
  -117.74070008,33.66753429,0.0
  -117.74071690,33.66754622,0.0
  -117.74073285,33.66755753,0.0
  -117.74074777,33.66756811,0.0
  -117.74076155,33.66757788,0.0
  -117.74077404,33.66758674,0.0
  -117.74078512,33.66759459,0.0
  -117.74079463,33.66760133,0.0
  -117.74079474,33.66760141,0.0
</coordinates>
</LineString></Placemark>
<Placemark>
<Style>
<LineStyle>
<color>ffff1111</color>
<width>2</width>
</LineStyle>
</Style>
<LineString>
  <coordinates>
  -117.74019586,33.66827292,0.0
  -117.74019511,33.66827233,0.0
  -117.74021441,33.66828864,0.0
  -117.74023884,33.66831129,0.0
  -117.74026847,33.66833917,0.0
  -117.74030205,33.66836990,0.0
  -117.74033886,33.66840144,0.0
  -117.74037846,33.66843192,0.0
  -117.74042073,33.66845950,0.0
  -117.74046586,33.66848214,0.0
  -117.74051111,33.66849778,0.0
  -117.74055535,33.66850999,0.0
  -117.74060210,33.66851999,0.0
  -117.74065100,33.66852705,0.0
  -117.74070158,33.66853039,0.0
  -117.74075335,33.66852915,0.0
  -117.74080572,33.66852241,0.0
  -117.74085793,33.66850924,0.0
  -117.74090990,33.66848809,0.0
  -117.74096270,33.66845534,0.0
  -117.74101350,33.66841494,0.0
  -117.74106276,33.66836972,0.0
  -117.74110994,33.66832236,0.0
  -117.74115394,33.66827582,0.0
  -117.74119340,33.66823317,0.0
  -117.74122666,33.66819772,0.0
  -117.74125172,33.66817304,0.0
  -117.74124847,33.66817570,0.0
</coordinates>
</LineString></Placemark>
<Placemark>
<Style>
<LineStyle>
<color>ffff1111</color>
<width>2</width>
</LineStyle>
</Style>
<LineString>
  <coordinates>
  -117.74140480,33.66804529,0.0
  -117.74140113,33.66805004,0.0
  -117.74143322,33.66801843,0.0
  -117.74147529,33.66797768,0.0
  -117.74152450,33.66793040,0.0
  -117.74157787,33.66787932,0.0
  -117.74163247,33.66782714,0.0
  -117.74168538,33.66777651,0.0
  -117.74173372,33.66773007,0.0
  -117.74177462,33.66769046,0.0
  -117.74180579,33.66765980,0.0
  -117.74182874,33.66763682,0.0
  -117.74184589,33.66761925,0.0
  -117.74185942,33.66760498,0.0
  -117.74187141,33.66759211,0.0
  -117.74188404,33.66757858,0.0
  -117.74189979,33.66756199,0.0
  -117.74192118,33.66753994,0.0
  -117.74195067,33.66751005,0.0
  -117.74198976,33.66747064,0.0
  -117.74203601,33.66742409,0.0
  -117.74208658,33.66737326,0.0
  -117.74213866,33.66732099,0.0
  -117.74218942,33.66727012,0.0
  -117.74223602,33.66722350,0.0
  -117.74227565,33.66718399,0.0
  -117.74230542,33.66715446,0.0
  -117.74226186,33.66712810,0.0
</coordinates>
</LineString></Placemark>
<Placemark>
<Style>
<LineStyle>
<color>ffff1111</color>
<width>2</width>
</LineStyle>
</Style>
<LineString>
  <coordinates>
  -117.74221627,33.66708908,0.0
  -117.74221488,33.66709035,0.0
  -117.74218480,33.66712018,0.0
  -117.74214504,33.66715983,0.0
  -117.74209834,33.66720653,0.0
  -117.74204753,33.66725746,0.0
  -117.74199540,33.66730979,0.0
  -117.74194477,33.66736067,0.0
  -117.74189846,33.66740728,0.0
  -117.74185928,33.66744678,0.0
  -117.74182932,33.66747715,0.0
  -117.74180720,33.66749995,0.0
  -117.74179071,33.66751732,0.0
  -117.74177773,33.66753124,0.0
  -117.74176612,33.66754370,0.0
  -117.74175350,33.66755700,0.0
  -117.74173732,33.66757359,0.0
  -117.74171513,33.66759581,0.0
  -117.74168458,33.66762585,0.0
  -117.74164412,33.66766505,0.0
  -117.74159599,33.66771127,0.0
  -117.74154316,33.66776182,0.0
  -117.74148856,33.66781402,0.0
  -117.74143509,33.66786519,0.0
  -117.74138564,33.66791269,0.0
  -117.74134309,33.66795391,0.0
  -117.74131023,33.66798629,0.0
  -117.74130856,33.66798814,0.0
</coordinates>
</LineString></Placemark>
<Placemark>
<Style>
<LineStyle>
<color>ffff1111</color>
<width>2</width>
</LineStyle>
</Style>
<LineString>
  <coordinates>
  -117.73810307,33.66331996,0.0
  -117.73810296,33.66331988,0.0
  -117.73806449,33.66329310,0.0
  -117.73801874,33.66326124,0.0
  -117.73796635,33.66322476,0.0
  -117.73790795,33.66318409,0.0
  -117.73784417,33.66313967,0.0
  -117.73777563,33.66309195,0.0
  -117.73770299,33.66304137,0.0
  -117.73762687,33.66298836,0.0
  -117.73754789,33.66293336,0.0
  -117.73746671,33.66287683,0.0
  -117.73738394,33.66281919,0.0
  -117.73730022,33.66276090,0.0
  -117.73721619,33.66270238,0.0
  -117.73713247,33.66264408,0.0
  -117.73704970,33.66258644,0.0
  -117.73696852,33.66252991,0.0
  -117.73688955,33.66247492,0.0
  -117.73681342,33.66242191,0.0
  -117.73674078,33.66237132,0.0
  -117.73667225,33.66232360,0.0
  -117.73660847,33.66227918,0.0
  -117.73655007,33.66223851,0.0
  -117.73649768,33.66220203,0.0
  -117.73645193,33.66217017,0.0
  -117.73641346,33.66214338,0.0
  -117.73641336,33.66214331,0.0
</coordinates>
</LineString></Placemark>
<Placemark>
<Style>
<LineStyle>
<color>ffff1111</color>
<width>2</width>
</LineStyle>
</Style>
<LineString>
  <coordinates>
  -117.73633744,33.66221955,0.0
  -117.73633754,33.66221962,0.0
  -117.73637601,33.66224641,0.0
  -117.73642175,33.66227826,0.0
  -117.73647414,33.66231475,0.0
  -117.73653255,33.66235542,0.0
  -117.73659633,33.66239983,0.0
  -117.73666486,33.66244755,0.0
  -117.73673750,33.66249814,0.0
  -117.73681362,33.66255115,0.0
  -117.73689260,33.66260614,0.0
  -117.73697378,33.66266268,0.0
  -117.73705655,33.66272031,0.0
  -117.73714027,33.66277861,0.0
  -117.73722430,33.66283713,0.0
  -117.73730802,33.66289543,0.0
  -117.73739079,33.66295306,0.0
  -117.73747197,33.66300960,0.0
  -117.73755095,33.66306459,0.0
  -117.73762707,33.66311760,0.0
  -117.73769971,33.66316819,0.0
  -117.73776824,33.66321591,0.0
  -117.73783203,33.66326032,0.0
  -117.73789043,33.66330099,0.0
  -117.73794282,33.66333747,0.0
  -117.73798857,33.66336933,0.0
  -117.73802704,33.66339612,0.0
  -117.73802714,33.66339619,0.0
</coordinates>
</LineString></Placemark>
<Placemark>
<Style>
<LineStyle>
<color>ffff1111</color>
<width>2</width>
</LineStyle>
</Style>
<LineString>
  <coordinates>
  -117.74131528,33.66816401,0.0
  -117.74131595,33.66816449,0.0
  -117.74138375,33.66821130,0.0
  -117.74147794,33.66827677,0.0
  -117.74158310,33.66834896,0.0
  -117.74168384,33.66841593,0.0
  -117.74176549,33.66846614,0.0
  -117.74182336,33.66849733,0.0
  -117.74186938,33.66851803,0.0
  -117.74191206,33.66853066,0.0
  -117.74195409,33.66853536,0.0
  -117.74199389,33.66853454,0.0
  -117.74202177,33.66853452,0.0
  -117.74205617,33.66853313,0.0
  -117.74210261,33.66851939,0.0
  -117.74215232,33.66848963,0.0
  -117.74221476,33.66844073,0.0
  -117.74230462,33.66836005,0.0
  -117.74241656,33.66825240,0.0
  -117.74253700,33.66813332,0.0
  -117.74265184,33.66801868,0.0
  -117.74274674,33.66792459,0.0
  -117.74282216,33.66785036,0.0
  -117.74288759,33.66778535,0.0
  -117.74294291,33.66772999,0.0
  -117.74298823,33.66768451,0.0
  -117.74302363,33.66764915,0.0
  -117.74302336,33.66764942,0.0
</coordinates>
</LineString></Placemark>
<Placemark>
<Style>
<LineStyle>
<color>ffff1111</color>
<width>2</width>
</LineStyle>
</Style>
<LineString>
  <coordinates>
  -117.74293315,33.66758499,0.0
  -117.74293278,33.66758534,0.0
  -117.74289712,33.66762096,0.0
  -117.74285179,33.66766645,0.0
  -117.74279668,33.66772160,0.0
  -117.74273160,33.66778627,0.0
  -117.74265628,33.66786039,0.0
  -117.74256092,33.66795494,0.0
  -117.74244617,33.66806949,0.0
  -117.74232645,33.66818786,0.0
  -117.74221630,33.66829380,0.0
  -117.74213089,33.66837057,0.0
  -117.74207618,33.66841357,0.0
  -117.74204612,33.66843225,0.0
  -117.74203760,33.66843521,0.0
  -117.74202342,33.66843534,0.0
  -117.74198886,33.66843544,0.0
  -117.74195894,33.66843626,0.0
  -117.74194094,33.66843447,0.0
  -117.74191945,33.66842811,0.0
  -117.74188478,33.66841245,0.0
  -117.74183313,33.66838464,0.0
  -117.74175651,33.66833751,0.0
  -117.74165791,33.66827195,0.0
  -117.74155363,33.66820038,0.0
  -117.74145955,33.66813498,0.0
  -117.74139121,33.66808779,0.0
  -117.74139188,33.66808827,0.0
</coordinates>
</LineString></Placemark>
</Folder>
</Document>
</kml>
