time latitude longitude easting northing n.velocity e.velocity 

0.317302 -1.99742 9.01852e-314 166223 -221080 2.26817 -1.99969
0.497336 -1.99742 9.01852e-314 166223 -221080 2.26817 -1.99969
0.677298 -1.99742 9.01852e-314 166223 -221080 2.26817 -1.99969
0.847257 34.1331 -118.047 403457 3.77741e+06 -0.388672 -0.0107422
1.85726 34.1331 -118.047 403457 3.77741e+06 -0.609375 -0.0410156
2.85726 34.1331 -118.047 403456 3.77741e+06 -0.9375 -0.0683594
3.84729 34.1331 -118.047 403456 3.77741e+06 -1.03711 -0.0371094
4.84726 34.1331 -118.047 403456 3.7774e+06 -1.42285 -0.0664062
5.84726 34.133 -118.047 403456 3.7774e+06 -2.0752 -0.0732422
6.83727 34.133 -118.047 403456 3.7774e+06 -2.60352 -0.119141
7.84726 34.133 -118.047 403456 3.7774e+06 -3.06152 -0.12793
8.83726 34.133 -118.047 403456 3.77739e+06 -3.38281 -0.100586
9.8573 34.1329 -118.047 403456 3.77739e+06 -3.53516 -0.0849609
10.8673 34.1329 -118.047 403456 3.77739e+06 -3.4668 -0.108398
11.8673 34.1329 -118.047 403455 3.77738e+06 -3.42285 -0.12207
12.8573 34.1328 -118.047 403455 3.77738e+06 -3.24316 -0.0732422
13.8573 34.1328 -118.047 403455 3.77738e+06 -3.1709 0.0351562
14.8573 34.1328 -118.047 403455 3.77737e+06 -2.99902 -0.0507812
15.8473 34.1328 -118.047 403455 3.77737e+06 -2.81543 0.00878906
16.8473 34.1327 -118.047 403455 3.77737e+06 -2.37988 0.000976562
17.8473 34.1327 -118.047 403455 3.77737e+06 -1.97363 0.00976562
18.8574 34.1327 -118.047 403455 3.77736e+06 -1.56152 0.0214844
19.8473 34.1327 -118.047 403455 3.77736e+06 -0.830078 0.00976562
20.8473 34.1327 -118.047 403455 3.77736e+06 0.0732422 -0.0078125
