0.305875 551 0
0.495883 544 0
0.585876 548 0
0.765873 542 0
1.54591 553 0
2.54587 558 0
3.54587 580 0
4.54587 568 0
5.54587 904 0
6.54587 932 1.06452
7.54587 980 1.06452
8.54587 1236 2.12903
9.54588 1357 3.19355
10.5559 1454 3.19355
11.5459 1567 4.25806
12.5459 1337 5.32258
13.5459 1350 5.32258
14.5459 1384 6.3871
15.5459 1414 6.3871
16.5359 1430 6.3871
17.5459 1462 7.45161
18.5559 1237 7.45161
19.5559 1022 7.45161
20.5559 722 7.45161
21.5559 709 6.3871
22.5559 705 6.3871
23.5559 697 6.3871
24.5459 707 6.3871
25.5459 712 5.32258
26.5459 691 5.32258
27.5459 696 4.25806
28.5459 678 4.25806
29.5459 631 3.19355
30.5459 645 3.19355
31.5459 613 1.06452
32.5459 548 0
33.5459 541 0
34.5459 550 0
