%!PS-Adobe-2.0 EPSF-2.0
%%Title: geo.eps
%%Creator: fig2dev Version 3.2 Patchlevel 3d
%%CreationDate: Thu Jun  3 09:52:03 2004
%%For: shaunak@setanta.cds.caltech.edu (Shaunak Sen)
%%BoundingBox: 0 0 578 146
%%Magnification: 1.0000
%%EndComments
/$F2psDict 200 dict def
$F2psDict begin
$F2psDict /mtrx matrix put
/col-1 {0 setgray} bind def
/col0 {0.000 0.000 0.000 srgb} bind def
/col1 {0.000 0.000 1.000 srgb} bind def
/col2 {0.000 1.000 0.000 srgb} bind def
/col3 {0.000 1.000 1.000 srgb} bind def
/col4 {1.000 0.000 0.000 srgb} bind def
/col5 {1.000 0.000 1.000 srgb} bind def
/col6 {1.000 1.000 0.000 srgb} bind def
/col7 {1.000 1.000 1.000 srgb} bind def
/col8 {0.000 0.000 0.560 srgb} bind def
/col9 {0.000 0.000 0.690 srgb} bind def
/col10 {0.000 0.000 0.820 srgb} bind def
/col11 {0.530 0.810 1.000 srgb} bind def
/col12 {0.000 0.560 0.000 srgb} bind def
/col13 {0.000 0.690 0.000 srgb} bind def
/col14 {0.000 0.820 0.000 srgb} bind def
/col15 {0.000 0.560 0.560 srgb} bind def
/col16 {0.000 0.690 0.690 srgb} bind def
/col17 {0.000 0.820 0.820 srgb} bind def
/col18 {0.560 0.000 0.000 srgb} bind def
/col19 {0.690 0.000 0.000 srgb} bind def
/col20 {0.820 0.000 0.000 srgb} bind def
/col21 {0.560 0.000 0.560 srgb} bind def
/col22 {0.690 0.000 0.690 srgb} bind def
/col23 {0.820 0.000 0.820 srgb} bind def
/col24 {0.500 0.190 0.000 srgb} bind def
/col25 {0.630 0.250 0.000 srgb} bind def
/col26 {0.750 0.380 0.000 srgb} bind def
/col27 {1.000 0.500 0.500 srgb} bind def
/col28 {1.000 0.630 0.630 srgb} bind def
/col29 {1.000 0.750 0.750 srgb} bind def
/col30 {1.000 0.880 0.880 srgb} bind def
/col31 {1.000 0.840 0.000 srgb} bind def

end
save
newpath 0 146 moveto 0 0 lineto 578 0 lineto 578 146 lineto closepath clip newpath
-71.3 270.7 translate
1 -1 scale

/cp {closepath} bind def
/ef {eofill} bind def
/gr {grestore} bind def
/gs {gsave} bind def
/sa {save} bind def
/rs {restore} bind def
/l {lineto} bind def
/m {moveto} bind def
/rm {rmoveto} bind def
/n {newpath} bind def
/s {stroke} bind def
/sh {show} bind def
/slc {setlinecap} bind def
/slj {setlinejoin} bind def
/slw {setlinewidth} bind def
/srgb {setrgbcolor} bind def
/rot {rotate} bind def
/sc {scale} bind def
/sd {setdash} bind def
/ff {findfont} bind def
/sf {setfont} bind def
/scf {scalefont} bind def
/sw {stringwidth} bind def
/tr {translate} bind def
/tnt {dup dup currentrgbcolor
  4 -2 roll dup 1 exch sub 3 -1 roll mul add
  4 -2 roll dup 1 exch sub 3 -1 roll mul add
  4 -2 roll dup 1 exch sub 3 -1 roll mul add srgb}
  bind def
/shd {dup dup currentrgbcolor 4 -2 roll mul 4 -2 roll mul
  4 -2 roll mul srgb} bind def
/$F2psBegin {$F2psDict begin /$F2psEnteredState save def} def
/$F2psEnd {$F2psEnteredState restore end} def

$F2psBegin
10 setmiterlimit
 0.06000 0.06000 sc
%
% Fig objects follow
%
% Arc
7.500 slw
n 7575.0 3075.0 167.7 -63.4 26.6 arc
gs col0 s gr

% Polyline
n 1200 2100 m 5700 2100 l 5700 4500 l 1200 4500 l
 cp gs col0 s gr 
% Polyline
n 6300 2100 m 10800 2100 l 10800 4500 l 6300 4500 l
 cp gs col0 s gr 
% Polyline
n 1500 4200 m
 5100 4200 l gs col0 s gr 
% Polyline
n 1800 4200 m 3000 4200 l 3000 2700 l 1800 2700 l
 cp gs col0 s gr 
% Polyline
30.000 slw
n 3000 2700 m
 4950 4200 l gs col0 s gr 
% Polyline
n 6900 2400 m 10200 2400 l 10200 3900 l 6900 3900 l
 cp gs col0 s gr 
% Polyline
7.500 slw
n 6900 3150 m
 10200 3150 l gs col0 s gr 
% Polyline
n 6900 3150 m
 8400 2700 l gs col0 s gr 
/Times-Bold ff 210.00 scf sf
4200 3300 m
gs 1 -1 sc (Scan Plane) col0 sh gr
/Times-Bold ff 210.00 scf sf
1275 2400 m
gs 1 -1 sc (a.) col0 sh gr
/Times-Bold ff 210.00 scf sf
2100 3450 m
gs 1 -1 sc (BOB) col0 sh gr
/Times-Bold ff 210.00 scf sf
6375 2400 m
gs 1 -1 sc (b.) col0 sh gr
/Times-Bold ff 210.00 scf sf
6900 4200 m
gs 1 -1 sc (Scan Plane) col0 sh gr
/Times-Bold ff 210.00 scf sf
7425 2775 m
gs 1 -1 sc (rho) col0 sh gr
/Times-Bold ff 210.00 scf sf
8025 3075 m
gs 1 -1 sc (theta) col0 sh gr
$F2psEnd
rs
