%!PS-Adobe-2.0 EPSF-2.0
%%Title: movingsensor.fig
%%Creator: fig2dev Version 3.2 Patchlevel 5-alpha5
%%CreationDate: Fri Jun  4 14:51:30 2004
%%For: dkogan@blueparrot (Dmitriy Kogan,,,)
%%BoundingBox: 0 0 492 392
%Magnification: 1.0000
%%EndComments
/$F2psDict 200 dict def
$F2psDict begin
$F2psDict /mtrx matrix put
/col-1 {0 setgray} bind def
/col0 {0.000 0.000 0.000 srgb} bind def
/col1 {0.000 0.000 1.000 srgb} bind def
/col2 {0.000 1.000 0.000 srgb} bind def
/col3 {0.000 1.000 1.000 srgb} bind def
/col4 {1.000 0.000 0.000 srgb} bind def
/col5 {1.000 0.000 1.000 srgb} bind def
/col6 {1.000 1.000 0.000 srgb} bind def
/col7 {1.000 1.000 1.000 srgb} bind def
/col8 {0.000 0.000 0.560 srgb} bind def
/col9 {0.000 0.000 0.690 srgb} bind def
/col10 {0.000 0.000 0.820 srgb} bind def
/col11 {0.530 0.810 1.000 srgb} bind def
/col12 {0.000 0.560 0.000 srgb} bind def
/col13 {0.000 0.690 0.000 srgb} bind def
/col14 {0.000 0.820 0.000 srgb} bind def
/col15 {0.000 0.560 0.560 srgb} bind def
/col16 {0.000 0.690 0.690 srgb} bind def
/col17 {0.000 0.820 0.820 srgb} bind def
/col18 {0.560 0.000 0.000 srgb} bind def
/col19 {0.690 0.000 0.000 srgb} bind def
/col20 {0.820 0.000 0.000 srgb} bind def
/col21 {0.560 0.000 0.560 srgb} bind def
/col22 {0.690 0.000 0.690 srgb} bind def
/col23 {0.820 0.000 0.820 srgb} bind def
/col24 {0.500 0.190 0.000 srgb} bind def
/col25 {0.630 0.250 0.000 srgb} bind def
/col26 {0.750 0.380 0.000 srgb} bind def
/col27 {1.000 0.500 0.500 srgb} bind def
/col28 {1.000 0.630 0.630 srgb} bind def
/col29 {1.000 0.750 0.750 srgb} bind def
/col30 {1.000 0.880 0.880 srgb} bind def
/col31 {1.000 0.840 0.000 srgb} bind def
/col32 {1.000 0.490 1.000 srgb} bind def

end
save
newpath 0 392 moveto 0 0 lineto 492 0 lineto 492 392 lineto closepath clip newpath
-56.5 598.7 translate
1 -1 scale

/cp {closepath} bind def
/ef {eofill} bind def
/gr {grestore} bind def
/gs {gsave} bind def
/sa {save} bind def
/rs {restore} bind def
/l {lineto} bind def
/m {moveto} bind def
/rm {rmoveto} bind def
/n {newpath} bind def
/s {stroke} bind def
/sh {show} bind def
/slc {setlinecap} bind def
/slj {setlinejoin} bind def
/slw {setlinewidth} bind def
/srgb {setrgbcolor} bind def
/rot {rotate} bind def
/sc {scale} bind def
/sd {setdash} bind def
/ff {findfont} bind def
/sf {setfont} bind def
/scf {scalefont} bind def
/sw {stringwidth} bind def
/tr {translate} bind def
/tnt {dup dup currentrgbcolor
  4 -2 roll dup 1 exch sub 3 -1 roll mul add
  4 -2 roll dup 1 exch sub 3 -1 roll mul add
  4 -2 roll dup 1 exch sub 3 -1 roll mul add srgb}
  bind def
/shd {dup dup currentrgbcolor 4 -2 roll mul 4 -2 roll mul
  4 -2 roll mul srgb} bind def
/reencdict 12 dict def /ReEncode { reencdict begin
/newcodesandnames exch def /newfontname exch def /basefontname exch def
/basefontdict basefontname findfont def /newfont basefontdict maxlength dict def
basefontdict { exch dup /FID ne { dup /Encoding eq
{ exch dup length array copy newfont 3 1 roll put }
{ exch newfont 3 1 roll put } ifelse } { pop pop } ifelse } forall
newfont /FontName newfontname put newcodesandnames aload pop
128 1 255 { newfont /Encoding get exch /.notdef put } for
newcodesandnames length 2 idiv { newfont /Encoding get 3 1 roll put } repeat
newfontname newfont definefont pop end } def
/isovec [
8#055 /minus 8#200 /grave 8#201 /acute 8#202 /circumflex 8#203 /tilde
8#204 /macron 8#205 /breve 8#206 /dotaccent 8#207 /dieresis
8#210 /ring 8#211 /cedilla 8#212 /hungarumlaut 8#213 /ogonek 8#214 /caron
8#220 /dotlessi 8#230 /oe 8#231 /OE
8#240 /space 8#241 /exclamdown 8#242 /cent 8#243 /sterling
8#244 /currency 8#245 /yen 8#246 /brokenbar 8#247 /section 8#250 /dieresis
8#251 /copyright 8#252 /ordfeminine 8#253 /guillemotleft 8#254 /logicalnot
8#255 /hyphen 8#256 /registered 8#257 /macron 8#260 /degree 8#261 /plusminus
8#262 /twosuperior 8#263 /threesuperior 8#264 /acute 8#265 /mu 8#266 /paragraph
8#267 /periodcentered 8#270 /cedilla 8#271 /onesuperior 8#272 /ordmasculine
8#273 /guillemotright 8#274 /onequarter 8#275 /onehalf
8#276 /threequarters 8#277 /questiondown 8#300 /Agrave 8#301 /Aacute
8#302 /Acircumflex 8#303 /Atilde 8#304 /Adieresis 8#305 /Aring
8#306 /AE 8#307 /Ccedilla 8#310 /Egrave 8#311 /Eacute
8#312 /Ecircumflex 8#313 /Edieresis 8#314 /Igrave 8#315 /Iacute
8#316 /Icircumflex 8#317 /Idieresis 8#320 /Eth 8#321 /Ntilde 8#322 /Ograve
8#323 /Oacute 8#324 /Ocircumflex 8#325 /Otilde 8#326 /Odieresis 8#327 /multiply
8#330 /Oslash 8#331 /Ugrave 8#332 /Uacute 8#333 /Ucircumflex
8#334 /Udieresis 8#335 /Yacute 8#336 /Thorn 8#337 /germandbls 8#340 /agrave
8#341 /aacute 8#342 /acircumflex 8#343 /atilde 8#344 /adieresis 8#345 /aring
8#346 /ae 8#347 /ccedilla 8#350 /egrave 8#351 /eacute
8#352 /ecircumflex 8#353 /edieresis 8#354 /igrave 8#355 /iacute
8#356 /icircumflex 8#357 /idieresis 8#360 /eth 8#361 /ntilde 8#362 /ograve
8#363 /oacute 8#364 /ocircumflex 8#365 /otilde 8#366 /odieresis 8#367 /divide
8#370 /oslash 8#371 /ugrave 8#372 /uacute 8#373 /ucircumflex
8#374 /udieresis 8#375 /yacute 8#376 /thorn 8#377 /ydieresis] def
/Helvetica /Helvetica-iso isovec ReEncode
/$F2psBegin {$F2psDict begin /$F2psEnteredState save def} def
/$F2psEnd {$F2psEnteredState restore end} def

$F2psBegin
10 setmiterlimit
0 slj 0 slc
 0.06000 0.06000 sc
%
% Fig objects follow
%
% 
% here starts figure with depth 999
%  polyline 
% Polyline
0 slj
0 slc
0.000 slw
n 1548 3540 m 1548 9409 l 8994 9409 l 8994 3540 l
 1548 3540 l  cp gs col7 1.00 shd ef gr 
% here ends figure;
% 
% here starts figure with depth 997
%  polyline 
% Polyline
0 slj
0 slc
7.500 slw
n 1548 3540 m 1548 9409 l 8994 9409 l 8994 3540 l
 1548 3540 l  cp gs col7 s gr 
%  polyline 
% Polyline
n 1548 3540 m
 8994 3540 l gs col0 s gr 
%  polyline 
% Polyline
n 1548 9409 m
 8994 9409 l gs col0 s gr 
%  polyline 
% Polyline
n 1548 3540 m
 1548 9409 l gs col0 s gr 
%  polyline 
% Polyline
n 8994 3540 m
 8994 9409 l gs col0 s gr 
%  polyline 
% Polyline
n 1548 9409 m
 8994 9409 l gs col0 s gr 
%  polyline 
% Polyline
n 1548 3540 m
 1548 9409 l gs col0 s gr 
%  polyline 
% Polyline
n 1548 9409 m
 1548 9334 l gs col0 s gr 
%  polyline 
% Polyline
n 1548 3540 m
 1548 3613 l gs col0 s gr 
%  text 
/Helvetica-iso ff 183.33 scf sf
1502 9611 m
gs 1 -1 sc (0) col0 sh gr
% here ends figure;
% 
% here starts figure with depth 986
%  polyline 
% Polyline
0 slj
0 slc
7.500 slw
n 2788 9409 m
 2788 9334 l gs col0 s gr 
%  polyline 
% Polyline
n 2788 3540 m
 2788 3613 l gs col0 s gr 
%  text 
/Helvetica-iso ff 183.33 scf sf
2743 9611 m
gs 1 -1 sc (5) col0 sh gr
%  polyline 
% Polyline
n 4030 9409 m
 4030 9334 l gs col0 s gr 
%  polyline 
% Polyline
n 4030 3540 m
 4030 3613 l gs col0 s gr 
% here ends figure;
% 
% here starts figure with depth 980
%  text 
/Helvetica-iso ff 183.33 scf sf
3938 9611 m
gs 1 -1 sc (10) col0 sh gr
%  polyline 
% Polyline
0 slj
0 slc
7.500 slw
n 5270 9409 m
 5270 9334 l gs col0 s gr 
%  polyline 
% Polyline
n 5270 3540 m
 5270 3613 l gs col0 s gr 
% here ends figure;
% 
% here starts figure with depth 976
%  text 
/Helvetica-iso ff 183.33 scf sf
5179 9611 m
gs 1 -1 sc (15) col0 sh gr
%  polyline 
% Polyline
0 slj
0 slc
7.500 slw
n 6512 9409 m
 6512 9334 l gs col0 s gr 
%  polyline 
% Polyline
n 6512 3540 m
 6512 3613 l gs col0 s gr 
% here ends figure;
% 
% here starts figure with depth 972
%  text 
/Helvetica-iso ff 183.33 scf sf
6420 9611 m
gs 1 -1 sc (20) col0 sh gr
%  polyline 
% Polyline
0 slj
0 slc
7.500 slw
n 7752 9409 m
 7752 9334 l gs col0 s gr 
%  polyline 
% Polyline
n 7752 3540 m
 7752 3613 l gs col0 s gr 
% here ends figure;
% 
% here starts figure with depth 968
%  text 
/Helvetica-iso ff 183.33 scf sf
7661 9611 m
gs 1 -1 sc (25) col0 sh gr
%  polyline 
% Polyline
0 slj
0 slc
7.500 slw
n 8994 9409 m
 8994 9334 l gs col0 s gr 
%  polyline 
% Polyline
n 8994 3540 m
 8994 3613 l gs col0 s gr 
% here ends figure;
% 
% here starts figure with depth 964
%  text 
/Helvetica-iso ff 183.33 scf sf
8902 9611 m
gs 1 -1 sc (30) col0 sh gr
%  polyline 
% Polyline
0 slj
0 slc
7.500 slw
n 1548 3540 m
 1622 3540 l gs col0 s gr 
%  polyline 
% Polyline
n 8994 3540 m
 8919 3540 l gs col0 s gr 
% here ends figure;
% 
% here starts figure with depth 960
%  text 
/Helvetica-iso ff 183.33 scf sf
1311 3601 m
gs 1 -1 sc (-5) col0 sh gr
%  polyline 
% Polyline
0 slj
0 slc
7.500 slw
n 1548 4126 m
 1622 4126 l gs col0 s gr 
%  polyline 
% Polyline
n 8994 4126 m
 8919 4126 l gs col0 s gr 
% here ends figure;
% 
% here starts figure with depth 956
%  text 
/Helvetica-iso ff 183.33 scf sf
1311 4187 m
gs 1 -1 sc (-4) col0 sh gr
%  polyline 
% Polyline
0 slj
0 slc
7.500 slw
n 1548 4713 m
 1622 4713 l gs col0 s gr 
%  polyline 
% Polyline
n 8994 4713 m
 8919 4713 l gs col0 s gr 
% here ends figure;
% 
% here starts figure with depth 952
%  text 
/Helvetica-iso ff 183.33 scf sf
1311 4775 m
gs 1 -1 sc (-3) col0 sh gr
%  polyline 
% Polyline
0 slj
0 slc
7.500 slw
n 1548 5300 m
 1622 5300 l gs col0 s gr 
%  polyline 
% Polyline
n 8994 5300 m
 8919 5300 l gs col0 s gr 
% here ends figure;
% 
% here starts figure with depth 948
%  text 
/Helvetica-iso ff 183.33 scf sf
1311 5361 m
gs 1 -1 sc (-2) col0 sh gr
%  polyline 
% Polyline
0 slj
0 slc
7.500 slw
n 1548 5887 m
 1622 5887 l gs col0 s gr 
%  polyline 
% Polyline
n 8994 5887 m
 8919 5887 l gs col0 s gr 
% here ends figure;
% 
% here starts figure with depth 944
%  text 
/Helvetica-iso ff 183.33 scf sf
1311 5948 m
gs 1 -1 sc (-1) col0 sh gr
%  polyline 
% Polyline
0 slj
0 slc
7.500 slw
n 1548 6475 m
 1622 6475 l gs col0 s gr 
%  polyline 
% Polyline
n 8994 6475 m
 8919 6475 l gs col0 s gr 
% here ends figure;
% 
% here starts figure with depth 940
%  text 
/Helvetica-iso ff 183.33 scf sf
1408 6536 m
gs 1 -1 sc (0) col0 sh gr
%  polyline 
% Polyline
0 slj
0 slc
7.500 slw
n 1548 7061 m
 1622 7061 l gs col0 s gr 
%  polyline 
% Polyline
n 8994 7061 m
 8919 7061 l gs col0 s gr 
% here ends figure;
% 
% here starts figure with depth 936
%  text 
/Helvetica-iso ff 183.33 scf sf
1408 7122 m
gs 1 -1 sc (1) col0 sh gr
%  polyline 
% Polyline
0 slj
0 slc
7.500 slw
n 1548 7648 m
 1622 7648 l gs col0 s gr 
%  polyline 
% Polyline
n 8994 7648 m
 8919 7648 l gs col0 s gr 
% here ends figure;
% 
% here starts figure with depth 932
%  text 
/Helvetica-iso ff 183.33 scf sf
1408 7709 m
gs 1 -1 sc (2) col0 sh gr
%  polyline 
% Polyline
0 slj
0 slc
7.500 slw
n 1548 8234 m
 1622 8234 l gs col0 s gr 
%  polyline 
% Polyline
n 8994 8234 m
 8919 8234 l gs col0 s gr 
% here ends figure;
% 
% here starts figure with depth 928
%  text 
/Helvetica-iso ff 183.33 scf sf
1408 8295 m
gs 1 -1 sc (3) col0 sh gr
%  polyline 
% Polyline
0 slj
0 slc
7.500 slw
n 1548 8822 m
 1622 8822 l gs col0 s gr 
%  polyline 
% Polyline
n 8994 8822 m
 8919 8822 l gs col0 s gr 
% here ends figure;
% 
% here starts figure with depth 924
%  text 
/Helvetica-iso ff 183.33 scf sf
1408 8883 m
gs 1 -1 sc (4) col0 sh gr
%  polyline 
% Polyline
0 slj
0 slc
7.500 slw
n 1548 9409 m
 1622 9409 l gs col0 s gr 
%  polyline 
% Polyline
n 8994 9409 m
 8919 9409 l gs col0 s gr 
% here ends figure;
% 
% here starts figure with depth 920
%  text 
/Helvetica-iso ff 183.33 scf sf
1408 9470 m
gs 1 -1 sc (5) col0 sh gr
%  polyline 
% Polyline
0 slj
0 slc
7.500 slw
n 1548 3540 m
 8994 3540 l gs col0 s gr 
% here ends figure;
% 
% here starts figure with depth 917
%  polyline 
% Polyline
0 slj
0 slc
7.500 slw
n 1548 9409 m
 8994 9409 l gs col0 s gr 
%  polyline 
% Polyline
n 1548 3540 m
 1548 9409 l gs col0 s gr 
%  polyline 
% Polyline
n 8994 3540 m
 8994 9409 l gs col0 s gr 
% here ends figure;
% 
% here starts figure with depth 913
%  polyline 
% Polyline
0 slj
0 slc
7.500 slw
n 7690 7184 m 7688 7226 l 7686 7269 l 7684 7311 l 7684 7352 l 7683 7394 l
 7681 7436 l 7681 7477 l 7680 7519 l 7680 7559 l 7679 7599 l
 7679 7834 l 7680 7870 l 7680 7908 l 7681 7943 l 7681 7977 l
 7683 8012 l 7684 8045 l 7686 8079 l 7687 8109 l 7688 8141 l
 7690 8170 l 7691 8199 l 7693 8227 l 7695 8255 l 7697 8280 l
 7699 8305 l 7701 8330 l 7704 8352 l 7706 8374 l 7709 8394 l
 7712 8413 l 7715 8431 l 7718 8448 l 7720 8465 l 7723 8479 l
 7727 8493 l 7730 8504 l 7733 8515 l 7737 8524 l 7740 8531 l
 7744 8538 l 7748 8544 l 7751 8548 l 7755 8551 l 7759 8552 l
 7762 8552 l 7766 8552 l 7770 8549 l 7774 8545 l 7779 8540 l
 7783 8534 l 7787 8526 l 7791 8517 l 7795 8506 l 7799 8495 l
 7804 8483 l 7808 8469 l 7812 8452 l 7816 8437 l 7820 8419 l
 7824 8399 l 7829 8380 l 7833 8358 l 7837 8336 l 7840 8312 l
 7844 8287 l 7848 8262 l 7852 8236 l 7856 8208 l 7861 8179 l
 7865 8149 l 7867 8118 l 7872 8087 l 7876 8054 l 7879 8022 l
 7883 7987 l 7886 7952 l 7890 7916 l 7892 7880 l 7897 7844 l
 7899 7806 l 7902 7768 l 7905 7730 l 7908 7690 l 7911 7651 l
 7913 7611 l 7916 7570 l 7919 7530 l 7922 7488 l 7923 7447 l
 7926 7405 l 7927 7363 l 7930 7322 l 7931 7280 l 7933 7237 l
 7934 7195 l 7936 7154 l 7937 7111 l 7938 7069 l 7940 7027 l
 7941 6986 l 7941 6944 l 7942 6902 l 7942 6862 l 7944 6822 l
 7944 6588 l 7942 6551 l 7942 6515 l 7941 6479 l 7941 6444 l
 7940 6409 l 7938 6376 l 7937 6344 l 7936 6312 l 7934 6281 l
 7933 6251 l 7931 6222 l 7930 6194 l 7927 6166 l 7926 6141 l
 7923 6116 l 7920 6093 l 7919 6069 l 7916 6048 l 7913 6027 l
 7911 6008 l 7908 5990 l 7905 5973 l 7902 5958 l 7899 5943 l
 7895 5930 l 7892 5918 l 7890 5907 l 7886 5898 l 7883 5890 l
 7879 5883 l 7874 5877 l 7872 5873 l 7867 5870 l 7863 5869 l
 7861 5869 l 7856 5870 l 7852 5872 l 7848 5876 l 7844 5882 l
 7840 5887 l 7836 5895 l 7831 5905 l 7827 5915 l 7823 5926 l
 7819 5940 l 7815 5954 l 7811 5969 l 7806 5986 l 7802 6004 l
 7798 6022 l 7794 6043 l 7790 6063 l 7786 6086 l 7781 6109 l
 7779 6134 l 7774 6159 l 7770 6187 l 7766 6215 l 7762 6243 l
 7758 6273 l 7755 6304 l 7751 6334 l 7747 6368 l 7744 6401 l
 7740 6434 l 7737 6469 l 7733 6505 l 7730 6541 l 7726 6577 l
 7723 6615 l 7720 6654 l 7718 6693 l 7715 6731 l 7712 6770 l
 7709 6811 l 7706 6851 l 7704 6893 l 7701 6933 l 7699 6975 l
 7697 7016 l 7695 7058 l 7693 7100 l 7691 7143 l
 7690 7184 l  cp gs col1 s gr 
%  polyline 
% Polyline
 [60 30 15 30] 0 sd
n 1548 5300 m
 5433 5300 l gs col2 s gr  [] 0 sd
% here ends figure;
% 
% here starts figure with depth 910
%  polyline 
% Polyline
0 slj
0 slc
7.500 slw
n 1548 6475 m 1795 6475 l 2044 6475 l 2293 6475 l 2540 6475 l 2788 6475 l
 3037 6475 l 3284 6475 l 3533 6805 l 3781 6948 l 4030 6988 l
 4277 6937 l 4526 6897 l 4774 6897 l 5022 6665 l 5270 6654 l
 5519 6718 l 5766 6479 l 6015 6737 l 6263 6908 l 6512 7006 l
 6759 7072 l 7008 7126 l 7256 7138 l 7504 7145 l 7752 7109 l
 8001 7256 l 8248 6475 l 8497 6475 l
 8745 6475 l gs col1 s gr 
% here ends figure;
% 
% here starts figure with depth 908
%  polyline 
% Polyline
0 slj
0 slc
7.500 slw
n 6968 7086 m 7048 7086 l 7048 7166 l 6968 7166 l
 6968 7086 l  cp gs col5 s gr 
%  polyline 
% Polyline
n 7216 7098 m 7297 7098 l 7297 7179 l 7216 7179 l
 7216 7098 l  cp gs col5 s gr 
%  polyline 
% Polyline
n 7463 7105 m 7544 7105 l 7544 7186 l 7463 7186 l
 7463 7105 l  cp gs col5 s gr 
%  polyline 
% Polyline
n 7712 7069 m 7793 7069 l 7793 7150 l 7712 7150 l
 7712 7069 l  cp gs col5 s gr 
%  polyline 
% Polyline
n 7961 7216 m 8041 7216 l 8041 7297 l 7961 7297 l
 7961 7216 l  cp gs col5 s gr 
%  polyline 
% Polyline
n 8208 6434 m 8288 6434 l 8288 6515 l 8208 6515 l
 8208 6434 l  cp gs col5 s gr 
%  polyline 
% Polyline
n 8456 6434 m 8537 6434 l 8537 6515 l 8456 6515 l
 8456 6434 l  cp gs col5 s gr 
%  polyline 
% Polyline
n 1513 6440 m
 1583 6509 l gs col4 s gr 
% here ends figure;
% 
% here starts figure with depth 899
%  polyline 
% Polyline
0 slj
0 slc
7.500 slw
n 1583 6440 m
 1513 6509 l gs col4 s gr 
%  polyline 
% Polyline
n 1761 6561 m
 1830 6630 l gs col4 s gr 
% here ends figure;
% 
% here starts figure with depth 896
%  polyline 
% Polyline
0 slj
0 slc
7.500 slw
n 1830 6561 m
 1761 6630 l gs col4 s gr 
%  polyline 
% Polyline
n 2009 6677 m
 2079 6747 l gs col4 s gr 
% here ends figure;
% 
% here starts figure with depth 893
%  polyline 
% Polyline
0 slj
0 slc
7.500 slw
n 2079 6677 m
 2009 6747 l gs col4 s gr 
%  polyline 
% Polyline
n 2258 6784 m
 2327 6854 l gs col4 s gr 
% here ends figure;
% 
% here starts figure with depth 890
%  polyline 
% Polyline
0 slj
0 slc
7.500 slw
n 2327 6784 m
 2258 6854 l gs col4 s gr 
%  polyline 
% Polyline
n 2505 6876 m
 2574 6945 l gs col4 s gr 
% here ends figure;
% 
% here starts figure with depth 887
%  polyline 
% Polyline
0 slj
0 slc
7.500 slw
n 2574 6876 m
 2505 6945 l gs col4 s gr 
%  polyline 
% Polyline
n 2754 6947 m
 2823 7016 l gs col4 s gr 
% here ends figure;
% 
% here starts figure with depth 884
%  polyline 
% Polyline
0 slj
0 slc
7.500 slw
n 2823 6947 m
 2754 7016 l gs col4 s gr 
%  polyline 
% Polyline
n 3002 6997 m
 3072 7066 l gs col4 s gr 
% here ends figure;
% 
% here starts figure with depth 881
%  polyline 
% Polyline
0 slj
0 slc
7.500 slw
n 3072 6997 m
 3002 7066 l gs col4 s gr 
%  polyline 
% Polyline
n 3249 7023 m
 3319 7093 l gs col4 s gr 
% here ends figure;
% 
% here starts figure with depth 878
%  polyline 
% Polyline
0 slj
0 slc
7.500 slw
n 3319 7023 m
 3249 7093 l gs col4 s gr 
%  polyline 
% Polyline
n 3498 7023 m
 3568 7093 l gs col4 s gr 
% here ends figure;
% 
% here starts figure with depth 875
%  polyline 
% Polyline
0 slj
0 slc
7.500 slw
n 3568 7023 m
 3498 7093 l gs col4 s gr 
%  polyline 
% Polyline
n 3747 6997 m
 3816 7066 l gs col4 s gr 
% here ends figure;
% 
% here starts figure with depth 872
%  polyline 
% Polyline
0 slj
0 slc
7.500 slw
n 3816 6997 m
 3747 7066 l gs col4 s gr 
%  polyline 
% Polyline
n 3995 6947 m
 4065 7016 l gs col4 s gr 
% here ends figure;
% 
% here starts figure with depth 869
%  polyline 
% Polyline
0 slj
0 slc
7.500 slw
n 4065 6947 m
 3995 7016 l gs col4 s gr 
%  polyline 
% Polyline
n 4243 6876 m
 4312 6945 l gs col4 s gr 
% here ends figure;
% 
% here starts figure with depth 866
%  polyline 
% Polyline
0 slj
0 slc
7.500 slw
n 4312 6876 m
 4243 6945 l gs col4 s gr 
%  polyline 
% Polyline
n 4491 6784 m
 4561 6854 l gs col4 s gr 
% here ends figure;
% 
% here starts figure with depth 863
%  polyline 
% Polyline
0 slj
0 slc
7.500 slw
n 4561 6784 m
 4491 6854 l gs col4 s gr 
%  polyline 
% Polyline
n 4740 6677 m
 4809 6747 l gs col4 s gr 
% here ends figure;
% 
% here starts figure with depth 860
%  polyline 
% Polyline
0 slj
0 slc
7.500 slw
n 4809 6677 m
 4740 6747 l gs col4 s gr 
%  polyline 
% Polyline
n 4987 6561 m
 5056 6630 l gs col4 s gr 
% here ends figure;
% 
% here starts figure with depth 857
%  polyline 
% Polyline
0 slj
0 slc
7.500 slw
n 5056 6561 m
 4987 6630 l gs col4 s gr 
%  polyline 
% Polyline
n 5236 6440 m
 5305 6509 l gs col4 s gr 
% here ends figure;
% 
% here starts figure with depth 854
%  polyline 
% Polyline
0 slj
0 slc
7.500 slw
n 5305 6440 m
 5236 6509 l gs col4 s gr 
%  polyline 
% Polyline
n 5484 6561 m
 5554 6630 l gs col4 s gr 
% here ends figure;
% 
% here starts figure with depth 851
%  polyline 
% Polyline
0 slj
0 slc
7.500 slw
n 5554 6561 m
 5484 6630 l gs col4 s gr 
%  polyline 
% Polyline
n 5731 6677 m
 5801 6747 l gs col4 s gr 
% here ends figure;
% 
% here starts figure with depth 848
%  polyline 
% Polyline
0 slj
0 slc
7.500 slw
n 5801 6677 m
 5731 6747 l gs col4 s gr 
%  polyline 
% Polyline
n 5980 6784 m
 6049 6854 l gs col4 s gr 
% here ends figure;
% 
% here starts figure with depth 845
%  polyline 
% Polyline
0 slj
0 slc
7.500 slw
n 6049 6784 m
 5980 6854 l gs col4 s gr 
%  polyline 
% Polyline
n 6229 6876 m
 6298 6945 l gs col4 s gr 
% here ends figure;
% 
% here starts figure with depth 842
%  polyline 
% Polyline
0 slj
0 slc
7.500 slw
n 6298 6876 m
 6229 6945 l gs col4 s gr 
%  polyline 
% Polyline
n 6477 6947 m
 6547 7016 l gs col4 s gr 
% here ends figure;
% 
% here starts figure with depth 839
%  polyline 
% Polyline
0 slj
0 slc
7.500 slw
n 6547 6947 m
 6477 7016 l gs col4 s gr 
%  polyline 
% Polyline
n 6724 6997 m
 6794 7066 l gs col4 s gr 
% here ends figure;
% 
% here starts figure with depth 836
%  polyline 
% Polyline
0 slj
0 slc
7.500 slw
n 6794 6997 m
 6724 7066 l gs col4 s gr 
%  polyline 
% Polyline
n 6973 7023 m
 7043 7093 l gs col4 s gr 
% here ends figure;
% 
% here starts figure with depth 833
%  polyline 
% Polyline
0 slj
0 slc
7.500 slw
n 7043 7023 m
 6973 7093 l gs col4 s gr 
%  polyline 
% Polyline
n 7222 7023 m
 7291 7093 l gs col4 s gr 
% here ends figure;
% 
% here starts figure with depth 830
%  polyline 
% Polyline
0 slj
0 slc
7.500 slw
n 7291 7023 m
 7222 7093 l gs col4 s gr 
%  polyline 
% Polyline
n 7469 6997 m
 7538 7066 l gs col4 s gr 
% here ends figure;
% 
% here starts figure with depth 827
%  polyline 
% Polyline
0 slj
0 slc
7.500 slw
n 7538 6997 m
 7469 7066 l gs col4 s gr 
%  polyline 
% Polyline
n 7718 6947 m
 7787 7016 l gs col4 s gr 
% here ends figure;
% 
% here starts figure with depth 824
%  polyline 
% Polyline
0 slj
0 slc
7.500 slw
n 7787 6947 m
 7718 7016 l gs col4 s gr 
%  polyline 
% Polyline
n 7966 6876 m
 8036 6945 l gs col4 s gr 
% here ends figure;
% 
% here starts figure with depth 821
%  polyline 
% Polyline
0 slj
0 slc
7.500 slw
n 8036 6876 m
 7966 6945 l gs col4 s gr 
%  polyline 
% Polyline
n 8213 6784 m
 8283 6854 l gs col4 s gr 
% here ends figure;
% 
% here starts figure with depth 818
%  polyline 
% Polyline
0 slj
0 slc
7.500 slw
n 8283 6784 m
 8213 6854 l gs col4 s gr 
%  polyline 
% Polyline
n 8462 6677 m
 8531 6747 l gs col4 s gr 
% here ends figure;
% 
% here starts figure with depth 815
%  polyline 
% Polyline
0 slj
0 slc
7.500 slw
n 8531 6677 m
 8462 6747 l gs col4 s gr 
%  polyline 
% Polyline
n 8711 6561 m
 8780 6630 l gs col4 s gr 
% here ends figure;
% 
% here starts figure with depth 812
%  polyline 
% Polyline
0 slj
0 slc
7.500 slw
n 8780 6561 m
 8711 6630 l gs col4 s gr 
%  polyline 
% Polyline
n 1498 6475 m
 1598 6475 l gs col1 s gr 
% here ends figure;
% 
% here starts figure with depth 809
%  polyline 
% Polyline
0 slj
0 slc
7.500 slw
n 1548 6425 m
 1548 6525 l gs col1 s gr 
%  polyline 
% Polyline
n 1745 6475 m
 1845 6475 l gs col1 s gr 
% here ends figure;
% 
% here starts figure with depth 806
%  polyline 
% Polyline
0 slj
0 slc
7.500 slw
n 1795 6425 m
 1795 6525 l gs col1 s gr 
%  polyline 
% Polyline
n 1994 6475 m
 2094 6475 l gs col1 s gr 
% here ends figure;
% 
% here starts figure with depth 803
%  polyline 
% Polyline
0 slj
0 slc
7.500 slw
n 2044 6425 m
 2044 6525 l gs col1 s gr 
%  polyline 
% Polyline
n 2243 6475 m
 2343 6475 l gs col1 s gr 
% here ends figure;
% 
% here starts figure with depth 800
%  polyline 
% Polyline
0 slj
0 slc
7.500 slw
n 2293 6425 m
 2293 6525 l gs col1 s gr 
%  polyline 
% Polyline
n 2490 6475 m
 2590 6475 l gs col1 s gr 
% here ends figure;
% 
% here starts figure with depth 797
%  polyline 
% Polyline
0 slj
0 slc
7.500 slw
n 2540 6425 m
 2540 6525 l gs col1 s gr 
%  polyline 
% Polyline
n 2738 6475 m
 2838 6475 l gs col1 s gr 
% here ends figure;
% 
% here starts figure with depth 794
%  polyline 
% Polyline
0 slj
0 slc
7.500 slw
n 2788 6425 m
 2788 6525 l gs col1 s gr 
%  polyline 
% Polyline
n 2987 6475 m
 3087 6475 l gs col1 s gr 
% here ends figure;
% 
% here starts figure with depth 791
%  polyline 
% Polyline
0 slj
0 slc
7.500 slw
n 3037 6425 m
 3037 6525 l gs col1 s gr 
%  polyline 
% Polyline
n 3234 6475 m
 3334 6475 l gs col1 s gr 
% here ends figure;
% 
% here starts figure with depth 788
%  polyline 
% Polyline
0 slj
0 slc
7.500 slw
n 3284 6425 m
 3284 6525 l gs col1 s gr 
%  polyline 
% Polyline
n 3483 6805 m
 3583 6805 l gs col1 s gr 
% here ends figure;
% 
% here starts figure with depth 785
%  polyline 
% Polyline
0 slj
0 slc
7.500 slw
n 3533 6755 m
 3533 6855 l gs col1 s gr 
%  polyline 
% Polyline
n 3731 6948 m
 3831 6948 l gs col1 s gr 
% here ends figure;
% 
% here starts figure with depth 782
%  polyline 
% Polyline
0 slj
0 slc
7.500 slw
n 3781 6898 m
 3781 6998 l gs col1 s gr 
%  polyline 
% Polyline
n 3980 6988 m
 4080 6988 l gs col1 s gr 
% here ends figure;
% 
% here starts figure with depth 779
%  polyline 
% Polyline
0 slj
0 slc
7.500 slw
n 4030 6938 m
 4030 7038 l gs col1 s gr 
%  polyline 
% Polyline
n 4227 6937 m
 4327 6937 l gs col1 s gr 
% here ends figure;
% 
% here starts figure with depth 776
%  polyline 
% Polyline
0 slj
0 slc
7.500 slw
n 4277 6887 m
 4277 6987 l gs col1 s gr 
%  polyline 
% Polyline
n 4476 6897 m
 4576 6897 l gs col1 s gr 
% here ends figure;
% 
% here starts figure with depth 773
%  polyline 
% Polyline
0 slj
0 slc
7.500 slw
n 4526 6847 m
 4526 6947 l gs col1 s gr 
%  polyline 
% Polyline
n 4724 6897 m
 4824 6897 l gs col1 s gr 
% here ends figure;
% 
% here starts figure with depth 770
%  polyline 
% Polyline
0 slj
0 slc
7.500 slw
n 4774 6847 m
 4774 6947 l gs col1 s gr 
%  polyline 
% Polyline
n 4972 6665 m
 5072 6665 l gs col1 s gr 
% here ends figure;
% 
% here starts figure with depth 767
%  polyline 
% Polyline
0 slj
0 slc
7.500 slw
n 5022 6615 m
 5022 6715 l gs col1 s gr 
%  polyline 
% Polyline
n 5220 6654 m
 5320 6654 l gs col1 s gr 
% here ends figure;
% 
% here starts figure with depth 764
%  polyline 
% Polyline
0 slj
0 slc
7.500 slw
n 5270 6604 m
 5270 6704 l gs col1 s gr 
%  polyline 
% Polyline
n 5469 6718 m
 5569 6718 l gs col1 s gr 
% here ends figure;
% 
% here starts figure with depth 761
%  polyline 
% Polyline
0 slj
0 slc
7.500 slw
n 5519 6668 m
 5519 6768 l gs col1 s gr 
%  polyline 
% Polyline
n 5716 6479 m
 5816 6479 l gs col1 s gr 
% here ends figure;
% 
% here starts figure with depth 758
%  polyline 
% Polyline
0 slj
0 slc
7.500 slw
n 5766 6429 m
 5766 6529 l gs col1 s gr 
%  polyline 
% Polyline
n 5965 6737 m
 6065 6737 l gs col1 s gr 
% here ends figure;
% 
% here starts figure with depth 755
%  polyline 
% Polyline
0 slj
0 slc
7.500 slw
n 6015 6687 m
 6015 6787 l gs col1 s gr 
%  polyline 
% Polyline
n 6213 6908 m
 6313 6908 l gs col1 s gr 
% here ends figure;
% 
% here starts figure with depth 752
%  polyline 
% Polyline
0 slj
0 slc
7.500 slw
n 6263 6858 m
 6263 6958 l gs col1 s gr 
%  polyline 
% Polyline
n 6462 7006 m
 6562 7006 l gs col1 s gr 
% here ends figure;
% 
% here starts figure with depth 749
%  polyline 
% Polyline
0 slj
0 slc
7.500 slw
n 6512 6956 m
 6512 7056 l gs col1 s gr 
%  polyline 
% Polyline
n 6709 7072 m
 6809 7072 l gs col1 s gr 
% here ends figure;
% 
% here starts figure with depth 746
%  polyline 
% Polyline
0 slj
0 slc
7.500 slw
n 6759 7022 m
 6759 7122 l gs col1 s gr 
%  polyline 
% Polyline
n 6958 7126 m
 7058 7126 l gs col1 s gr 
% here ends figure;
% 
% here starts figure with depth 743
%  polyline 
% Polyline
0 slj
0 slc
7.500 slw
n 7008 7076 m
 7008 7176 l gs col1 s gr 
%  polyline 
% Polyline
n 7206 7138 m
 7306 7138 l gs col1 s gr 
% here ends figure;
% 
% here starts figure with depth 740
%  polyline 
% Polyline
0 slj
0 slc
7.500 slw
n 7256 7088 m
 7256 7188 l gs col1 s gr 
%  polyline 
% Polyline
n 7454 7145 m
 7554 7145 l gs col1 s gr 
% here ends figure;
% 
% here starts figure with depth 737
%  polyline 
% Polyline
0 slj
0 slc
7.500 slw
n 7504 7095 m
 7504 7195 l gs col1 s gr 
%  polyline 
% Polyline
n 7702 7109 m
 7802 7109 l gs col1 s gr 
% here ends figure;
% 
% here starts figure with depth 734
%  polyline 
% Polyline
0 slj
0 slc
7.500 slw
n 7752 7059 m
 7752 7159 l gs col1 s gr 
%  polyline 
% Polyline
n 7951 7256 m
 8051 7256 l gs col1 s gr 
% here ends figure;
% 
% here starts figure with depth 731
%  polyline 
% Polyline
0 slj
0 slc
7.500 slw
n 8001 7206 m
 8001 7306 l gs col1 s gr 
%  polyline 
% Polyline
n 8198 6475 m
 8298 6475 l gs col1 s gr 
% here ends figure;
% 
% here starts figure with depth 728
%  polyline 
% Polyline
0 slj
0 slc
7.500 slw
n 8248 6425 m
 8248 6525 l gs col1 s gr 
%  polyline 
% Polyline
n 8447 6475 m
 8547 6475 l gs col1 s gr 
% here ends figure;
% 
% here starts figure with depth 725
%  polyline 
% Polyline
0 slj
0 slc
7.500 slw
n 8497 6425 m
 8497 6525 l gs col1 s gr 
%  polyline 
% Polyline
n 8695 6475 m
 8795 6475 l gs col1 s gr 
% here ends figure;
% 
% here starts figure with depth 722
%  polyline 
% Polyline
0 slj
0 slc
7.500 slw
n 8745 6425 m
 8745 6525 l gs col1 s gr 
%  polyline 
% Polyline
n 1513 6440 m
 1583 6509 l gs col1 s gr 
% here ends figure;
% 
% here starts figure with depth 719
%  polyline 
% Polyline
0 slj
0 slc
7.500 slw
n 1583 6440 m
 1513 6509 l gs col1 s gr 
%  polyline 
% Polyline
n 1761 6440 m
 1830 6509 l gs col1 s gr 
% here ends figure;
% 
% here starts figure with depth 716
%  polyline 
% Polyline
0 slj
0 slc
7.500 slw
n 1830 6440 m
 1761 6509 l gs col1 s gr 
%  polyline 
% Polyline
n 2009 6440 m
 2079 6509 l gs col1 s gr 
% here ends figure;
% 
% here starts figure with depth 713
%  polyline 
% Polyline
0 slj
0 slc
7.500 slw
n 2079 6440 m
 2009 6509 l gs col1 s gr 
%  polyline 
% Polyline
n 2258 6440 m
 2327 6509 l gs col1 s gr 
% here ends figure;
% 
% here starts figure with depth 710
%  polyline 
% Polyline
0 slj
0 slc
7.500 slw
n 2327 6440 m
 2258 6509 l gs col1 s gr 
%  polyline 
% Polyline
n 2505 6440 m
 2574 6509 l gs col1 s gr 
% here ends figure;
% 
% here starts figure with depth 707
%  polyline 
% Polyline
0 slj
0 slc
7.500 slw
n 2574 6440 m
 2505 6509 l gs col1 s gr 
%  polyline 
% Polyline
n 2754 6440 m
 2823 6509 l gs col1 s gr 
% here ends figure;
% 
% here starts figure with depth 704
%  polyline 
% Polyline
0 slj
0 slc
7.500 slw
n 2823 6440 m
 2754 6509 l gs col1 s gr 
%  polyline 
% Polyline
n 3002 6440 m
 3072 6509 l gs col1 s gr 
% here ends figure;
% 
% here starts figure with depth 701
%  polyline 
% Polyline
0 slj
0 slc
7.500 slw
n 3072 6440 m
 3002 6509 l gs col1 s gr 
%  polyline 
% Polyline
n 3249 6440 m
 3319 6509 l gs col1 s gr 
% here ends figure;
% 
% here starts figure with depth 698
%  polyline 
% Polyline
0 slj
0 slc
7.500 slw
n 3319 6440 m
 3249 6509 l gs col1 s gr 
%  polyline 
% Polyline
n 3498 6770 m
 3568 6840 l gs col1 s gr 
% here ends figure;
% 
% here starts figure with depth 695
%  polyline 
% Polyline
0 slj
0 slc
7.500 slw
n 3568 6770 m
 3498 6840 l gs col1 s gr 
%  polyline 
% Polyline
n 3747 6913 m
 3816 6983 l gs col1 s gr 
% here ends figure;
% 
% here starts figure with depth 692
%  polyline 
% Polyline
0 slj
0 slc
7.500 slw
n 3816 6913 m
 3747 6983 l gs col1 s gr 
%  polyline 
% Polyline
n 3995 6954 m
 4065 7023 l gs col1 s gr 
% here ends figure;
% 
% here starts figure with depth 689
%  polyline 
% Polyline
0 slj
0 slc
7.500 slw
n 4065 6954 m
 3995 7023 l gs col1 s gr 
%  polyline 
% Polyline
n 4243 6902 m
 4312 6972 l gs col1 s gr 
% here ends figure;
% 
% here starts figure with depth 686
%  polyline 
% Polyline
0 slj
0 slc
7.500 slw
n 4312 6902 m
 4243 6972 l gs col1 s gr 
%  polyline 
% Polyline
n 4491 6862 m
 4561 6931 l gs col1 s gr 
% here ends figure;
% 
% here starts figure with depth 683
%  polyline 
% Polyline
0 slj
0 slc
7.500 slw
n 4561 6862 m
 4491 6931 l gs col1 s gr 
%  polyline 
% Polyline
n 4740 6862 m
 4809 6931 l gs col1 s gr 
% here ends figure;
% 
% here starts figure with depth 680
%  polyline 
% Polyline
0 slj
0 slc
7.500 slw
n 4809 6862 m
 4740 6931 l gs col1 s gr 
%  polyline 
% Polyline
n 4987 6630 m
 5056 6700 l gs col1 s gr 
% here ends figure;
% 
% here starts figure with depth 677
%  polyline 
% Polyline
0 slj
0 slc
7.500 slw
n 5056 6630 m
 4987 6700 l gs col1 s gr 
%  polyline 
% Polyline
n 5236 6619 m
 5305 6688 l gs col1 s gr 
% here ends figure;
% 
% here starts figure with depth 674
%  polyline 
% Polyline
0 slj
0 slc
7.500 slw
n 5305 6619 m
 5236 6688 l gs col1 s gr 
%  polyline 
% Polyline
n 5484 6683 m
 5554 6752 l gs col1 s gr 
% here ends figure;
% 
% here starts figure with depth 671
%  polyline 
% Polyline
0 slj
0 slc
7.500 slw
n 5554 6683 m
 5484 6752 l gs col1 s gr 
%  polyline 
% Polyline
n 5731 6444 m
 5801 6513 l gs col1 s gr 
% here ends figure;
% 
% here starts figure with depth 668
%  polyline 
% Polyline
0 slj
0 slc
7.500 slw
n 5801 6444 m
 5731 6513 l gs col1 s gr 
%  polyline 
% Polyline
n 5980 6702 m
 6049 6772 l gs col1 s gr 
% here ends figure;
% 
% here starts figure with depth 665
%  polyline 
% Polyline
0 slj
0 slc
7.500 slw
n 6049 6702 m
 5980 6772 l gs col1 s gr 
%  polyline 
% Polyline
n 6229 6873 m
 6298 6943 l gs col1 s gr 
% here ends figure;
% 
% here starts figure with depth 662
%  polyline 
% Polyline
0 slj
0 slc
7.500 slw
n 6298 6873 m
 6229 6943 l gs col1 s gr 
%  polyline 
% Polyline
n 6477 6972 m
 6547 7041 l gs col1 s gr 
% here ends figure;
% 
% here starts figure with depth 659
%  polyline 
% Polyline
0 slj
0 slc
7.500 slw
n 6547 6972 m
 6477 7041 l gs col1 s gr 
%  polyline 
% Polyline
n 6724 7037 m
 6794 7106 l gs col1 s gr 
% here ends figure;
% 
% here starts figure with depth 656
%  polyline 
% Polyline
0 slj
0 slc
7.500 slw
n 6794 7037 m
 6724 7106 l gs col1 s gr 
%  polyline 
% Polyline
n 6973 7091 m
 7043 7161 l gs col1 s gr 
% here ends figure;
% 
% here starts figure with depth 653
%  polyline 
% Polyline
0 slj
0 slc
7.500 slw
n 7043 7091 m
 6973 7161 l gs col1 s gr 
%  polyline 
% Polyline
n 7222 7104 m
 7291 7173 l gs col1 s gr 
% here ends figure;
% 
% here starts figure with depth 650
%  polyline 
% Polyline
0 slj
0 slc
7.500 slw
n 7291 7104 m
 7222 7173 l gs col1 s gr 
%  polyline 
% Polyline
n 7469 7111 m
 7538 7180 l gs col1 s gr 
% here ends figure;
% 
% here starts figure with depth 647
%  polyline 
% Polyline
0 slj
0 slc
7.500 slw
n 7538 7111 m
 7469 7180 l gs col1 s gr 
%  polyline 
% Polyline
n 7718 7075 m
 7787 7144 l gs col1 s gr 
% here ends figure;
% 
% here starts figure with depth 644
%  polyline 
% Polyline
0 slj
0 slc
7.500 slw
n 7787 7075 m
 7718 7144 l gs col1 s gr 
%  polyline 
% Polyline
n 7966 7222 m
 8036 7291 l gs col1 s gr 
% here ends figure;
% 
% here starts figure with depth 641
%  polyline 
% Polyline
0 slj
0 slc
7.500 slw
n 8036 7222 m
 7966 7291 l gs col1 s gr 
%  polyline 
% Polyline
n 8213 6440 m
 8283 6509 l gs col1 s gr 
% here ends figure;
% 
% here starts figure with depth 638
%  polyline 
% Polyline
0 slj
0 slc
7.500 slw
n 8283 6440 m
 8213 6509 l gs col1 s gr 
%  polyline 
% Polyline
n 8462 6440 m
 8531 6509 l gs col1 s gr 
% here ends figure;
% 
% here starts figure with depth 635
%  polyline 
% Polyline
0 slj
0 slc
7.500 slw
n 8531 6440 m
 8462 6509 l gs col1 s gr 
%  polyline 
% Polyline
n 8711 6440 m
 8780 6509 l gs col1 s gr 
% here ends figure;
% 
% here starts figure with depth 632
%  polyline 
% Polyline
0 slj
0 slc
7.500 slw
n 8780 6440 m
 8711 6509 l gs col1 s gr 
%  spline 
% Polyline
2 slj
n 3831 6891 m 3831 6892 l 3830 6896 l 3830 6902 l 3829 6906 l 3829 6907 l
 3828 6909 l 3827 6912 l 3825 6916 l 3822 6921 l 3819 6925 l
 3817 6927 l 3815 6929 l 3811 6932 l 3807 6935 l 3805 6936 l
 3804 6936 l 3802 6937 l 3797 6939 l 3791 6940 l 3787 6941 l
 3784 6941 l 3781 6941 l 3780 6941 l 3776 6940 l 3771 6940 l
 3767 6939 l 3766 6939 l 3764 6938 l 3761 6937 l 3757 6935 l
 3752 6932 l 3748 6929 l 3746 6927 l 3744 6925 l 3741 6921 l
 3738 6917 l 3737 6915 l 3737 6914 l 3736 6912 l 3734 6907 l
 3732 6901 l 3732 6897 l 3731 6894 l 3731 6891 l 3731 6890 l
 3732 6886 l 3733 6880 l 3734 6876 l 3734 6875 l 3735 6873 l
 3736 6870 l 3738 6866 l 3741 6862 l 3744 6858 l 3746 6856 l
 3748 6854 l 3752 6851 l 3756 6848 l 3758 6847 l 3759 6847 l
 3761 6846 l 3766 6844 l 3771 6842 l 3775 6842 l 3779 6841 l
 3781 6841 l 3782 6841 l 3786 6842 l 3792 6843 l 3796 6844 l
 3797 6844 l 3799 6845 l 3802 6846 l 3806 6848 l 3811 6851 l
 3815 6854 l 3817 6856 l 3819 6858 l 3822 6862 l 3825 6866 l
 3826 6868 l 3827 6870 l 3829 6875 l 3830 6880 l 3831 6885 l
 3831 6888 l
 3831 6891 l  cp gs col0 s gr 
%  spline 
% Polyline
n 4080 7040 m 4080 7041 l 4079 7045 l 4079 7051 l 4078 7055 l 4078 7056 l
 4077 7058 l 4075 7061 l 4073 7065 l 4070 7069 l 4067 7073 l
 4066 7075 l 4065 7075 l 4064 7077 l 4060 7080 l 4056 7083 l
 4054 7084 l 4053 7084 l 4051 7085 l 4046 7087 l 4040 7089 l
 4036 7089 l 4033 7090 l 4030 7090 l 4029 7090 l 4025 7089 l
 4019 7088 l 4015 7087 l 4014 7087 l 4012 7086 l 4009 7085 l
 4005 7083 l 4001 7080 l 3997 7077 l 3995 7075 l 3993 7073 l
 3990 7069 l 3987 7065 l 3986 7063 l 3985 7061 l 3983 7056 l
 3981 7051 l 3981 7046 l 3980 7043 l 3980 7040 l 3980 7039 l
 3981 7035 l 3982 7029 l 3983 7025 l 3983 7024 l 3984 7022 l
 3985 7019 l 3987 7015 l 3990 7010 l 3993 7006 l 3995 7004 l
 3997 7002 l 4001 6999 l 4005 6996 l 4007 6995 l 4009 6994 l
 4014 6992 l 4019 6991 l 4024 6990 l 4027 6990 l 4030 6990 l
 4031 6990 l 4035 6991 l 4041 6991 l 4045 6992 l 4046 6992 l
 4048 6993 l 4052 6994 l 4055 6996 l 4060 6999 l 4064 7002 l
 4065 7004 l 4066 7004 l 4067 7006 l 4070 7010 l 4073 7014 l
 4074 7016 l 4075 7017 l 4076 7019 l 4078 7024 l 4079 7030 l
 4080 7034 l 4080 7037 l
 4080 7040 l  cp gs col0 s gr 
% here ends figure;
% 
% here starts figure with depth 628
%  spline 
% Polyline
2 slj
0 slc
7.500 slw
n 4327 6886 m 4327 6887 l 4326 6891 l 4326 6896 l 4325 6900 l 4325 6901 l
 4324 6903 l 4323 6906 l 4321 6910 l 4318 6915 l 4315 6919 l
 4313 6921 l 4311 6923 l 4307 6926 l 4303 6929 l 4301 6930 l
 4300 6930 l 4298 6931 l 4293 6933 l 4287 6935 l 4283 6935 l
 4280 6936 l 4277 6936 l 4276 6936 l 4272 6935 l 4266 6934 l
 4262 6933 l 4261 6933 l 4259 6932 l 4256 6931 l 4252 6929 l
 4248 6926 l 4244 6923 l 4242 6921 l 4240 6919 l 4237 6915 l
 4234 6911 l 4233 6909 l 4233 6908 l 4232 6906 l 4230 6901 l
 4228 6896 l 4228 6892 l 4227 6888 l 4227 6886 l 4227 6885 l
 4228 6881 l 4229 6875 l 4230 6871 l 4230 6870 l 4231 6868 l
 4232 6865 l 4234 6861 l 4237 6856 l 4240 6852 l 4242 6850 l
 4244 6848 l 4248 6845 l 4252 6842 l 4254 6841 l 4256 6840 l
 4261 6838 l 4266 6837 l 4271 6836 l 4274 6836 l 4277 6836 l
 4278 6836 l 4282 6837 l 4288 6837 l 4292 6838 l 4293 6838 l
 4295 6839 l 4298 6840 l 4302 6842 l 4307 6845 l 4311 6848 l
 4313 6850 l 4315 6852 l 4318 6856 l 4321 6860 l 4322 6862 l
 4322 6863 l 4323 6865 l 4325 6870 l 4326 6876 l 4327 6880 l
 4327 6883 l
 4327 6886 l  cp gs col0 s gr 
%  spline 
% Polyline
n 4576 6740 m 4576 6741 l 4575 6745 l 4574 6751 l 4573 6755 l 4573 6756 l
 4572 6758 l 4571 6761 l 4569 6765 l 4566 6769 l 4563 6773 l
 4561 6775 l 4559 6777 l 4555 6780 l 4551 6783 l 4549 6784 l
 4547 6785 l 4542 6787 l 4537 6789 l 4532 6789 l 4529 6790 l
 4526 6790 l 4525 6790 l 4521 6789 l 4515 6788 l 4511 6787 l
 4510 6787 l 4508 6786 l 4504 6785 l 4501 6783 l 4496 6780 l
 4492 6777 l 4491 6775 l 4490 6775 l 4489 6773 l 4486 6769 l
 4483 6765 l 4482 6763 l 4481 6763 l 4480 6761 l 4478 6756 l
 4477 6751 l 4476 6746 l 4476 6743 l 4476 6740 l 4476 6739 l
 4477 6735 l 4477 6729 l 4478 6725 l 4478 6724 l 4479 6722 l
 4481 6719 l 4483 6715 l 4486 6710 l 4489 6706 l 4490 6704 l
 4491 6704 l 4492 6702 l 4496 6699 l 4500 6696 l 4502 6695 l
 4503 6695 l 4505 6694 l 4510 6692 l 4516 6691 l 4520 6690 l
 4523 6690 l 4526 6690 l 4527 6690 l 4531 6691 l 4537 6691 l
 4541 6692 l 4542 6692 l 4544 6693 l 4547 6694 l 4551 6696 l
 4555 6699 l 4559 6702 l 4561 6704 l 4563 6706 l 4566 6710 l
 4569 6714 l 4570 6716 l 4570 6717 l 4571 6719 l 4573 6724 l
 4575 6730 l 4575 6734 l 4576 6737 l
 4576 6740 l  cp gs col0 s gr 
%  spline 
% Polyline
n 4824 6800 m 4824 6801 l 4823 6805 l 4823 6810 l 4822 6814 l 4822 6815 l
 4821 6817 l 4820 6820 l 4818 6824 l 4815 6829 l 4812 6833 l
 4810 6835 l 4808 6837 l 4804 6840 l 4800 6843 l 4798 6844 l
 4797 6844 l 4795 6845 l 4790 6847 l 4784 6849 l 4780 6849 l
 4777 6850 l 4774 6850 l 4773 6850 l 4769 6849 l 4764 6848 l
 4760 6847 l 4759 6847 l 4757 6846 l 4754 6845 l 4750 6843 l
 4745 6840 l 4741 6837 l 4739 6835 l 4737 6833 l 4734 6829 l
 4731 6825 l 4730 6823 l 4730 6822 l 4729 6820 l 4727 6815 l
 4725 6810 l 4725 6806 l 4724 6802 l 4724 6800 l 4724 6799 l
 4725 6795 l 4726 6789 l 4727 6785 l 4727 6784 l 4728 6782 l
 4729 6779 l 4731 6775 l 4734 6770 l 4737 6766 l 4739 6764 l
 4741 6762 l 4745 6759 l 4749 6756 l 4751 6755 l 4752 6755 l
 4754 6754 l 4759 6752 l 4764 6751 l 4768 6750 l 4772 6750 l
 4774 6750 l 4775 6750 l 4779 6751 l 4785 6751 l 4789 6752 l
 4790 6752 l 4792 6753 l 4795 6754 l 4799 6756 l 4804 6759 l
 4808 6762 l 4810 6764 l 4812 6766 l 4815 6770 l 4818 6774 l
 4819 6776 l 4819 6777 l 4820 6779 l 4822 6784 l 4823 6790 l
 4824 6794 l 4824 6797 l
 4824 6800 l  cp gs col0 s gr 
%  spline 
% Polyline
n 5072 6609 m 5072 6610 l 5071 6614 l 5070 6620 l 5069 6624 l 5069 6625 l
 5068 6627 l 5067 6630 l 5065 6634 l 5062 6639 l 5059 6643 l
 5057 6645 l 5055 6647 l 5051 6650 l 5047 6653 l 5045 6654 l
 5043 6655 l 5038 6657 l 5033 6658 l 5028 6659 l 5025 6659 l
 5022 6659 l 5021 6659 l 5017 6658 l 5011 6658 l 5007 6657 l
 5006 6657 l 5004 6656 l 5001 6655 l 4997 6653 l 4992 6650 l
 4988 6647 l 4986 6645 l 4984 6643 l 4981 6639 l 4978 6635 l
 4977 6633 l 4977 6632 l 4976 6630 l 4974 6625 l 4973 6619 l
 4972 6615 l 4972 6612 l 4972 6609 l 4972 6608 l 4973 6604 l
 4973 6598 l 4974 6594 l 4974 6593 l 4975 6591 l 4976 6588 l
 4978 6584 l 4981 6580 l 4984 6576 l 4986 6574 l 4988 6572 l
 4992 6569 l 4996 6566 l 4998 6565 l 4999 6565 l 5001 6564 l
 5006 6562 l 5012 6560 l 5016 6560 l 5019 6559 l 5022 6559 l
 5023 6559 l 5027 6560 l 5033 6561 l 5037 6562 l 5038 6562 l
 5040 6563 l 5043 6564 l 5047 6566 l 5051 6569 l 5055 6572 l
 5057 6574 l 5059 6576 l 5062 6580 l 5065 6584 l 5066 6586 l
 5067 6588 l 5069 6593 l 5071 6598 l 5071 6603 l 5072 6606 l

 5072 6609 l  cp gs col0 s gr 
%  spline 
% Polyline
n 5320 6586 m 5320 6587 l 5319 6591 l 5319 6596 l 5318 6600 l 5318 6601 l
 5317 6603 l 5316 6606 l 5314 6610 l 5311 6615 l 5308 6619 l
 5306 6621 l 5304 6623 l 5300 6626 l 5296 6629 l 5294 6630 l
 5293 6630 l 5291 6631 l 5286 6633 l 5280 6635 l 5276 6635 l
 5273 6636 l 5270 6636 l 5269 6636 l 5265 6635 l 5260 6634 l
 5256 6633 l 5255 6633 l 5253 6632 l 5250 6631 l 5246 6629 l
 5241 6626 l 5237 6623 l 5235 6621 l 5233 6619 l 5230 6615 l
 5227 6611 l 5226 6609 l 5226 6608 l 5225 6606 l 5223 6601 l
 5221 6596 l 5221 6592 l 5220 6588 l 5220 6586 l 5220 6585 l
 5221 6581 l 5222 6575 l 5223 6571 l 5223 6570 l 5224 6568 l
 5225 6565 l 5227 6561 l 5230 6556 l 5233 6552 l 5235 6550 l
 5237 6548 l 5241 6545 l 5245 6542 l 5247 6541 l 5248 6541 l
 5250 6540 l 5255 6538 l 5260 6537 l 5264 6536 l 5268 6536 l
 5270 6536 l 5271 6536 l 5275 6537 l 5281 6537 l 5285 6538 l
 5286 6538 l 5288 6539 l 5291 6540 l 5295 6542 l 5300 6545 l
 5304 6548 l 5306 6550 l 5308 6552 l 5311 6556 l 5314 6560 l
 5315 6562 l 5315 6563 l 5316 6565 l 5318 6570 l 5319 6576 l
 5320 6580 l 5320 6583 l
 5320 6586 l  cp gs col0 s gr 
%  spline 
% Polyline
n 5569 6662 m 5569 6663 l 5568 6667 l 5567 6673 l 5566 6677 l 5566 6678 l
 5565 6680 l 5564 6684 l 5562 6687 l 5559 6692 l 5556 6696 l
 5554 6697 l 5554 6698 l 5552 6699 l 5548 6702 l 5544 6705 l
 5542 6706 l 5540 6707 l 5535 6709 l 5530 6711 l 5525 6711 l
 5522 6712 l 5519 6712 l 5518 6712 l 5514 6711 l 5508 6710 l
 5504 6709 l 5503 6709 l 5501 6708 l 5497 6707 l 5494 6705 l
 5489 6702 l 5485 6699 l 5484 6698 l 5483 6697 l 5482 6696 l
 5479 6692 l 5476 6688 l 5475 6686 l 5474 6685 l 5473 6683 l
 5471 6678 l 5470 6672 l 5469 6668 l 5469 6665 l 5469 6662 l
 5469 6661 l 5470 6657 l 5470 6651 l 5471 6647 l 5471 6646 l
 5472 6644 l 5474 6640 l 5476 6637 l 5479 6632 l 5482 6628 l
 5483 6627 l 5484 6626 l 5485 6625 l 5489 6622 l 5493 6619 l
 5495 6618 l 5496 6618 l 5498 6617 l 5503 6615 l 5509 6613 l
 5513 6613 l 5516 6612 l 5519 6612 l 5520 6612 l 5524 6613 l
 5530 6614 l 5534 6615 l 5535 6615 l 5537 6616 l 5540 6617 l
 5544 6619 l 5548 6622 l 5552 6625 l 5554 6626 l 5554 6627 l
 5556 6628 l 5559 6632 l 5562 6636 l 5563 6638 l 5563 6639 l
 5564 6641 l 5566 6646 l 5568 6652 l 5568 6656 l 5569 6659 l

 5569 6662 l  cp gs col0 s gr 
%  spline 
% Polyline
n 6313 6936 m 6313 6937 l 6312 6941 l 6312 6946 l 6311 6950 l 6311 6951 l
 6310 6953 l 6309 6956 l 6307 6960 l 6304 6965 l 6301 6969 l
 6299 6971 l 6297 6973 l 6293 6976 l 6289 6979 l 6287 6980 l
 6286 6980 l 6284 6981 l 6279 6983 l 6273 6985 l 6269 6985 l
 6266 6986 l 6263 6986 l 6262 6986 l 6258 6985 l 6253 6984 l
 6249 6983 l 6248 6983 l 6246 6982 l 6243 6981 l 6239 6979 l
 6234 6976 l 6230 6973 l 6228 6971 l 6226 6969 l 6223 6965 l
 6220 6961 l 6219 6959 l 6219 6958 l 6218 6956 l 6216 6951 l
 6214 6946 l 6214 6942 l 6213 6938 l 6213 6936 l 6213 6935 l
 6214 6931 l 6215 6925 l 6216 6921 l 6216 6920 l 6217 6918 l
 6218 6915 l 6220 6911 l 6223 6906 l 6226 6902 l 6228 6900 l
 6230 6898 l 6234 6895 l 6238 6892 l 6240 6891 l 6241 6891 l
 6243 6890 l 6248 6888 l 6253 6887 l 6257 6886 l 6261 6886 l
 6263 6886 l 6264 6886 l 6268 6887 l 6274 6887 l 6278 6888 l
 6279 6888 l 6281 6889 l 6284 6890 l 6288 6892 l 6293 6895 l
 6297 6898 l 6299 6900 l 6301 6902 l 6304 6906 l 6307 6910 l
 6308 6912 l 6308 6913 l 6309 6915 l 6311 6920 l 6312 6926 l
 6313 6930 l 6313 6933 l
 6313 6936 l  cp gs col0 s gr 
%  spline 
% Polyline
n 6562 7006 m 6562 7007 l 6561 7011 l 6560 7017 l 6559 7021 l 6559 7022 l
 6558 7024 l 6557 7027 l 6555 7031 l 6552 7036 l 6549 7040 l
 6548 7042 l 6547 7042 l 6546 7044 l 6542 7047 l 6538 7050 l
 6536 7051 l 6535 7051 l 6533 7052 l 6528 7054 l 6522 7055 l
 6518 7056 l 6515 7056 l 6512 7056 l 6511 7056 l 6507 7055 l
 6501 7055 l 6497 7054 l 6496 7054 l 6494 7053 l 6490 7052 l
 6487 7050 l 6482 7047 l 6478 7044 l 6477 7042 l 6476 7042 l
 6475 7040 l 6472 7036 l 6469 7032 l 6468 7030 l 6468 7029 l
 6467 7027 l 6465 7022 l 6463 7016 l 6463 7012 l 6462 7009 l
 6462 7006 l 6462 7005 l 6463 7001 l 6464 6996 l 6465 6992 l
 6465 6991 l 6466 6989 l 6467 6986 l 6469 6982 l 6472 6977 l
 6475 6973 l 6476 6971 l 6477 6971 l 6478 6969 l 6482 6966 l
 6486 6963 l 6488 6962 l 6489 6962 l 6491 6961 l 6496 6959 l
 6502 6957 l 6506 6957 l 6509 6956 l 6512 6956 l 6513 6956 l
 6517 6957 l 6523 6958 l 6527 6959 l 6528 6959 l 6530 6960 l
 6534 6961 l 6537 6963 l 6542 6966 l 6546 6969 l 6547 6971 l
 6548 6971 l 6549 6973 l 6552 6977 l 6555 6981 l 6556 6983 l
 6556 6984 l 6557 6986 l 6559 6991 l 6561 6996 l 6561 7000 l
 6562 7004 l
 6562 7006 l  cp gs col0 s gr 
%  spline 
% Polyline
n 6809 7081 m 6809 7082 l 6808 7086 l 6808 7092 l 6807 7096 l 6807 7097 l
 6806 7099 l 6805 7102 l 6803 7106 l 6800 7111 l 6797 7115 l
 6795 7117 l 6793 7119 l 6789 7122 l 6785 7125 l 6783 7126 l
 6782 7126 l 6780 7127 l 6775 7129 l 6769 7130 l 6765 7131 l
 6762 7131 l 6759 7131 l 6758 7131 l 6754 7130 l 6748 7130 l
 6744 7129 l 6743 7129 l 6741 7128 l 6738 7127 l 6734 7125 l
 6730 7122 l 6726 7119 l 6724 7117 l 6722 7115 l 6719 7111 l
 6716 7107 l 6715 7105 l 6715 7104 l 6714 7102 l 6712 7097 l
 6710 7091 l 6710 7087 l 6709 7084 l 6709 7081 l 6709 7080 l
 6710 7076 l 6711 7071 l 6712 7067 l 6712 7066 l 6713 7064 l
 6714 7061 l 6716 7057 l 6719 7052 l 6722 7048 l 6724 7046 l
 6726 7044 l 6730 7041 l 6734 7038 l 6736 7037 l 6738 7036 l
 6743 7034 l 6748 7032 l 6753 7032 l 6756 7031 l 6759 7031 l
 6760 7031 l 6764 7032 l 6770 7033 l 6774 7034 l 6775 7034 l
 6777 7035 l 6780 7036 l 6784 7038 l 6789 7041 l 6793 7044 l
 6795 7046 l 6797 7048 l 6800 7052 l 6803 7056 l 6804 7058 l
 6804 7059 l 6805 7061 l 6807 7066 l 6808 7071 l 6809 7075 l
 6809 7079 l
 6809 7081 l  cp gs col0 s gr 
%  spline 
% Polyline
n 7058 7122 m 7058 7123 l 7057 7127 l 7056 7133 l 7055 7137 l 7055 7138 l
 7054 7140 l 7053 7143 l 7051 7147 l 7048 7151 l 7045 7155 l
 7043 7157 l 7041 7159 l 7037 7162 l 7033 7165 l 7031 7166 l
 7029 7167 l 7024 7169 l 7019 7171 l 7014 7171 l 7011 7172 l
 7008 7172 l 7007 7172 l 7003 7171 l 6997 7170 l 6993 7169 l
 6992 7169 l 6990 7168 l 6987 7167 l 6983 7165 l 6978 7162 l
 6974 7159 l 6972 7157 l 6970 7155 l 6967 7151 l 6964 7147 l
 6963 7145 l 6962 7143 l 6960 7138 l 6959 7133 l 6958 7128 l
 6958 7125 l 6958 7122 l 6958 7121 l 6959 7117 l 6959 7111 l
 6960 7107 l 6960 7106 l 6961 7104 l 6962 7101 l 6964 7097 l
 6967 7092 l 6970 7088 l 6972 7086 l 6974 7084 l 6978 7081 l
 6982 7078 l 6984 7077 l 6985 7077 l 6987 7076 l 6992 7074 l
 6998 7073 l 7002 7072 l 7005 7072 l 7008 7072 l 7009 7072 l
 7013 7073 l 7019 7073 l 7023 7074 l 7024 7074 l 7026 7075 l
 7029 7076 l 7033 7078 l 7037 7081 l 7041 7084 l 7043 7086 l
 7045 7088 l 7048 7092 l 7051 7096 l 7052 7098 l 7052 7099 l
 7053 7101 l 7055 7106 l 7057 7112 l 7057 7116 l 7058 7119 l

 7058 7122 l  cp gs col0 s gr 
%  spline 
% Polyline
n 7306 7184 m 7306 7185 l 7305 7189 l 7305 7195 l 7304 7199 l 7304 7200 l
 7303 7202 l 7302 7205 l 7300 7209 l 7297 7214 l 7294 7218 l
 7292 7220 l 7290 7222 l 7286 7225 l 7282 7228 l 7280 7229 l
 7279 7229 l 7277 7230 l 7272 7232 l 7266 7233 l 7262 7234 l
 7259 7234 l 7256 7234 l 7255 7234 l 7251 7233 l 7246 7233 l
 7242 7232 l 7241 7232 l 7239 7231 l 7236 7230 l 7232 7228 l
 7227 7225 l 7223 7222 l 7221 7220 l 7219 7218 l 7216 7214 l
 7213 7210 l 7212 7208 l 7212 7207 l 7211 7205 l 7209 7200 l
 7207 7194 l 7207 7190 l 7206 7187 l 7206 7184 l 7206 7183 l
 7207 7179 l 7208 7173 l 7209 7169 l 7209 7168 l 7210 7166 l
 7211 7163 l 7213 7159 l 7216 7155 l 7219 7151 l 7221 7149 l
 7223 7147 l 7227 7144 l 7231 7141 l 7233 7140 l 7234 7140 l
 7236 7139 l 7241 7137 l 7246 7135 l 7250 7135 l 7254 7134 l
 7256 7134 l 7257 7134 l 7261 7135 l 7267 7136 l 7271 7137 l
 7272 7137 l 7274 7138 l 7277 7139 l 7281 7141 l 7286 7144 l
 7290 7147 l 7292 7149 l 7294 7151 l 7297 7155 l 7300 7159 l
 7301 7161 l 7302 7163 l 7304 7168 l 7305 7173 l 7306 7178 l
 7306 7181 l
 7306 7184 l  cp gs col0 s gr 
%  spline 
% Polyline
n 7554 7154 m 7554 7155 l 7553 7159 l 7552 7164 l 7551 7168 l 7551 7169 l
 7550 7171 l 7549 7174 l 7547 7178 l 7544 7183 l 7541 7187 l
 7539 7189 l 7537 7191 l 7533 7194 l 7529 7197 l 7527 7198 l
 7526 7198 l 7524 7199 l 7519 7201 l 7514 7203 l 7510 7203 l
 7506 7204 l 7504 7204 l 7503 7204 l 7499 7203 l 7493 7202 l
 7489 7201 l 7488 7201 l 7486 7200 l 7483 7199 l 7479 7197 l
 7474 7194 l 7470 7191 l 7468 7189 l 7466 7187 l 7463 7183 l
 7460 7179 l 7459 7177 l 7459 7176 l 7458 7174 l 7456 7169 l
 7455 7164 l 7454 7160 l 7454 7156 l 7454 7154 l 7454 7153 l
 7455 7149 l 7455 7143 l 7456 7139 l 7456 7138 l 7457 7136 l
 7458 7133 l 7460 7129 l 7463 7124 l 7466 7120 l 7468 7118 l
 7470 7116 l 7474 7113 l 7478 7110 l 7480 7109 l 7481 7109 l
 7483 7108 l 7488 7106 l 7494 7105 l 7498 7104 l 7501 7104 l
 7504 7104 l 7505 7104 l 7509 7105 l 7514 7105 l 7518 7106 l
 7519 7106 l 7521 7107 l 7524 7108 l 7528 7110 l 7533 7113 l
 7537 7116 l 7539 7118 l 7541 7120 l 7544 7124 l 7547 7128 l
 7548 7130 l 7548 7131 l 7549 7133 l 7551 7138 l 7553 7144 l
 7553 7148 l 7554 7151 l
 7554 7154 l  cp gs col0 s gr 
%  spline 
% Polyline
n 7802 7211 m 7802 7212 l 7801 7216 l 7801 7221 l 7800 7225 l 7800 7226 l
 7799 7228 l 7798 7231 l 7796 7235 l 7793 7240 l 7790 7244 l
 7788 7246 l 7786 7248 l 7782 7251 l 7778 7254 l 7776 7255 l
 7775 7255 l 7773 7256 l 7768 7258 l 7762 7260 l 7758 7260 l
 7755 7261 l 7752 7261 l 7751 7261 l 7747 7260 l 7741 7259 l
 7737 7258 l 7736 7258 l 7734 7257 l 7731 7256 l 7727 7254 l
 7723 7251 l 7719 7248 l 7717 7246 l 7715 7244 l 7712 7240 l
 7709 7236 l 7708 7234 l 7708 7233 l 7707 7231 l 7705 7226 l
 7703 7221 l 7703 7217 l 7702 7213 l 7702 7211 l 7702 7210 l
 7703 7206 l 7704 7200 l 7705 7196 l 7705 7195 l 7706 7193 l
 7707 7190 l 7709 7186 l 7712 7181 l 7715 7177 l 7717 7175 l
 7719 7173 l 7723 7170 l 7727 7167 l 7729 7166 l 7731 7165 l
 7736 7163 l 7741 7162 l 7746 7161 l 7749 7161 l 7752 7161 l
 7753 7161 l 7757 7162 l 7763 7162 l 7767 7163 l 7768 7163 l
 7770 7164 l 7773 7165 l 7777 7167 l 7782 7170 l 7786 7173 l
 7788 7175 l 7790 7177 l 7793 7181 l 7796 7185 l 7797 7187 l
 7797 7188 l 7798 7190 l 7800 7195 l 7801 7201 l 7802 7205 l
 7802 7208 l
 7802 7211 l  cp gs col0 s gr 
%  spline 
% Polyline
n 8051 7206 m 8051 7207 l 8050 7211 l 8049 7217 l 8048 7221 l 8048 7222 l
 8047 7224 l 8046 7227 l 8044 7231 l 8041 7236 l 8038 7240 l
 8036 7242 l 8034 7244 l 8030 7247 l 8026 7250 l 8024 7251 l
 8022 7252 l 8017 7254 l 8012 7255 l 8007 7256 l 8004 7256 l
 8001 7256 l 8000 7256 l 7996 7255 l 7990 7255 l 7986 7254 l
 7985 7254 l 7983 7253 l 7979 7252 l 7976 7250 l 7971 7247 l
 7967 7244 l 7966 7242 l 7965 7242 l 7964 7240 l 7961 7236 l
 7958 7232 l 7957 7230 l 7956 7229 l 7955 7227 l 7953 7222 l
 7952 7216 l 7951 7212 l 7951 7209 l 7951 7206 l 7951 7205 l
 7952 7201 l 7952 7196 l 7953 7192 l 7953 7191 l 7954 7189 l
 7956 7186 l 7958 7182 l 7961 7177 l 7964 7173 l 7965 7171 l
 7966 7171 l 7967 7169 l 7971 7166 l 7975 7163 l 7977 7162 l
 7978 7162 l 7980 7161 l 7985 7159 l 7991 7157 l 7995 7157 l
 7998 7156 l 8001 7156 l 8002 7156 l 8006 7157 l 8012 7158 l
 8016 7159 l 8017 7159 l 8019 7160 l 8022 7161 l 8026 7163 l
 8030 7166 l 8034 7169 l 8036 7171 l 8038 7173 l 8041 7177 l
 8044 7181 l 8045 7183 l 8045 7184 l 8046 7186 l 8048 7191 l
 8050 7196 l 8050 7200 l 8051 7204 l
 8051 7206 l  cp gs col0 s gr 
% here ends figure;
% 
% here starts figure with depth 613
%  polyline 
% Polyline
0 slj
0 slc
7.500 slw
n 7761 7211 m
 7861 7211 l gs col1 s gr 
% here ends figure;
% 
% here starts figure with depth 611
%  polyline 
% Polyline
0 slj
0 slc
7.500 slw
n 7811 7161 m
 7811 7261 l gs col1 s gr 
% here ends figure;
% 
% here starts figure with depth 609
%  polyline 
% Polyline
0 slj
0 slc
7.500 slw
n 5433 5301 m
 8995 8162 l gs col2 s gr 
% here ends figure;
% 
% here starts figure with depth 607
%  spline 
% Polyline
2 slj
0 slc
0.000 slw
n 5483 5301 m 5483 5302 l 5482 5306 l 5481 5312 l 5480 5316 l 5480 5317 l
 5479 5319 l 5478 5322 l 5476 5326 l 5473 5330 l 5470 5334 l
 5468 5336 l 5466 5338 l 5462 5341 l 5458 5344 l 5456 5345 l
 5454 5346 l 5449 5348 l 5444 5350 l 5439 5350 l 5436 5351 l
 5433 5351 l 5432 5351 l 5428 5350 l 5422 5349 l 5418 5348 l
 5417 5348 l 5415 5347 l 5412 5346 l 5408 5344 l 5403 5341 l
 5399 5338 l 5397 5336 l 5395 5334 l 5392 5330 l 5389 5326 l
 5388 5324 l 5387 5322 l 5385 5317 l 5384 5312 l 5383 5307 l
 5383 5304 l 5383 5301 l 5383 5300 l 5384 5296 l 5384 5290 l
 5385 5286 l 5385 5285 l 5386 5283 l 5387 5279 l 5389 5276 l
 5392 5271 l 5395 5267 l 5397 5266 l 5397 5265 l 5399 5264 l
 5403 5261 l 5407 5258 l 5409 5257 l 5410 5256 l 5412 5255 l
 5417 5253 l 5423 5252 l 5427 5251 l 5430 5251 l 5433 5251 l
 5434 5251 l 5438 5252 l 5444 5252 l 5448 5253 l 5449 5253 l
 5451 5254 l 5454 5256 l 5458 5258 l 5462 5261 l 5466 5264 l
 5468 5265 l 5468 5266 l 5470 5267 l 5473 5271 l 5476 5275 l
 5477 5277 l 5477 5278 l 5478 5280 l 5480 5285 l 5482 5291 l
 5482 5295 l 5483 5298 l
 5483 5301 l  cp gs col2 1.00 shd ef gr 
%  polyline 
% Polyline
0 slj
7.500 slw
n 6951 6598 m 7065 6598 l 7008 6500 l
 6951 6598 l  cp gs col3 s gr 
%  polyline 
% Polyline
n 7199 6798 m 7313 6798 l 7256 6700 l
 7199 6798 l  cp gs col3 s gr 
%  polyline 
% Polyline
n 7447 6997 m 7561 6997 l 7504 6898 l
 7447 6997 l  cp gs col3 s gr 
%  polyline 
% Polyline
n 7695 7197 m 7809 7197 l 7752 7098 l
 7695 7197 l  cp gs col3 s gr 
%  polyline 
% Polyline
n 7944 7397 m 8058 7397 l 8001 7298 l
 7944 7397 l  cp gs col3 s gr 
%  polyline 
% Polyline
n 8191 7595 m 8305 7595 l 8248 7497 l
 8191 7595 l  cp gs col3 s gr 
%  polyline 
% Polyline
n 8440 7795 m 8554 7795 l 8497 7697 l
 8440 7795 l  cp gs col3 s gr 
%  polyline 
% Polyline
n 1548 9411 m
 1548 3538 l gs col32 s gr 
% here ends figure;
% 
% here starts figure with depth 597
%  polyline 
% Polyline
0 slj
0 slc
7.500 slw
n 1795 9411 m
 1795 3538 l gs col32 s gr 
%  polyline 
% Polyline
n 2044 9411 m
 2044 3538 l gs col32 s gr 
%  polyline 
% Polyline
n 2293 9411 m
 2293 3538 l gs col32 s gr 
%  polyline 
% Polyline
n 2540 9411 m
 2540 3538 l gs col32 s gr 
%  polyline 
% Polyline
n 2788 9411 m
 2788 3538 l gs col32 s gr 
%  polyline 
% Polyline
n 3037 9411 m
 3037 3538 l gs col32 s gr 
%  polyline 
% Polyline
n 3284 9411 m
 3284 3538 l gs col32 s gr 
%  polyline 
% Polyline
n 3533 9411 m
 3533 3540 l gs col32 s gr 
%  polyline 
% Polyline
n 3781 7494 m
 3781 6402 l gs col32 s gr 
% here ends figure;
% 
% here starts figure with depth 587
%  polyline 
% Polyline
0 slj
0 slc
7.500 slw
n 3709 7494 m
 3854 7494 l gs col32 s gr 
%  polyline 
% Polyline
n 3709 6402 m
 3854 6402 l gs col32 s gr 
%  polyline 
% Polyline
n 4030 7284 m
 4030 6694 l gs col32 s gr 
% here ends figure;
% 
% here starts figure with depth 583
%  polyline 
% Polyline
0 slj
0 slc
7.500 slw
n 3958 7284 m
 4101 7284 l gs col32 s gr 
%  polyline 
% Polyline
n 3958 6694 m
 4101 6694 l gs col32 s gr 
%  polyline 
% Polyline
n 4277 7383 m
 4277 6491 l gs col32 s gr 
%  polyline 
% Polyline
n 4205 7383 m
 4349 7383 l gs col32 s gr 
%  polyline 
% Polyline
n 4205 6491 m
 4349 6491 l gs col32 s gr 
%  polyline 
% Polyline
n 4526 7084 m
 4526 6709 l gs col32 s gr 
% here ends figure;
% 
% here starts figure with depth 576
%  polyline 
% Polyline
0 slj
0 slc
7.500 slw
n 4454 7084 m
 4598 7084 l gs col32 s gr 
%  polyline 
% Polyline
n 4454 6709 m
 4598 6709 l gs col32 s gr 
%  polyline 
% Polyline
n 4774 7195 m
 4774 6598 l gs col32 s gr 
%  polyline 
% Polyline
n 4702 7195 m
 4845 7195 l gs col32 s gr 
%  polyline 
% Polyline
n 4702 6598 m
 4845 6598 l gs col32 s gr 
%  polyline 
% Polyline
n 5022 6865 m
 5022 6463 l gs col32 s gr 
% here ends figure;
% 
% here starts figure with depth 569
%  polyline 
% Polyline
0 slj
0 slc
7.500 slw
n 4949 6865 m
 5094 6865 l gs col32 s gr 
%  polyline 
% Polyline
n 4949 6463 m
 5094 6463 l gs col32 s gr 
%  polyline 
% Polyline
n 5270 6761 m
 5270 6547 l gs col32 s gr 
% here ends figure;
% 
% here starts figure with depth 565
%  polyline 
% Polyline
0 slj
0 slc
7.500 slw
n 5198 6761 m
 5343 6761 l gs col32 s gr 
%  polyline 
% Polyline
n 5198 6547 m
 5343 6547 l gs col32 s gr 
%  polyline 
% Polyline
n 5519 7416 m
 5519 6019 l gs col32 s gr 
%  polyline 
% Polyline
n 5447 7416 m
 5591 7416 l gs col32 s gr 
%  polyline 
% Polyline
n 5447 6019 m
 5591 6019 l gs col32 s gr 
%  polyline 
% Polyline
n 5766 9411 m
 5766 3540 l gs col32 s gr 
%  polyline 
% Polyline
n 6015 8969 m
 6015 4505 l gs col32 s gr 
% here ends figure;
% 
% here starts figure with depth 557
%  polyline 
% Polyline
0 slj
0 slc
7.500 slw
n 5943 8969 m
 6087 8969 l gs col32 s gr 
%  polyline 
% Polyline
n 5943 4505 m
 6087 4505 l gs col32 s gr 
%  polyline 
% Polyline
n 6263 7447 m
 6263 6369 l gs col32 s gr 
% here ends figure;
% 
% here starts figure with depth 553
%  polyline 
% Polyline
0 slj
0 slc
7.500 slw
n 6191 7447 m
 6336 7447 l gs col32 s gr 
%  polyline 
% Polyline
n 6191 6369 m
 6336 6369 l gs col32 s gr 
%  polyline 
% Polyline
n 6512 7277 m
 6512 6734 l gs col32 s gr 
% here ends figure;
% 
% here starts figure with depth 549
%  polyline 
% Polyline
0 slj
0 slc
7.500 slw
n 6440 7277 m
 6583 7277 l gs col32 s gr 
%  polyline 
% Polyline
n 6440 6734 m
 6583 6734 l gs col32 s gr 
%  polyline 
% Polyline
n 6759 7656 m
 6759 6487 l gs col32 s gr 
%  polyline 
% Polyline
n 6687 7656 m
 6831 7656 l gs col32 s gr 
%  polyline 
% Polyline
n 6687 6487 m
 6831 6487 l gs col32 s gr 
%  polyline 
% Polyline
n 7008 7387 m
 7008 6865 l gs col32 s gr 
% here ends figure;
% 
% here starts figure with depth 542
%  polyline 
% Polyline
0 slj
0 slc
7.500 slw
n 6936 7387 m
 7080 7387 l gs col32 s gr 
%  polyline 
% Polyline
n 6936 6865 m
 7080 6865 l gs col32 s gr 
%  polyline 
% Polyline
n 7256 8009 m
 7256 6269 l gs col32 s gr 
%  polyline 
% Polyline
n 7184 8009 m
 7327 8009 l gs col32 s gr 
%  polyline 
% Polyline
n 7184 6269 m
 7327 6269 l gs col32 s gr 
%  polyline 
% Polyline
n 7504 7412 m
 7504 6880 l gs col32 s gr 
% here ends figure;
% 
% here starts figure with depth 535
%  polyline 
% Polyline
0 slj
0 slc
7.500 slw
n 7431 7412 m
 7576 7412 l gs col32 s gr 
%  polyline 
% Polyline
n 7431 6880 m
 7576 6880 l gs col32 s gr 
%  polyline 
% Polyline
n 7752 7387 m
 7752 6830 l gs col32 s gr 
% here ends figure;
% 
% here starts figure with depth 531
%  polyline 
% Polyline
0 slj
0 slc
7.500 slw
n 7680 7387 m
 7824 7387 l gs col32 s gr 
%  polyline 
% Polyline
n 7680 6830 m
 7824 6830 l gs col32 s gr 
%  polyline 
% Polyline
n 8001 9233 m
 8001 5281 l gs col32 s gr 
%  polyline 
% Polyline
n 7929 9233 m
 8073 9233 l gs col32 s gr 
%  polyline 
% Polyline
n 7929 5281 m
 8073 5281 l gs col32 s gr 
%  polyline 
% Polyline
n 8248 9411 m
 8248 3540 l gs col32 s gr 
%  polyline 
% Polyline
n 8497 9409 m
 8497 3538 l gs col32 s gr 
%  polyline 
% Polyline
n 8745 9411 m
 8745 3538 l gs col32 s gr 
% here ends figure;
% 
% here starts figure with depth 522
%  polyline 
% Polyline
0 slj
0 slc
7.500 slw
n 1548 6475 m 1795 6475 l 2044 6475 l 2293 6475 l 2540 6475 l 2788 6475 l
 3037 6475 l 3284 6475 l 3533 6805 l 3781 6948 l 4030 6988 l
 4277 6937 l 4526 6897 l 4774 6897 l 5022 6665 l 5270 6654 l
 5519 6718 l 5766 6479 l 6015 6737 l 6263 6908 l 6512 7006 l
 6759 7072 l 7008 7126 l 7256 7138 l 7504 7145 l 7752 7109 l
 8001 7256 l 8248 6475 l 8497 6475 l
 8745 6475 l gs col32 s gr 
%  polyline 
% Polyline
n 1498 6475 m
 1598 6475 l gs col32 s gr 
% here ends figure;
% 
% here starts figure with depth 519
%  polyline 
% Polyline
0 slj
0 slc
7.500 slw
n 1548 6425 m
 1548 6525 l gs col32 s gr 
%  polyline 
% Polyline
n 1745 6475 m
 1845 6475 l gs col32 s gr 
% here ends figure;
% 
% here starts figure with depth 516
%  polyline 
% Polyline
0 slj
0 slc
7.500 slw
n 1795 6425 m
 1795 6525 l gs col32 s gr 
%  polyline 
% Polyline
n 1994 6475 m
 2094 6475 l gs col32 s gr 
% here ends figure;
% 
% here starts figure with depth 513
%  polyline 
% Polyline
0 slj
0 slc
7.500 slw
n 2044 6425 m
 2044 6525 l gs col32 s gr 
%  polyline 
% Polyline
n 2243 6475 m
 2343 6475 l gs col32 s gr 
% here ends figure;
% 
% here starts figure with depth 510
%  polyline 
% Polyline
0 slj
0 slc
7.500 slw
n 2293 6425 m
 2293 6525 l gs col32 s gr 
%  polyline 
% Polyline
n 2490 6475 m
 2590 6475 l gs col32 s gr 
% here ends figure;
% 
% here starts figure with depth 507
%  polyline 
% Polyline
0 slj
0 slc
7.500 slw
n 2540 6425 m
 2540 6525 l gs col32 s gr 
%  polyline 
% Polyline
n 2738 6475 m
 2838 6475 l gs col32 s gr 
% here ends figure;
% 
% here starts figure with depth 504
%  polyline 
% Polyline
0 slj
0 slc
7.500 slw
n 2788 6425 m
 2788 6525 l gs col32 s gr 
%  polyline 
% Polyline
n 2987 6475 m
 3087 6475 l gs col32 s gr 
% here ends figure;
% 
% here starts figure with depth 501
%  polyline 
% Polyline
0 slj
0 slc
7.500 slw
n 3037 6425 m
 3037 6525 l gs col32 s gr 
%  polyline 
% Polyline
n 3234 6475 m
 3334 6475 l gs col32 s gr 
% here ends figure;
% 
% here starts figure with depth 498
%  polyline 
% Polyline
0 slj
0 slc
7.500 slw
n 3284 6425 m
 3284 6525 l gs col32 s gr 
%  polyline 
% Polyline
n 3483 6805 m
 3583 6805 l gs col32 s gr 
% here ends figure;
% 
% here starts figure with depth 495
%  polyline 
% Polyline
0 slj
0 slc
7.500 slw
n 3533 6755 m
 3533 6855 l gs col32 s gr 
%  polyline 
% Polyline
n 3731 6948 m
 3831 6948 l gs col32 s gr 
% here ends figure;
% 
% here starts figure with depth 492
%  polyline 
% Polyline
0 slj
0 slc
7.500 slw
n 3781 6898 m
 3781 6998 l gs col32 s gr 
%  polyline 
% Polyline
n 3980 6988 m
 4080 6988 l gs col32 s gr 
% here ends figure;
% 
% here starts figure with depth 489
%  polyline 
% Polyline
0 slj
0 slc
7.500 slw
n 4030 6938 m
 4030 7038 l gs col32 s gr 
%  polyline 
% Polyline
n 4227 6937 m
 4327 6937 l gs col32 s gr 
% here ends figure;
% 
% here starts figure with depth 486
%  polyline 
% Polyline
0 slj
0 slc
7.500 slw
n 4277 6887 m
 4277 6987 l gs col32 s gr 
%  polyline 
% Polyline
n 4476 6897 m
 4576 6897 l gs col32 s gr 
% here ends figure;
% 
% here starts figure with depth 483
%  polyline 
% Polyline
0 slj
0 slc
7.500 slw
n 4526 6847 m
 4526 6947 l gs col32 s gr 
%  polyline 
% Polyline
n 4724 6897 m
 4824 6897 l gs col32 s gr 
% here ends figure;
% 
% here starts figure with depth 480
%  polyline 
% Polyline
0 slj
0 slc
7.500 slw
n 4774 6847 m
 4774 6947 l gs col32 s gr 
%  polyline 
% Polyline
n 4972 6665 m
 5072 6665 l gs col32 s gr 
% here ends figure;
% 
% here starts figure with depth 477
%  polyline 
% Polyline
0 slj
0 slc
7.500 slw
n 5022 6615 m
 5022 6715 l gs col32 s gr 
%  polyline 
% Polyline
n 5220 6654 m
 5320 6654 l gs col32 s gr 
% here ends figure;
% 
% here starts figure with depth 474
%  polyline 
% Polyline
0 slj
0 slc
7.500 slw
n 5270 6604 m
 5270 6704 l gs col32 s gr 
%  polyline 
% Polyline
n 5469 6718 m
 5569 6718 l gs col32 s gr 
% here ends figure;
% 
% here starts figure with depth 471
%  polyline 
% Polyline
0 slj
0 slc
7.500 slw
n 5519 6668 m
 5519 6768 l gs col32 s gr 
%  polyline 
% Polyline
n 5716 6479 m
 5816 6479 l gs col32 s gr 
% here ends figure;
% 
% here starts figure with depth 468
%  polyline 
% Polyline
0 slj
0 slc
7.500 slw
n 5766 6429 m
 5766 6529 l gs col32 s gr 
%  polyline 
% Polyline
n 5965 6737 m
 6065 6737 l gs col32 s gr 
% here ends figure;
% 
% here starts figure with depth 465
%  polyline 
% Polyline
0 slj
0 slc
7.500 slw
n 6015 6687 m
 6015 6787 l gs col32 s gr 
%  polyline 
% Polyline
n 6213 6908 m
 6313 6908 l gs col32 s gr 
% here ends figure;
% 
% here starts figure with depth 462
%  polyline 
% Polyline
0 slj
0 slc
7.500 slw
n 6263 6858 m
 6263 6958 l gs col32 s gr 
%  polyline 
% Polyline
n 6462 7006 m
 6562 7006 l gs col32 s gr 
% here ends figure;
% 
% here starts figure with depth 459
%  polyline 
% Polyline
0 slj
0 slc
7.500 slw
n 6512 6956 m
 6512 7056 l gs col32 s gr 
%  polyline 
% Polyline
n 6709 7072 m
 6809 7072 l gs col32 s gr 
% here ends figure;
% 
% here starts figure with depth 456
%  polyline 
% Polyline
0 slj
0 slc
7.500 slw
n 6759 7022 m
 6759 7122 l gs col32 s gr 
%  polyline 
% Polyline
n 6958 7126 m
 7058 7126 l gs col32 s gr 
% here ends figure;
% 
% here starts figure with depth 453
%  polyline 
% Polyline
0 slj
0 slc
7.500 slw
n 7008 7076 m
 7008 7176 l gs col32 s gr 
%  polyline 
% Polyline
n 7206 7138 m
 7306 7138 l gs col32 s gr 
% here ends figure;
% 
% here starts figure with depth 450
%  polyline 
% Polyline
0 slj
0 slc
7.500 slw
n 7256 7088 m
 7256 7188 l gs col32 s gr 
%  polyline 
% Polyline
n 7454 7145 m
 7554 7145 l gs col32 s gr 
% here ends figure;
% 
% here starts figure with depth 447
%  polyline 
% Polyline
0 slj
0 slc
7.500 slw
n 7504 7095 m
 7504 7195 l gs col32 s gr 
%  polyline 
% Polyline
n 7702 7109 m
 7802 7109 l gs col32 s gr 
% here ends figure;
% 
% here starts figure with depth 444
%  polyline 
% Polyline
0 slj
0 slc
7.500 slw
n 7752 7059 m
 7752 7159 l gs col32 s gr 
%  polyline 
% Polyline
n 7951 7256 m
 8051 7256 l gs col32 s gr 
% here ends figure;
% 
% here starts figure with depth 441
%  polyline 
% Polyline
0 slj
0 slc
7.500 slw
n 8001 7206 m
 8001 7306 l gs col32 s gr 
%  polyline 
% Polyline
n 8198 6475 m
 8298 6475 l gs col32 s gr 
% here ends figure;
% 
% here starts figure with depth 438
%  polyline 
% Polyline
0 slj
0 slc
7.500 slw
n 8248 6425 m
 8248 6525 l gs col32 s gr 
%  polyline 
% Polyline
n 8447 6475 m
 8547 6475 l gs col32 s gr 
% here ends figure;
% 
% here starts figure with depth 435
%  polyline 
% Polyline
0 slj
0 slc
7.500 slw
n 8497 6425 m
 8497 6525 l gs col32 s gr 
%  polyline 
% Polyline
n 8695 6475 m
 8795 6475 l gs col32 s gr 
% here ends figure;
% 
% here starts figure with depth 432
%  polyline 
% Polyline
0 slj
0 slc
7.500 slw
n 8745 6425 m
 8745 6525 l gs col32 s gr 
%  polyline 
% Polyline
n 1513 6440 m
 1583 6509 l gs col32 s gr 
% here ends figure;
% 
% here starts figure with depth 429
%  polyline 
% Polyline
0 slj
0 slc
7.500 slw
n 1583 6440 m
 1513 6509 l gs col32 s gr 
%  polyline 
% Polyline
n 1761 6440 m
 1830 6509 l gs col32 s gr 
% here ends figure;
% 
% here starts figure with depth 426
%  polyline 
% Polyline
0 slj
0 slc
7.500 slw
n 1830 6440 m
 1761 6509 l gs col32 s gr 
%  polyline 
% Polyline
n 2009 6440 m
 2079 6509 l gs col32 s gr 
% here ends figure;
% 
% here starts figure with depth 423
%  polyline 
% Polyline
0 slj
0 slc
7.500 slw
n 2079 6440 m
 2009 6509 l gs col32 s gr 
%  polyline 
% Polyline
n 2258 6440 m
 2327 6509 l gs col32 s gr 
% here ends figure;
% 
% here starts figure with depth 420
%  polyline 
% Polyline
0 slj
0 slc
7.500 slw
n 2327 6440 m
 2258 6509 l gs col32 s gr 
%  polyline 
% Polyline
n 2505 6440 m
 2574 6509 l gs col32 s gr 
% here ends figure;
% 
% here starts figure with depth 417
%  polyline 
% Polyline
0 slj
0 slc
7.500 slw
n 2574 6440 m
 2505 6509 l gs col32 s gr 
%  polyline 
% Polyline
n 2754 6440 m
 2823 6509 l gs col32 s gr 
% here ends figure;
% 
% here starts figure with depth 414
%  polyline 
% Polyline
0 slj
0 slc
7.500 slw
n 2823 6440 m
 2754 6509 l gs col32 s gr 
%  polyline 
% Polyline
n 3002 6440 m
 3072 6509 l gs col32 s gr 
% here ends figure;
% 
% here starts figure with depth 411
%  polyline 
% Polyline
0 slj
0 slc
7.500 slw
n 3072 6440 m
 3002 6509 l gs col32 s gr 
%  polyline 
% Polyline
n 3249 6440 m
 3319 6509 l gs col32 s gr 
% here ends figure;
% 
% here starts figure with depth 408
%  polyline 
% Polyline
0 slj
0 slc
7.500 slw
n 3319 6440 m
 3249 6509 l gs col32 s gr 
%  polyline 
% Polyline
n 3498 6770 m
 3568 6840 l gs col32 s gr 
% here ends figure;
% 
% here starts figure with depth 405
%  polyline 
% Polyline
0 slj
0 slc
7.500 slw
n 3568 6770 m
 3498 6840 l gs col32 s gr 
%  polyline 
% Polyline
n 3747 6913 m
 3816 6983 l gs col32 s gr 
% here ends figure;
% 
% here starts figure with depth 402
%  polyline 
% Polyline
0 slj
0 slc
7.500 slw
n 3816 6913 m
 3747 6983 l gs col32 s gr 
%  polyline 
% Polyline
n 3995 6954 m
 4065 7023 l gs col32 s gr 
% here ends figure;
% 
% here starts figure with depth 399
%  polyline 
% Polyline
0 slj
0 slc
7.500 slw
n 4065 6954 m
 3995 7023 l gs col32 s gr 
%  polyline 
% Polyline
n 4243 6902 m
 4312 6972 l gs col32 s gr 
% here ends figure;
% 
% here starts figure with depth 396
%  polyline 
% Polyline
0 slj
0 slc
7.500 slw
n 4312 6902 m
 4243 6972 l gs col32 s gr 
%  polyline 
% Polyline
n 4491 6862 m
 4561 6931 l gs col32 s gr 
% here ends figure;
% 
% here starts figure with depth 393
%  polyline 
% Polyline
0 slj
0 slc
7.500 slw
n 4561 6862 m
 4491 6931 l gs col32 s gr 
%  polyline 
% Polyline
n 4740 6862 m
 4809 6931 l gs col32 s gr 
% here ends figure;
% 
% here starts figure with depth 390
%  polyline 
% Polyline
0 slj
0 slc
7.500 slw
n 4809 6862 m
 4740 6931 l gs col32 s gr 
%  polyline 
% Polyline
n 4987 6630 m
 5056 6700 l gs col32 s gr 
% here ends figure;
% 
% here starts figure with depth 387
%  polyline 
% Polyline
0 slj
0 slc
7.500 slw
n 5056 6630 m
 4987 6700 l gs col32 s gr 
%  polyline 
% Polyline
n 5236 6619 m
 5305 6688 l gs col32 s gr 
% here ends figure;
% 
% here starts figure with depth 384
%  polyline 
% Polyline
0 slj
0 slc
7.500 slw
n 5305 6619 m
 5236 6688 l gs col32 s gr 
%  polyline 
% Polyline
n 5484 6683 m
 5554 6752 l gs col32 s gr 
% here ends figure;
% 
% here starts figure with depth 381
%  polyline 
% Polyline
0 slj
0 slc
7.500 slw
n 5554 6683 m
 5484 6752 l gs col32 s gr 
%  polyline 
% Polyline
n 5731 6444 m
 5801 6513 l gs col32 s gr 
% here ends figure;
% 
% here starts figure with depth 378
%  polyline 
% Polyline
0 slj
0 slc
7.500 slw
n 5801 6444 m
 5731 6513 l gs col32 s gr 
%  polyline 
% Polyline
n 5980 6702 m
 6049 6772 l gs col32 s gr 
% here ends figure;
% 
% here starts figure with depth 375
%  polyline 
% Polyline
0 slj
0 slc
7.500 slw
n 6049 6702 m
 5980 6772 l gs col32 s gr 
%  polyline 
% Polyline
n 6229 6873 m
 6298 6943 l gs col32 s gr 
% here ends figure;
% 
% here starts figure with depth 372
%  polyline 
% Polyline
0 slj
0 slc
7.500 slw
n 6298 6873 m
 6229 6943 l gs col32 s gr 
%  polyline 
% Polyline
n 6477 6972 m
 6547 7041 l gs col32 s gr 
% here ends figure;
% 
% here starts figure with depth 369
%  polyline 
% Polyline
0 slj
0 slc
7.500 slw
n 6547 6972 m
 6477 7041 l gs col32 s gr 
%  polyline 
% Polyline
n 6724 7037 m
 6794 7106 l gs col32 s gr 
% here ends figure;
% 
% here starts figure with depth 366
%  polyline 
% Polyline
0 slj
0 slc
7.500 slw
n 6794 7037 m
 6724 7106 l gs col32 s gr 
%  polyline 
% Polyline
n 6973 7091 m
 7043 7161 l gs col32 s gr 
% here ends figure;
% 
% here starts figure with depth 363
%  polyline 
% Polyline
0 slj
0 slc
7.500 slw
n 7043 7091 m
 6973 7161 l gs col32 s gr 
%  polyline 
% Polyline
n 7222 7104 m
 7291 7173 l gs col32 s gr 
% here ends figure;
% 
% here starts figure with depth 360
%  polyline 
% Polyline
0 slj
0 slc
7.500 slw
n 7291 7104 m
 7222 7173 l gs col32 s gr 
%  polyline 
% Polyline
n 7469 7111 m
 7538 7180 l gs col32 s gr 
% here ends figure;
% 
% here starts figure with depth 357
%  polyline 
% Polyline
0 slj
0 slc
7.500 slw
n 7538 7111 m
 7469 7180 l gs col32 s gr 
%  polyline 
% Polyline
n 7718 7075 m
 7787 7144 l gs col32 s gr 
% here ends figure;
% 
% here starts figure with depth 354
%  polyline 
% Polyline
0 slj
0 slc
7.500 slw
n 7787 7075 m
 7718 7144 l gs col32 s gr 
%  polyline 
% Polyline
n 7966 7222 m
 8036 7291 l gs col32 s gr 
% here ends figure;
% 
% here starts figure with depth 351
%  polyline 
% Polyline
0 slj
0 slc
7.500 slw
n 8036 7222 m
 7966 7291 l gs col32 s gr 
%  polyline 
% Polyline
n 8213 6440 m
 8283 6509 l gs col32 s gr 
% here ends figure;
% 
% here starts figure with depth 348
%  polyline 
% Polyline
0 slj
0 slc
7.500 slw
n 8283 6440 m
 8213 6509 l gs col32 s gr 
%  polyline 
% Polyline
n 8462 6440 m
 8531 6509 l gs col32 s gr 
% here ends figure;
% 
% here starts figure with depth 345
%  polyline 
% Polyline
0 slj
0 slc
7.500 slw
n 8531 6440 m
 8462 6509 l gs col32 s gr 
%  polyline 
% Polyline
n 8711 6440 m
 8780 6509 l gs col32 s gr 
% here ends figure;
% 
% here starts figure with depth 342
%  polyline 
% Polyline
0 slj
0 slc
7.500 slw
n 8780 6440 m
 8711 6509 l gs col32 s gr 
% here ends figure;
% 
% here starts figure with depth 340
%  polyline 
% Polyline
0 slj
0 slc
7.500 slw
n 1548 6475 m 1795 6595 l 2044 6712 l 2293 6819 l 2540 6911 l 2788 6981 l
 3037 7031 l 3284 7058 l 3533 7058 l 3781 7031 l 4030 6981 l
 4277 6911 l 4526 6819 l 4774 6712 l 5022 6595 l 5270 6475 l
 5519 6595 l 5766 6712 l 6015 6819 l 6263 6911 l 6512 6981 l
 6759 7031 l 7008 7058 l 7256 7058 l 7504 7031 l 7752 6981 l
 8001 6911 l 8248 6819 l 8497 6712 l
 8745 6595 l gs col4 s gr 
%  text 
/Helvetica-iso ff 300.00 scf sf
4673 9883 m
gs 1 -1 sc (x \(meters\)) col0 sh gr
%  text 
/Helvetica-iso ff 300.00 scf sf
1174 7072 m
gs 1 -1 sc  90.0 rot (z \(meters\)) col0 sh gr
% here ends figure;
% 
% here starts figure with depth 336
%  polyline 
% Polyline
0 slj
0 slc
7.500 slw
n 2372 8616 m
 2687 7250 l gs col0 s gr 
% here ends figure;
% 
% here starts figure with depth 334
%  polyline 
% Polyline
0 slj
0 slc
0.000 slw
n 2687 7250 m 2655 7243 l 2711 7152 l 2719 7258 l
 2687 7250 l  cp gs 0.00 setgray ef gr 
% here ends figure;
% 
% here starts figure with depth 332
%  polyline 
% Polyline
0 slj
0 slc
7.500 slw
n 2687 7250 m 2655 7243 l 2711 7152 l 2719 7258 l
 2687 7250 l  cp gs col0 s gr 
%  polyline 
% Polyline
0.000 slw
n 1909 9138 m 3847 9138 l 3847 8765 l 1909 8765 l
 1909 9138 l  cp gs col7 1.00 shd ef gr 
% here ends figure;
% 
% here starts figure with depth 329
%  text 
/Helvetica-iso ff 300.00 scf sf
1943 9045 m
gs 1 -1 sc (Actual elevation) col0 sh gr
%  polyline 
% Polyline
0 slj
0 slc
0.000 slw
n 7094 9204 m 8340 9204 l 8340 8830 l 7094 8830 l
 7094 9204 l  cp gs col7 1.00 shd ef gr 
% here ends figure;
% 
% here starts figure with depth 326
%  text 
/Helvetica-iso ff 300.00 scf sf
7127 9111 m
gs 1 -1 sc (Scan Line) col0 sh gr
%  polyline 
% Polyline
0 slj
0 slc
7.500 slw
n 7476 5147 m
 8476 6200 l gs col0 s gr 
% here ends figure;
% 
% here starts figure with depth 323
%  polyline 
% Polyline
0 slj
0 slc
0.000 slw
n 8476 6200 m 8501 6176 l 8545 6272 l 8452 6222 l
 8476 6200 l  cp gs 0.00 setgray ef gr 
% here ends figure;
% 
% here starts figure with depth 321
%  polyline 
% Polyline
0 slj
0 slc
7.500 slw
n 8476 6200 m 8501 6176 l 8545 6272 l 8452 6222 l
 8476 6200 l  cp gs col0 s gr 
%  polyline 
% Polyline
0.000 slw
n 6262 5043 m 8494 5043 l 8494 4362 l 6262 4362 l
 6262 5043 l  cp gs col7 1.00 shd ef gr 
% here ends figure;
% 
% here starts figure with depth 318
%  text 
/Helvetica-iso ff 300.00 scf sf
6295 4643 m
gs 1 -1 sc (Elevation estimate) col0 sh gr
%  text 
/Helvetica-iso ff 300.00 scf sf
6295 4950 m
gs 1 -1 sc (\(with error bars\)) col0 sh gr
%  polyline 
% Polyline
0 slj
0 slc
7.500 slw
n 8527 8784 m
 8623 8170 l gs col0 s gr 
% here ends figure;
% 
% here starts figure with depth 314
%  polyline 
% Polyline
0 slj
0 slc
0.000 slw
n 8623 8170 m 8591 8165 l 8640 8072 l 8656 8176 l
 8623 8170 l  cp gs 0.00 setgray ef gr 
% here ends figure;
% 
% here starts figure with depth 312
%  polyline 
% Polyline
0 slj
0 slc
7.500 slw
n 8623 8170 m 8591 8165 l 8640 8072 l 8656 8176 l
 8623 8170 l  cp gs col0 s gr 
%  polyline 
% Polyline
0.000 slw
n 4718 8547 m 6769 8547 l 6769 8173 l 4718 8173 l
 4718 8547 l  cp gs col7 1.00 shd ef gr 
% here ends figure;
% 
% here starts figure with depth 309
%  text 
/Helvetica-iso ff 300.00 scf sf
4751 8454 m
gs 1 -1 sc (75% error ellipse) col0 sh gr
% here ends figure;
% 
% here starts figure with depth 307
%  polyline 
% Polyline
0 slj
0 slc
7.500 slw
n 7138 8297 m
 7527 8252 l gs col0 s gr 
% here ends figure;
% 
% here starts figure with depth 305
%  polyline 
% Polyline
0 slj
0 slc
0.000 slw
n 7527 8252 m 7523 8219 l 7626 8240 l 7530 8284 l
 7527 8252 l  cp gs 0.00 setgray ef gr 
% here ends figure;
% 
% here starts figure with depth 303
%  polyline 
% Polyline
0 slj
0 slc
7.500 slw
n 7527 8252 m 7523 8219 l 7626 8240 l 7530 8284 l
 7527 8252 l  cp gs col0 s gr 
%  polyline 
% Polyline
0.000 slw
n 3209 4515 m 4661 4515 l 4661 4141 l 3209 4141 l
 3209 4515 l  cp gs col7 1.00 shd ef gr 
% here ends figure;
% 
% here starts figure with depth 300
%  text 
/Helvetica-iso ff 300.00 scf sf
3243 4422 m
gs 1 -1 sc (sensor path) col0 sh gr
%  polyline 
% Polyline
0 slj
0 slc
7.500 slw
n 3873 4545 m
 3745 5123 l gs col0 s gr 
% here ends figure;
% 
% here starts figure with depth 297
%  polyline 
% Polyline
0 slj
0 slc
0.000 slw
n 3745 5123 m 3777 5130 l 3723 5222 l 3712 5116 l
 3745 5123 l  cp gs 0.00 setgray ef gr 
% here ends figure;
% 
% here starts figure with depth 295
%  polyline 
% Polyline
0 slj
0 slc
7.500 slw
n 3745 5123 m 3777 5130 l 3723 5222 l 3712 5116 l
 3745 5123 l  cp gs col0 s gr 
% here ends figure;
$F2psEnd
rs
showpage
%%Trailer
%EOF
