%!PS-Adobe-3.0 EPSF-3.0
%%Creator: MATLAB, The Mathworks, Inc.
%%Title: /Users/lars/Research/CDS 273 Spring 2004/team/cds273/matlab/twelvescans.eps
%%CreationDate: 06/04/2004  13:29:14
%%DocumentNeededFonts: Helvetica
%%DocumentProcessColors: Cyan Magenta Yellow Black
%%LanguageLevel: 2
%%Pages: 1
%%BoundingBox:    53   193   549   589
%%EndComments

%%BeginProlog
% MathWorks dictionary
/MathWorks 160 dict begin
% definition operators
/bdef {bind def} bind def
/ldef {load def} bind def
/xdef {exch def} bdef
/xstore {exch store} bdef
% operator abbreviations
/c  /clip ldef
/cc /concat ldef
/cp /closepath ldef
/gr /grestore ldef
/gs /gsave ldef
/mt /moveto ldef
/np /newpath ldef
/cm /currentmatrix ldef
/sm /setmatrix ldef
/rm /rmoveto ldef
/rl /rlineto ldef
/s {show newpath} bdef
/sc {setcmykcolor} bdef
/sr /setrgbcolor ldef
/sg /setgray ldef
/w /setlinewidth ldef
/j /setlinejoin ldef
/cap /setlinecap ldef
/rc {rectclip} bdef
/rf {rectfill} bdef
% page state control
/pgsv () def
/bpage {/pgsv save def} bdef
/epage {pgsv restore} bdef
/bplot /gsave ldef
/eplot {stroke grestore} bdef
% orientation switch
/portraitMode 0 def /landscapeMode 1 def /rotateMode 2 def
% coordinate system mappings
/dpi2point 0 def
% font control
/FontSize 0 def
/FMS {/FontSize xstore findfont [FontSize 0 0 FontSize neg 0 0]
  makefont setfont} bdef
/reencode {exch dup where {pop load} {pop StandardEncoding} ifelse
  exch dup 3 1 roll findfont dup length dict begin
  { 1 index /FID ne {def}{pop pop} ifelse } forall
  /Encoding exch def currentdict end definefont pop} bdef
/isroman {findfont /CharStrings get /Agrave known} bdef
/FMSR {3 1 roll 1 index dup isroman {reencode} {pop pop} ifelse
  exch FMS} bdef
/csm {1 dpi2point div -1 dpi2point div scale neg translate
 dup landscapeMode eq {pop -90 rotate}
  {rotateMode eq {90 rotate} if} ifelse} bdef
% line types: solid, dotted, dashed, dotdash
/SO { [] 0 setdash } bdef
/DO { [.5 dpi2point mul 4 dpi2point mul] 0 setdash } bdef
/DA { [6 dpi2point mul] 0 setdash } bdef
/DD { [.5 dpi2point mul 4 dpi2point mul 6 dpi2point mul 4
  dpi2point mul] 0 setdash } bdef
% macros for lines and objects
/L {lineto stroke} bdef
/MP {3 1 roll moveto 1 sub {rlineto} repeat} bdef
/AP {{rlineto} repeat} bdef
/PDlw -1 def
/W {/PDlw currentlinewidth def setlinewidth} def
/PP {closepath eofill} bdef
/DP {closepath stroke} bdef
/MR {4 -2 roll moveto dup  0 exch rlineto exch 0 rlineto
  neg 0 exch rlineto closepath} bdef
/FR {MR stroke} bdef
/PR {MR fill} bdef
/L1i {{currentfile picstr readhexstring pop} image} bdef
/tMatrix matrix def
/MakeOval {newpath tMatrix currentmatrix pop translate scale
0 0 1 0 360 arc tMatrix setmatrix} bdef
/FO {MakeOval stroke} bdef
/PO {MakeOval fill} bdef
/PD {currentlinewidth 2 div 0 360 arc fill
   PDlw -1 eq not {PDlw w /PDlw -1 def} if} def
/FA {newpath tMatrix currentmatrix pop translate scale
  0 0 1 5 -2 roll arc tMatrix setmatrix stroke} bdef
/PA {newpath tMatrix currentmatrix pop	translate 0 0 moveto scale
  0 0 1 5 -2 roll arc closepath tMatrix setmatrix fill} bdef
/FAn {newpath tMatrix currentmatrix pop translate scale
  0 0 1 5 -2 roll arcn tMatrix setmatrix stroke} bdef
/PAn {newpath tMatrix currentmatrix pop translate 0 0 moveto scale
  0 0 1 5 -2 roll arcn closepath tMatrix setmatrix fill} bdef
/vradius 0 def /hradius 0 def /lry 0 def
/lrx 0 def /uly 0 def /ulx 0 def /rad 0 def
/MRR {/vradius xdef /hradius xdef /lry xdef /lrx xdef /uly xdef
  /ulx xdef newpath tMatrix currentmatrix pop ulx hradius add uly
  vradius add translate hradius vradius scale 0 0 1 180 270 arc 
  tMatrix setmatrix lrx hradius sub uly vradius add translate
  hradius vradius scale 0 0 1 270 360 arc tMatrix setmatrix
  lrx hradius sub lry vradius sub translate hradius vradius scale
  0 0 1 0 90 arc tMatrix setmatrix ulx hradius add lry vradius sub
  translate hradius vradius scale 0 0 1 90 180 arc tMatrix setmatrix
  closepath} bdef
/FRR {MRR stroke } bdef
/PRR {MRR fill } bdef
/MlrRR {/lry xdef /lrx xdef /uly xdef /ulx xdef /rad lry uly sub 2 div def
  newpath tMatrix currentmatrix pop ulx rad add uly rad add translate
  rad rad scale 0 0 1 90 270 arc tMatrix setmatrix lrx rad sub lry rad
  sub translate rad rad scale 0 0 1 270 90 arc tMatrix setmatrix
  closepath} bdef
/FlrRR {MlrRR stroke } bdef
/PlrRR {MlrRR fill } bdef
/MtbRR {/lry xdef /lrx xdef /uly xdef /ulx xdef /rad lrx ulx sub 2 div def
  newpath tMatrix currentmatrix pop ulx rad add uly rad add translate
  rad rad scale 0 0 1 180 360 arc tMatrix setmatrix lrx rad sub lry rad
  sub translate rad rad scale 0 0 1 0 180 arc tMatrix setmatrix
  closepath} bdef
/FtbRR {MtbRR stroke } bdef
/PtbRR {MtbRR fill } bdef
/stri 6 array def /dtri 6 array def
/smat 6 array def /dmat 6 array def
/tmat1 6 array def /tmat2 6 array def /dif 3 array def
/asub {/ind2 exch def /ind1 exch def dup dup
  ind1 get exch ind2 get sub exch } bdef
/tri_to_matrix {
  2 0 asub 3 1 asub 4 0 asub 5 1 asub
  dup 0 get exch 1 get 7 -1 roll astore } bdef
/compute_transform {
  dmat dtri tri_to_matrix tmat1 invertmatrix 
  smat stri tri_to_matrix tmat2 concatmatrix } bdef
/ds {stri astore pop} bdef
/dt {dtri astore pop} bdef
/db {2 copy /cols xdef /rows xdef mul dup 3 mul string
  currentfile 
  3 index 0 eq {/ASCIIHexDecode filter}
  {/ASCII85Decode filter 3 index 2 eq {/RunLengthDecode filter} if }
  ifelse exch readstring pop
  dup 0 3 index getinterval /rbmap xdef
  dup 2 index dup getinterval /gbmap xdef
  1 index dup 2 mul exch getinterval /bbmap xdef pop pop}bdef
/it {gs np dtri aload pop moveto lineto lineto cp c
  cols rows 8 compute_transform 
  rbmap gbmap bbmap true 3 colorimage gr}bdef
/il {newpath moveto lineto stroke}bdef
currentdict end def
%%EndProlog

%%BeginSetup
MathWorks begin

0 cap

end
%%EndSetup

%%Page: 1 1
%%BeginPageSetup
%%PageBoundingBox:    53   193   549   589
MathWorks begin
bpage
%%EndPageSetup

%%BeginObject: obj1
bplot

/dpi2point 12 def
portraitMode 0216 7344 csm

  427   274  5949  4750 rc
95 dict begin %Colortable dictionary
/c0 { 0 0 0 sr} bdef
/c1 { 1 1 1 sr} bdef
/c2 { 1 0 0 sr} bdef
/c3 { 0 1 0 sr} bdef
/c4 { 0 0 1 sr} bdef
/c5 { 1 1 0 sr} bdef
/c6 { 1 0 1 sr} bdef
/c7 { 0 1 1 sr} bdef
c0
1 j
1 sg
   0    0 6918 5186 rf
6 w
0 -4226 5361 0 0 4226 899 389 4 MP
PP
-5361 0 0 -4226 5361 0 0 4226 899 389 5 MP stroke
4 w
DO
SO
6 w
0 sg
 899  389 mt 6260  389 L
 899 4615 mt 6260 4615 L
 899  389 mt  899 4615 L
6260  389 mt 6260 4615 L
 899 4615 mt 6260 4615 L
 899  389 mt  899 4615 L
 899 4615 mt  899 4561 L
 899  389 mt  899  442 L
%%IncludeResource: font Helvetica
/Helvetica /ISOLatin1Encoding 120 FMSR

 866 4760 mt 
(0) s
1792 4615 mt 1792 4561 L
1792  389 mt 1792  442 L
1759 4760 mt 
(5) s
2686 4615 mt 2686 4561 L
2686  389 mt 2686  442 L
2620 4760 mt 
(10) s
3579 4615 mt 3579 4561 L
3579  389 mt 3579  442 L
3513 4760 mt 
(15) s
4473 4615 mt 4473 4561 L
4473  389 mt 4473  442 L
4407 4760 mt 
(20) s
5366 4615 mt 5366 4561 L
5366  389 mt 5366  442 L
5300 4760 mt 
(25) s
6260 4615 mt 6260 4561 L
6260  389 mt 6260  442 L
6194 4760 mt 
(30) s
 899  389 mt  952  389 L
6260  389 mt 6206  389 L
 728  433 mt 
(-5) s
 899  811 mt  952  811 L
6260  811 mt 6206  811 L
 728  855 mt 
(-4) s
 899 1234 mt  952 1234 L
6260 1234 mt 6206 1234 L
 728 1278 mt 
(-3) s
 899 1656 mt  952 1656 L
6260 1656 mt 6206 1656 L
 728 1700 mt 
(-2) s
 899 2079 mt  952 2079 L
6260 2079 mt 6206 2079 L
 728 2123 mt 
(-1) s
 899 2502 mt  952 2502 L
6260 2502 mt 6206 2502 L
 798 2546 mt 
(0) s
 899 2924 mt  952 2924 L
6260 2924 mt 6206 2924 L
 798 2968 mt 
(1) s
 899 3347 mt  952 3347 L
6260 3347 mt 6206 3347 L
 798 3391 mt 
(2) s
 899 3769 mt  952 3769 L
6260 3769 mt 6206 3769 L
 798 3813 mt 
(3) s
 899 4192 mt  952 4192 L
6260 4192 mt 6206 4192 L
 798 4236 mt 
(4) s
 899 4615 mt  952 4615 L
6260 4615 mt 6206 4615 L
 798 4659 mt 
(5) s
 899  389 mt 6260  389 L
 899 4615 mt 6260 4615 L
 899  389 mt  899 4615 L
6260  389 mt 6260 4615 L
gs 898 389 5363 4227 rc
/c8 { 0.000000 0.000000 1.000000 sr} bdef
c8
-1 31 -2 30 -1 30 -2 31 -1 30 -2 30 -1 29 -2 30 
-2 29 -2 29 -2 29 -2 28 -2 28 -2 28 -2 27 -3 26 
-2 27 -2 25 -3 25 -2 25 -3 24 -3 23 -2 23 -3 22 
-3 22 -3 21 -2 20 -3 19 -3 19 -3 18 -3 17 -3 16 
-3 15 -3 15 -3 14 -3 13 -3 12 -3 11 -3 10 -3 9 
-3 9 -3 7 -3 7 -3 5 -3 5 -2 4 -3 2 -3 2 
-3 1 -3 0 -2 -1 -3 -2 -3 -3 -2 -4 -3 -5 -3 -6 
-2 -6 -3 -8 -2 -9 -2 -9 -2 -11 -3 -11 -2 -12 -2 -13 
-2 -14 -2 -15 -2 -15 -1 -17 -2 -17 -2 -18 -1 -19 -2 -19 
-1 -21 -1 -21 -1 -21 -2 -22 -1 -23 0 -24 -1 -24 -1 -25 
-1 -25 0 -26 -1 -26 0 -54 -1 -28 0 -85 1 -29 0 -59 
1 -30 0 -30 1 -30 1 -30 0 -30 1 -31 1 -30 1 -31 
2 -30 1 -31 1 -30 2 -30 1 -30 2 -30 2 -30 1 -29 
2 -30 2 -29 2 -28 2 -28 2 -28 2 -28 3 -27 2 -27 
2 -26 3 -26 2 -25 3 -24 2 -24 3 -24 3 -23 2 -22 
3 -21 3 -21 3 -20 2 -19 3 -19 3 -18 3 -17 3 -16 
3 -16 3 -14 3 -14 3 -13 3 -12 3 -11 3 -10 3 -10 
3 -8 3 -7 3 -7 3 -6 3 -4 3 -4 2 -3 3 -2 
3 0 3 0 3 1 2 2 3 3 3 4 2 4 3 6 
2 7 3 8 2 8 2 10 3 10 2 12 2 12 2 13 
2 14 2 15 2 15 1 17 2 17 2 18 1 19 2 19 
1 20 1 21 2 22 1 22 1 23 1 24 0 24 1 24 
1 26 0 26 1 26 0 27 1 27 0 142 -1 29 0 59 
-1 30 -1 30 0 31 -1 30 -1 30 -1 31 -1 30 2538 3037 192 MP stroke
/c9 { 1.000000 0.500000 1.000000 sr} bdef
c9
179 0 179 0 178 0 179 0 179 0 178 0 179 0 179 0 
178 0 179 0 179 0 179 0 178 0 179 0 179 0 178 0 
179 -279 179 -199 178 9 179 54 179 175 179 240 178 0 179 0 
179 0 178 0 179 0 179 0 178 0 899 2502 30 MP stroke
gr

c9
 863 2502 mt  935 2502 L
 899 2466 mt  899 2538 L
1041 2502 mt 1113 2502 L
1077 2466 mt 1077 2538 L
1220 2502 mt 1292 2502 L
1256 2466 mt 1256 2538 L
1399 2502 mt 1471 2502 L
1435 2466 mt 1435 2538 L
1577 2502 mt 1649 2502 L
1613 2466 mt 1613 2538 L
1756 2502 mt 1828 2502 L
1792 2466 mt 1792 2538 L
1935 2502 mt 2007 2502 L
1971 2466 mt 1971 2538 L
2113 2502 mt 2185 2502 L
2149 2466 mt 2149 2538 L
2292 2742 mt 2364 2742 L
2328 2706 mt 2328 2778 L
2471 2917 mt 2543 2917 L
2507 2881 mt 2507 2953 L
2650 2971 mt 2722 2971 L
2686 2935 mt 2686 3007 L
2828 2980 mt 2900 2980 L
2864 2944 mt 2864 3016 L
3007 2781 mt 3079 2781 L
3043 2745 mt 3043 2817 L
3186 2502 mt 3258 2502 L
3222 2466 mt 3222 2538 L
3364 2502 mt 3436 2502 L
3400 2466 mt 3400 2538 L
3543 2502 mt 3615 2502 L
3579 2466 mt 3579 2538 L
3722 2502 mt 3794 2502 L
3758 2466 mt 3758 2538 L
3900 2502 mt 3972 2502 L
3936 2466 mt 3936 2538 L
4079 2502 mt 4151 2502 L
4115 2466 mt 4115 2538 L
4258 2502 mt 4330 2502 L
4294 2466 mt 4294 2538 L
4437 2502 mt 4509 2502 L
4473 2466 mt 4473 2538 L
4615 2502 mt 4687 2502 L
4651 2466 mt 4651 2538 L
4794 2502 mt 4866 2502 L
4830 2466 mt 4830 2538 L
4973 2502 mt 5045 2502 L
5009 2466 mt 5009 2538 L
5151 2502 mt 5223 2502 L
5187 2466 mt 5187 2538 L
5330 2502 mt 5402 2502 L
5366 2466 mt 5366 2538 L
5509 2502 mt 5581 2502 L
5545 2466 mt 5545 2538 L
5687 2502 mt 5759 2502 L
5723 2466 mt 5723 2538 L
5866 2502 mt 5938 2502 L
5902 2466 mt 5902 2538 L
6045 2502 mt 6117 2502 L
6081 2466 mt 6081 2538 L
 874 2477 mt  924 2527 L
 924 2477 mt  874 2527 L
1052 2477 mt 1102 2527 L
1102 2477 mt 1052 2527 L
1231 2477 mt 1281 2527 L
1281 2477 mt 1231 2527 L
1410 2477 mt 1460 2527 L
1460 2477 mt 1410 2527 L
1588 2477 mt 1638 2527 L
1638 2477 mt 1588 2527 L
1767 2477 mt 1817 2527 L
1817 2477 mt 1767 2527 L
1946 2477 mt 1996 2527 L
1996 2477 mt 1946 2527 L
2124 2477 mt 2174 2527 L
2174 2477 mt 2124 2527 L
2303 2717 mt 2353 2767 L
2353 2717 mt 2303 2767 L
2482 2892 mt 2532 2942 L
2532 2892 mt 2482 2942 L
2661 2946 mt 2711 2996 L
2711 2946 mt 2661 2996 L
2839 2955 mt 2889 3005 L
2889 2955 mt 2839 3005 L
3018 2756 mt 3068 2806 L
3068 2756 mt 3018 2806 L
3197 2477 mt 3247 2527 L
3247 2477 mt 3197 2527 L
3375 2477 mt 3425 2527 L
3425 2477 mt 3375 2527 L
3554 2477 mt 3604 2527 L
3604 2477 mt 3554 2527 L
3733 2477 mt 3783 2527 L
3783 2477 mt 3733 2527 L
3911 2477 mt 3961 2527 L
3961 2477 mt 3911 2527 L
4090 2477 mt 4140 2527 L
4140 2477 mt 4090 2527 L
4269 2477 mt 4319 2527 L
4319 2477 mt 4269 2527 L
4448 2477 mt 4498 2527 L
4498 2477 mt 4448 2527 L
4626 2477 mt 4676 2527 L
4676 2477 mt 4626 2527 L
4805 2477 mt 4855 2527 L
4855 2477 mt 4805 2527 L
4984 2477 mt 5034 2527 L
5034 2477 mt 4984 2527 L
5162 2477 mt 5212 2527 L
5212 2477 mt 5162 2527 L
5341 2477 mt 5391 2527 L
5391 2477 mt 5341 2527 L
5520 2477 mt 5570 2527 L
5570 2477 mt 5520 2527 L
5698 2477 mt 5748 2527 L
5748 2477 mt 5698 2527 L
5877 2477 mt 5927 2527 L
5927 2477 mt 5877 2527 L
6056 2477 mt 6106 2527 L
6106 2477 mt 6056 2527 L
gs 898 389 5363 4227 rc
c8
179 0 179 0 178 0 179 0 179 0 178 0 179 0 179 0 
178 0 179 0 179 0 179 0 178 0 179 0 179 0 178 0 
179 -279 179 -199 178 9 179 54 179 175 179 240 178 0 179 0 
179 0 178 0 179 0 179 0 178 0 899 2502 30 MP stroke
gr

c8
0 j
0 -58 -58 0 0 58 58 0 2120 2473 5 MP
/c10 { 1.000000 0.000000 1.000000 sr} bdef
c10
DP
0 -58 -58 0 0 58 58 0 2299 2713 5 MP
DP
0 -58 -58 0 0 58 58 0 2478 2888 5 MP
DP
0 -58 -58 0 0 58 58 0 2657 2942 5 MP
DP
0 -58 -58 0 0 58 58 0 2835 2951 5 MP
DP
0 -58 -58 0 0 58 58 0 3014 2752 5 MP
DP
0 -58 -58 0 0 58 58 0 3193 2473 5 MP
DP
gs 898 389 5363 4227 rc
gr

/c11 { 1.000000 0.000000 0.000000 sr} bdef
c11
 874 2477 mt  924 2527 L
 924 2477 mt  874 2527 L
1052 2564 mt 1102 2614 L
1102 2564 mt 1052 2614 L
1231 2648 mt 1281 2698 L
1281 2648 mt 1231 2698 L
1410 2725 mt 1460 2775 L
1460 2725 mt 1410 2775 L
1588 2791 mt 1638 2841 L
1638 2791 mt 1588 2841 L
1767 2842 mt 1817 2892 L
1817 2842 mt 1767 2892 L
1946 2878 mt 1996 2928 L
1996 2878 mt 1946 2928 L
2124 2897 mt 2174 2947 L
2174 2897 mt 2124 2947 L
2303 2897 mt 2353 2947 L
2353 2897 mt 2303 2947 L
2482 2878 mt 2532 2928 L
2532 2878 mt 2482 2928 L
2661 2842 mt 2711 2892 L
2711 2842 mt 2661 2892 L
2839 2791 mt 2889 2841 L
2889 2791 mt 2839 2841 L
3018 2725 mt 3068 2775 L
3068 2725 mt 3018 2775 L
3197 2648 mt 3247 2698 L
3247 2648 mt 3197 2698 L
3375 2564 mt 3425 2614 L
3425 2564 mt 3375 2614 L
3554 2477 mt 3604 2527 L
3604 2477 mt 3554 2527 L
3733 2564 mt 3783 2614 L
3783 2564 mt 3733 2614 L
3911 2648 mt 3961 2698 L
3961 2648 mt 3911 2698 L
4090 2725 mt 4140 2775 L
4140 2725 mt 4090 2775 L
4269 2791 mt 4319 2841 L
4319 2791 mt 4269 2841 L
4448 2842 mt 4498 2892 L
4498 2842 mt 4448 2892 L
4626 2878 mt 4676 2928 L
4676 2878 mt 4626 2928 L
4805 2897 mt 4855 2947 L
4855 2897 mt 4805 2947 L
4984 2897 mt 5034 2947 L
5034 2897 mt 4984 2947 L
5162 2878 mt 5212 2928 L
5212 2878 mt 5162 2928 L
5341 2842 mt 5391 2892 L
5391 2842 mt 5341 2892 L
5520 2791 mt 5570 2841 L
5570 2791 mt 5520 2841 L
5698 2725 mt 5748 2775 L
5748 2725 mt 5698 2775 L
5877 2648 mt 5927 2698 L
5927 2648 mt 5877 2698 L
6056 2564 mt 6106 2614 L
6106 2564 mt 6056 2614 L
gs 898 389 5363 4227 rc
gr

c8
 863 2502 mt  935 2502 L
 899 2466 mt  899 2538 L
1041 2502 mt 1113 2502 L
1077 2466 mt 1077 2538 L
1220 2502 mt 1292 2502 L
1256 2466 mt 1256 2538 L
1399 2502 mt 1471 2502 L
1435 2466 mt 1435 2538 L
1577 2502 mt 1649 2502 L
1613 2466 mt 1613 2538 L
1756 2502 mt 1828 2502 L
1792 2466 mt 1792 2538 L
1935 2502 mt 2007 2502 L
1971 2466 mt 1971 2538 L
2113 2502 mt 2185 2502 L
2149 2466 mt 2149 2538 L
2292 2742 mt 2364 2742 L
2328 2706 mt 2328 2778 L
2471 2917 mt 2543 2917 L
2507 2881 mt 2507 2953 L
2650 2971 mt 2722 2971 L
2686 2935 mt 2686 3007 L
2828 2980 mt 2900 2980 L
2864 2944 mt 2864 3016 L
3007 2781 mt 3079 2781 L
3043 2745 mt 3043 2817 L
3186 2502 mt 3258 2502 L
3222 2466 mt 3222 2538 L
3364 2502 mt 3436 2502 L
3400 2466 mt 3400 2538 L
3543 2502 mt 3615 2502 L
3579 2466 mt 3579 2538 L
3722 2502 mt 3794 2502 L
3758 2466 mt 3758 2538 L
3900 2502 mt 3972 2502 L
3936 2466 mt 3936 2538 L
4079 2502 mt 4151 2502 L
4115 2466 mt 4115 2538 L
4258 2502 mt 4330 2502 L
4294 2466 mt 4294 2538 L
4437 2502 mt 4509 2502 L
4473 2466 mt 4473 2538 L
4615 2502 mt 4687 2502 L
4651 2466 mt 4651 2538 L
4794 2502 mt 4866 2502 L
4830 2466 mt 4830 2538 L
4973 2502 mt 5045 2502 L
5009 2466 mt 5009 2538 L
5151 2502 mt 5223 2502 L
5187 2466 mt 5187 2538 L
5330 2502 mt 5402 2502 L
5366 2466 mt 5366 2538 L
5509 2502 mt 5581 2502 L
5545 2466 mt 5545 2538 L
5687 2502 mt 5759 2502 L
5723 2466 mt 5723 2538 L
5866 2502 mt 5938 2502 L
5902 2466 mt 5902 2538 L
6045 2502 mt 6117 2502 L
6081 2466 mt 6081 2538 L
 874 2477 mt  924 2527 L
 924 2477 mt  874 2527 L
1052 2477 mt 1102 2527 L
1102 2477 mt 1052 2527 L
1231 2477 mt 1281 2527 L
1281 2477 mt 1231 2527 L
1410 2477 mt 1460 2527 L
1460 2477 mt 1410 2527 L
1588 2477 mt 1638 2527 L
1638 2477 mt 1588 2527 L
1767 2477 mt 1817 2527 L
1817 2477 mt 1767 2527 L
1946 2477 mt 1996 2527 L
1996 2477 mt 1946 2527 L
2124 2477 mt 2174 2527 L
2174 2477 mt 2124 2527 L
2303 2717 mt 2353 2767 L
2353 2717 mt 2303 2767 L
2482 2892 mt 2532 2942 L
2532 2892 mt 2482 2942 L
2661 2946 mt 2711 2996 L
2711 2946 mt 2661 2996 L
2839 2955 mt 2889 3005 L
2889 2955 mt 2839 3005 L
3018 2756 mt 3068 2806 L
3068 2756 mt 3018 2806 L
3197 2477 mt 3247 2527 L
3247 2477 mt 3197 2527 L
3375 2477 mt 3425 2527 L
3425 2477 mt 3375 2527 L
3554 2477 mt 3604 2527 L
3604 2477 mt 3554 2527 L
3733 2477 mt 3783 2527 L
3783 2477 mt 3733 2527 L
3911 2477 mt 3961 2527 L
3961 2477 mt 3911 2527 L
4090 2477 mt 4140 2527 L
4140 2477 mt 4090 2527 L
4269 2477 mt 4319 2527 L
4319 2477 mt 4269 2527 L
4448 2477 mt 4498 2527 L
4498 2477 mt 4448 2527 L
4626 2477 mt 4676 2527 L
4676 2477 mt 4626 2527 L
4805 2477 mt 4855 2527 L
4855 2477 mt 4805 2527 L
4984 2477 mt 5034 2527 L
5034 2477 mt 4984 2527 L
5162 2477 mt 5212 2527 L
5212 2477 mt 5162 2527 L
5341 2477 mt 5391 2527 L
5391 2477 mt 5341 2527 L
5520 2477 mt 5570 2527 L
5570 2477 mt 5520 2527 L
5698 2477 mt 5748 2527 L
5748 2477 mt 5698 2527 L
5877 2477 mt 5927 2527 L
5927 2477 mt 5877 2527 L
6056 2477 mt 6106 2527 L
6106 2477 mt 6056 2527 L
gs 898 389 5363 4227 rc
c9
0 -4228 899 4616 2 MP stroke
0 -4228 1077 4616 2 MP stroke
0 -4228 1256 4616 2 MP stroke
0 -4228 1435 4616 2 MP stroke
0 -4228 1613 4616 2 MP stroke
0 -4228 1792 4616 2 MP stroke
0 -4228 1971 4616 2 MP stroke
0 -4227 2149 4616 2 MP stroke
0 -4228 2328 4616 2 MP stroke
0 -372 2507 3103 2 MP stroke
104 0 2455 3103 2 MP stroke
104 0 2455 2731 2 MP stroke
0 -168 2686 3055 2 MP stroke
103 0 2634 3055 2 MP stroke
103 0 2634 2887 2 MP stroke
0 -845 2864 3403 2 MP stroke
104 0 2812 3403 2 MP stroke
104 0 2812 2558 2 MP stroke
0 -4227 3043 4616 2 MP stroke
0 -4227 3222 4616 2 MP stroke
0 -4228 3400 4616 2 MP stroke
0 -4228 3579 4616 2 MP stroke
0 -4228 3758 4616 2 MP stroke
0 -4228 3936 4616 2 MP stroke
0 -4228 4115 4616 2 MP stroke
0 -4228 4294 4616 2 MP stroke
0 -4228 4473 4616 2 MP stroke
0 -4228 4651 4616 2 MP stroke
0 -4228 4830 4616 2 MP stroke
0 -4228 5009 4616 2 MP stroke
0 -4228 5187 4616 2 MP stroke
0 -4228 5366 4616 2 MP stroke
0 -4228 5545 4616 2 MP stroke
0 -4228 5723 4616 2 MP stroke
0 -4228 5902 4616 2 MP stroke
0 -4228 6081 4616 2 MP stroke
gr

c9
c8
2590 3055 mt 2662 3055 L
2626 3019 mt 2626 3091 L
gs 898 389 5363 4227 rc
/c12 { 0.000000 1.000000 0.000000 sr} bdef
c12
3632 2959 910 1657 2 MP stroke
gr

c12
72 W
910 1657 PD
gs 898 389 5363 4227 rc
gr

-41 71 -41 -71 82 0 2108 2691 4 MP
/c13 { 0.000000 1.000000 1.000000 sr} bdef
c13
DP
-41 71 -41 -71 82 0 2287 2836 4 MP
DP
-41 71 -41 -71 82 0 2466 2982 4 MP
DP
-41 71 -41 -71 82 0 2645 3127 4 MP
DP
-41 71 -41 -71 82 0 2823 3273 4 MP
DP
-41 71 -41 -71 82 0 3002 3418 4 MP
DP
-41 71 -41 -71 82 0 3181 3564 4 MP
DP
gs 898 389 5363 4227 rc
gr

0 sg
  36   36 2507 2926 FO
  36   36 2686 3055 FO
  36   36 2864 3005 FO
gs 898 389 5363 4227 rc
c11
179 -84 179 -77 178 -66 179 -51 179 -36 178 -19 179 0 179 19 
178 36 179 51 179 66 179 77 178 84 179 87 179 -87 178 -84 
179 -77 179 -66 178 -51 179 -36 179 -19 179 0 178 19 179 36 
179 51 178 66 179 77 179 84 178 87 899 2502 30 MP stroke
gr

c11
0 sg
%%IncludeResource: font Helvetica
/Helvetica /ISOLatin1Encoding 192 FMSR

3149 4956 mt 
(x \(meters\)) s
 630 2932 mt  -90 rotate
(z \(meters\)) s
90 rotate
227 -984 1492 4044 2 MP stroke
-23 -6 6 76 40 -65 -23 -5 1719 3060 5 MP
PP
0 0 -23 -6 6 76 40 -65 -23 -5 1719 3060 6 MP stroke
1 sg
-1395 0 0 -269 1395 0 1159 4420 4 MP
PP
0 sg
1183 4353 mt 
(Actual elevation) s
1 sg
-897 0 0 -269 897 0 5014 3888 4 MP
PP
0 sg
5038 3821 mt 
(Scan Line) s
-186 794 5167 1546 2 MP stroke
23 6 -6 -76 -40 65 23 5 4981 2340 5 MP
PP
0 0 23 6 -6 -76 -40 65 23 5 4981 2340 6 MP stroke
1 sg
-1607 0 0 -490 1607 0 4293 1471 4 MP
PP
0 sg
4317 1183 mt 
(Elevation estimate) s
4317 1404 mt 
(\(with error bars\)) s
-412 259 5397 3949 2 MP stroke
13 20 48 -58 -73 18 12 20 4985 4208 5 MP
PP
0 0 13 20 48 -58 -73 18 12 20 4985 4208 6 MP stroke
1 sg
-1477 0 0 -269 1477 0 3760 3469 4 MP
PP
0 sg
3784 3402 mt 
(75% error ellipse) s
-929 188 3762 3490 2 MP stroke
5 23 66 -37 -76 -9 5 23 2833 3678 5 MP
PP
0 0 5 23 66 -37 -76 -9 5 23 2833 3678 6 MP stroke
1 sg
-621 0 0 -269 621 0 1178 1037 4 MP
PP
0 sg
1202  970 mt 
(sensor) s
-501 465 1587 1086 2 MP stroke
16 18 37 -67 -69 32 16 17 1086 1551 5 MP
PP
0 0 16 18 37 -67 -69 32 16 17 1086 1551 6 MP stroke
%%IncludeResource: font Helvetica
/Helvetica /ISOLatin1Encoding 288 FMSR

2363 1546 mt  90 rotate
({ ) s
-90 rotate
-197 381 2479 1762 2 MP stroke
21 11 12 -75 -54 53 21 11 2282 2143 5 MP
PP
0 0 21 11 12 -75 -54 53 21 11 2282 2143 6 MP stroke
256 372 2830 1762 2 MP stroke
19 -14 -60 -46 21 73 20 -13 3086 2134 5 MP
PP
0 0 19 -14 -60 -46 21 73 20 -13 3086 2134 6 MP stroke
1 sg
-1172 0 0 -269 1172 0 2129 1718 4 MP
PP
0 sg
%%IncludeResource: font Helvetica
/Helvetica /ISOLatin1Encoding 192 FMSR

2153 1651 mt 
(updated cells) s

end

eplot
%%EndObject

epage
end

showpage

%%Trailer
%%EOF
