%!PS-Adobe-3.0 EPSF-3.0
%%Creator: MATLAB, The Mathworks, Inc.
%%Title: /home/lindzey/reports/finalPaper/tow_sequence.eps
%%CreationDate: 08/14/2006  14:34:41
%%DocumentNeededFonts: Helvetica
%%DocumentProcessColors: Cyan Magenta Yellow Black
%%LanguageLevel: 2
%%Pages: 1
%%BoundingBox:    68   218   542   574
%%EndComments

%%BeginProlog
% MathWorks dictionary
/MathWorks 160 dict begin
% definition operators
/bdef {bind def} bind def
/ldef {load def} bind def
/xdef {exch def} bdef
/xstore {exch store} bdef
% operator abbreviations
/c  /clip ldef
/cc /concat ldef
/cp /closepath ldef
/gr /grestore ldef
/gs /gsave ldef
/mt /moveto ldef
/np /newpath ldef
/cm /currentmatrix ldef
/sm /setmatrix ldef
/rm /rmoveto ldef
/rl /rlineto ldef
/s {show newpath} bdef
/sc {setcmykcolor} bdef
/sr /setrgbcolor ldef
/sg /setgray ldef
/w /setlinewidth ldef
/j /setlinejoin ldef
/cap /setlinecap ldef
/rc {rectclip} bdef
/rf {rectfill} bdef
% page state control
/pgsv () def
/bpage {/pgsv save def} bdef
/epage {pgsv restore} bdef
/bplot /gsave ldef
/eplot {stroke grestore} bdef
% orientation switch
/portraitMode 0 def /landscapeMode 1 def /rotateMode 2 def
% coordinate system mappings
/dpi2point 0 def
% font control
/FontSize 0 def
/FMS {/FontSize xstore findfont [FontSize 0 0 FontSize neg 0 0]
  makefont setfont} bdef
/reencode {exch dup where {pop load} {pop StandardEncoding} ifelse
  exch dup 3 1 roll findfont dup length dict begin
  { 1 index /FID ne {def}{pop pop} ifelse } forall
  /Encoding exch def currentdict end definefont pop} bdef
/isroman {findfont /CharStrings get /Agrave known} bdef
/FMSR {3 1 roll 1 index dup isroman {reencode} {pop pop} ifelse
  exch FMS} bdef
/csm {1 dpi2point div -1 dpi2point div scale neg translate
 dup landscapeMode eq {pop -90 rotate}
  {rotateMode eq {90 rotate} if} ifelse} bdef
% line types: solid, dotted, dashed, dotdash
/SO { [] 0 setdash } bdef
/DO { [.5 dpi2point mul 4 dpi2point mul] 0 setdash } bdef
/DA { [6 dpi2point mul] 0 setdash } bdef
/DD { [.5 dpi2point mul 4 dpi2point mul 6 dpi2point mul 4
  dpi2point mul] 0 setdash } bdef
% macros for lines and objects
/L {lineto stroke} bdef
/MP {3 1 roll moveto 1 sub {rlineto} repeat} bdef
/AP {{rlineto} repeat} bdef
/PDlw -1 def
/W {/PDlw currentlinewidth def setlinewidth} def
/PP {closepath eofill} bdef
/DP {closepath stroke} bdef
/MR {4 -2 roll moveto dup  0 exch rlineto exch 0 rlineto
  neg 0 exch rlineto closepath} bdef
/FR {MR stroke} bdef
/PR {MR fill} bdef
/L1i {{currentfile picstr readhexstring pop} image} bdef
/tMatrix matrix def
/MakeOval {newpath tMatrix currentmatrix pop translate scale
0 0 1 0 360 arc tMatrix setmatrix} bdef
/FO {MakeOval stroke} bdef
/PO {MakeOval fill} bdef
/PD {currentlinewidth 2 div 0 360 arc fill
   PDlw -1 eq not {PDlw w /PDlw -1 def} if} def
/FA {newpath tMatrix currentmatrix pop translate scale
  0 0 1 5 -2 roll arc tMatrix setmatrix stroke} bdef
/PA {newpath tMatrix currentmatrix pop	translate 0 0 moveto scale
  0 0 1 5 -2 roll arc closepath tMatrix setmatrix fill} bdef
/FAn {newpath tMatrix currentmatrix pop translate scale
  0 0 1 5 -2 roll arcn tMatrix setmatrix stroke} bdef
/PAn {newpath tMatrix currentmatrix pop translate 0 0 moveto scale
  0 0 1 5 -2 roll arcn closepath tMatrix setmatrix fill} bdef
/vradius 0 def /hradius 0 def /lry 0 def
/lrx 0 def /uly 0 def /ulx 0 def /rad 0 def
/MRR {/vradius xdef /hradius xdef /lry xdef /lrx xdef /uly xdef
  /ulx xdef newpath tMatrix currentmatrix pop ulx hradius add uly
  vradius add translate hradius vradius scale 0 0 1 180 270 arc 
  tMatrix setmatrix lrx hradius sub uly vradius add translate
  hradius vradius scale 0 0 1 270 360 arc tMatrix setmatrix
  lrx hradius sub lry vradius sub translate hradius vradius scale
  0 0 1 0 90 arc tMatrix setmatrix ulx hradius add lry vradius sub
  translate hradius vradius scale 0 0 1 90 180 arc tMatrix setmatrix
  closepath} bdef
/FRR {MRR stroke } bdef
/PRR {MRR fill } bdef
/MlrRR {/lry xdef /lrx xdef /uly xdef /ulx xdef /rad lry uly sub 2 div def
  newpath tMatrix currentmatrix pop ulx rad add uly rad add translate
  rad rad scale 0 0 1 90 270 arc tMatrix setmatrix lrx rad sub lry rad
  sub translate rad rad scale 0 0 1 270 90 arc tMatrix setmatrix
  closepath} bdef
/FlrRR {MlrRR stroke } bdef
/PlrRR {MlrRR fill } bdef
/MtbRR {/lry xdef /lrx xdef /uly xdef /ulx xdef /rad lrx ulx sub 2 div def
  newpath tMatrix currentmatrix pop ulx rad add uly rad add translate
  rad rad scale 0 0 1 180 360 arc tMatrix setmatrix lrx rad sub lry rad
  sub translate rad rad scale 0 0 1 0 180 arc tMatrix setmatrix
  closepath} bdef
/FtbRR {MtbRR stroke } bdef
/PtbRR {MtbRR fill } bdef
/stri 6 array def /dtri 6 array def
/smat 6 array def /dmat 6 array def
/tmat1 6 array def /tmat2 6 array def /dif 3 array def
/asub {/ind2 exch def /ind1 exch def dup dup
  ind1 get exch ind2 get sub exch } bdef
/tri_to_matrix {
  2 0 asub 3 1 asub 4 0 asub 5 1 asub
  dup 0 get exch 1 get 7 -1 roll astore } bdef
/compute_transform {
  dmat dtri tri_to_matrix tmat1 invertmatrix 
  smat stri tri_to_matrix tmat2 concatmatrix } bdef
/ds {stri astore pop} bdef
/dt {dtri astore pop} bdef
/db {2 copy /cols xdef /rows xdef mul dup 3 mul string
  currentfile 
  3 index 0 eq {/ASCIIHexDecode filter}
  {/ASCII85Decode filter 3 index 2 eq {/RunLengthDecode filter} if }
  ifelse exch readstring pop
  dup 0 3 index getinterval /rbmap xdef
  dup 2 index dup getinterval /gbmap xdef
  1 index dup 2 mul exch getinterval /bbmap xdef pop pop}bdef
/it {gs np dtri aload pop moveto lineto lineto cp c
  cols rows 8 compute_transform 
  rbmap gbmap bbmap true 3 colorimage gr}bdef
/il {newpath moveto lineto stroke}bdef
currentdict end def
%%EndProlog

%%BeginSetup
MathWorks begin

0 cap

end
%%EndSetup

%%Page: 1 1
%%BeginPageSetup
%%PageBoundingBox:    68   218   542   574
MathWorks begin
bpage
%%EndPageSetup

%%BeginObject: obj1
bplot

/dpi2point 12 def
portraitMode 0816 6888 csm

    0     0  5697  4269 rc
86 dict begin %Colortable dictionary
/c0 { 0.000000 0.000000 0.000000 sr} bdef
/c1 { 1.000000 1.000000 1.000000 sr} bdef
/c2 { 0.900000 0.000000 0.000000 sr} bdef
/c3 { 0.000000 0.820000 0.000000 sr} bdef
/c4 { 0.000000 0.000000 0.800000 sr} bdef
/c5 { 0.910000 0.820000 0.320000 sr} bdef
/c6 { 1.000000 0.260000 0.820000 sr} bdef
/c7 { 0.000000 0.820000 0.820000 sr} bdef
c0
1 j
1 sg
   0    0 5698 4270 rf
6 w
0 3479 4415 0 0 -3479 741 3799 4 MP
PP
-4415 0 0 3479 4415 0 0 -3479 741 3799 5 MP stroke
4 w
DO
SO
6 w
0 sg
 741 3799 mt 5156 3799 L
 741 3799 mt  741  320 L
 741 3799 mt  741 3754 L
%%IncludeResource: font Helvetica
/Helvetica /ISOLatin1Encoding 120 FMSR

 538 3944 mt 
(-6000) s
1476 3799 mt 1476 3754 L
1273 3944 mt 
(-4000) s
2212 3799 mt 2212 3754 L
2009 3944 mt 
(-2000) s
2948 3799 mt 2948 3754 L
2915 3944 mt 
(0) s
3684 3799 mt 3684 3754 L
3551 3944 mt 
(2000) s
4420 3799 mt 4420 3754 L
4287 3944 mt 
(4000) s
5156 3799 mt 5156 3754 L
5023 3944 mt 
(6000) s
 741 3799 mt  785 3799 L
 640 3843 mt 
(0) s
 741 3364 mt  785 3364 L
 506 3408 mt 
(500) s
 741 2929 mt  785 2929 L
 440 2973 mt 
(1000) s
 741 2494 mt  785 2494 L
 440 2538 mt 
(1500) s
 741 2059 mt  785 2059 L
 440 2103 mt 
(2000) s
 741 1624 mt  785 1624 L
 440 1668 mt 
(2500) s
 741 1189 mt  785 1189 L
 440 1233 mt 
(3000) s
 741  754 mt  785  754 L
 440  798 mt 
(3500) s
 741  320 mt  785  320 L
 440  364 mt 
(4000) s
gs 741 320 4416 3480 rc
gr

24 W
/c8 { 1.000000 0.000000 0.000000 sr} bdef
c8
3669 3769 PD
24 W
3667 3739 PD
24 W
3665 3710 PD
24 W
3663 3680 PD
24 W
3661 3651 PD
24 W
3659 3622 PD
24 W
3658 3593 PD
24 W
3660 3562 PD
24 W
3666 3530 PD
24 W
3656 3503 PD
24 W
3650 3476 PD
24 W
3648 3447 PD
24 W
3646 3417 PD
24 W
3644 3388 PD
24 W
3643 3358 PD
24 W
3640 3329 PD
24 W
3639 3299 PD
24 W
3637 3270 PD
24 W
3468 3375 PD
24 W
3459 3359 PD
24 W
3462 3333 PD
24 W
3629 3149 PD
24 W
3627 3117 PD
24 W
3625 3086 PD
24 W
3623 3055 PD
24 W
3621 3023 PD
24 W
3619 2990 PD
24 W
3617 2958 PD
24 W
3614 2925 PD
24 W
3613 2891 PD
24 W
3610 2858 PD
24 W
3473 3023 PD
24 W
3467 3001 PD
24 W
3603 2753 PD
24 W
3601 2717 PD
24 W
3599 2680 PD
24 W
3596 2644 PD
24 W
3595 2604 PD
24 W
3592 2566 PD
24 W
3589 2527 PD
24 W
3586 2487 PD
24 W
3584 2445 PD
24 W
3582 2402 PD
24 W
3579 2359 PD
24 W
3576 2314 PD
24 W
3573 2268 PD
24 W
3570 2221 PD
24 W
3567 2174 PD
24 W
3564 2123 PD
24 W
3561 2073 PD
24 W
3557 2019 PD
24 W
3554 1965 PD
24 W
3551 1908 PD
24 W
3547 1851 PD
24 W
3543 1790 PD
24 W
3539 1728 PD
24 W
3535 1662 PD
24 W
3530 1596 PD
24 W
3526 1525 PD
24 W
3521 1451 PD
24 W
3161 2891 PD
24 W
3154 2885 PD
24 W
3147 2876 PD
24 W
3140 2867 PD
24 W
3129 2879 PD
24 W
3121 2878 PD
24 W
3114 2875 PD
24 W
3106 2872 PD
24 W
3099 2868 PD
24 W
3092 2865 PD
24 W
3085 2860 PD
24 W
3077 2856 PD
24 W
3070 2853 PD
24 W
3063 2850 PD
24 W
3058 2830 PD
24 W
3050 2832 PD
24 W
3043 2831 PD
24 W
3035 2830 PD
24 W
3028 2825 PD
24 W
3041 2556 PD
24 W
3032 2550 PD
24 W
3023 2541 PD
24 W
3014 2534 PD
24 W
3005 2518 PD
24 W
2995 2517 PD
24 W
2986 2506 PD
24 W
2948 3799 PD
24 W
2426 890 PD
24 W
2948 3799 PD
24 W
2551 2640 PD
24 W
2541 2653 PD
24 W
2948 3799 PD
24 W
1597 923 PD
24 W
2948 3799 PD
24 W
2044 2302 PD
24 W
2029 2333 PD
24 W
2015 2366 PD
24 W
1995 2391 PD
24 W
2948 3799 PD
24 W
2054 2578 PD
24 W
2038 2606 PD
24 W
2948 3799 PD
24 W
2077 2749 PD
24 W
2094 2814 PD
24 W
2083 2845 PD
24 W
2068 2872 PD
24 W
2054 2901 PD
24 W
2041 2932 PD
24 W
2077 3008 PD
24 W
2096 3066 PD
24 W
2096 3105 PD
24 W
2084 3135 PD
24 W
2068 3163 PD
24 W
2053 3192 PD
24 W
2038 3222 PD
24 W
2021 3252 PD
24 W
2006 3284 PD
24 W
1986 3315 PD
24 W
1925 3328 PD
24 W
2948 3799 PD
24 W
2148 3499 PD
24 W
2157 3536 PD
24 W
2948 3799 PD
24 W
2166 3604 PD
24 W
2152 3634 PD
24 W
2130 3663 PD
24 W
2122 3696 PD
24 W
2105 3729 PD
24 W
2049 3761 PD
24 W
2075 3798 PD
gs 741 320 4416 3480 rc
gr

24 W
/c9 { 0.000000 1.000000 0.000000 sr} bdef
c9
3669 3769 PD
24 W
3667 3739 PD
24 W
3664 3710 PD
24 W
3663 3680 PD
24 W
3661 3651 PD
24 W
3660 3622 PD
24 W
3658 3593 PD
24 W
3661 3562 PD
24 W
3668 3529 PD
24 W
3656 3503 PD
24 W
3650 3476 PD
24 W
3648 3447 PD
24 W
3646 3417 PD
24 W
3644 3388 PD
24 W
3642 3359 PD
24 W
3640 3329 PD
24 W
3639 3299 PD
24 W
3637 3270 PD
24 W
3468 3375 PD
24 W
3460 3358 PD
24 W
3462 3332 PD
24 W
3629 3149 PD
24 W
3627 3117 PD
24 W
3625 3086 PD
24 W
3623 3054 PD
24 W
3621 3023 PD
24 W
3619 2990 PD
24 W
3617 2958 PD
24 W
3615 2925 PD
24 W
3612 2892 PD
24 W
3610 2858 PD
24 W
3473 3023 PD
24 W
3467 3001 PD
24 W
3603 2753 PD
24 W
3601 2717 PD
24 W
3600 2679 PD
24 W
3596 2643 PD
24 W
3594 2605 PD
24 W
3592 2566 PD
24 W
3589 2526 PD
24 W
3587 2486 PD
24 W
3584 2445 PD
24 W
3581 2402 PD
24 W
3579 2358 PD
24 W
3576 2314 PD
24 W
3573 2268 PD
24 W
3570 2221 PD
24 W
3567 2173 PD
24 W
3564 2123 PD
24 W
3561 2072 PD
24 W
3557 2019 PD
24 W
3554 1964 PD
24 W
3550 1909 PD
24 W
3547 1850 PD
24 W
3543 1789 PD
24 W
3538 1729 PD
24 W
3535 1663 PD
24 W
3531 1594 PD
24 W
3526 1526 PD
24 W
3522 1450 PD
24 W
3161 2890 PD
24 W
3154 2885 PD
24 W
3146 2879 PD
24 W
3140 2868 PD
24 W
3129 2879 PD
24 W
3121 2878 PD
24 W
3114 2875 PD
24 W
3106 2872 PD
24 W
3099 2868 PD
24 W
3092 2864 PD
24 W
3085 2859 PD
24 W
3077 2856 PD
24 W
3070 2852 PD
24 W
3063 2850 PD
24 W
3058 2829 PD
24 W
3050 2830 PD
24 W
3042 2832 PD
24 W
3035 2830 PD
24 W
3028 2825 PD
24 W
3041 2556 PD
24 W
3032 2549 PD
24 W
3023 2541 PD
24 W
3014 2533 PD
24 W
3005 2518 PD
24 W
2995 2517 PD
24 W
2986 2506 PD
24 W
2948 3799 PD
24 W
2425 887 PD
24 W
2948 3799 PD
24 W
2552 2641 PD
24 W
2541 2651 PD
24 W
2948 3799 PD
24 W
1598 925 PD
24 W
2948 3799 PD
24 W
2044 2302 PD
24 W
2029 2334 PD
24 W
2014 2365 PD
24 W
1994 2390 PD
24 W
2948 3799 PD
24 W
2053 2577 PD
24 W
2037 2605 PD
24 W
2948 3799 PD
24 W
2077 2749 PD
24 W
2095 2814 PD
24 W
2083 2845 PD
24 W
2068 2873 PD
24 W
2055 2903 PD
24 W
2039 2931 PD
24 W
2077 3008 PD
24 W
2096 3066 PD
24 W
2095 3104 PD
24 W
2084 3135 PD
24 W
2069 3163 PD
24 W
2054 3192 PD
24 W
2038 3222 PD
24 W
2021 3252 PD
24 W
2006 3285 PD
24 W
1987 3316 PD
24 W
1925 3329 PD
24 W
1433 3167 PD
24 W
2148 3499 PD
24 W
2157 3536 PD
24 W
2948 3799 PD
24 W
2166 3604 PD
24 W
2153 3634 PD
24 W
2128 3663 PD
24 W
2122 3696 PD
24 W
2105 3729 PD
24 W
2049 3761 PD
24 W
2071 3798 PD
gs 741 320 4416 3480 rc
gr

24 W
0 sg
3668 3769 PD
24 W
3667 3739 PD
24 W
3665 3710 PD
24 W
3663 3680 PD
24 W
3661 3651 PD
24 W
3660 3622 PD
24 W
3657 3593 PD
24 W
3661 3562 PD
24 W
3660 3532 PD
24 W
3657 3503 PD
24 W
3650 3476 PD
24 W
3648 3447 PD
24 W
3646 3417 PD
24 W
3644 3388 PD
24 W
3642 3359 PD
24 W
3640 3329 PD
24 W
3639 3299 PD
24 W
3637 3270 PD
24 W
3468 3375 PD
24 W
3459 3359 PD
24 W
3462 3332 PD
24 W
3629 3148 PD
24 W
3627 3117 PD
24 W
3625 3086 PD
24 W
3623 3055 PD
24 W
3621 3023 PD
24 W
3619 2990 PD
24 W
3617 2958 PD
24 W
3615 2924 PD
24 W
3613 2891 PD
24 W
3610 2858 PD
24 W
3472 3024 PD
24 W
3467 3001 PD
24 W
3603 2754 PD
24 W
3602 2716 PD
24 W
3599 2680 PD
24 W
3597 2643 PD
24 W
3594 2605 PD
24 W
3592 2565 PD
24 W
3589 2527 PD
24 W
3587 2486 PD
24 W
3584 2444 PD
24 W
3582 2401 PD
24 W
3579 2359 PD
24 W
3576 2314 PD
24 W
3573 2268 PD
24 W
3570 2222 PD
24 W
3567 2173 PD
24 W
3564 2123 PD
24 W
3561 2072 PD
24 W
3557 2019 PD
24 W
3554 1964 PD
24 W
3550 1908 PD
24 W
3547 1849 PD
24 W
3543 1789 PD
24 W
3539 1727 PD
24 W
3534 1665 PD
24 W
3531 1594 PD
24 W
3526 1525 PD
24 W
3522 1448 PD
24 W
3161 2891 PD
24 W
3154 2885 PD
24 W
3147 2875 PD
24 W
3140 2868 PD
24 W
3129 2879 PD
24 W
3121 2878 PD
24 W
3114 2875 PD
24 W
3106 2873 PD
24 W
3099 2868 PD
24 W
3092 2864 PD
24 W
3085 2860 PD
24 W
3077 2856 PD
24 W
3071 2851 PD
24 W
3063 2850 PD
24 W
3058 2829 PD
24 W
3050 2832 PD
24 W
3042 2832 PD
24 W
3035 2830 PD
24 W
3028 2824 PD
24 W
3041 2555 PD
24 W
3032 2549 PD
24 W
3023 2540 PD
24 W
3014 2532 PD
24 W
3005 2517 PD
24 W
2995 2516 PD
24 W
2986 2506 PD
24 W
2948 3799 PD
24 W
2425 887 PD
24 W
2948 3799 PD
24 W
2552 2641 PD
24 W
2541 2651 PD
24 W
2948 3799 PD
24 W
1597 922 PD
24 W
2948 3799 PD
24 W
2044 2302 PD
24 W
2028 2332 PD
24 W
2015 2366 PD
24 W
1994 2390 PD
24 W
2948 3799 PD
24 W
2053 2577 PD
24 W
2038 2606 PD
24 W
2948 3799 PD
24 W
2077 2749 PD
24 W
2095 2814 PD
24 W
2083 2845 PD
24 W
2069 2873 PD
24 W
2054 2901 PD
24 W
2042 2933 PD
24 W
2077 3008 PD
24 W
2096 3066 PD
24 W
2096 3105 PD
24 W
2084 3135 PD
24 W
2068 3162 PD
24 W
2054 3192 PD
24 W
2039 3222 PD
24 W
2021 3252 PD
24 W
2006 3284 PD
24 W
1987 3316 PD
24 W
1926 3329 PD
24 W
2948 3799 PD
24 W
2147 3499 PD
24 W
2157 3536 PD
24 W
2948 3799 PD
24 W
2166 3604 PD
24 W
2151 3634 PD
24 W
2130 3663 PD
24 W
2122 3696 PD
24 W
2106 3729 PD
24 W
2050 3761 PD
24 W
2073 3798 PD
gs 741 320 4416 3480 rc
gr

24 W
c8
3669 3769 PD
24 W
3667 3739 PD
24 W
3665 3710 PD
24 W
3663 3680 PD
24 W
3661 3651 PD
24 W
3660 3622 PD
24 W
3658 3592 PD
24 W
3661 3562 PD
24 W
3659 3532 PD
24 W
3657 3503 PD
24 W
3650 3476 PD
24 W
3648 3447 PD
24 W
3646 3418 PD
24 W
3644 3388 PD
24 W
3642 3359 PD
24 W
3640 3329 PD
24 W
3639 3299 PD
24 W
3637 3269 PD
24 W
3468 3375 PD
24 W
3459 3359 PD
24 W
3462 3332 PD
24 W
3629 3148 PD
24 W
3627 3117 PD
24 W
3625 3086 PD
24 W
3623 3054 PD
24 W
3621 3023 PD
24 W
3619 2990 PD
24 W
3617 2958 PD
24 W
3614 2925 PD
24 W
3613 2891 PD
24 W
3610 2858 PD
24 W
3473 3023 PD
24 W
3467 3001 PD
24 W
3604 2753 PD
24 W
3602 2716 PD
24 W
3600 2679 PD
24 W
3596 2644 PD
24 W
3595 2604 PD
24 W
3592 2566 PD
24 W
3590 2526 PD
24 W
3587 2486 PD
24 W
3585 2444 PD
24 W
3582 2402 PD
24 W
3579 2358 PD
24 W
3576 2313 PD
24 W
3573 2268 PD
24 W
3570 2221 PD
24 W
3567 2172 PD
24 W
3564 2123 PD
24 W
3561 2072 PD
24 W
3558 2019 PD
24 W
3554 1964 PD
24 W
3550 1909 PD
24 W
3547 1849 PD
24 W
3543 1789 PD
24 W
3539 1728 PD
24 W
3534 1664 PD
24 W
3530 1595 PD
24 W
3526 1525 PD
24 W
3522 1449 PD
24 W
3161 2890 PD
24 W
3154 2885 PD
24 W
3147 2876 PD
24 W
3140 2867 PD
24 W
3129 2879 PD
24 W
3121 2878 PD
24 W
3114 2875 PD
24 W
3106 2872 PD
24 W
3099 2867 PD
24 W
3092 2864 PD
24 W
3085 2860 PD
24 W
3077 2857 PD
24 W
3070 2852 PD
24 W
3063 2849 PD
24 W
3058 2829 PD
24 W
3050 2831 PD
24 W
3042 2832 PD
24 W
3035 2830 PD
24 W
3028 2825 PD
24 W
3041 2556 PD
24 W
3032 2549 PD
24 W
3023 2541 PD
24 W
3014 2532 PD
24 W
3005 2517 PD
24 W
2995 2516 PD
24 W
2986 2507 PD
24 W
2948 3799 PD
24 W
2678 1710 PD
24 W
2663 1728 PD
24 W
2648 1738 PD
24 W
2629 1729 PD
24 W
2948 3799 PD
24 W
2426 889 PD
24 W
2948 3799 PD
24 W
2552 2641 PD
24 W
2541 2651 PD
24 W
2948 3799 PD
24 W
1597 922 PD
24 W
2948 3799 PD
24 W
2044 2302 PD
24 W
2029 2333 PD
24 W
2015 2366 PD
24 W
1995 2390 PD
24 W
2948 3799 PD
24 W
2054 2578 PD
24 W
2037 2605 PD
24 W
2948 3799 PD
24 W
2076 2749 PD
24 W
2095 2814 PD
24 W
2083 2845 PD
24 W
2069 2873 PD
24 W
2055 2903 PD
24 W
2041 2932 PD
24 W
2078 3009 PD
24 W
2096 3066 PD
24 W
2096 3105 PD
24 W
2083 3134 PD
24 W
2068 3163 PD
24 W
2053 3192 PD
24 W
2038 3222 PD
24 W
2021 3252 PD
24 W
2005 3284 PD
24 W
1987 3315 PD
24 W
1925 3329 PD
24 W
2948 3799 PD
24 W
2147 3499 PD
24 W
2157 3536 PD
24 W
2948 3799 PD
24 W
2166 3604 PD
24 W
2152 3634 PD
24 W
2130 3663 PD
24 W
2122 3696 PD
24 W
2105 3729 PD
24 W
2049 3761 PD
24 W
2071 3798 PD
gs 741 320 4416 3480 rc
gr

24 W
c9
3669 3769 PD
24 W
3667 3739 PD
24 W
3665 3710 PD
24 W
3663 3680 PD
24 W
3661 3651 PD
24 W
3659 3622 PD
24 W
3658 3593 PD
24 W
3660 3562 PD
24 W
3658 3533 PD
24 W
3656 3503 PD
24 W
3650 3476 PD
24 W
3648 3447 PD
24 W
3646 3417 PD
24 W
3644 3388 PD
24 W
3642 3359 PD
24 W
3640 3329 PD
24 W
3639 3299 PD
24 W
3637 3270 PD
24 W
3468 3375 PD
24 W
3460 3358 PD
24 W
3462 3332 PD
24 W
3629 3148 PD
24 W
3627 3117 PD
24 W
3625 3086 PD
24 W
3623 3055 PD
24 W
3621 3023 PD
24 W
3619 2990 PD
24 W
3617 2958 PD
24 W
3615 2925 PD
24 W
3613 2891 PD
24 W
3610 2858 PD
24 W
3472 3024 PD
24 W
3467 3002 PD
24 W
3604 2753 PD
24 W
3601 2717 PD
24 W
3599 2680 PD
24 W
3596 2643 PD
24 W
3595 2604 PD
24 W
3592 2566 PD
24 W
3590 2525 PD
24 W
3587 2486 PD
24 W
3585 2444 PD
24 W
3581 2402 PD
24 W
3579 2358 PD
24 W
3576 2313 PD
24 W
3574 2267 PD
24 W
3570 2221 PD
24 W
3567 2172 PD
24 W
3564 2124 PD
24 W
3561 2072 PD
24 W
3557 2020 PD
24 W
3554 1964 PD
24 W
3550 1909 PD
24 W
3547 1851 PD
24 W
3543 1789 PD
24 W
3539 1728 PD
24 W
3535 1663 PD
24 W
3531 1595 PD
24 W
3526 1524 PD
24 W
3522 1449 PD
24 W
3161 2890 PD
24 W
3154 2885 PD
24 W
3147 2874 PD
24 W
3140 2867 PD
24 W
3130 2878 PD
24 W
3121 2878 PD
24 W
3114 2875 PD
24 W
3106 2872 PD
24 W
3099 2868 PD
24 W
3092 2864 PD
24 W
3085 2860 PD
24 W
3077 2856 PD
24 W
3070 2852 PD
24 W
3063 2849 PD
24 W
3058 2831 PD
24 W
3050 2831 PD
24 W
3043 2831 PD
24 W
3035 2829 PD
24 W
3028 2825 PD
24 W
3041 2556 PD
24 W
3032 2549 PD
24 W
3023 2541 PD
24 W
3014 2533 PD
24 W
3005 2517 PD
24 W
2995 2516 PD
24 W
2986 2506 PD
24 W
2948 3799 PD
24 W
2671 1518 PD
24 W
2689 1792 PD
24 W
2676 1817 PD
24 W
2661 1828 PD
24 W
2645 1828 PD
24 W
2948 3799 PD
24 W
2426 891 PD
24 W
2948 3799 PD
24 W
2551 2641 PD
24 W
2541 2652 PD
24 W
2948 3799 PD
24 W
1597 922 PD
24 W
2948 3799 PD
24 W
2044 2302 PD
24 W
2028 2332 PD
24 W
2014 2365 PD
24 W
1994 2390 PD
24 W
2948 3799 PD
24 W
2053 2577 PD
24 W
2037 2605 PD
24 W
2948 3799 PD
24 W
2076 2748 PD
24 W
2095 2814 PD
24 W
2083 2845 PD
24 W
2069 2873 PD
24 W
2054 2901 PD
24 W
2041 2932 PD
24 W
2078 3009 PD
24 W
2096 3066 PD
24 W
2095 3104 PD
24 W
2083 3134 PD
24 W
2068 3162 PD
24 W
2053 3191 PD
24 W
2038 3222 PD
24 W
2022 3252 PD
24 W
2006 3284 PD
24 W
1986 3315 PD
24 W
1926 3329 PD
24 W
2948 3799 PD
24 W
2148 3499 PD
24 W
2157 3536 PD
24 W
2948 3799 PD
24 W
2166 3604 PD
24 W
2151 3634 PD
24 W
2128 3663 PD
24 W
2121 3696 PD
24 W
2105 3729 PD
24 W
2049 3761 PD
24 W
2073 3798 PD
gs 741 320 4416 3480 rc
gr

24 W
0 sg
3669 3769 PD
24 W
3667 3739 PD
24 W
3665 3710 PD
24 W
3663 3680 PD
24 W
3661 3651 PD
24 W
3659 3622 PD
24 W
3658 3593 PD
24 W
3660 3562 PD
24 W
3659 3532 PD
24 W
3656 3503 PD
24 W
3650 3476 PD
24 W
3648 3447 PD
24 W
3646 3417 PD
24 W
3644 3388 PD
24 W
3642 3359 PD
24 W
3640 3329 PD
24 W
3639 3299 PD
24 W
3637 3270 PD
24 W
3468 3375 PD
24 W
3459 3359 PD
24 W
3461 3333 PD
24 W
3629 3148 PD
24 W
3627 3117 PD
24 W
3625 3086 PD
24 W
3623 3054 PD
24 W
3621 3023 PD
24 W
3618 2991 PD
24 W
3617 2958 PD
24 W
3614 2925 PD
24 W
3613 2891 PD
24 W
3610 2858 PD
24 W
3473 3023 PD
24 W
3468 3001 PD
24 W
3604 2752 PD
24 W
3601 2717 PD
24 W
3600 2679 PD
24 W
3596 2643 PD
24 W
3594 2605 PD
24 W
3592 2566 PD
24 W
3589 2526 PD
24 W
3587 2486 PD
24 W
3584 2445 PD
24 W
3582 2401 PD
24 W
3579 2359 PD
24 W
3577 2313 PD
24 W
3574 2267 PD
24 W
3571 2220 PD
24 W
3567 2174 PD
24 W
3564 2124 PD
24 W
3561 2072 PD
24 W
3557 2019 PD
24 W
3554 1965 PD
24 W
3550 1909 PD
24 W
3547 1850 PD
24 W
3543 1790 PD
24 W
3539 1728 PD
24 W
3535 1663 PD
24 W
3530 1596 PD
24 W
3526 1525 PD
24 W
3522 1450 PD
24 W
3161 2890 PD
24 W
3154 2884 PD
24 W
3146 2879 PD
24 W
3140 2866 PD
24 W
3129 2879 PD
24 W
3121 2878 PD
24 W
3114 2875 PD
24 W
3106 2873 PD
24 W
3099 2869 PD
24 W
3092 2864 PD
24 W
3085 2861 PD
24 W
3077 2856 PD
24 W
3070 2853 PD
24 W
3063 2849 PD
24 W
3058 2827 PD
24 W
3050 2829 PD
24 W
3042 2832 PD
24 W
3035 2830 PD
24 W
3028 2823 PD
24 W
3041 2556 PD
24 W
3032 2549 PD
24 W
3023 2541 PD
24 W
3014 2532 PD
24 W
3005 2518 PD
24 W
2995 2517 PD
24 W
2986 2506 PD
24 W
2948 3799 PD
24 W
2694 1833 PD
24 W
2688 1904 PD
24 W
2674 1919 PD
24 W
2660 1927 PD
24 W
2643 1920 PD
24 W
2948 3799 PD
24 W
2426 891 PD
24 W
2948 3799 PD
24 W
2551 2641 PD
24 W
2541 2653 PD
24 W
2948 3799 PD
24 W
1598 924 PD
24 W
2948 3799 PD
24 W
2044 2302 PD
24 W
2029 2333 PD
24 W
2015 2367 PD
24 W
1995 2391 PD
24 W
2948 3799 PD
24 W
2053 2577 PD
24 W
2038 2606 PD
24 W
2948 3799 PD
24 W
2077 2749 PD
24 W
2094 2814 PD
24 W
2084 2846 PD
24 W
2068 2873 PD
24 W
2055 2902 PD
24 W
2041 2932 PD
24 W
2078 3009 PD
24 W
2096 3066 PD
24 W
2096 3105 PD
24 W
2084 3135 PD
24 W
2068 3163 PD
24 W
2053 3192 PD
24 W
2038 3222 PD
24 W
2021 3252 PD
24 W
2007 3285 PD
24 W
1988 3316 PD
24 W
1925 3329 PD
24 W
2948 3799 PD
24 W
2146 3498 PD
24 W
2157 3536 PD
24 W
2948 3799 PD
24 W
2166 3604 PD
24 W
2151 3634 PD
24 W
2130 3663 PD
24 W
2122 3696 PD
24 W
2106 3729 PD
24 W
2049 3761 PD
24 W
2071 3798 PD
gs 741 320 4416 3480 rc
gr


end %%Color Dict

eplot
%%EndObject

epage
end

showpage

%%Trailer
%%EOF
