time latitude longitude easting northing n.velocity e.velocity 

0.310646 -1.99742 9.01852e-314 166223 -221080 2.26817 -1.99969
0.490607 -1.99742 9.01852e-314 166223 -221080 2.26817 -1.99969
0.570606 34.1334 -118.047 403440 3.77744e+06 0.451172 0.0078125
0.750607 34.1334 -118.047 403440 3.77744e+06 0.451172 0.0078125
1.5506 34.1334 -118.047 403440 3.77744e+06 0.882812 -0.00976562
2.55061 34.1334 -118.047 403440 3.77744e+06 1.43457 0.0507812
3.55061 34.1334 -118.047 403440 3.77744e+06 1.7793 0
4.5406 34.1334 -118.047 403440 3.77745e+06 2.14258 0.0673828
5.5406 34.1334 -118.047 403440 3.77745e+06 2.34863 0.0673828
6.5406 34.1335 -118.047 403440 3.77745e+06 2.58203 0.116211
7.5406 34.1335 -118.047 403441 3.77745e+06 2.75293 0.135742
8.55061 34.1335 -118.047 403441 3.77746e+06 2.83105 0.189453
9.55061 34.1335 -118.047 403441 3.77746e+06 2.94434 0.227539
10.5506 34.1336 -118.047 403441 3.77746e+06 3.06348 0.286133
11.5506 34.1336 -118.047 403442 3.77746e+06 3.16895 0.352539
12.5506 34.1336 -118.047 403442 3.77747e+06 3.21094 0.350586
13.5506 34.1337 -118.047 403442 3.77747e+06 3.25 0.424805
14.5506 34.1337 -118.047 403443 3.77747e+06 3.30371 0.487305
15.5506 34.1337 -118.047 403443 3.77748e+06 3.33105 0.527344
16.5406 34.1338 -118.047 403444 3.77748e+06 3.42676 0.604492
17.5406 34.1338 -118.047 403445 3.77748e+06 3.46289 0.672852
18.5406 34.1338 -118.047 403446 3.77749e+06 3.56641 0.75
19.5406 34.1338 -118.047 403446 3.77749e+06 3.59961 0.780273
20.5406 34.1339 -118.047 403447 3.7775e+06 3.60449 0.859375
