1,34.0885820,-117.4975100,10,10
2,34.0886770,-117.4974130,10,10
3,34.0887060,-117.4973450,10,10
4,34.0887120,-117.4970490,10,10
5,34.0886970,-117.4969530,10,10
6,34.0886410,-117.4968300,10,10
7,34.0885820,-117.4967770,10,10
8,34.0884870,-117.4967850,10,10
9,34.0884360,-117.4968710,10,10
10,34.0884240,-117.4969540,10,10
11,34.0884220,-117.4972800,5,10
12,34.0884210,-117.4974950,5,10
13,34.0884470,-117.4975730,5,10
14,34.0884850,-117.4975900,5,10
15,34.0885130,-117.4975770,5,0
