1,34.0885860,-117.4989740,10,10
2,34.0886980,-117.4991220,10,10
3,34.0887170,-117.4991810,10,10
4,34.0887220,-117.4993050,10,10
5,34.0886980,-117.4993560,10,10
6,34.0886480,-117.4993800,10,10
7,34.0884910,-117.4993920,10,10
8,34.0884490,-117.4994270,10,10
9,34.0884350,-117.4994900,10,10
10,34.0884470,-117.4995650,10,10
11,34.0884750,-117.4996330,10,10
12,34.0885440,-117.4997040,10,10
13,34.0886020,-117.4997100,10,10
14,34.0886540,-117.4996770,10,10
15,34.0886930,-117.4996220,10,10
16,34.0887150,-117.4995540,10,10
17,34.0887190,-117.4993170,10,10
18,34.0886840,-117.4992800,10,10
19,34.0884950,-117.4992630,10,10
20,34.0884500,-117.4992160,5,10
21,34.0884230,-117.4990040,5,10
22,34.0884430,-117.4989400,5,10
23,34.0884890,-117.4989080,5,10
24,34.0885360,-117.4989250,5,0
