%!PS-Adobe-3.0 EPSF-3.0
%%Creator: MATLAB, The Mathworks, Inc.
%%Title: E:\OTGX\OTGx Research\OTGX\OTGX Examples\VTOL UAV X 3\Figures\Scene3DView_convhull_xxx.eps
%%CreationDate: 09/28/2005  15:07:39
%%DocumentNeededFonts: Helvetica
%%DocumentProcessColors: Cyan Magenta Yellow Black
%%LanguageLevel: 2
%%Pages: 1
%%BoundingBox:   172   238   443   524
%%EndComments

%%BeginProlog
% MathWorks dictionary
/MathWorks 160 dict begin
% definition operators
/bdef {bind def} bind def
/ldef {load def} bind def
/xdef {exch def} bdef
/xstore {exch store} bdef
% operator abbreviations
/c  /clip ldef
/cc /concat ldef
/cp /closepath ldef
/gr /grestore ldef
/gs /gsave ldef
/mt /moveto ldef
/np /newpath ldef
/cm /currentmatrix ldef
/sm /setmatrix ldef
/rm /rmoveto ldef
/rl /rlineto ldef
/s {show newpath} bdef
/sc {setcmykcolor} bdef
/sr /setrgbcolor ldef
/sg /setgray ldef
/w /setlinewidth ldef
/j /setlinejoin ldef
/cap /setlinecap ldef
/rc {rectclip} bdef
/rf {rectfill} bdef
% page state control
/pgsv () def
/bpage {/pgsv save def} bdef
/epage {pgsv restore} bdef
/bplot /gsave ldef
/eplot {stroke grestore} bdef
% orientation switch
/portraitMode 0 def /landscapeMode 1 def /rotateMode 2 def
% coordinate system mappings
/dpi2point 0 def
% font control
/FontSize 0 def
/FMS {/FontSize xstore findfont [FontSize 0 0 FontSize neg 0 0]
  makefont setfont} bdef
/ISOLatin1Encoding where {pop /WindowsLatin1Encoding 256 array bdef
ISOLatin1Encoding WindowsLatin1Encoding copy pop
/.notdef/.notdef/quotesinglbase/florin/quotedblbase/ellipsis/dagger
/daggerdbl/circumflex/perthousand/Scaron/guilsinglleft/OE/.notdef/.notdef
/.notdef/.notdef/quoteleft/quoteright/quotedblleft/quotedblright/bullet
/endash/emdash/tilde/trademark/scaron/guilsinglright/oe/.notdef/.notdef
/Ydieresis WindowsLatin1Encoding 128 32 getinterval astore pop}
{/WindowsLatin1Encoding StandardEncoding bdef} ifelse
/reencode {exch dup where {pop load} {pop StandardEncoding} ifelse
  exch dup 3 1 roll findfont dup length dict begin
  { 1 index /FID ne {def}{pop pop} ifelse } forall
  /Encoding exch def currentdict end definefont pop} bdef
/isroman {findfont /CharStrings get /Agrave known} bdef
/FMSR {3 1 roll 1 index dup isroman {reencode} {pop pop} ifelse
  exch FMS} bdef
/csm {1 dpi2point div -1 dpi2point div scale neg translate
 dup landscapeMode eq {pop -90 rotate}
  {rotateMode eq {90 rotate} if} ifelse} bdef
% line types: solid, dotted, dashed, dotdash
/SO { [] 0 setdash } bdef
/DO { [.5 dpi2point mul 4 dpi2point mul] 0 setdash } bdef
/DA { [6 dpi2point mul] 0 setdash } bdef
/DD { [.5 dpi2point mul 4 dpi2point mul 6 dpi2point mul 4
  dpi2point mul] 0 setdash } bdef
% macros for lines and objects
/L {lineto stroke} bdef
/MP {3 1 roll moveto 1 sub {rlineto} repeat} bdef
/AP {{rlineto} repeat} bdef
/PDlw -1 def
/W {/PDlw currentlinewidth def setlinewidth} def
/PP {closepath eofill} bdef
/DP {closepath stroke} bdef
/MR {4 -2 roll moveto dup  0 exch rlineto exch 0 rlineto
  neg 0 exch rlineto closepath} bdef
/FR {MR stroke} bdef
/PR {MR fill} bdef
/L1i {{currentfile picstr readhexstring pop} image} bdef
/tMatrix matrix def
/MakeOval {newpath tMatrix currentmatrix pop translate scale
0 0 1 0 360 arc tMatrix setmatrix} bdef
/FO {MakeOval stroke} bdef
/PO {MakeOval fill} bdef
/PD {currentlinewidth 2 div 0 360 arc fill
   PDlw -1 eq not {PDlw w /PDlw -1 def} if} def
/FA {newpath tMatrix currentmatrix pop translate scale
  0 0 1 5 -2 roll arc tMatrix setmatrix stroke} bdef
/PA {newpath tMatrix currentmatrix pop	translate 0 0 moveto scale
  0 0 1 5 -2 roll arc closepath tMatrix setmatrix fill} bdef
/FAn {newpath tMatrix currentmatrix pop translate scale
  0 0 1 5 -2 roll arcn tMatrix setmatrix stroke} bdef
/PAn {newpath tMatrix currentmatrix pop translate 0 0 moveto scale
  0 0 1 5 -2 roll arcn closepath tMatrix setmatrix fill} bdef
/vradius 0 def /hradius 0 def /lry 0 def
/lrx 0 def /uly 0 def /ulx 0 def /rad 0 def
/MRR {/vradius xdef /hradius xdef /lry xdef /lrx xdef /uly xdef
  /ulx xdef newpath tMatrix currentmatrix pop ulx hradius add uly
  vradius add translate hradius vradius scale 0 0 1 180 270 arc 
  tMatrix setmatrix lrx hradius sub uly vradius add translate
  hradius vradius scale 0 0 1 270 360 arc tMatrix setmatrix
  lrx hradius sub lry vradius sub translate hradius vradius scale
  0 0 1 0 90 arc tMatrix setmatrix ulx hradius add lry vradius sub
  translate hradius vradius scale 0 0 1 90 180 arc tMatrix setmatrix
  closepath} bdef
/FRR {MRR stroke } bdef
/PRR {MRR fill } bdef
/MlrRR {/lry xdef /lrx xdef /uly xdef /ulx xdef /rad lry uly sub 2 div def
  newpath tMatrix currentmatrix pop ulx rad add uly rad add translate
  rad rad scale 0 0 1 90 270 arc tMatrix setmatrix lrx rad sub lry rad
  sub translate rad rad scale 0 0 1 270 90 arc tMatrix setmatrix
  closepath} bdef
/FlrRR {MlrRR stroke } bdef
/PlrRR {MlrRR fill } bdef
/MtbRR {/lry xdef /lrx xdef /uly xdef /ulx xdef /rad lrx ulx sub 2 div def
  newpath tMatrix currentmatrix pop ulx rad add uly rad add translate
  rad rad scale 0 0 1 180 360 arc tMatrix setmatrix lrx rad sub lry rad
  sub translate rad rad scale 0 0 1 0 180 arc tMatrix setmatrix
  closepath} bdef
/FtbRR {MtbRR stroke } bdef
/PtbRR {MtbRR fill } bdef
/stri 6 array def /dtri 6 array def
/smat 6 array def /dmat 6 array def
/tmat1 6 array def /tmat2 6 array def /dif 3 array def
/asub {/ind2 exch def /ind1 exch def dup dup
  ind1 get exch ind2 get sub exch } bdef
/tri_to_matrix {
  2 0 asub 3 1 asub 4 0 asub 5 1 asub
  dup 0 get exch 1 get 7 -1 roll astore } bdef
/compute_transform {
  dmat dtri tri_to_matrix tmat1 invertmatrix 
  smat stri tri_to_matrix tmat2 concatmatrix } bdef
/ds {stri astore pop} bdef
/dt {dtri astore pop} bdef
/db {2 copy /cols xdef /rows xdef mul dup 3 mul string
  currentfile 
  3 index 0 eq {/ASCIIHexDecode filter}
  {/ASCII85Decode filter 3 index 2 eq {/RunLengthDecode filter} if }
  ifelse exch readstring pop
  dup 0 3 index getinterval /rbmap xdef
  dup 2 index dup getinterval /gbmap xdef
  1 index dup 2 mul exch getinterval /bbmap xdef pop pop}bdef
/it {gs np dtri aload pop moveto lineto lineto cp c
  cols rows 8 compute_transform 
  rbmap gbmap bbmap true 3 colorimage gr}bdef
/il {newpath moveto lineto stroke}bdef
currentdict end def
%%EndProlog

%%BeginSetup
MathWorks begin

0 cap

end
%%EndSetup

%%Page: 1 1
%%BeginPageSetup
%%PageBoundingBox:   172   238   443   524
MathWorks begin
bpage
%%EndPageSetup

%%BeginObject: obj1
bplot

/dpi2point 12 def
portraitMode 0204 7344 csm

 1867  1047  3250  3430 rc
87 dict begin %Colortable dictionary
/c0 { 0 0 0 sr} bdef
/c1 { 1 1 1 sr} bdef
/c2 { 1 0 0 sr} bdef
/c3 { 0 1 0 sr} bdef
/c4 { 0 0 1 sr} bdef
/c5 { 1 1 0 sr} bdef
/c6 { 1 0 1 sr} bdef
/c7 { 0 1 1 sr} bdef
c0
1 j
1 sg
   0    0 6913 5185 rf
6 w
-2286 -230 115 -412 2286 230 2376 1507 4 MP
PP
-115 412 -2286 -230 115 -412 2286 230 2376 1507 5 MP stroke
0 2170 2286 230 0 -2170 2376 3677 4 MP
PP
-2286 -230 0 2170 2286 230 0 -2170 2376 3677 5 MP stroke
0 2170 115 -412 0 -2170 4662 3907 4 MP
PP
-115 412 0 2170 115 -412 0 -2170 4662 3907 5 MP stroke
4 w
DO
0 sg
4663 3906 mt 4663 1736 L
4663 1736 mt 2376 1506 L
4710 3736 mt 4710 1566 L
4710 1566 mt 2424 1336 L
4757 3567 mt 4757 1396 L
4757 1396 mt 2471 1166 L
2706 3710 mt 2706 1540 L
2706 1540 mt 2821 1128 L
3270 3767 mt 3270 1597 L
3270 1597 mt 3385 1185 L
3834 3824 mt 3834 1653 L
3834 1653 mt 3949 1242 L
4399 3881 mt 4399 1710 L
4399 1710 mt 4513 1299 L
2376 3649 mt 4662 3880 L
4662 3880 mt 4777 3468 L
2376 3192 mt 4662 3423 L
4662 3423 mt 4777 3011 L
2376 2736 mt 4662 2966 L
4662 2966 mt 4777 2554 L
2376 2279 mt 4662 2509 L
4662 2509 mt 4777 2097 L
2376 1822 mt 4662 2052 L
4662 2052 mt 4777 1640 L
SO
6 w
4662 3907 mt 4777 3495 L
2376 3677 mt 4662 3907 L
2376 3677 mt 2376 1507 L
4663 3906 mt 4720 3912 L
%%IncludeResource: font Helvetica
/Helvetica /WindowsLatin1Encoding 120 FMSR

4754 4026 mt 
(0) s
4710 3736 mt 4767 3742 L
4801 3857 mt 
(100) s
4757 3567 mt 4814 3572 L
4848 3687 mt 
(200) s
2706 3710 mt 2691 3765 L
2615 3910 mt 
(0) s
3270 3767 mt 3255 3822 L
3046 3966 mt 
(200) s
3834 3824 mt 3819 3879 L
3610 4023 mt 
(400) s
4399 3881 mt 4383 3936 L
4174 4080 mt 
(600) s
2376 3649 mt 2319 3644 L
2219 3684 mt 
(0) s
2376 3192 mt 2319 3187 L
2085 3227 mt 
(200) s
2376 2736 mt 2319 2730 L
2085 2770 mt 
(400) s
2376 2279 mt 2319 2273 L
2085 2314 mt 
(600) s
2376 1822 mt 2319 1816 L
2085 1857 mt 
(800) s
4984 4425 mt 
(x) s
gs 2376 1095 2402 2813 rc
/c8 { 0.800000 1.000000 0.800000 sr} bdef
c8
0 -581 85 -305 0 581 4667 2047 4 MP
PP
/c9 { 1.000000 0.000000 0.000000 sr} bdef
c9
-85 305 0 -581 85 -305 0 581 4667 2047 5 MP stroke
c8
239 24 85 -305 -239 -24 4667 2628 4 MP
PP
c9
-85 305 239 24 85 -305 -239 -24 4667 2628 5 MP stroke
c8
-239 -25 85 -305 239 24 4428 2023 4 MP
PP
c9
-85 306 -239 -25 85 -305 239 24 4428 2023 5 MP stroke
c8
0 -582 85 -305 0 581 4428 2023 4 MP
PP
c9
-85 306 0 -582 85 -305 0 581 4428 2023 5 MP stroke
/c10 { 1.000000 0.750000 0.850000 sr} bdef
c10
0 0 0 0 0 0 4371 2260 4 MP
PP
0 sg
0 0 0 0 0 0 0 0 4371 2260 5 MP stroke
c10
91 -49 -91 49 0 0 4371 2260 4 MP
PP
0 sg
0 0 91 -49 -91 49 0 0 4371 2260 5 MP stroke
c10
91 -49 -91 49 0 0 4371 2260 4 MP
PP
0 sg
0 0 91 -49 -91 49 0 0 4371 2260 5 MP stroke
c10
223 395 -212 -101 -11 -294 4295 2034 4 MP
PP
0 sg
0 0 223 395 -212 -101 -11 -294 4295 2034 5 MP stroke
c10
15 -275 208 670 -223 -395 4295 2034 4 MP
PP
0 sg
0 0 15 -275 208 670 -223 -395 4295 2034 5 MP stroke
c10
4 -569 24 301 -28 268 4284 1740 4 MP
PP
0 sg
0 0 4 -569 24 301 -28 268 4284 1740 5 MP stroke
c10
15 -275 -4 569 -11 -294 4295 2034 4 MP
PP
0 sg
0 0 15 -275 -4 569 -11 -294 4295 2034 5 MP stroke
c10
15 -275 24 301 -39 -26 4295 2034 4 MP
PP
0 sg
0 0 15 -275 24 301 -39 -26 4295 2034 5 MP stroke
c10
91 -49 -15 275 -76 -226 4371 2260 4 MP
PP
0 sg
0 0 91 -49 -15 275 -76 -226 4371 2260 5 MP stroke
c10
91 -49 -15 275 -76 -226 4371 2260 4 MP
PP
0 sg
0 0 91 -49 -15 275 -76 -226 4371 2260 5 MP stroke
c10
39 26 -115 -252 76 226 4295 2034 4 MP
PP
0 sg
0 0 39 26 -115 -252 76 226 4295 2034 5 MP stroke
c10
87 520 -23 -129 -64 -391 4371 2260 4 MP
PP
0 sg
0 0 87 520 -23 -129 -64 -391 4371 2260 5 MP stroke
c10
11 294 -87 -520 76 226 4295 2034 4 MP
PP
0 sg
0 0 11 294 -87 -520 76 226 4295 2034 5 MP stroke
c10
27 -440 -15 275 -12 165 4307 1869 4 MP
PP
0 sg
0 0 27 -440 -15 275 -12 165 4307 1869 5 MP stroke
c10
12 -165 11 294 -23 -129 4307 1869 4 MP
PP
0 sg
0 0 12 -165 11 294 -23 -129 4307 1869 5 MP stroke
c10
-24 -301 -27 440 51 -139 4256 2008 4 MP
PP
0 sg
0 0 -24 -301 -27 440 51 -139 4256 2008 5 MP stroke
c10
115 252 -115 -252 0 0 4371 2260 4 MP
PP
0 sg
0 0 115 252 -115 -252 0 0 4371 2260 5 MP stroke
c10
55 -60 -91 49 36 11 4335 2249 4 MP
PP
0 sg
0 0 55 -60 -91 49 36 11 4335 2249 5 MP stroke
c10
-79 -241 -36 -11 115 252 4256 2008 4 MP
PP
0 sg
0 0 -79 -241 -36 -11 115 252 4256 2008 5 MP stroke
c10
-28 -380 -36 -11 64 391 4307 1869 4 MP
PP
0 sg
0 0 -28 -380 -36 -11 64 391 4307 1869 5 MP stroke
c10
55 -60 -91 49 36 11 4335 2249 4 MP
PP
0 sg
0 0 55 -60 -91 49 36 11 4335 2249 5 MP stroke
c10
-24 -301 -55 60 79 241 4256 2008 4 MP
PP
0 sg
0 0 -24 -301 -55 60 79 241 4256 2008 5 MP stroke
c10
-79 -241 28 380 51 -139 4256 2008 4 MP
PP
0 sg
0 0 -79 -241 28 380 51 -139 4256 2008 5 MP stroke
c10
-24 -301 -55 60 79 241 4256 2008 4 MP
PP
0 sg
0 0 -24 -301 -55 60 79 241 4256 2008 5 MP stroke
c8
7 -70 17 -15 4087 2268 3 MP
PP
c9
-24 85 7 -70 17 -15 4087 2268 4 MP stroke
c8
13 -72 11 -12 4104 2253 3 MP
PP
c9
-24 84 13 -72 11 -12 4104 2253 4 MP stroke
c8
24 -84 -7 70 4111 2183 3 MP
PP
c9
-17 14 24 -84 -7 70 4111 2183 4 MP stroke
c8
23 -85 -13 72 4128 2169 3 MP
PP
c9
-10 13 23 -85 -13 72 4128 2169 4 MP stroke
c8
11 -64 12 -21 4115 2241 3 MP
PP
c9
-23 85 11 -64 12 -21 4115 2241 4 MP stroke
c8
20 -49 3 -36 4139 2186 3 MP
PP
c9
-23 85 20 -49 3 -36 4139 2186 4 MP stroke
c8
27 -49 -3 -36 4142 2150 3 MP
PP
c9
-24 85 27 -49 -3 -36 4142 2150 4 MP stroke
c8
24 -85 -20 49 4162 2101 3 MP
PP
c9
-4 36 24 -85 -20 49 4162 2101 4 MP stroke
c8
24 -85 -11 64 4138 2156 3 MP
PP
c9
-13 21 24 -85 -11 64 4138 2156 4 MP stroke
c8
12 -51 12 -34 4127 2220 3 MP
PP
c9
-24 85 12 -51 12 -34 4127 2220 4 MP stroke
c10
-208 -670 24 301 184 369 4072 1639 4 MP
PP
0 sg
0 0 -208 -670 24 301 184 369 4072 1639 5 MP stroke
c8
-200 -20 95 -340 199 20 4017 2534 4 MP
PP
c9
-94 340 -200 -20 95 -340 199 20 4017 2534 5 MP stroke
c8
0 -323 95 -340 0 323 4216 2554 4 MP
PP
c9
-95 340 0 -323 95 -340 0 323 4216 2554 5 MP stroke
c8
200 20 94 -340 -199 -20 4216 2877 4 MP
PP
c9
-95 340 200 20 94 -340 -199 -20 4216 2877 5 MP stroke
c10
-412 -155 129 35 283 120 3059 2815 4 MP
PP
0 sg
0 0 -412 -155 129 35 283 120 3059 2815 5 MP stroke
c10
-412 -155 129 35 283 120 3059 2815 4 MP
PP
0 sg
0 0 -412 -155 129 35 283 120 3059 2815 5 MP stroke
c8
0 -517 94 -339 0 517 3005 1978 4 MP
PP
c9
-94 339 0 -517 94 -339 0 517 3005 1978 5 MP stroke
c8
223 23 95 -339 -224 -23 3005 2495 4 MP
PP
c9
-94 339 223 23 95 -339 -224 -23 3005 2495 5 MP stroke
c10
-429 28 17 -183 412 155 3059 2815 4 MP
PP
0 sg
0 0 -429 28 17 -183 412 155 3059 2815 5 MP stroke
c8
-41 80 28 -102 3275 2684 3 MP
PP
c9
13 22 -41 80 28 -102 3275 2684 4 MP stroke
c8
-49 75 28 -102 3296 2711 3 MP
PP
c9
21 27 -49 75 28 -102 3296 2711 4 MP stroke
c8
-21 -27 49 -75 3275 2684 3 MP
PP
c9
-28 102 -21 -27 49 -75 3275 2684 4 MP stroke
c8
-62 75 28 -101 3330 2737 3 MP
PP
c9
34 26 -62 75 28 -101 3330 2737 4 MP stroke
c8
-34 -27 62 -75 3296 2711 3 MP
PP
c9
-28 102 -34 -27 62 -75 3296 2711 4 MP stroke
c8
-34 -10 62 -91 3330 2737 3 MP
PP
c9
-28 101 -34 -10 62 -91 3330 2737 4 MP stroke
c8
-62 91 28 -102 3364 2748 3 MP
PP
c9
34 11 -62 91 28 -102 3364 2748 4 MP stroke
c8
-5 -98 33 -4 3364 2748 3 MP
PP
c9
-28 102 -5 -98 33 -4 3364 2748 4 MP stroke
c8
29 -102 5 98 3392 2646 3 MP
PP
c9
-34 4 29 -102 5 98 3392 2646 4 MP stroke
c8
28 -101 6 98 3420 2544 3 MP
PP
c9
-34 3 28 -101 6 98 3420 2544 4 MP stroke
c8
-34 19 63 -121 3397 2744 3 MP
PP
c9
-29 102 -34 19 63 -121 3397 2744 4 MP stroke
c8
-63 121 29 -102 3431 2725 3 MP
PP
c9
34 -19 -63 121 29 -102 3431 2725 4 MP stroke
c10
-605 -309 429 -28 176 337 2883 2478 4 MP
PP
0 sg
0 0 -605 -309 429 -28 176 337 2883 2478 5 MP stroke
c10
-588 -492 412 155 176 337 2883 2478 4 MP
PP
0 sg
0 0 -588 -492 412 155 176 337 2883 2478 5 MP stroke
c10
-146 148 17 -183 129 35 3342 2935 4 MP
PP
0 sg
0 0 -146 148 17 -183 129 35 3342 2935 5 MP stroke
c10
68 -32 -241 270 173 -238 3539 2938 4 MP
PP
0 sg
0 0 68 -32 -241 270 173 -238 3539 2938 5 MP stroke
c10
-17 183 -224 87 241 -270 3471 2970 4 MP
PP
0 sg
0 0 -17 183 -224 87 241 -270 3471 2970 5 MP stroke
c10
-241 270 173 -238 68 -32 3471 2970 4 MP
PP
0 sg
0 0 -241 270 173 -238 68 -32 3471 2970 5 MP stroke
c10
-17 183 -224 87 241 -270 3471 2970 4 MP
PP
0 sg
0 0 -17 183 -224 87 241 -270 3471 2970 5 MP stroke
c10
-17 183 -51 -151 68 -32 3471 2970 4 MP
PP
0 sg
0 0 -17 183 -51 -151 68 -32 3471 2970 5 MP stroke
c10
51 151 605 309 -656 -460 3539 2938 4 MP
PP
0 sg
0 0 51 151 605 309 -656 -460 3539 2938 5 MP stroke
c10
224 -87 -259 1031 35 -944 3712 2700 4 MP
PP
0 sg
0 0 224 -87 -259 1031 35 -944 3712 2700 5 MP stroke
c10
224 -87 -259 1031 35 -944 3712 2700 4 MP
PP
0 sg
0 0 224 -87 -259 1031 35 -944 3712 2700 5 MP stroke
c10
227 -893 -168 335 -59 558 3715 1894 4 MP
PP
0 sg
0 0 227 -893 -168 335 -59 558 3715 1894 5 MP stroke
c10
168 -335 -224 87 56 248 3656 2452 4 MP
PP
0 sg
0 0 168 -335 -224 87 56 248 3656 2452 5 MP stroke
c10
224 -87 -168 335 -56 -248 3712 2700 4 MP
PP
0 sg
0 0 224 -87 -168 335 -56 -248 3712 2700 5 MP stroke
c10
227 -893 17 -183 -244 1076 3715 1894 4 MP
PP
0 sg
0 0 227 -893 17 -183 -244 1076 3715 1894 5 MP stroke
c10
259 -1031 -227 893 -32 138 3747 1756 4 MP
PP
0 sg
0 0 259 -1031 -227 893 -32 138 3747 1756 5 MP stroke
c10
259 -1031 -227 893 -32 138 3747 1756 4 MP
PP
0 sg
0 0 259 -1031 -227 893 -32 138 3747 1756 5 MP stroke
c10
168 -335 146 -148 -314 483 3656 2452 4 MP
PP
0 sg
0 0 168 -335 146 -148 -314 483 3656 2452 5 MP stroke
c10
-176 1044 244 -1076 -68 32 3539 2938 4 MP
PP
0 sg
0 0 -176 1044 244 -1076 -68 32 3539 2938 5 MP stroke
c10
656 460 -520 -470 -136 10 3539 2938 4 MP
PP
0 sg
0 0 656 460 -520 -470 -136 10 3539 2938 5 MP stroke
c10
-61 -13 -253 496 314 -483 3342 2935 4 MP
PP
0 sg
0 0 -61 -13 -253 496 314 -483 3342 2935 5 MP stroke
c10
-68 -22 588 492 -520 -470 3403 2948 4 MP
PP
0 sg
0 0 -68 -22 588 492 -520 -470 3403 2948 5 MP stroke
c10
253 -496 -136 10 -117 486 3656 2452 4 MP
PP
0 sg
0 0 253 -496 -136 10 -117 486 3656 2452 5 MP stroke
c10
-173 238 56 248 117 -486 3539 2938 4 MP
PP
0 sg
0 0 -173 238 56 248 117 -486 3539 2938 5 MP stroke
c10
91 -696 -59 558 -32 138 3747 1756 4 MP
PP
0 sg
0 0 91 -696 -59 558 -32 138 3747 1756 5 MP stroke
c10
-325 117 416 -813 -91 696 3747 1756 4 MP
PP
0 sg
0 0 -325 117 416 -813 -91 696 3747 1756 5 MP stroke
c10
32 -138 3 -806 -35 944 3747 1756 4 MP
PP
0 sg
0 0 32 -138 3 -806 -35 944 3747 1756 5 MP stroke
c10
-239 12 325 -117 -86 105 3833 1651 4 MP
PP
0 sg
0 0 -239 12 325 -117 -86 105 3833 1651 5 MP stroke
c10
-239 12 357 -255 -118 243 3833 1651 4 MP
PP
0 sg
0 0 -239 12 357 -255 -118 243 3833 1651 5 MP stroke
c10
-159 -16 239 -12 -80 28 3913 1623 4 MP
PP
0 sg
0 0 -159 -16 239 -12 -80 28 3913 1623 5 MP stroke
c10
-159 -16 239 -12 -80 28 3913 1623 4 MP
PP
0 sg
0 0 -159 -16 239 -12 -80 28 3913 1623 5 MP stroke
c10
-166 133 201 -1077 -35 944 3747 1756 4 MP
PP
0 sg
0 0 -166 133 201 -1077 -35 944 3747 1756 5 MP stroke
c10
-357 255 -212 -101 569 -154 3715 1894 4 MP
PP
0 sg
0 0 -357 255 -212 -101 569 -154 3715 1894 5 MP stroke
c10
-416 813 93 6 323 -819 3656 2452 4 MP
PP
0 sg
0 0 -416 813 93 6 323 -819 3656 2452 5 MP stroke
c10
-3 806 176 -1044 -173 238 3712 2700 4 MP
PP
0 sg
0 0 -3 806 176 -1044 -173 238 3712 2700 5 MP stroke
c10
66 10 257 -829 -323 819 3979 1633 4 MP
PP
0 sg
0 0 66 10 257 -829 -323 819 3979 1633 5 MP stroke
c10
-159 -16 -184 -369 343 385 3913 1623 4 MP
PP
0 sg
0 0 -159 -16 -184 -369 343 385 3913 1623 5 MP stroke
c10
184 369 -212 -101 28 -268 4256 2008 4 MP
PP
0 sg
0 0 184 369 -212 -101 28 -268 4256 2008 5 MP stroke
c10
28 -268 -51 139 23 129 4284 1740 4 MP
PP
0 sg
0 0 28 -268 -51 139 23 129 4284 1740 5 MP stroke
c10
51 -139 -28 268 -23 -129 4307 1869 4 MP
PP
0 sg
0 0 51 -139 -28 268 -23 -129 4307 1869 5 MP stroke
c10
23 129 111 48 -134 -177 4307 1869 4 MP
PP
0 sg
0 0 23 129 111 48 -134 -177 4307 1869 5 MP stroke
c10
101 53 -235 -230 134 177 4173 1692 4 MP
PP
0 sg
0 0 101 53 -235 -230 134 177 4173 1692 5 MP stroke
c10
-184 -369 -51 139 235 230 4072 1639 4 MP
PP
0 sg
0 0 -184 -369 -51 139 235 230 4072 1639 5 MP stroke
c10
371 117 198 -271 -569 154 4284 1740 4 MP
PP
0 sg
0 0 371 117 198 -271 -569 154 4284 1740 5 MP stroke
c10
-343 -385 -51 139 394 246 3913 1623 4 MP
PP
0 sg
0 0 -343 -385 -51 139 394 246 3913 1623 5 MP stroke
c10
66 10 -371 -117 305 107 3979 1633 4 MP
PP
0 sg
0 0 66 10 -371 -117 305 107 3979 1633 5 MP stroke
c10
66 10 -394 -246 328 236 3979 1633 4 MP
PP
0 sg
0 0 66 10 -394 -246 328 236 3979 1633 5 MP stroke
c10
-328 -236 23 129 305 107 3979 1633 4 MP
PP
0 sg
0 0 -328 -236 23 129 305 107 3979 1633 5 MP stroke
c10
212 101 -101 -53 -111 -48 4284 1740 4 MP
PP
0 sg
0 0 212 101 -101 -53 -111 -48 4284 1740 5 MP stroke
c10
212 101 93 6 -305 -107 4284 1740 4 MP
PP
0 sg
0 0 212 101 93 6 -305 -107 4284 1740 5 MP stroke
c10
212 101 93 6 -305 -107 4284 1740 4 MP
PP
0 sg
0 0 212 101 93 6 -305 -107 4284 1740 5 MP stroke
c8
28 -49 -4 -36 4166 2065 3 MP
PP
c9
-24 85 28 -49 -4 -36 4166 2065 4 MP stroke
c8
24 -85 -28 49 4190 1980 3 MP
PP
c9
4 36 24 -85 -28 49 4190 1980 4 MP stroke
c8
24 -85 -20 49 4186 2016 3 MP
PP
c9
-4 36 24 -85 -20 49 4186 2016 4 MP stroke
c8
35 -48 -11 -37 4162 2029 3 MP
PP
c9
-24 85 35 -48 -11 -37 4162 2029 4 MP stroke
c8
24 -84 -35 48 4186 1944 3 MP
PP
c9
11 36 24 -84 -35 48 4186 1944 4 MP stroke
c8
20 -49 4 -36 4162 2101 3 MP
PP
c9
-24 85 20 -49 4 -36 4162 2101 4 MP stroke
c8
24 -85 -13 51 4175 2050 3 MP
PP
c9
-11 34 24 -85 -13 51 4175 2050 4 MP stroke
c8
24 -85 -37 61 4175 1908 3 MP
PP
c9
13 24 24 -85 -37 61 4175 1908 4 MP stroke
c8
37 -61 -13 -23 4151 1992 3 MP
PP
c9
-24 84 37 -61 -13 -23 4151 1992 4 MP stroke
c8
23 -85 -27 49 4166 2065 3 MP
PP
c9
4 36 23 -85 -27 49 4166 2065 4 MP stroke
c8
24 -85 -11 64 4162 2071 3 MP
PP
c9
-13 21 24 -85 -11 64 4162 2071 4 MP stroke
c8
13 -51 11 -34 4151 2135 3 MP
PP
c9
-24 85 13 -51 11 -34 4151 2135 4 MP stroke
c8
24 -85 -35 48 4162 2029 3 MP
PP
c9
11 37 24 -85 -35 48 4162 2029 4 MP stroke
c8
35 -48 -12 -37 4139 2114 3 MP
PP
c9
-23 85 35 -48 -12 -37 4139 2114 4 MP stroke
c8
23 -85 -12 51 4151 2135 3 MP
PP
c9
-11 34 23 -85 -12 51 4151 2135 4 MP stroke
c8
34 -70 -10 -15 4138 1969 3 MP
PP
c9
-24 85 34 -70 -10 -15 4138 1969 4 MP stroke
c8
24 -84 -34 70 4162 1884 3 MP
PP
c9
10 14 24 -84 -34 70 4162 1884 4 MP stroke
c8
11 -64 13 -21 4138 2156 3 MP
PP
c9
-24 85 11 -64 13 -21 4138 2156 4 MP stroke
c8
24 -85 -14 72 4152 2084 3 MP
PP
c9
-10 13 24 -85 -14 72 4152 2084 4 MP stroke
c8
41 -66 -17 -18 4128 1954 3 MP
PP
c9
-24 84 41 -66 -17 -18 4128 1954 4 MP stroke
c8
24 -84 -41 66 4152 1870 3 MP
PP
c9
17 18 24 -84 -41 66 4152 1870 4 MP stroke
c8
14 -72 10 -13 4128 2169 3 MP
PP
c9
-24 85 14 -72 10 -13 4128 2169 4 MP stroke
c8
24 -85 -6 71 4134 2098 3 MP
PP
c9
-18 14 24 -85 -6 71 4134 2098 4 MP stroke
c8
23 -85 -36 62 4151 1992 3 MP
PP
c9
13 23 23 -85 -36 62 4151 1992 4 MP stroke
c8
36 -62 -12 -23 4127 2077 3 MP
PP
c9
-24 85 36 -62 -12 -23 4127 2077 4 MP stroke
c8
24 -85 -34 70 4138 1969 3 MP
PP
c9
10 15 24 -85 -34 70 4138 1969 4 MP stroke
c8
34 -70 -11 -15 4115 2054 3 MP
PP
c9
-23 85 34 -70 -11 -15 4115 2054 4 MP stroke
c8
52 -67 -28 -17 4111 1936 3 MP
PP
c9
-24 84 52 -67 -28 -17 4111 1936 4 MP stroke
c8
24 -85 -52 67 4135 1852 3 MP
PP
c9
28 18 24 -85 -52 67 4135 1852 4 MP stroke
c8
-51 97 23 -85 4111 2183 3 MP
PP
c9
28 -12 -51 97 23 -85 4111 2183 4 MP stroke
c8
6 -71 17 -14 4111 2183 3 MP
PP
c9
-23 85 6 -71 17 -14 4111 2183 4 MP stroke
c8
-27 12 51 -97 4083 2195 3 MP
PP
c9
-24 85 -27 12 51 -97 4083 2195 4 MP stroke
c8
41 -67 -17 -18 4104 2039 3 MP
PP
c9
-24 85 41 -67 -17 -18 4104 2039 4 MP stroke
c8
24 -85 -41 67 4128 1954 3 MP
PP
c9
17 18 24 -85 -41 67 4128 1954 4 MP stroke
c8
0 -323 94 -340 0 323 4017 2534 4 MP
PP
c9
-94 340 0 -323 94 -340 0 323 4017 2534 5 MP stroke
c8
51 -68 -27 -17 4087 2021 3 MP
PP
c9
-24 85 51 -68 -27 -17 4087 2021 4 MP stroke
c8
23 -85 -51 68 4111 1936 3 MP
PP
c9
28 17 23 -85 -51 68 4111 1936 4 MP stroke
c8
-51 97 24 -85 4087 2268 3 MP
PP
c9
27 -12 -51 97 24 -85 4087 2268 4 MP stroke
c8
-28 12 51 -97 4060 2280 3 MP
PP
c9
-23 85 -28 12 51 -97 4060 2280 4 MP stroke
c8
23 -84 -51 77 4107 1834 3 MP
PP
c9
28 7 23 -84 -51 77 4107 1834 4 MP stroke
c8
51 -77 -27 -8 4083 1919 3 MP
PP
c9
-24 85 51 -77 -27 -8 4083 1919 4 MP stroke
c8
24 -85 4 83 4079 2112 3 MP
PP
c9
-28 2 24 -85 4 83 4079 2112 4 MP stroke
c8
24 -85 -51 77 4083 1919 3 MP
PP
c9
27 8 24 -85 -51 77 4083 1919 4 MP stroke
c8
51 -77 -28 -8 4060 2004 3 MP
PP
c9
-23 85 51 -77 -28 -8 4060 2004 4 MP stroke
c8
-4 -83 27 -2 4056 2197 3 MP
PP
c9
-23 85 -4 -83 27 -2 4056 2197 4 MP stroke
c8
23 -85 4 83 4056 2197 3 MP
PP
c9
-27 2 23 -85 4 83 4056 2197 4 MP stroke
c8
27 -1 -4 -83 4056 1911 3 MP
PP
c9
-23 84 27 -1 -4 -83 4056 1911 4 MP stroke
c8
-27 -7 51 -78 4028 2190 3 MP
PP
c9
-24 85 -27 -7 51 -78 4028 2190 4 MP stroke
c8
-51 78 23 -85 4056 2197 3 MP
PP
c9
28 7 -51 78 23 -85 4056 2197 4 MP stroke
c10
-93 -6 159 16 -66 -10 3979 1633 4 MP
PP
0 sg
0 0 -93 -6 159 16 -66 -10 3979 1633 5 MP stroke
c10
-93 -6 159 16 -66 -10 3979 1633 4 MP
PP
0 sg
0 0 -93 -6 159 16 -66 -10 3979 1633 5 MP stroke
c10
-93 -6 159 16 -66 -10 3979 1633 4 MP
PP
0 sg
0 0 -93 -6 159 16 -66 -10 3979 1633 5 MP stroke
c8
-4 -83 28 -2 4032 2282 3 MP
PP
c9
-24 85 -4 -83 28 -2 4032 2282 4 MP stroke
c8
4 83 24 -85 4028 1913 3 MP
PP
c9
-28 2 4 83 24 -85 4028 1913 4 MP stroke
c8
28 -2 -4 -83 4032 1996 3 MP
PP
c9
-24 85 28 -2 -4 -83 4032 1996 4 MP stroke
c8
-51 77 24 -85 4032 2282 3 MP
PP
c9
27 8 -51 77 24 -85 4032 2282 4 MP stroke
c8
-28 -7 51 -77 4005 2274 3 MP
PP
c9
-23 84 -28 -7 51 -77 4005 2274 4 MP stroke
c8
23 -85 -51 97 4052 1828 3 MP
PP
c9
28 -12 23 -85 -51 97 4052 1828 4 MP stroke
c8
51 -97 -27 12 4028 1913 3 MP
PP
c9
-24 85 51 -97 -27 12 4028 1913 4 MP stroke
c8
-28 -18 51 -67 4001 2172 3 MP
PP
c9
-23 85 -28 -18 51 -67 4001 2172 4 MP stroke
c8
-51 67 24 -85 4028 2190 3 MP
PP
c9
27 18 -51 67 24 -85 4028 2190 4 MP stroke
c8
4 83 23 -85 4005 1998 3 MP
PP
c9
-27 2 4 83 23 -85 4005 1998 4 MP stroke
c8
24 -85 -51 97 4028 1913 3 MP
PP
c9
27 -12 24 -85 -51 97 4028 1913 4 MP stroke
c8
51 -97 -28 12 4005 1998 3 MP
PP
c9
-23 85 51 -97 -28 12 4005 1998 4 MP stroke
c8
-27 -18 51 -67 3977 2257 3 MP
PP
c9
-24 85 -27 -18 51 -67 3977 2257 4 MP stroke
c8
-51 67 23 -84 4005 2274 3 MP
PP
c9
28 17 -51 67 23 -84 4005 2274 4 MP stroke
c8
17 -15 6 -70 4001 1925 3 MP
PP
c9
-23 85 17 -15 6 -70 4001 1925 4 MP stroke
c8
-17 -18 40 -67 3984 2154 3 MP
PP
c9
-23 85 -17 -18 40 -67 3984 2154 4 MP stroke
c8
-40 67 23 -85 4001 2172 3 MP
PP
c9
17 18 -40 67 23 -85 4001 2172 4 MP stroke
c8
10 -13 13 -72 3984 1940 3 MP
PP
c9
-23 85 10 -13 13 -72 3984 1940 4 MP stroke
c8
-6 70 23 -85 3984 1940 3 MP
PP
c9
-17 15 -6 70 23 -85 3984 1940 4 MP stroke
c8
-34 70 23 -85 3984 2154 3 MP
PP
c9
11 15 -34 70 23 -85 3984 2154 4 MP stroke
c8
-10 -15 34 -70 3973 2139 3 MP
PP
c9
-24 85 -10 -15 34 -70 3973 2139 4 MP stroke
c8
17 -15 7 -70 3977 2010 3 MP
PP
c9
-24 85 17 -15 7 -70 3977 2010 4 MP stroke
c8
-41 67 24 -85 3977 2257 3 MP
PP
c9
17 18 -41 67 24 -85 3977 2257 4 MP stroke
c8
-17 -18 41 -67 3960 2239 3 MP
PP
c9
-24 85 -17 -18 41 -67 3960 2239 4 MP stroke
c8
-13 72 24 -84 3973 1952 3 MP
PP
c9
-11 12 -13 72 24 -84 3973 1952 4 MP stroke
c8
13 -20 11 -64 3973 1952 3 MP
PP
c9
-24 84 13 -20 11 -64 3973 1952 4 MP stroke
c8
-36 62 24 -85 3973 2139 3 MP
PP
c9
12 23 -36 62 24 -85 3973 2139 4 MP stroke
c8
-13 -23 36 -62 3961 2116 3 MP
PP
c9
-23 85 -13 -23 36 -62 3961 2116 4 MP stroke
c8
11 -35 12 -50 3961 1973 3 MP
PP
c9
-23 85 11 -35 12 -50 3961 1973 4 MP stroke
c8
-11 64 23 -85 3961 1973 3 MP
PP
c9
-12 21 -11 64 23 -85 3961 1973 4 MP stroke
c8
-35 48 23 -85 3961 2116 3 MP
PP
c9
12 37 -35 48 23 -85 3961 2116 4 MP stroke
c8
-7 70 24 -85 3960 2025 3 MP
PP
c9
-17 15 -7 70 24 -85 3960 2025 4 MP stroke
c8
-11 -37 35 -48 3949 2079 3 MP
PP
c9
-24 85 -11 -37 35 -48 3949 2079 4 MP stroke
c8
11 -12 13 -73 3960 2025 3 MP
PP
c9
-24 85 11 -12 13 -73 3960 2025 4 MP stroke
c8
-34 70 24 -85 3960 2239 3 MP
PP
c9
10 15 -34 70 24 -85 3960 2239 4 MP stroke
c8
-11 -15 34 -70 3950 2224 3 MP
PP
c9
-23 85 -11 -15 34 -70 3950 2224 4 MP stroke
c8
-13 73 23 -85 3950 2037 3 MP
PP
c9
-10 12 -13 73 23 -85 3950 2037 4 MP stroke
c8
12 -21 11 -64 3950 2037 3 MP
PP
c9
-23 85 12 -21 11 -64 3950 2037 4 MP stroke
c8
-12 -23 36 -62 3937 2201 3 MP
PP
c9
-24 85 -12 -23 36 -62 3937 2201 4 MP stroke
c8
-36 62 23 -85 3950 2224 3 MP
PP
c9
13 23 -36 62 23 -85 3950 2224 4 MP stroke
c8
-11 64 24 -85 3937 2058 3 MP
PP
c9
-13 21 -11 64 24 -85 3937 2058 4 MP stroke
c8
12 -35 12 -50 3937 2058 3 MP
PP
c9
-24 85 12 -35 12 -50 3937 2058 4 MP stroke
c8
-12 50 24 -85 3949 2008 3 MP
PP
c9
-12 35 -12 50 24 -85 3949 2008 4 MP stroke
c8
4 -35 20 -50 3949 2008 3 MP
PP
c9
-24 85 4 -35 20 -50 3949 2008 4 MP stroke
c8
-27 49 24 -85 3949 2079 3 MP
PP
c9
3 36 -27 49 24 -85 3949 2079 4 MP stroke
c8
-4 -36 27 -49 3946 2043 3 MP
PP
c9
-23 85 -4 -36 27 -49 3946 2043 4 MP stroke
c8
-20 50 23 -85 3946 2043 3 MP
PP
c9
-3 35 -20 50 23 -85 3946 2043 4 MP stroke
c8
-12 -37 36 -48 3925 2164 3 MP
PP
c9
-24 85 -12 -37 36 -48 3925 2164 4 MP stroke
c8
-36 48 24 -85 3937 2201 3 MP
PP
c9
12 37 -36 48 24 -85 3937 2201 4 MP stroke
c8
-12 50 23 -85 3926 2093 3 MP
PP
c9
-11 35 -12 50 23 -85 3926 2093 4 MP stroke
c8
3 -35 20 -50 3926 2093 3 MP
PP
c9
-23 85 3 -35 20 -50 3926 2093 4 MP stroke
c8
-27 49 24 -85 3925 2164 3 MP
PP
c9
3 36 -27 49 24 -85 3925 2164 4 MP stroke
c8
-3 -36 27 -49 3922 2128 3 MP
PP
c9
-24 85 -3 -36 27 -49 3922 2128 4 MP stroke
c8
-20 50 24 -85 3922 2128 3 MP
PP
c9
-4 35 -20 50 24 -85 3922 2128 4 MP stroke
c10
-201 1077 257 -829 -56 -248 3712 2700 4 MP
PP
0 sg
0 0 -201 1077 257 -829 -56 -248 3712 2700 5 MP stroke
c10
-80 28 166 -133 -86 105 3833 1651 4 MP
PP
0 sg
0 0 -80 28 166 -133 -86 105 3833 1651 5 MP stroke
c10
-257 829 198 -271 59 -558 3656 2452 4 MP
PP
0 sg
0 0 -257 829 198 -271 59 -558 3656 2452 5 MP stroke
c10
-198 271 80 -28 118 -243 3715 1894 4 MP
PP
0 sg
0 0 -198 271 80 -28 118 -243 3715 1894 5 MP stroke
c10
-257 829 198 -271 59 -558 3656 2452 4 MP
PP
0 sg
0 0 -257 829 198 -271 59 -558 3656 2452 5 MP stroke
c10
-198 271 80 -28 118 -243 3715 1894 4 MP
PP
0 sg
0 0 -198 271 80 -28 118 -243 3715 1894 5 MP stroke
c10
-198 271 80 -28 118 -243 3715 1894 4 MP
PP
0 sg
0 0 -198 271 80 -28 118 -243 3715 1894 5 MP stroke
c8
0 -403 95 -340 0 404 3806 3150 4 MP
PP
c9
-95 339 0 -403 95 -340 0 404 3806 3150 5 MP stroke
c10
136 -10 -68 -22 -68 32 3539 2938 4 MP
PP
0 sg
0 0 136 -10 -68 -22 -68 32 3539 2938 5 MP stroke
c10
-68 32 136 -10 -68 -22 3471 2970 4 MP
PP
0 sg
0 0 -68 32 136 -10 -68 -22 3471 2970 5 MP stroke
c8
320 33 94 -340 -319 -32 3806 3150 4 MP
PP
c9
-95 339 320 33 94 -340 -319 -32 3806 3150 5 MP stroke
c8
320 32 94 -340 -319 -32 3806 3554 4 MP
PP
c9
-95 340 320 32 94 -340 -319 -32 3806 3554 5 MP stroke
c10
86 -105 32 -138 -118 243 3833 1651 4 MP
PP
0 sg
0 0 86 -105 32 -138 -118 243 3833 1651 5 MP stroke
c10
86 -105 32 -138 -118 243 3833 1651 4 MP
PP
0 sg
0 0 86 -105 32 -138 -118 243 3833 1651 5 MP stroke
c8
-240 -24 114 -407 239 24 3386 1604 4 MP
PP
c9
-113 407 -240 -24 114 -407 239 24 3386 1604 5 MP stroke
c8
0 -322 114 -407 0 322 3625 1628 4 MP
PP
c9
-114 407 0 -322 114 -407 0 322 3625 1628 5 MP stroke
c8
240 24 113 -407 -239 -24 3625 1950 4 MP
PP
c9
-114 407 240 24 113 -407 -239 -24 3625 1950 5 MP stroke
c8
0 404 94 -340 0 -404 3487 3522 4 MP
PP
c9
-94 340 0 404 94 -340 0 -404 3487 3522 5 MP stroke
c8
28 -102 -33 46 3556 2339 3 MP
PP
c9
5 56 28 -102 -33 46 3556 2339 4 MP stroke
c8
33 -46 -4 -55 3527 2440 3 MP
PP
c9
-29 101 33 -46 -4 -55 3527 2440 4 MP stroke
c8
29 -101 -24 47 3551 2393 3 MP
PP
c9
-5 54 29 -101 -24 47 3551 2393 4 MP stroke
c8
42 -46 -14 -56 3523 2385 3 MP
PP
c9
-28 102 42 -46 -14 -56 3523 2385 4 MP stroke
c8
28 -102 -42 46 3551 2283 3 MP
PP
c9
14 56 28 -102 -42 46 3551 2283 4 MP stroke
c8
28 -102 -14 49 3537 2446 3 MP
PP
c9
-14 53 28 -102 -14 49 3537 2446 4 MP stroke
c8
24 -47 4 -55 3523 2495 3 MP
PP
c9
-28 102 24 -47 4 -55 3523 2495 4 MP stroke
c8
29 -101 -44 66 3537 2227 3 MP
PP
c9
15 35 29 -101 -44 66 3537 2227 4 MP stroke
c8
44 -66 -16 -36 3509 2329 3 MP
PP
c9
-28 102 44 -66 -16 -36 3509 2329 4 MP stroke
c8
14 -49 14 -53 3509 2548 3 MP
PP
c9
-28 102 14 -49 14 -53 3509 2548 4 MP stroke
c8
28 -102 -14 49 3509 2548 3 MP
PP
c9
-14 53 28 -102 -14 49 3509 2548 4 MP stroke
c8
24 -47 4 -55 3495 2597 3 MP
PP
c9
-28 102 24 -47 4 -55 3495 2597 4 MP stroke
c8
28 -102 -24 47 3523 2495 3 MP
PP
c9
-4 55 28 -102 -24 47 3523 2495 4 MP stroke
c8
28 -102 -13 69 3522 2479 3 MP
PP
c9
-15 33 28 -102 -13 69 3522 2479 4 MP stroke
c8
32 -47 -4 -55 3499 2542 3 MP
PP
c9
-28 102 32 -47 -4 -55 3499 2542 4 MP stroke
c8
28 -102 -32 47 3527 2440 3 MP
PP
c9
4 55 28 -102 -32 47 3527 2440 4 MP stroke
c8
28 -102 -42 46 3523 2385 3 MP
PP
c9
14 56 28 -102 -42 46 3523 2385 4 MP stroke
c8
42 -46 -14 -56 3495 2487 3 MP
PP
c9
-28 102 42 -46 -14 -56 3495 2487 4 MP stroke
c8
41 -79 -12 -22 3493 2293 3 MP
PP
c9
-29 101 41 -79 -12 -22 3493 2293 4 MP stroke
c8
28 -102 -41 79 3522 2192 3 MP
PP
c9
13 23 28 -102 -41 79 3522 2192 4 MP stroke
c8
29 -102 -16 83 3509 2498 3 MP
PP
c9
-13 19 29 -102 -16 83 3509 2498 4 MP stroke
c8
13 -69 16 -33 3493 2581 3 MP
PP
c9
-29 102 13 -69 16 -33 3493 2581 4 MP stroke
c8
28 -102 -49 75 3509 2169 3 MP
PP
c9
21 27 28 -102 -49 75 3509 2169 4 MP stroke
c8
49 -75 -21 -27 3481 2271 3 MP
PP
c9
-28 102 49 -75 -21 -27 3481 2271 4 MP stroke
c8
16 -83 12 -19 3481 2600 3 MP
PP
c9
-28 102 16 -83 12 -19 3481 2600 4 MP stroke
c8
28 -102 -7 79 3488 2521 3 MP
PP
c9
-21 23 28 -102 -7 79 3488 2521 4 MP stroke
c8
44 -66 -16 -36 3481 2431 3 MP
PP
c9
-28 102 44 -66 -16 -36 3481 2431 4 MP stroke
c8
28 -102 -44 66 3509 2329 3 MP
PP
c9
16 36 28 -102 -44 66 3509 2329 4 MP stroke
c8
14 -49 14 -53 3481 2650 3 MP
PP
c9
-28 102 14 -49 14 -53 3481 2650 4 MP stroke
c8
28 -102 -12 69 3493 2581 3 MP
PP
c9
-16 33 28 -102 -12 69 3493 2581 4 MP stroke
c8
0 -322 113 -407 0 322 3386 1604 4 MP
PP
c9
-113 407 0 -322 113 -407 0 322 3386 1604 5 MP stroke
c8
41 -80 -13 -22 3465 2395 3 MP
PP
c9
-28 102 41 -80 -13 -22 3465 2395 4 MP stroke
c8
29 -102 -41 80 3493 2293 3 MP
PP
c9
12 22 29 -102 -41 80 3493 2293 4 MP stroke
c8
28 -101 -16 82 3481 2600 3 MP
PP
c9
-12 19 28 -101 -16 82 3481 2600 4 MP stroke
c8
12 -69 16 -32 3465 2682 3 MP
PP
c9
-28 101 12 -69 16 -32 3465 2682 4 MP stroke
c8
62 -76 -34 -26 3460 2244 3 MP
PP
c9
-28 102 62 -76 -34 -26 3460 2244 4 MP stroke
c8
28 -102 -62 76 3488 2142 3 MP
PP
c9
34 26 28 -102 -62 76 3488 2142 4 MP stroke
c8
7 -79 21 -23 3460 2623 3 MP
PP
c9
-28 102 7 -79 21 -23 3460 2623 4 MP stroke
c8
-34 20 62 -121 3426 2642 3 MP
PP
c9
-28 101 -34 20 62 -121 3426 2642 4 MP stroke
c8
8 -79 21 -23 3431 2725 3 MP
PP
c9
-29 102 8 -79 21 -23 3431 2725 4 MP stroke
c8
-62 121 28 -102 3460 2623 3 MP
PP
c9
34 -19 -62 121 28 -102 3460 2623 4 MP stroke
c8
50 -75 -21 -27 3452 2373 3 MP
PP
c9
-29 102 50 -75 -21 -27 3452 2373 4 MP stroke
c8
29 -102 -50 75 3481 2271 3 MP
PP
c9
21 27 29 -102 -50 75 3481 2271 4 MP stroke
c8
29 -102 -8 79 3460 2623 3 MP
PP
c9
-21 23 29 -102 -8 79 3460 2623 4 MP stroke
c8
16 -82 13 -20 3452 2702 3 MP
PP
c9
-29 102 16 -82 13 -20 3452 2702 4 MP stroke
gr

c9
0 sg
3411 4319 mt 
(y) s
gs 2376 1095 2402 2813 rc
c10
-129 -35 68 22 61 13 3342 2935 4 MP
PP
0 sg
0 0 -129 -35 68 22 61 13 3342 2935 5 MP stroke
c10
-129 -35 68 22 61 13 3342 2935 4 MP
PP
0 sg
0 0 -129 -35 68 22 61 13 3342 2935 5 MP stroke
c10
68 22 61 13 -129 -35 3471 2970 4 MP
PP
0 sg
0 0 68 22 61 13 -129 -35 3471 2970 5 MP stroke
c8
29 -102 -63 76 3460 2244 3 MP
PP
c9
34 26 29 -102 -63 76 3460 2244 4 MP stroke
c8
63 -76 -34 -26 3431 2346 3 MP
PP
c9
-29 102 63 -76 -34 -26 3431 2346 4 MP stroke
c8
28 -101 -62 91 3454 2116 3 MP
PP
c9
34 10 28 -101 -62 91 3454 2116 4 MP stroke
c8
62 -91 -34 -11 3426 2218 3 MP
PP
c9
-28 102 62 -91 -34 -11 3426 2218 4 MP stroke
c8
28 -102 -62 91 3426 2218 3 MP
PP
c9
34 11 28 -102 -62 91 3426 2218 4 MP stroke
c8
62 -91 -33 -11 3397 2320 3 MP
PP
c9
-29 102 62 -91 -33 -11 3397 2320 4 MP stroke
c8
-6 -98 34 -4 3392 2646 3 MP
PP
c9
-28 102 -6 -98 34 -4 3392 2646 4 MP stroke
c8
34 -3 -6 -98 3392 2207 3 MP
PP
c9
-28 101 34 -3 -6 -98 3392 2207 4 MP stroke
c8
-62 92 28 -102 3392 2646 3 MP
PP
c9
34 10 -62 92 28 -102 3392 2646 4 MP stroke
c8
-34 -10 62 -92 3358 2636 3 MP
PP
c9
-28 102 -34 -10 62 -92 3358 2636 4 MP stroke
c8
-256 -26 95 -339 255 26 2408 2249 4 MP
PP
c9
-94 339 -256 -26 95 -339 255 26 2408 2249 5 MP stroke
c8
0 -258 95 -340 0 259 2663 2275 4 MP
PP
c9
-95 339 0 -258 95 -340 0 259 2663 2275 5 MP stroke
c8
256 26 94 -340 -255 -26 2663 2534 4 MP
PP
c9
-95 340 256 26 94 -340 -255 -26 2663 2534 5 MP stroke
c10
-226 28 349 -104 -123 76 2657 2506 4 MP
PP
0 sg
0 0 -226 28 349 -104 -123 76 2657 2506 5 MP stroke
c10
-230 -1029 293 746 -63 283 2476 2653 4 MP
PP
0 sg
0 0 -230 -1029 293 746 -63 283 2476 2653 5 MP stroke
c10
121 -354 -63 283 -58 71 2534 2582 4 MP
PP
0 sg
0 0 121 -354 -63 283 -58 71 2534 2582 5 MP stroke
c10
121 -354 -63 283 -58 71 2534 2582 4 MP
PP
0 sg
0 0 121 -354 -63 283 -58 71 2534 2582 5 MP stroke
c10
-226 28 349 -104 -123 76 2657 2506 4 MP
PP
0 sg
0 0 -226 28 349 -104 -123 76 2657 2506 5 MP stroke
c10
-349 104 470 -458 -121 354 2534 2582 4 MP
PP
0 sg
0 0 -349 104 470 -458 -121 354 2534 2582 5 MP stroke
c10
-123 76 244 -430 -121 354 2534 2582 4 MP
PP
0 sg
0 0 -123 76 244 -430 -121 354 2534 2582 5 MP stroke
c10
-293 -746 296 664 -3 82 2413 2936 4 MP
PP
0 sg
0 0 -293 -746 296 664 -3 82 2413 2936 5 MP stroke
c10
-296 -664 260 400 36 264 2410 3018 4 MP
PP
0 sg
0 0 -296 -664 260 400 36 264 2410 3018 5 MP stroke
c10
296 664 -232 -502 -64 -162 2706 3682 4 MP
PP
0 sg
0 0 296 664 -232 -502 -64 -162 2706 3682 5 MP stroke
c10
-470 458 84 -141 386 -317 2413 2936 4 MP
PP
0 sg
0 0 -470 458 84 -141 386 -317 2413 2936 5 MP stroke
c10
-64 -162 230 1029 -166 -867 2642 3520 4 MP
PP
0 sg
0 0 -64 -162 230 1029 -166 -867 2642 3520 5 MP stroke
c10
-64 -162 0 0 64 162 2642 3520 4 MP
PP
0 sg
0 0 -64 -162 0 0 64 162 2642 3520 5 MP stroke
c10
36 264 -296 -664 260 400 2446 3282 4 MP
PP
0 sg
0 0 36 264 -296 -664 260 400 2446 3282 5 MP stroke
c10
-296 -664 0 0 296 664 2410 3018 4 MP
PP
0 sg
0 0 -296 -664 0 0 296 664 2410 3018 5 MP stroke
c10
-260 -400 64 162 196 238 2446 3282 4 MP
PP
0 sg
0 0 -260 -400 64 162 196 238 2446 3282 5 MP stroke
c10
0 0 296 664 -296 -664 2706 3682 4 MP
PP
0 sg
0 0 0 0 296 664 -296 -664 2706 3682 5 MP stroke
c10
-244 430 141 -846 103 416 2413 2936 4 MP
PP
0 sg
0 0 -244 430 141 -846 103 416 2413 2936 5 MP stroke
c10
407 -175 -58 71 -349 104 2883 2478 4 MP
PP
0 sg
0 0 407 -175 -58 71 -349 104 2883 2478 5 MP stroke
c10
583 162 -407 175 -176 -337 3059 2815 4 MP
PP
0 sg
0 0 583 162 -407 175 -176 -337 3059 2815 5 MP stroke
c10
142 113 -402 -309 260 196 2799 2619 4 MP
PP
0 sg
0 0 142 113 -402 -309 260 196 2799 2619 5 MP stroke
c10
402 309 -226 28 -176 -337 3059 2815 4 MP
PP
0 sg
0 0 402 309 -226 28 -176 -337 3059 2815 5 MP stroke
c10
-84 141 226 -28 -142 -113 2799 2619 4 MP
PP
0 sg
0 0 -84 141 226 -28 -142 -113 2799 2619 5 MP stroke
c10
-459 -457 283 120 176 337 2883 2478 4 MP
PP
0 sg
0 0 -459 -457 283 120 176 337 2883 2478 5 MP stroke
c10
-685 -429 459 457 226 -28 2657 2506 4 MP
PP
0 sg
0 0 -685 -429 459 457 226 -28 2657 2506 5 MP stroke
c10
-543 -316 685 429 -142 -113 2799 2619 4 MP
PP
0 sg
0 0 -543 -316 685 429 -142 -113 2799 2619 5 MP stroke
c10
-283 -120 866 282 -583 -162 3059 2815 4 MP
PP
0 sg
0 0 -283 -120 866 282 -583 -162 3059 2815 5 MP stroke
c10
-866 -282 543 316 323 -34 2476 2653 4 MP
PP
0 sg
0 0 -866 -282 543 316 323 -34 2476 2653 5 MP stroke
c10
520 470 -176 -337 -344 -133 3403 2948 4 MP
PP
0 sg
0 0 520 470 -176 -337 -344 -133 3403 2948 5 MP stroke
c10
226 -28 -746 -442 520 470 2883 2478 4 MP
PP
0 sg
0 0 226 -28 -746 -442 520 470 2883 2478 5 MP stroke
c10
-61 -13 344 133 -283 -120 3342 2935 4 MP
PP
0 sg
0 0 -61 -13 344 133 -283 -120 3342 2935 5 MP stroke
c10
746 442 -142 -113 -604 -329 3403 2948 4 MP
PP
0 sg
0 0 746 442 -142 -113 -604 -329 3403 2948 5 MP stroke
c10
-344 -133 604 329 -260 -196 3059 2815 4 MP
PP
0 sg
0 0 -344 -133 604 329 -260 -196 3059 2815 5 MP stroke
c10
-283 -120 -61 -13 344 133 3059 2815 4 MP
PP
0 sg
0 0 -283 -120 -61 -13 344 133 3059 2815 5 MP stroke
c8
34 -4 -6 -98 3364 2309 3 MP
PP
c9
-28 102 34 -4 -6 -98 3364 2309 4 MP stroke
c8
6 98 28 -102 3358 2211 3 MP
PP
c9
-34 4 6 98 28 -102 3358 2211 4 MP stroke
c8
62 -121 -34 19 3358 2211 3 MP
PP
c9
-28 102 62 -121 -34 19 3358 2211 4 MP stroke
c8
29 -101 -62 121 3386 2109 3 MP
PP
c9
33 -20 29 -101 -62 121 3386 2109 4 MP stroke
c8
-62 75 28 -102 3358 2636 3 MP
PP
c9
34 27 -62 75 28 -102 3358 2636 4 MP stroke
c8
-33 -26 62 -75 3324 2609 3 MP
PP
c9
-29 101 -33 -26 62 -75 3324 2609 4 MP stroke
c8
-1 -363 54 -191 0 363 3316 3400 4 MP
PP
c9
-53 191 -1 -363 54 -191 0 363 3316 3400 5 MP stroke
c8
449 45 53 -191 -448 -45 3316 3763 4 MP
PP
c9
-54 191 449 45 53 -191 -448 -45 3316 3763 5 MP stroke
c8
-47 114 36 -133 2989 3174 3 MP
PP
c9
11 19 -47 114 36 -133 2989 3174 4 MP stroke
c8
-45 121 37 -133 2997 3186 3 MP
PP
c9
8 12 -45 121 37 -133 2997 3186 4 MP stroke
c8
-9 -12 45 -121 2989 3174 3 MP
PP
c9
-36 133 -9 -12 45 -121 2989 3174 4 MP stroke
c8
-50 119 36 -133 3011 3200 3 MP
PP
c9
14 14 -50 119 36 -133 3011 3200 4 MP stroke
c8
-13 -14 50 -119 2997 3186 3 MP
PP
c9
-37 133 -13 -14 50 -119 2997 3186 4 MP stroke
c8
-22 -15 58 -118 3011 3200 3 MP
PP
c9
-36 133 -22 -15 58 -118 3011 3200 4 MP stroke
c8
-58 118 36 -132 3033 3214 3 MP
PP
c9
22 14 -58 118 36 -132 3033 3214 4 MP stroke
c8
15 -132 22 -1 3055 3220 3 MP
PP
c9
-37 133 15 -132 22 -1 3055 3220 4 MP stroke
c8
-59 127 37 -133 3055 3220 3 MP
PP
c9
22 6 -59 127 37 -133 3055 3220 4 MP stroke
c8
-23 -5 59 -127 3033 3214 3 MP
PP
c9
-36 132 -23 -5 59 -127 3033 3214 4 MP stroke
c8
37 -133 -15 132 3092 3087 3 MP
PP
c9
-22 1 37 -133 -15 132 3092 3087 4 MP stroke
c8
-59 143 37 -133 3099 3209 3 MP
PP
c9
22 -10 -59 143 37 -133 3099 3209 4 MP stroke
c8
24 -121 13 -12 3099 3209 3 MP
PP
c9
-37 133 24 -121 13 -12 3099 3209 4 MP stroke
c8
-22 10 59 -143 3077 3219 3 MP
PP
c9
-37 133 -22 10 59 -143 3077 3219 4 MP stroke
c8
46 -103 -9 -30 3140 3086 3 MP
PP
c9
-37 133 46 -103 -9 -30 3140 3086 4 MP stroke
c8
40 -104 -3 -29 3143 3115 3 MP
PP
c9
-37 133 40 -104 -3 -29 3143 3115 4 MP stroke
c8
37 -133 -40 104 3180 2982 3 MP
PP
c9
3 29 37 -133 -40 104 3180 2982 4 MP stroke
c8
37 -132 -24 121 3136 3076 3 MP
PP
c9
-13 11 37 -132 -24 121 3136 3076 4 MP stroke
c8
28 -122 9 -10 3112 3197 3 MP
PP
c9
-37 132 28 -122 9 -10 3112 3197 4 MP stroke
c8
37 -132 -28 122 3149 3065 3 MP
PP
c9
-9 10 37 -132 -28 122 3149 3065 4 MP stroke
c8
34 -105 3 -28 3140 3143 3 MP
PP
c9
-37 133 34 -105 3 -28 3140 3143 4 MP stroke
c8
37 -133 -34 105 3177 3010 3 MP
PP
c9
-3 28 37 -133 -34 105 3177 3010 4 MP stroke
c8
27 -116 10 -16 3121 3187 3 MP
PP
c9
-37 132 27 -116 10 -16 3121 3187 4 MP stroke
c8
448 45 53 -191 -448 -45 3316 3400 4 MP
PP
c9
-53 191 448 45 53 -191 -448 -45 3316 3400 5 MP stroke
c8
6 98 28 -102 3330 2313 3 MP
PP
c9
-34 4 6 98 28 -102 3330 2313 4 MP stroke
c8
28 -102 -62 121 3358 2211 3 MP
PP
c9
34 -19 28 -102 -62 121 3358 2211 4 MP stroke
c8
62 -121 -34 19 3330 2313 3 MP
PP
c9
-28 102 62 -121 -34 19 3330 2313 4 MP stroke
c8
21 -22 8 -79 3324 2230 3 MP
PP
c9
-29 101 21 -22 8 -79 3324 2230 4 MP stroke
c8
-50 74 29 -101 3324 2609 3 MP
PP
c9
21 27 -50 74 29 -101 3324 2609 4 MP stroke
c8
-21 -28 50 -74 3303 2582 3 MP
PP
c9
-29 102 -21 -28 50 -74 3303 2582 4 MP stroke
c8
-8 79 29 -102 3303 2253 3 MP
PP
c9
-21 23 -8 79 29 -102 3303 2253 4 MP stroke
c8
13 -20 16 -82 3303 2253 3 MP
PP
c9
-29 102 13 -20 16 -82 3303 2253 4 MP stroke
c8
-13 -22 42 -80 3290 2560 3 MP
PP
c9
-29 102 -13 -22 42 -80 3290 2560 4 MP stroke
c8
-42 80 29 -102 3303 2582 3 MP
PP
c9
13 22 -42 80 29 -102 3303 2582 4 MP stroke
c8
21 -23 7 -79 3296 2332 3 MP
PP
c9
-28 102 21 -23 7 -79 3296 2332 4 MP stroke
c8
-16 82 29 -102 3290 2273 3 MP
PP
c9
-13 20 -16 82 29 -102 3290 2273 4 MP stroke
c8
16 -32 13 -70 3290 2273 3 MP
PP
c9
-29 102 16 -32 13 -70 3290 2273 4 MP stroke
c8
-16 -35 44 -67 3275 2525 3 MP
PP
c9
-28 102 -16 -35 44 -67 3275 2525 4 MP stroke
c8
-44 67 29 -102 3290 2560 3 MP
PP
c9
15 35 -44 67 29 -102 3290 2560 4 MP stroke
c8
-13 70 28 -102 3275 2305 3 MP
PP
c9
-15 32 -13 70 28 -102 3275 2305 4 MP stroke
c8
14 -54 14 -48 3275 2305 3 MP
PP
c9
-28 102 14 -54 14 -48 3275 2305 4 MP stroke
c8
-42 45 28 -102 3275 2525 3 MP
PP
c9
14 57 -42 45 28 -102 3275 2525 4 MP stroke
c8
-14 -56 42 -45 3261 2468 3 MP
PP
c9
-28 101 -14 -56 42 -45 3261 2468 4 MP stroke
c8
13 -20 15 -82 3275 2355 3 MP
PP
c9
-28 102 13 -20 15 -82 3275 2355 4 MP stroke
c8
-7 79 28 -102 3275 2355 3 MP
PP
c9
-21 23 -7 79 28 -102 3275 2355 4 MP stroke
c8
-13 -22 41 -80 3262 2662 3 MP
PP
c9
-28 102 -13 -22 41 -80 3262 2662 4 MP stroke
c8
15 -32 13 -70 3262 2375 3 MP
PP
c9
-28 102 15 -32 13 -70 3262 2375 4 MP stroke
c8
-15 82 28 -102 3262 2375 3 MP
PP
c9
-13 20 -15 82 28 -102 3262 2375 4 MP stroke
c8
-15 -35 43 -66 3247 2626 3 MP
PP
c9
-28 101 -15 -35 43 -66 3247 2626 4 MP stroke
c8
-43 66 28 -102 3262 2662 3 MP
PP
c9
15 36 -43 66 28 -102 3262 2662 4 MP stroke
c8
-13 70 28 -102 3247 2407 3 MP
PP
c9
-15 32 -13 70 28 -102 3247 2407 4 MP stroke
c8
-14 48 28 -102 3261 2359 3 MP
PP
c9
-14 54 -14 48 28 -102 3261 2359 4 MP stroke
c8
4 -54 24 -48 3261 2359 3 MP
PP
c9
-28 102 4 -54 24 -48 3261 2359 4 MP stroke
c8
-32 46 28 -101 3261 2468 3 MP
PP
c9
4 55 -32 46 28 -101 3261 2468 4 MP stroke
c8
-4 -56 32 -46 3257 2413 3 MP
PP
c9
-28 102 -4 -56 32 -46 3257 2413 4 MP stroke
c8
-24 48 28 -102 3257 2413 3 MP
PP
c9
-4 54 -24 48 28 -102 3257 2413 4 MP stroke
c8
14 -54 14 -48 3247 2407 3 MP
PP
c9
-28 102 14 -54 14 -48 3247 2407 4 MP stroke
c8
-14 -57 42 -45 3233 2570 3 MP
PP
c9
-28 102 -14 -57 42 -45 3233 2570 4 MP stroke
c8
-42 45 28 -101 3247 2626 3 MP
PP
c9
14 56 -42 45 28 -101 3247 2626 4 MP stroke
c8
-14 48 28 -102 3233 2461 3 MP
PP
c9
-14 54 -14 48 28 -102 3233 2461 4 MP stroke
c8
4 -54 24 -48 3233 2461 3 MP
PP
c9
-28 102 4 -54 24 -48 3233 2461 4 MP stroke
c8
-33 47 28 -102 3233 2570 3 MP
PP
c9
5 55 -33 47 28 -102 3233 2570 4 MP stroke
c8
-4 -55 33 -47 3228 2515 3 MP
PP
c9
-29 102 -4 -55 33 -47 3228 2515 4 MP stroke
c8
-24 48 29 -102 3228 2515 3 MP
PP
c9
-5 54 -24 48 29 -102 3228 2515 4 MP stroke
c8
40 -103 -3 -29 3180 2982 3 MP
PP
c9
-37 132 40 -103 -3 -29 3180 2982 4 MP stroke
c8
37 -132 -40 103 3217 2850 3 MP
PP
c9
3 29 37 -132 -40 103 3217 2850 4 MP stroke
c8
37 -132 -34 104 3214 2878 3 MP
PP
c9
-3 28 37 -132 -34 104 3214 2878 4 MP stroke
c8
46 -103 -9 -29 3177 2953 3 MP
PP
c9
-37 132 46 -103 -9 -29 3177 2953 4 MP stroke
c8
37 -133 -46 103 3214 2821 3 MP
PP
c9
9 30 37 -133 -46 103 3214 2821 4 MP stroke
c8
34 -104 3 -28 3177 3010 3 MP
PP
c9
-37 132 34 -104 3 -28 3177 3010 4 MP stroke
c8
37 -132 -28 105 3205 2905 3 MP
PP
c9
-9 27 37 -132 -28 105 3205 2905 4 MP stroke
c8
47 -114 -10 -19 3168 2924 3 MP
PP
c9
-37 133 47 -114 -10 -19 3168 2924 4 MP stroke
c8
37 -132 -47 114 3205 2791 3 MP
PP
c9
10 18 37 -132 -47 114 3205 2791 4 MP stroke
c8
28 -105 9 -28 3168 3038 3 MP
PP
c9
-37 133 28 -105 9 -28 3168 3038 4 MP stroke
c8
37 -133 -27 116 3195 2922 3 MP
PP
c9
-10 17 37 -133 -27 116 3195 2922 4 MP stroke
c8
37 -132 -46 120 3195 2773 3 MP
PP
c9
9 12 37 -132 -46 120 3195 2773 4 MP stroke
c8
46 -120 -9 -12 3158 2905 3 MP
PP
c9
-37 132 46 -120 -9 -12 3158 2905 4 MP stroke
c8
37 -133 -28 123 3186 2932 3 MP
PP
c9
-9 10 37 -133 -28 123 3186 2932 4 MP stroke
c8
27 -116 10 -17 3158 3055 3 MP
PP
c9
-37 133 27 -116 10 -17 3158 3055 4 MP stroke
c8
50 -118 -13 -14 3149 2893 3 MP
PP
c9
-37 132 50 -118 -13 -14 3149 2893 4 MP stroke
c8
36 -133 -50 118 3186 2761 3 MP
PP
c9
14 15 36 -133 -50 118 3186 2761 4 MP stroke
c8
37 -132 -46 103 3177 2953 3 MP
PP
c9
9 29 37 -132 -46 103 3177 2953 4 MP stroke
c8
37 -133 -23 121 3172 2944 3 MP
PP
c9
-14 12 37 -133 -23 121 3172 2944 4 MP stroke
c8
28 -123 9 -10 3149 3065 3 MP
PP
c9
-37 133 28 -123 9 -10 3149 3065 4 MP stroke
c8
37 -133 -28 105 3168 3038 3 MP
PP
c9
-9 28 37 -133 -28 105 3168 3038 4 MP stroke
c8
58 -119 -22 -14 3136 2879 3 MP
PP
c9
-36 133 58 -119 -22 -14 3136 2879 4 MP stroke
c8
36 -133 -58 119 3172 2746 3 MP
PP
c9
22 14 36 -133 -58 119 3172 2746 4 MP stroke
c8
23 -121 13 -11 3136 3076 3 MP
PP
c9
-36 132 23 -121 13 -11 3136 3076 4 MP stroke
c8
47 -114 -10 -18 3131 3056 3 MP
PP
c9
-37 132 47 -114 -10 -18 3131 3056 4 MP stroke
c8
-58 142 36 -132 3136 3076 3 MP
PP
c9
22 -10 -58 142 36 -132 3136 3076 4 MP stroke
c8
37 -133 -47 114 3168 2924 3 MP
PP
c9
10 19 37 -133 -47 114 3168 2924 4 MP stroke
c8
-22 9 58 -142 3114 3086 3 MP
PP
c9
-36 133 -22 9 58 -142 3114 3086 4 MP stroke
c8
37 -133 -27 116 3158 3055 3 MP
PP
c9
-10 17 37 -133 -27 116 3158 3055 4 MP stroke
c8
28 -105 9 -28 3131 3171 3 MP
PP
c9
-37 133 28 -105 9 -28 3131 3171 4 MP stroke
c8
46 -121 -9 -12 3121 3038 3 MP
PP
c9
-37 133 46 -121 -9 -12 3121 3038 4 MP stroke
c8
37 -133 -46 121 3158 2905 3 MP
PP
c9
9 12 37 -133 -46 121 3158 2905 4 MP stroke
c8
36 -133 -58 127 3150 2732 3 MP
PP
c9
22 6 36 -133 -58 127 3150 2732 4 MP stroke
c8
58 -127 -22 -6 3114 2865 3 MP
PP
c9
-36 133 58 -127 -22 -6 3114 2865 4 MP stroke
c8
50 -119 -13 -14 3112 3026 3 MP
PP
c9
-37 133 50 -119 -13 -14 3112 3026 4 MP stroke
c8
36 -133 -14 131 3128 2955 3 MP
PP
c9
-22 2 36 -133 -14 131 3128 2955 4 MP stroke
c8
37 -133 -50 119 3149 2893 3 MP
PP
c9
13 14 37 -133 -50 119 3149 2893 4 MP stroke
c8
59 -119 -22 -14 3099 3012 3 MP
PP
c9
-37 133 59 -119 -22 -14 3099 3012 4 MP stroke
c8
37 -133 -59 119 3136 2879 3 MP
PP
c9
22 14 37 -133 -59 119 3136 2879 4 MP stroke
c8
22 -2 14 -131 3092 2859 3 MP
PP
c9
-36 133 22 -2 14 -131 3092 2859 4 MP stroke
c8
14 -131 22 -1 3092 3087 3 MP
PP
c9
-36 132 14 -131 22 -1 3092 3087 4 MP stroke
c8
-59 127 36 -132 3092 3087 3 MP
PP
c9
23 5 -59 127 36 -132 3092 3087 4 MP stroke
c8
-22 -6 59 -127 3069 3082 3 MP
PP
c9
-37 133 -22 -6 59 -127 3069 3082 4 MP stroke
c8
59 -127 -22 -6 3077 2998 3 MP
PP
c9
-37 133 59 -127 -22 -6 3077 2998 4 MP stroke
c8
37 -133 -59 127 3114 2865 3 MP
PP
c9
22 6 37 -133 -59 127 3114 2865 4 MP stroke
c8
-14 131 37 -132 3069 2860 3 MP
PP
c9
-23 1 -14 131 37 -132 3069 2860 4 MP stroke
c8
37 -132 -59 142 3106 2728 3 MP
PP
c9
22 -10 37 -132 -59 142 3106 2728 4 MP stroke
c8
-14 132 36 -133 3033 2993 3 MP
PP
c9
-22 1 -14 132 36 -133 3033 2993 4 MP stroke
c8
59 -142 -22 10 3069 2860 3 MP
PP
c9
-37 132 59 -142 -22 10 3069 2860 4 MP stroke
c8
-59 118 37 -133 3069 3082 3 MP
PP
c9
22 15 -59 118 37 -133 3069 3082 4 MP stroke
c8
-22 -14 59 -118 3047 3067 3 MP
PP
c9
-37 132 -22 -14 59 -118 3047 3067 4 MP stroke
c8
-223 -23 94 -339 224 22 2781 1956 4 MP
PP
c9
-95 340 -223 -23 94 -339 224 22 2781 1956 5 MP stroke
c8
23 -1 14 -132 3055 2992 3 MP
PP
c9
-37 133 23 -1 14 -132 3055 2992 4 MP stroke
c8
13 -11 24 -121 3047 2870 3 MP
PP
c9
-37 132 13 -11 24 -121 3047 2870 4 MP stroke
c8
-13 -15 50 -118 3034 3053 3 MP
PP
c9
-37 133 -13 -15 50 -118 3034 3053 4 MP stroke
c8
-50 118 37 -132 3047 3067 3 MP
PP
c9
13 14 -50 118 37 -132 3047 3067 4 MP stroke
c8
-24 121 37 -133 3034 2882 3 MP
PP
c9
-13 12 -24 121 37 -133 3034 2882 4 MP stroke
c8
9 -10 28 -123 3034 2882 3 MP
PP
c9
-37 133 9 -10 28 -123 3034 2882 4 MP stroke
c8
-46 121 37 -133 3034 3053 3 MP
PP
c9
9 12 -46 121 37 -133 3034 3053 4 MP stroke
c8
-9 -11 46 -121 3025 3041 3 MP
PP
c9
-37 132 -9 -11 46 -121 3025 3041 4 MP stroke
c8
36 -133 -58 143 3069 2860 3 MP
PP
c9
22 -10 36 -133 -58 143 3069 2860 4 MP stroke
c8
58 -143 -22 10 3033 2993 3 MP
PP
c9
-36 133 58 -143 -22 10 3033 2993 4 MP stroke
c8
10 -17 27 -116 3025 2892 3 MP
PP
c9
-37 133 10 -17 27 -116 3025 2892 4 MP stroke
c8
-28 123 37 -133 3025 2892 3 MP
PP
c9
-9 10 -28 123 37 -133 3025 2892 4 MP stroke
c8
-47 114 37 -132 3025 3041 3 MP
PP
c9
10 18 -47 114 37 -132 3025 3041 4 MP stroke
c8
-10 -19 47 -114 3015 3023 3 MP
PP
c9
-37 133 -10 -19 47 -114 3015 3023 4 MP stroke
c8
9 -27 28 -105 3015 2908 3 MP
PP
c9
-37 132 9 -27 28 -105 3015 2908 4 MP stroke
c8
-27 116 37 -132 3015 2908 3 MP
PP
c9
-10 16 -27 116 37 -132 3015 2908 4 MP stroke
c8
-23 121 37 -132 2997 3014 3 MP
PP
c9
-14 11 -23 121 37 -132 2997 3014 4 MP stroke
c8
13 -12 23 -121 3011 3003 3 MP
PP
c9
-36 133 13 -12 23 -121 3011 3003 4 MP stroke
c8
-9 -29 46 -103 3006 2993 3 MP
PP
c9
-37 132 -9 -29 46 -103 3006 2993 4 MP stroke
c8
-46 103 37 -133 3015 3023 3 MP
PP
c9
9 30 -46 103 37 -133 3015 3023 4 MP stroke
c8
-28 105 37 -133 3006 2936 3 MP
PP
c9
-9 28 -28 105 37 -133 3006 2936 4 MP stroke
c8
3 -29 34 -104 3006 2936 3 MP
PP
c9
-37 133 3 -29 34 -104 3006 2936 4 MP stroke
c8
10 -16 26 -116 2989 3024 3 MP
PP
c9
-36 132 10 -16 26 -116 2989 3024 4 MP stroke
c8
-28 122 36 -132 2989 3024 3 MP
PP
c9
-8 10 -28 122 36 -132 2989 3024 4 MP stroke
c8
9 -10 28 -122 2997 3014 3 MP
PP
c9
-37 132 9 -10 28 -122 2997 3014 4 MP stroke
c8
-3 -29 40 -103 3003 2964 3 MP
PP
c9
-37 132 -3 -29 40 -103 3003 2964 4 MP stroke
c8
-40 103 37 -132 3006 2993 3 MP
PP
c9
3 29 -40 103 37 -132 3006 2993 4 MP stroke
c8
-26 116 37 -133 2978 3041 3 MP
PP
c9
-11 17 -26 116 37 -133 2978 3041 4 MP stroke
c8
9 -28 28 -105 2978 3041 3 MP
PP
c9
-37 133 9 -28 28 -105 2978 3041 4 MP stroke
c8
-34 104 37 -132 3003 2964 3 MP
PP
c9
-3 28 -34 104 37 -132 3003 2964 4 MP stroke
c8
-10 -18 47 -114 2978 3155 3 MP
PP
c9
-37 132 -10 -18 47 -114 2978 3155 4 MP stroke
c8
-9 -30 46 -103 2969 3126 3 MP
PP
c9
-37 133 -9 -30 46 -103 2969 3126 4 MP stroke
c8
-46 103 37 -132 2978 3155 3 MP
PP
c9
9 29 -46 103 37 -132 2978 3155 4 MP stroke
c8
-28 105 37 -133 2969 3069 3 MP
PP
c9
-9 28 -28 105 37 -133 2969 3069 4 MP stroke
c8
3 -28 34 -105 2969 3069 3 MP
PP
c9
-37 133 3 -28 34 -105 2969 3069 4 MP stroke
c8
-3 -29 40 -104 2966 3097 3 MP
PP
c9
-37 133 -3 -29 40 -104 2966 3097 4 MP stroke
c8
-40 104 37 -133 2969 3126 3 MP
PP
c9
3 29 -40 104 37 -133 2969 3126 4 MP stroke
c8
-34 105 37 -133 2966 3097 3 MP
PP
c9
-3 28 -34 105 37 -133 2966 3097 4 MP stroke
c8
0 363 53 -191 0 -363 2868 3718 4 MP
PP
c9
-53 191 0 363 53 -191 0 -363 2868 3718 5 MP stroke
c8
0 323 94 -339 0 -323 2822 3253 4 MP
PP
c9
-94 339 0 323 94 -339 0 -323 2822 3253 5 MP stroke
c10
142 113 123 -76 -265 -37 2799 2619 4 MP
PP
0 sg
0 0 142 113 123 -76 -265 -37 2799 2619 5 MP stroke
c10
58 -71 -323 34 265 37 2534 2582 4 MP
PP
0 sg
0 0 58 -71 -323 34 265 37 2534 2582 5 MP stroke
c10
36 264 -3 82 -33 -346 2446 3282 4 MP
PP
0 sg
0 0 36 264 -3 82 -33 -346 2446 3282 5 MP stroke
c10
-103 -416 70 70 33 346 2413 2936 4 MP
PP
0 sg
0 0 -103 -416 70 70 33 346 2413 2936 5 MP stroke
c10
389 -399 -3 82 -386 317 2799 2619 4 MP
PP
0 sg
0 0 389 -399 -3 82 -386 317 2799 2619 5 MP stroke
c10
247 -512 -389 399 142 113 2657 2506 4 MP
PP
0 sg
0 0 247 -512 -389 399 142 113 2657 2506 5 MP stroke
c8
-199 -20 94 -339 200 20 2622 2910 4 MP
PP
c9
-95 339 -199 -20 94 -339 200 20 2622 2910 5 MP stroke
c8
199 20 95 -339 -200 -20 2822 3253 4 MP
PP
c9
-94 339 199 20 95 -339 -200 -20 2822 3253 5 MP stroke
c8
0 -517 95 -339 0 516 2781 1956 4 MP
PP
c9
-95 340 0 -517 95 -339 0 516 2781 1956 5 MP stroke
c8
0 323 95 -339 0 -323 2622 3233 4 MP
PP
c9
-95 339 0 323 95 -339 0 -323 2622 3233 5 MP stroke
c10
-260 -400 64 162 196 238 2446 3282 4 MP
PP
0 sg
0 0 -260 -400 64 162 196 238 2446 3282 5 MP stroke
c10
0 0 0 0 0 0 2706 3682 4 MP
PP
0 sg
0 0 0 0 0 0 0 0 2706 3682 5 MP stroke
c10
-106 -334 -126 -168 232 502 2410 3018 4 MP
PP
0 sg
0 0 -106 -334 -126 -168 232 502 2410 3018 5 MP stroke
c10
-40 -699 -126 -168 166 867 2476 2653 4 MP
PP
0 sg
0 0 -40 -699 -126 -168 166 867 2476 2653 5 MP stroke
c10
-106 -334 40 699 66 -365 2410 3018 4 MP
PP
0 sg
0 0 -106 -334 40 699 66 -365 2410 3018 5 MP stroke
c10
124 -436 -247 512 123 -76 2534 2582 4 MP
PP
0 sg
0 0 124 -436 -247 512 123 -76 2534 2582 5 MP stroke
c10
-141 846 123 -76 18 -770 2516 3352 4 MP
PP
0 sg
0 0 -141 846 123 -76 18 -770 2516 3352 5 MP stroke
c10
126 168 70 70 -196 -238 2642 3520 4 MP
PP
0 sg
0 0 126 168 70 70 -196 -238 2642 3520 5 MP stroke
c10
126 168 70 70 -196 -238 2642 3520 4 MP
PP
0 sg
0 0 126 168 70 70 -196 -238 2642 3520 5 MP stroke
c10
-106 -334 -18 770 124 -436 2410 3018 4 MP
PP
0 sg
0 0 -106 -334 -18 770 124 -436 2410 3018 5 MP stroke
c10
66 -365 -124 436 58 -71 2476 2653 4 MP
PP
0 sg
0 0 66 -365 -124 436 58 -71 2476 2653 5 MP stroke
c10
66 -365 -124 436 58 -71 2476 2653 4 MP
PP
0 sg
0 0 66 -365 -124 436 58 -71 2476 2653 5 MP stroke
c10
-70 -70 106 334 -36 -264 2446 3282 4 MP
PP
0 sg
0 0 -70 -70 106 334 -36 -264 2446 3282 5 MP stroke
c10
-70 -70 106 334 -36 -264 2446 3282 4 MP
PP
0 sg
0 0 -70 -70 106 334 -36 -264 2446 3282 5 MP stroke
c10
-70 -70 106 334 -36 -264 2446 3282 4 MP
PP
0 sg
0 0 -70 -70 106 334 -36 -264 2446 3282 5 MP stroke
c8
0 -258 94 -340 0 259 2408 2249 4 MP
PP
c9
-94 339 0 -258 94 -340 0 259 2408 2249 5 MP stroke
c10
3 -82 -66 365 63 -283 2413 2936 4 MP
PP
0 sg
0 0 3 -82 -66 365 63 -283 2413 2936 5 MP stroke
c10
3 -82 -66 365 63 -283 2413 2936 4 MP
PP
0 sg
0 0 3 -82 -66 365 63 -283 2413 2936 5 MP stroke
c10
3 -82 -66 365 63 -283 2413 2936 4 MP
PP
0 sg
0 0 3 -82 -66 365 63 -283 2413 2936 5 MP stroke
gr

2003 2623 mt  -90 rotate
(z) s
90 rotate
gs 2376 1095 2402 2813 rc
gr


end

eplot
%%EndObject

epage
end

showpage

%%Trailer
%%EOF
