%!PS-Adobe-2.0 EPSF-2.0
%%Title: systemarch.dia
%%Creator: Dia v0.94
%%CreationDate: Tue Dec  6 15:23:40 2005
%%For: klk
%%Orientation: Portrait
%%Magnification: 1.0000
%%BoundingBox: 0 0 1378 431
%%BeginSetup
%%EndSetup
%%EndComments
%%BeginProlog
[ /.notdef /.notdef /.notdef /.notdef /.notdef /.notdef /.notdef /.notdef /.notdef /.notdef
/.notdef /.notdef /.notdef /.notdef /.notdef /.notdef /.notdef /.notdef /.notdef /.notdef
/.notdef /.notdef /.notdef /.notdef /.notdef /.notdef /.notdef /.notdef /.notdef /.notdef
/.notdef /.notdef /space /exclam /quotedbl /numbersign /dollar /percent /ampersand /quoteright
/parenleft /parenright /asterisk /plus /comma /hyphen /period /slash /zero /one
/two /three /four /five /six /seven /eight /nine /colon /semicolon
/less /equal /greater /question /at /A /B /C /D /E
/F /G /H /I /J /K /L /M /N /O
/P /Q /R /S /T /U /V /W /X /Y
/Z /bracketleft /backslash /bracketright /asciicircum /underscore /quoteleft /a /b /c
/d /e /f /g /h /i /j /k /l /m
/n /o /p /q /r /s /t /u /v /w
/x /y /z /braceleft /bar /braceright /asciitilde /.notdef /.notdef /.notdef
/.notdef /.notdef /.notdef /.notdef /.notdef /.notdef /.notdef /.notdef /.notdef /.notdef
/.notdef /.notdef /.notdef /.notdef /.notdef /.notdef /.notdef /.notdef /.notdef /.notdef
/.notdef /.notdef /.notdef /.notdef /.notdef /.notdef /.notdef /.notdef /.notdef /.notdef
/space /exclamdown /cent /sterling /currency /yen /brokenbar /section /dieresis /copyright
/ordfeminine /guillemotleft /logicalnot /hyphen /registered /macron /degree /plusminus /twosuperior /threesuperior
/acute /mu /paragraph /periodcentered /cedilla /onesuperior /ordmasculine /guillemotright /onequarter /onehalf
/threequarters /questiondown /Agrave /Aacute /Acircumflex /Atilde /Adieresis /Aring /AE /Ccedilla
/Egrave /Eacute /Ecircumflex /Edieresis /Igrave /Iacute /Icircumflex /Idieresis /Eth /Ntilde
/Ograve /Oacute /Ocircumflex /Otilde /Odieresis /multiply /Oslash /Ugrave /Uacute /Ucircumflex
/Udieresis /Yacute /Thorn /germandbls /agrave /aacute /acircumflex /atilde /adieresis /aring
/ae /ccedilla /egrave /eacute /ecircumflex /edieresis /igrave /iacute /icircumflex /idieresis
/eth /ntilde /ograve /oacute /ocircumflex /otilde /odieresis /divide /oslash /ugrave
/uacute /ucircumflex /udieresis /yacute /thorn /ydieresis] /isolatin1encoding exch def
/cp {closepath} bind def
/c {curveto} bind def
/f {fill} bind def
/a {arc} bind def
/ef {eofill} bind def
/ex {exch} bind def
/gr {grestore} bind def
/gs {gsave} bind def
/sa {save} bind def
/rs {restore} bind def
/l {lineto} bind def
/m {moveto} bind def
/rm {rmoveto} bind def
/n {newpath} bind def
/s {stroke} bind def
/sh {show} bind def
/slc {setlinecap} bind def
/slj {setlinejoin} bind def
/slw {setlinewidth} bind def
/srgb {setrgbcolor} bind def
/rot {rotate} bind def
/sc {scale} bind def
/sd {setdash} bind def
/ff {findfont} bind def
/sf {setfont} bind def
/scf {scalefont} bind def
/sw {stringwidth pop} bind def
/tr {translate} bind def

/ellipsedict 8 dict def
ellipsedict /mtrx matrix put
/ellipse
{ ellipsedict begin
   /endangle exch def
   /startangle exch def
   /yrad exch def
   /xrad exch def
   /y exch def
   /x exch def   /savematrix mtrx currentmatrix def
   x y tr xrad yrad sc
   0 0 1 startangle endangle arc
   savematrix setmatrix
   end
} def

/mergeprocs {
dup length
3 -1 roll
dup
length
dup
5 1 roll
3 -1 roll
add
array cvx
dup
3 -1 roll
0 exch
putinterval
dup
4 2 roll
putinterval
} bind def
/Times-Roman-latin1
    /Times-Roman findfont
    dup length dict begin
	{1 index /FID ne {def} {pop pop} ifelse} forall
	/Encoding isolatin1encoding def
    currentdict end
definefont pop
/Times-Italic-latin1
    /Times-Italic findfont
    dup length dict begin
	{1 index /FID ne {def} {pop pop} ifelse} forall
	/Encoding isolatin1encoding def
    currentdict end
definefont pop
/Times-Bold-latin1
    /Times-Bold findfont
    dup length dict begin
	{1 index /FID ne {def} {pop pop} ifelse} forall
	/Encoding isolatin1encoding def
    currentdict end
definefont pop
/Times-BoldItalic-latin1
    /Times-BoldItalic findfont
    dup length dict begin
	{1 index /FID ne {def} {pop pop} ifelse} forall
	/Encoding isolatin1encoding def
    currentdict end
definefont pop
/AvantGarde-Book-latin1
    /AvantGarde-Book findfont
    dup length dict begin
	{1 index /FID ne {def} {pop pop} ifelse} forall
	/Encoding isolatin1encoding def
    currentdict end
definefont pop
/AvantGarde-BookOblique-latin1
    /AvantGarde-BookOblique findfont
    dup length dict begin
	{1 index /FID ne {def} {pop pop} ifelse} forall
	/Encoding isolatin1encoding def
    currentdict end
definefont pop
/AvantGarde-Demi-latin1
    /AvantGarde-Demi findfont
    dup length dict begin
	{1 index /FID ne {def} {pop pop} ifelse} forall
	/Encoding isolatin1encoding def
    currentdict end
definefont pop
/AvantGarde-DemiOblique-latin1
    /AvantGarde-DemiOblique findfont
    dup length dict begin
	{1 index /FID ne {def} {pop pop} ifelse} forall
	/Encoding isolatin1encoding def
    currentdict end
definefont pop
/Bookman-Light-latin1
    /Bookman-Light findfont
    dup length dict begin
	{1 index /FID ne {def} {pop pop} ifelse} forall
	/Encoding isolatin1encoding def
    currentdict end
definefont pop
/Bookman-LightItalic-latin1
    /Bookman-LightItalic findfont
    dup length dict begin
	{1 index /FID ne {def} {pop pop} ifelse} forall
	/Encoding isolatin1encoding def
    currentdict end
definefont pop
/Bookman-Demi-latin1
    /Bookman-Demi findfont
    dup length dict begin
	{1 index /FID ne {def} {pop pop} ifelse} forall
	/Encoding isolatin1encoding def
    currentdict end
definefont pop
/Bookman-DemiItalic-latin1
    /Bookman-DemiItalic findfont
    dup length dict begin
	{1 index /FID ne {def} {pop pop} ifelse} forall
	/Encoding isolatin1encoding def
    currentdict end
definefont pop
/Courier-latin1
    /Courier findfont
    dup length dict begin
	{1 index /FID ne {def} {pop pop} ifelse} forall
	/Encoding isolatin1encoding def
    currentdict end
definefont pop
/Courier-Oblique-latin1
    /Courier-Oblique findfont
    dup length dict begin
	{1 index /FID ne {def} {pop pop} ifelse} forall
	/Encoding isolatin1encoding def
    currentdict end
definefont pop
/Courier-Bold-latin1
    /Courier-Bold findfont
    dup length dict begin
	{1 index /FID ne {def} {pop pop} ifelse} forall
	/Encoding isolatin1encoding def
    currentdict end
definefont pop
/Courier-BoldOblique-latin1
    /Courier-BoldOblique findfont
    dup length dict begin
	{1 index /FID ne {def} {pop pop} ifelse} forall
	/Encoding isolatin1encoding def
    currentdict end
definefont pop
/Helvetica-latin1
    /Helvetica findfont
    dup length dict begin
	{1 index /FID ne {def} {pop pop} ifelse} forall
	/Encoding isolatin1encoding def
    currentdict end
definefont pop
/Helvetica-Oblique-latin1
    /Helvetica-Oblique findfont
    dup length dict begin
	{1 index /FID ne {def} {pop pop} ifelse} forall
	/Encoding isolatin1encoding def
    currentdict end
definefont pop
/Helvetica-Bold-latin1
    /Helvetica-Bold findfont
    dup length dict begin
	{1 index /FID ne {def} {pop pop} ifelse} forall
	/Encoding isolatin1encoding def
    currentdict end
definefont pop
/Helvetica-BoldOblique-latin1
    /Helvetica-BoldOblique findfont
    dup length dict begin
	{1 index /FID ne {def} {pop pop} ifelse} forall
	/Encoding isolatin1encoding def
    currentdict end
definefont pop
/Helvetica-Narrow-latin1
    /Helvetica-Narrow findfont
    dup length dict begin
	{1 index /FID ne {def} {pop pop} ifelse} forall
	/Encoding isolatin1encoding def
    currentdict end
definefont pop
/Helvetica-Narrow-Oblique-latin1
    /Helvetica-Narrow-Oblique findfont
    dup length dict begin
	{1 index /FID ne {def} {pop pop} ifelse} forall
	/Encoding isolatin1encoding def
    currentdict end
definefont pop
/Helvetica-Narrow-Bold-latin1
    /Helvetica-Narrow-Bold findfont
    dup length dict begin
	{1 index /FID ne {def} {pop pop} ifelse} forall
	/Encoding isolatin1encoding def
    currentdict end
definefont pop
/Helvetica-Narrow-BoldOblique-latin1
    /Helvetica-Narrow-BoldOblique findfont
    dup length dict begin
	{1 index /FID ne {def} {pop pop} ifelse} forall
	/Encoding isolatin1encoding def
    currentdict end
definefont pop
/NewCenturySchoolbook-Roman-latin1
    /NewCenturySchoolbook-Roman findfont
    dup length dict begin
	{1 index /FID ne {def} {pop pop} ifelse} forall
	/Encoding isolatin1encoding def
    currentdict end
definefont pop
/NewCenturySchoolbook-Italic-latin1
    /NewCenturySchoolbook-Italic findfont
    dup length dict begin
	{1 index /FID ne {def} {pop pop} ifelse} forall
	/Encoding isolatin1encoding def
    currentdict end
definefont pop
/NewCenturySchoolbook-Bold-latin1
    /NewCenturySchoolbook-Bold findfont
    dup length dict begin
	{1 index /FID ne {def} {pop pop} ifelse} forall
	/Encoding isolatin1encoding def
    currentdict end
definefont pop
/NewCenturySchoolbook-BoldItalic-latin1
    /NewCenturySchoolbook-BoldItalic findfont
    dup length dict begin
	{1 index /FID ne {def} {pop pop} ifelse} forall
	/Encoding isolatin1encoding def
    currentdict end
definefont pop
/Palatino-Roman-latin1
    /Palatino-Roman findfont
    dup length dict begin
	{1 index /FID ne {def} {pop pop} ifelse} forall
	/Encoding isolatin1encoding def
    currentdict end
definefont pop
/Palatino-Italic-latin1
    /Palatino-Italic findfont
    dup length dict begin
	{1 index /FID ne {def} {pop pop} ifelse} forall
	/Encoding isolatin1encoding def
    currentdict end
definefont pop
/Palatino-Bold-latin1
    /Palatino-Bold findfont
    dup length dict begin
	{1 index /FID ne {def} {pop pop} ifelse} forall
	/Encoding isolatin1encoding def
    currentdict end
definefont pop
/Palatino-BoldItalic-latin1
    /Palatino-BoldItalic findfont
    dup length dict begin
	{1 index /FID ne {def} {pop pop} ifelse} forall
	/Encoding isolatin1encoding def
    currentdict end
definefont pop
/Symbol-latin1
    /Symbol findfont
definefont pop
/ZapfChancery-MediumItalic-latin1
    /ZapfChancery-MediumItalic findfont
    dup length dict begin
	{1 index /FID ne {def} {pop pop} ifelse} forall
	/Encoding isolatin1encoding def
    currentdict end
definefont pop
/ZapfDingbats-latin1
    /ZapfDingbats findfont
    dup length dict begin
	{1 index /FID ne {def} {pop pop} ifelse} forall
	/Encoding isolatin1encoding def
    currentdict end
definefont pop
28.346000 -28.346000 scale
-0.450000 -13.550000 translate
%%EndProlog


0.100000 slw
[] 0 sd
[] 0 sd
0 slj
0 slc
0.678431 0.847059 0.901961 srgb
n 10.500000 -1.500000 m 49.000000 -1.500000 l 49.000000 5.500000 l 39.250000 5.500000 l 39.250000 9.750000 l 29.500000 9.750000 l 29.500000 4.000000 l 10.500000 4.000000 l ef
0.000000 0.000000 0.000000 srgb
n 10.500000 -1.500000 m 49.000000 -1.500000 l 49.000000 5.500000 l 39.250000 5.500000 l 39.250000 9.750000 l 29.500000 9.750000 l 29.500000 4.000000 l 10.500000 4.000000 l cp s
1.000000 1.000000 1.000000 srgb
n 11.500000 0.750000 m 11.500000 3.000000 l 19.500000 3.000000 l 19.500000 0.750000 l f
0.100000 slw
[] 0 sd
[] 0 sd
0 slj
0.000000 0.000000 0.000000 srgb
n 11.500000 0.750000 m 11.500000 3.000000 l 19.500000 3.000000 l 19.500000 0.750000 l cp s
/Helvetica-latin1 ff 1.050000 scf sf
(Cost Map) dup sw 2 div 15.500000 ex sub 2.250000 m gs 1 -1 sc sh gr
1.000000 1.000000 1.000000 srgb
n 30.250000 6.500000 m 30.250000 8.750000 l 38.250000 8.750000 l 38.250000 6.500000 l f
0.100000 slw
[] 0 sd
[] 0 sd
0 slj
0.000000 0.000000 0.000000 srgb
n 30.250000 6.500000 m 30.250000 8.750000 l 38.250000 8.750000 l 38.250000 6.500000 l cp s
/Helvetica-latin1 ff 1.050000 scf sf
(State Estimator) dup sw 2 div 34.250000 ex sub 8.000000 m gs 1 -1 sc sh gr
/Helvetica-latin1 ff 1.050000 scf sf
(Supervisory Control) dup sw 2 div 29.750000 ex sub -0.250000 m gs 1 -1 sc sh gr
1.000000 1.000000 1.000000 srgb
n 21.000000 0.750000 m 21.000000 3.000000 l 29.000000 3.000000 l 29.000000 0.750000 l f
0.100000 slw
[] 0 sd
[] 0 sd
0 slj
0.000000 0.000000 0.000000 srgb
n 21.000000 0.750000 m 21.000000 3.000000 l 29.000000 3.000000 l 29.000000 0.750000 l cp s
/Helvetica-latin1 ff 1.050000 scf sf
(Path Planner) dup sw 2 div 25.000000 ex sub 2.250000 m gs 1 -1 sc sh gr
1.000000 1.000000 1.000000 srgb
n 11.500000 6.500000 m 11.500000 8.750000 l 19.500000 8.750000 l 19.500000 6.500000 l f
0.100000 slw
[] 0 sd
[] 0 sd
0 slj
0.000000 0.000000 0.000000 srgb
n 11.500000 6.500000 m 11.500000 8.750000 l 19.500000 8.750000 l 19.500000 6.500000 l cp s
/Helvetica-latin1 ff 1.050000 scf sf
(Elevation Map) dup sw 2 div 15.500000 ex sub 8.000000 m gs 1 -1 sc sh gr
1.000000 1.000000 1.000000 srgb
n 40.000000 0.750000 m 40.000000 4.460000 l 48.000000 4.460000 l 48.000000 0.750000 l f
0.100000 slw
[] 0 sd
[] 0 sd
0 slj
0.000000 0.000000 0.000000 srgb
n 40.000000 0.750000 m 40.000000 4.460000 l 48.000000 4.460000 l 48.000000 0.750000 l cp s
/Helvetica-latin1 ff 1.050000 scf sf
(Vehicle) dup sw 2 div 44.000000 ex sub 2.250000 m gs 1 -1 sc sh gr
(Actuation) dup sw 2 div 44.000000 ex sub 3.750000 m gs 1 -1 sc sh gr
1.000000 1.000000 1.000000 srgb
n 30.250000 0.750000 m 30.250000 3.000000 l 38.250000 3.000000 l 38.250000 0.750000 l f
0.100000 slw
[] 0 sd
[] 0 sd
0 slj
0.000000 0.000000 0.000000 srgb
n 30.250000 0.750000 m 30.250000 3.000000 l 38.250000 3.000000 l 38.250000 0.750000 l cp s
/Helvetica-latin1 ff 1.050000 scf sf
(Path Follower) dup sw 2 div 34.250000 ex sub 2.250000 m gs 1 -1 sc sh gr
1.000000 1.000000 1.000000 srgb
n 1.500000 0.750000 m 1.500000 3.000000 l 9.500000 3.000000 l 9.500000 0.750000 l f
0.100000 slw
[] 0 sd
[] 0 sd
0 slj
0.000000 0.000000 0.000000 srgb
n 1.500000 0.750000 m 1.500000 3.000000 l 9.500000 3.000000 l 9.500000 0.750000 l cp s
/Helvetica-latin1 ff 1.050000 scf sf
(Road Finding) dup sw 2 div 5.500000 ex sub 2.250000 m gs 1 -1 sc sh gr
1.000000 1.000000 1.000000 srgb
n 1.500000 5.750000 m 1.500000 9.500000 l 9.500000 9.500000 l 9.500000 5.750000 l f
0.100000 slw
[] 0 sd
[] 0 sd
0 slj
0.000000 0.000000 0.000000 srgb
n 1.500000 5.750000 m 1.500000 9.500000 l 9.500000 9.500000 l 9.500000 5.750000 l cp s
/Helvetica-latin1 ff 1.050000 scf sf
(Environment) dup sw 2 div 5.500000 ex sub 7.500000 m gs 1 -1 sc sh gr
(Sensors) dup sw 2 div 5.500000 ex sub 9.000000 m gs 1 -1 sc sh gr
0.100000 slw
[] 0 sd
[] 0 sd
0 slc
n 9.500000 7.625000 m 11.013197 7.625000 l s
[] 0 sd
0 slj
0 slc
n 11.388197 7.625000 m 10.888197 7.875000 l 11.013197 7.625000 l 10.888197 7.375000 l ef
n 11.388197 7.625000 m 10.888197 7.875000 l 11.013197 7.625000 l 10.888197 7.375000 l cp s
0.100000 slw
[] 0 sd
[] 0 sd
0 slc
n 9.500000 1.875000 m 11.013197 1.875000 l s
[] 0 sd
0 slj
0 slc
n 11.388197 1.875000 m 10.888197 2.125000 l 11.013197 1.875000 l 10.888197 1.625000 l ef
n 11.388197 1.875000 m 10.888197 2.125000 l 11.013197 1.875000 l 10.888197 1.625000 l cp s
0.100000 slw
[] 0 sd
[] 0 sd
0 slc
n 15.500000 6.500000 m 15.500000 3.486803 l s
[] 0 sd
0 slj
0 slc
n 15.500000 3.111803 m 15.750000 3.611803 l 15.500000 3.486803 l 15.250000 3.611803 l ef
n 15.500000 3.111803 m 15.750000 3.611803 l 15.500000 3.486803 l 15.250000 3.611803 l cp s
0.100000 slw
[] 0 sd
[] 0 sd
0 slc
n 19.500000 1.875000 m 20.513197 1.875000 l s
[] 0 sd
0 slj
0 slc
n 20.888197 1.875000 m 20.388197 2.125000 l 20.513197 1.875000 l 20.388197 1.625000 l ef
n 20.888197 1.875000 m 20.388197 2.125000 l 20.513197 1.875000 l 20.388197 1.625000 l cp s
0.100000 slw
[] 0 sd
[] 0 sd
0 slc
n 29.000000 1.875000 m 29.763197 1.875000 l s
[] 0 sd
0 slj
0 slc
n 30.138197 1.875000 m 29.638197 2.125000 l 29.763197 1.875000 l 29.638197 1.625000 l ef
n 30.138197 1.875000 m 29.638197 2.125000 l 29.763197 1.875000 l 29.638197 1.625000 l cp s
0.100000 slw
[] 0 sd
[] 0 sd
0 slc
n 38.250000 1.875000 m 39.513197 1.875000 l s
[] 0 sd
0 slj
0 slc
n 39.888197 1.875000 m 39.388197 2.125000 l 39.513197 1.875000 l 39.388197 1.625000 l ef
n 39.888197 1.875000 m 39.388197 2.125000 l 39.513197 1.875000 l 39.388197 1.625000 l cp s
1.000000 1.000000 1.000000 srgb
n 40.000000 6.500000 m 40.000000 8.750000 l 48.000000 8.750000 l 48.000000 6.500000 l f
0.100000 slw
[] 0 sd
[] 0 sd
0 slj
0.000000 0.000000 0.000000 srgb
n 40.000000 6.500000 m 40.000000 8.750000 l 48.000000 8.750000 l 48.000000 6.500000 l cp s
/Helvetica-latin1 ff 1.050000 scf sf
(Vehicle) dup sw 2 div 44.000000 ex sub 8.000000 m gs 1 -1 sc sh gr
0.100000 slw
[] 0 sd
[] 0 sd
0 slc
n 44.000000 4.460000 m 44.000000 6.013197 l s
[] 0 sd
0 slj
0 slc
n 44.000000 6.388197 m 43.750000 5.888197 l 44.000000 6.013197 l 44.250000 5.888197 l ef
n 44.000000 6.388197 m 43.750000 5.888197 l 44.000000 6.013197 l 44.250000 5.888197 l cp s
0.100000 slw
[] 0 sd
[] 0 sd
0 slj
0 slc
n 44.000000 8.750000 m 44.000000 12.375000 l 34.236803 12.375000 l s
[] 0 sd
0 slj
0 slc
n 33.861803 12.375000 m 34.361803 12.125000 l 34.236803 12.375000 l 34.361803 12.625000 l ef
n 33.861803 12.375000 m 34.361803 12.125000 l 34.236803 12.375000 l 34.361803 12.625000 l cp s
0.100000 slw
[] 0 sd
[] 0 sd
0 slj
0 slc
n 16.250000 12.375000 m 5.500000 12.375000 l 5.500000 9.986803 l s
[] 0 sd
0 slj
0 slc
n 5.500000 9.611803 m 5.750000 10.111803 l 5.500000 9.986803 l 5.250000 10.111803 l ef
n 5.500000 9.611803 m 5.750000 10.111803 l 5.500000 9.986803 l 5.250000 10.111803 l cp s
0.100000 slw
[] 0 sd
[] 0 sd
0 slc
n 34.250000 6.500000 m 34.250000 3.486803 l s
[] 0 sd
0 slj
0 slc
n 34.250000 3.111803 m 34.500000 3.611803 l 34.250000 3.486803 l 34.000000 3.611803 l ef
n 34.250000 3.111803 m 34.500000 3.611803 l 34.250000 3.486803 l 34.000000 3.611803 l cp s
1.000000 1.000000 1.000000 srgb
n 16.250000 11.250000 m 16.250000 13.500000 l 33.750000 13.500000 l 33.750000 11.250000 l f
0.100000 slw
[] 0 sd
[] 0 sd
0 slj
0.000000 0.000000 0.000000 srgb
n 16.250000 11.250000 m 16.250000 13.500000 l 33.750000 13.500000 l 33.750000 11.250000 l cp s
/Helvetica-latin1 ff 1.190000 scf sf
(Environment) dup sw 2 div 25.000000 ex sub 12.750000 m gs 1 -1 sc sh gr
0.100000 slw
[] 0 sd
[] 0 sd
0 slc
n 25.750000 11.250000 m 33.750000 11.250000 l s
0.100000 slw
[] 0 sd
[] 0 sd
0 slj
0 slc
n 16.250000 12.375000 m 0.500000 12.375000 l 0.500000 1.875000 l 1.013197 1.875000 l s
[] 0 sd
0 slj
0 slc
n 1.388197 1.875000 m 0.888197 2.125000 l 1.013197 1.875000 l 0.888197 1.625000 l ef
n 1.388197 1.875000 m 0.888197 2.125000 l 1.013197 1.875000 l 0.888197 1.625000 l cp s
0.100000 slw
[] 0 sd
[] 0 sd
0 slc
n 40.000000 7.625000 m 38.736803 7.625000 l s
[] 0 sd
0 slj
0 slc
n 38.361803 7.625000 m 38.861803 7.375000 l 38.736803 7.625000 l 38.861803 7.875000 l ef
n 38.361803 7.625000 m 38.861803 7.375000 l 38.736803 7.625000 l 38.861803 7.875000 l cp s
0.100000 slw
[] 0 sd
[] 0 sd
0 slc
n 40.000000 0.750000 m 40.000000 3.000000 l s
0.100000 slw
[] 0 sd
[] 0 sd
0 slc
n 30.250000 7.625000 m 19.986803 7.625000 l s
[] 0 sd
0 slj
0 slc
n 19.611803 7.625000 m 20.111803 7.375000 l 19.986803 7.625000 l 20.111803 7.875000 l ef
n 19.611803 7.625000 m 20.111803 7.375000 l 19.986803 7.625000 l 20.111803 7.875000 l cp s
0.100000 slw
[] 0 sd
[] 0 sd
0 slj
0 slc
n 25.000000 11.250000 m 25.000000 10.000000 l 34.250000 10.000000 l 34.250000 9.236803 l s
[] 0 sd
0 slj
0 slc
n 34.250000 8.861803 m 34.500000 9.361803 l 34.250000 9.236803 l 34.000000 9.361803 l ef
n 34.250000 8.861803 m 34.500000 9.361803 l 34.250000 9.236803 l 34.000000 9.361803 l cp s
showpage
