%!PS-Adobe-2.0 EPSF-2.0
%%Title: /home/klk/TerrainArch_jfr05.dia
%%Creator: Dia v0.94
%%CreationDate: Wed Nov 30 16:26:48 2005
%%For: klk
%%Orientation: Portrait
%%Magnification: 1.0000
%%BoundingBox: 0 0 1429 762
%%BeginSetup
%%EndSetup
%%EndComments
%%BeginProlog
[ /.notdef /.notdef /.notdef /.notdef /.notdef /.notdef /.notdef /.notdef /.notdef /.notdef
/.notdef /.notdef /.notdef /.notdef /.notdef /.notdef /.notdef /.notdef /.notdef /.notdef
/.notdef /.notdef /.notdef /.notdef /.notdef /.notdef /.notdef /.notdef /.notdef /.notdef
/.notdef /.notdef /space /exclam /quotedbl /numbersign /dollar /percent /ampersand /quoteright
/parenleft /parenright /asterisk /plus /comma /hyphen /period /slash /zero /one
/two /three /four /five /six /seven /eight /nine /colon /semicolon
/less /equal /greater /question /at /A /B /C /D /E
/F /G /H /I /J /K /L /M /N /O
/P /Q /R /S /T /U /V /W /X /Y
/Z /bracketleft /backslash /bracketright /asciicircum /underscore /quoteleft /a /b /c
/d /e /f /g /h /i /j /k /l /m
/n /o /p /q /r /s /t /u /v /w
/x /y /z /braceleft /bar /braceright /asciitilde /.notdef /.notdef /.notdef
/.notdef /.notdef /.notdef /.notdef /.notdef /.notdef /.notdef /.notdef /.notdef /.notdef
/.notdef /.notdef /.notdef /.notdef /.notdef /.notdef /.notdef /.notdef /.notdef /.notdef
/.notdef /.notdef /.notdef /.notdef /.notdef /.notdef /.notdef /.notdef /.notdef /.notdef
/space /exclamdown /cent /sterling /currency /yen /brokenbar /section /dieresis /copyright
/ordfeminine /guillemotleft /logicalnot /hyphen /registered /macron /degree /plusminus /twosuperior /threesuperior
/acute /mu /paragraph /periodcentered /cedilla /onesuperior /ordmasculine /guillemotright /onequarter /onehalf
/threequarters /questiondown /Agrave /Aacute /Acircumflex /Atilde /Adieresis /Aring /AE /Ccedilla
/Egrave /Eacute /Ecircumflex /Edieresis /Igrave /Iacute /Icircumflex /Idieresis /Eth /Ntilde
/Ograve /Oacute /Ocircumflex /Otilde /Odieresis /multiply /Oslash /Ugrave /Uacute /Ucircumflex
/Udieresis /Yacute /Thorn /germandbls /agrave /aacute /acircumflex /atilde /adieresis /aring
/ae /ccedilla /egrave /eacute /ecircumflex /edieresis /igrave /iacute /icircumflex /idieresis
/eth /ntilde /ograve /oacute /ocircumflex /otilde /odieresis /divide /oslash /ugrave
/uacute /ucircumflex /udieresis /yacute /thorn /ydieresis] /isolatin1encoding exch def
/cp {closepath} bind def
/c {curveto} bind def
/f {fill} bind def
/a {arc} bind def
/ef {eofill} bind def
/ex {exch} bind def
/gr {grestore} bind def
/gs {gsave} bind def
/sa {save} bind def
/rs {restore} bind def
/l {lineto} bind def
/m {moveto} bind def
/rm {rmoveto} bind def
/n {newpath} bind def
/s {stroke} bind def
/sh {show} bind def
/slc {setlinecap} bind def
/slj {setlinejoin} bind def
/slw {setlinewidth} bind def
/srgb {setrgbcolor} bind def
/rot {rotate} bind def
/sc {scale} bind def
/sd {setdash} bind def
/ff {findfont} bind def
/sf {setfont} bind def
/scf {scalefont} bind def
/sw {stringwidth pop} bind def
/tr {translate} bind def

/ellipsedict 8 dict def
ellipsedict /mtrx matrix put
/ellipse
{ ellipsedict begin
   /endangle exch def
   /startangle exch def
   /yrad exch def
   /xrad exch def
   /y exch def
   /x exch def   /savematrix mtrx currentmatrix def
   x y tr xrad yrad sc
   0 0 1 startangle endangle arc
   savematrix setmatrix
   end
} def

/mergeprocs {
dup length
3 -1 roll
dup
length
dup
5 1 roll
3 -1 roll
add
array cvx
dup
3 -1 roll
0 exch
putinterval
dup
4 2 roll
putinterval
} bind def
/Times-Roman-latin1
    /Times-Roman findfont
    dup length dict begin
	{1 index /FID ne {def} {pop pop} ifelse} forall
	/Encoding isolatin1encoding def
    currentdict end
definefont pop
/Times-Italic-latin1
    /Times-Italic findfont
    dup length dict begin
	{1 index /FID ne {def} {pop pop} ifelse} forall
	/Encoding isolatin1encoding def
    currentdict end
definefont pop
/Times-Bold-latin1
    /Times-Bold findfont
    dup length dict begin
	{1 index /FID ne {def} {pop pop} ifelse} forall
	/Encoding isolatin1encoding def
    currentdict end
definefont pop
/Times-BoldItalic-latin1
    /Times-BoldItalic findfont
    dup length dict begin
	{1 index /FID ne {def} {pop pop} ifelse} forall
	/Encoding isolatin1encoding def
    currentdict end
definefont pop
/AvantGarde-Book-latin1
    /AvantGarde-Book findfont
    dup length dict begin
	{1 index /FID ne {def} {pop pop} ifelse} forall
	/Encoding isolatin1encoding def
    currentdict end
definefont pop
/AvantGarde-BookOblique-latin1
    /AvantGarde-BookOblique findfont
    dup length dict begin
	{1 index /FID ne {def} {pop pop} ifelse} forall
	/Encoding isolatin1encoding def
    currentdict end
definefont pop
/AvantGarde-Demi-latin1
    /AvantGarde-Demi findfont
    dup length dict begin
	{1 index /FID ne {def} {pop pop} ifelse} forall
	/Encoding isolatin1encoding def
    currentdict end
definefont pop
/AvantGarde-DemiOblique-latin1
    /AvantGarde-DemiOblique findfont
    dup length dict begin
	{1 index /FID ne {def} {pop pop} ifelse} forall
	/Encoding isolatin1encoding def
    currentdict end
definefont pop
/Bookman-Light-latin1
    /Bookman-Light findfont
    dup length dict begin
	{1 index /FID ne {def} {pop pop} ifelse} forall
	/Encoding isolatin1encoding def
    currentdict end
definefont pop
/Bookman-LightItalic-latin1
    /Bookman-LightItalic findfont
    dup length dict begin
	{1 index /FID ne {def} {pop pop} ifelse} forall
	/Encoding isolatin1encoding def
    currentdict end
definefont pop
/Bookman-Demi-latin1
    /Bookman-Demi findfont
    dup length dict begin
	{1 index /FID ne {def} {pop pop} ifelse} forall
	/Encoding isolatin1encoding def
    currentdict end
definefont pop
/Bookman-DemiItalic-latin1
    /Bookman-DemiItalic findfont
    dup length dict begin
	{1 index /FID ne {def} {pop pop} ifelse} forall
	/Encoding isolatin1encoding def
    currentdict end
definefont pop
/Courier-latin1
    /Courier findfont
    dup length dict begin
	{1 index /FID ne {def} {pop pop} ifelse} forall
	/Encoding isolatin1encoding def
    currentdict end
definefont pop
/Courier-Oblique-latin1
    /Courier-Oblique findfont
    dup length dict begin
	{1 index /FID ne {def} {pop pop} ifelse} forall
	/Encoding isolatin1encoding def
    currentdict end
definefont pop
/Courier-Bold-latin1
    /Courier-Bold findfont
    dup length dict begin
	{1 index /FID ne {def} {pop pop} ifelse} forall
	/Encoding isolatin1encoding def
    currentdict end
definefont pop
/Courier-BoldOblique-latin1
    /Courier-BoldOblique findfont
    dup length dict begin
	{1 index /FID ne {def} {pop pop} ifelse} forall
	/Encoding isolatin1encoding def
    currentdict end
definefont pop
/Helvetica-latin1
    /Helvetica findfont
    dup length dict begin
	{1 index /FID ne {def} {pop pop} ifelse} forall
	/Encoding isolatin1encoding def
    currentdict end
definefont pop
/Helvetica-Oblique-latin1
    /Helvetica-Oblique findfont
    dup length dict begin
	{1 index /FID ne {def} {pop pop} ifelse} forall
	/Encoding isolatin1encoding def
    currentdict end
definefont pop
/Helvetica-Bold-latin1
    /Helvetica-Bold findfont
    dup length dict begin
	{1 index /FID ne {def} {pop pop} ifelse} forall
	/Encoding isolatin1encoding def
    currentdict end
definefont pop
/Helvetica-BoldOblique-latin1
    /Helvetica-BoldOblique findfont
    dup length dict begin
	{1 index /FID ne {def} {pop pop} ifelse} forall
	/Encoding isolatin1encoding def
    currentdict end
definefont pop
/Helvetica-Narrow-latin1
    /Helvetica-Narrow findfont
    dup length dict begin
	{1 index /FID ne {def} {pop pop} ifelse} forall
	/Encoding isolatin1encoding def
    currentdict end
definefont pop
/Helvetica-Narrow-Oblique-latin1
    /Helvetica-Narrow-Oblique findfont
    dup length dict begin
	{1 index /FID ne {def} {pop pop} ifelse} forall
	/Encoding isolatin1encoding def
    currentdict end
definefont pop
/Helvetica-Narrow-Bold-latin1
    /Helvetica-Narrow-Bold findfont
    dup length dict begin
	{1 index /FID ne {def} {pop pop} ifelse} forall
	/Encoding isolatin1encoding def
    currentdict end
definefont pop
/Helvetica-Narrow-BoldOblique-latin1
    /Helvetica-Narrow-BoldOblique findfont
    dup length dict begin
	{1 index /FID ne {def} {pop pop} ifelse} forall
	/Encoding isolatin1encoding def
    currentdict end
definefont pop
/NewCenturySchoolbook-Roman-latin1
    /NewCenturySchoolbook-Roman findfont
    dup length dict begin
	{1 index /FID ne {def} {pop pop} ifelse} forall
	/Encoding isolatin1encoding def
    currentdict end
definefont pop
/NewCenturySchoolbook-Italic-latin1
    /NewCenturySchoolbook-Italic findfont
    dup length dict begin
	{1 index /FID ne {def} {pop pop} ifelse} forall
	/Encoding isolatin1encoding def
    currentdict end
definefont pop
/NewCenturySchoolbook-Bold-latin1
    /NewCenturySchoolbook-Bold findfont
    dup length dict begin
	{1 index /FID ne {def} {pop pop} ifelse} forall
	/Encoding isolatin1encoding def
    currentdict end
definefont pop
/NewCenturySchoolbook-BoldItalic-latin1
    /NewCenturySchoolbook-BoldItalic findfont
    dup length dict begin
	{1 index /FID ne {def} {pop pop} ifelse} forall
	/Encoding isolatin1encoding def
    currentdict end
definefont pop
/Palatino-Roman-latin1
    /Palatino-Roman findfont
    dup length dict begin
	{1 index /FID ne {def} {pop pop} ifelse} forall
	/Encoding isolatin1encoding def
    currentdict end
definefont pop
/Palatino-Italic-latin1
    /Palatino-Italic findfont
    dup length dict begin
	{1 index /FID ne {def} {pop pop} ifelse} forall
	/Encoding isolatin1encoding def
    currentdict end
definefont pop
/Palatino-Bold-latin1
    /Palatino-Bold findfont
    dup length dict begin
	{1 index /FID ne {def} {pop pop} ifelse} forall
	/Encoding isolatin1encoding def
    currentdict end
definefont pop
/Palatino-BoldItalic-latin1
    /Palatino-BoldItalic findfont
    dup length dict begin
	{1 index /FID ne {def} {pop pop} ifelse} forall
	/Encoding isolatin1encoding def
    currentdict end
definefont pop
/Symbol-latin1
    /Symbol findfont
definefont pop
/ZapfChancery-MediumItalic-latin1
    /ZapfChancery-MediumItalic findfont
    dup length dict begin
	{1 index /FID ne {def} {pop pop} ifelse} forall
	/Encoding isolatin1encoding def
    currentdict end
definefont pop
/ZapfDingbats-latin1
    /ZapfDingbats findfont
    dup length dict begin
	{1 index /FID ne {def} {pop pop} ifelse} forall
	/Encoding isolatin1encoding def
    currentdict end
definefont pop
28.346000 -28.346000 scale
-0.950000 -30.550000 translate
%%EndProlog


0.300000 slw
[] 0 sd
[] 0 sd
0 slj
0 slc
1.000000 1.000000 0.000000 srgb
n 22.750000 24.250000 m 24.500000 24.250000 l 24.500000 25.125000 l 27.789590 25.125000 l s
[] 0 sd
0 slj
0 slc
n 28.164590 25.125000 m 27.664590 25.375000 l 27.789590 25.125000 l 27.664590 24.875000 l ef
n 28.164590 25.125000 m 27.664590 25.375000 l 27.789590 25.125000 l 27.664590 24.875000 l cp s
0.300000 slw
[] 0 sd
[] 0 sd
0 slj
0 slc
n 22.750000 20.000000 m 25.750000 20.000000 l 25.750000 23.250000 l 27.789590 23.250000 l s
[] 0 sd
0 slj
0 slc
n 28.164590 23.250000 m 27.664590 23.500000 l 27.789590 23.250000 l 27.664590 23.000000 l ef
n 28.164590 23.250000 m 27.664590 23.500000 l 27.789590 23.250000 l 27.664590 23.000000 l cp s
0.300000 slw
[] 0 sd
[] 0 sd
0 slj
0 slc
n 22.750000 5.250000 m 27.250000 5.250000 l 27.250000 11.575000 l 27.839590 11.575000 l s
[] 0 sd
0 slj
0 slc
n 28.214590 11.575000 m 27.714590 11.825000 l 27.839590 11.575000 l 27.714590 11.325000 l ef
n 28.214590 11.575000 m 27.714590 11.825000 l 27.839590 11.575000 l 27.714590 11.325000 l cp s
0.300000 slw
[] 0 sd
[] 0 sd
0 slj
0 slc
0.498039 0.498039 0.498039 srgb
n 36.550000 13.450000 m 39.750000 13.450000 l 39.750000 18.271400 l 42.539590 18.271400 l s
[] 0 sd
0 slj
0 slc
n 42.914590 18.271400 m 42.414590 18.521400 l 42.539590 18.271400 l 42.414590 18.021400 l ef
n 42.914590 18.271400 m 42.414590 18.521400 l 42.539590 18.271400 l 42.414590 18.021400 l cp s
0.300000 slw
[] 0 sd
[] 0 sd
0 slj
0 slc
1.000000 1.000000 0.000000 srgb
n 36.500000 17.000000 m 37.250000 17.000000 l 37.250000 20.042900 l 42.539590 20.042900 l s
[] 0 sd
0 slj
0 slc
n 42.914590 20.042900 m 42.414590 20.292900 l 42.539590 20.042900 l 42.414590 19.792900 l ef
n 42.914590 20.042900 m 42.414590 20.292900 l 42.539590 20.042900 l 42.414590 19.792900 l cp s
0.300000 slw
[] 0 sd
[] 0 sd
0 slj
0 slc
0.000000 1.000000 0.000000 srgb
n 14.750000 20.000000 m 10.500000 20.000000 l 10.500000 15.875000 l 9.710410 15.875000 l s
[] 0 sd
0 slj
0 slc
n 9.335410 15.875000 m 9.835410 15.625000 l 9.710410 15.875000 l 9.835410 16.125000 l ef
n 9.335410 15.875000 m 9.835410 15.625000 l 9.710410 15.875000 l 9.835410 16.125000 l cp s
0.300000 slw
[] 0 sd
[] 0 sd
0 slj
0 slc
n 14.750000 24.250000 m 10.500000 24.250000 l 10.500000 15.875000 l 9.710410 15.875000 l s
[] 0 sd
0 slj
0 slc
n 9.335410 15.875000 m 9.835410 15.625000 l 9.710410 15.875000 l 9.835410 16.125000 l ef
n 9.335410 15.875000 m 9.835410 15.625000 l 9.710410 15.875000 l 9.835410 16.125000 l cp s
0.300000 slw
[] 0 sd
[] 0 sd
0 slj
0 slc
1.000000 1.000000 0.000000 srgb
n 14.750000 5.250000 m 10.500000 5.250000 l 10.500000 15.875000 l 9.710410 15.875000 l s
[] 0 sd
0 slj
0 slc
n 9.335410 15.875000 m 9.835410 15.625000 l 9.710410 15.875000 l 9.835410 16.125000 l ef
n 9.335410 15.875000 m 9.835410 15.625000 l 9.710410 15.875000 l 9.835410 16.125000 l cp s
0.300000 slw
[] 0 sd
[] 0 sd
0 slj
0 slc
0.000000 1.000000 0.000000 srgb
n 36.500000 24.500000 m 38.250000 24.500000 l 38.250000 25.357100 l 42.539590 25.357100 l s
[] 0 sd
0 slj
0 slc
n 42.914590 25.357100 m 42.414590 25.607100 l 42.539590 25.357100 l 42.414590 25.107100 l ef
n 42.914590 25.357100 m 42.414590 25.607100 l 42.539590 25.357100 l 42.414590 25.107100 l cp s
0.300000 slw
[] 0 sd
[] 0 sd
0 slj
0 slc
0.980392 0.980392 0.000000 srgb
n 36.550000 7.150000 m 41.500000 7.150000 l 41.500000 16.500000 l 42.539590 16.500000 l s
[] 0 sd
0 slj
0 slc
n 42.914590 16.500000 m 42.414590 16.750000 l 42.539590 16.500000 l 42.414590 16.250000 l ef
n 42.914590 16.500000 m 42.414590 16.750000 l 42.539590 16.500000 l 42.414590 16.250000 l cp s
0.300000 slw
[] 0 sd
[] 0 sd
0 slj
0 slc
1.000000 1.000000 0.000000 srgb
n 22.750000 12.375000 m 24.000000 12.375000 l 24.000000 17.000000 l 27.789590 17.000000 l s
[] 0 sd
0 slj
0 slc
n 28.164590 17.000000 m 27.664590 17.250000 l 27.789590 17.000000 l 27.664590 16.750000 l ef
n 28.164590 17.000000 m 27.664590 17.250000 l 27.789590 17.000000 l 27.664590 16.750000 l cp s
0.300000 slw
[] 0 sd
[] 0 sd
0 slj
0 slc
0.000000 1.000000 0.000000 srgb
n 22.750000 5.250000 m 27.250000 5.250000 l 27.250000 7.150000 l 27.839590 7.150000 l s
[] 0 sd
0 slj
0 slc
n 28.214590 7.150000 m 27.714590 7.400000 l 27.839590 7.150000 l 27.714590 6.900000 l ef
n 28.214590 7.150000 m 27.714590 7.400000 l 27.839590 7.150000 l 27.714590 6.900000 l cp s
0.300000 slw
[] 0 sd
[] 0 sd
0 slc
n 47.250000 16.500000 m 47.293928 11.360384 l s
[] 0 sd
0 slj
0 slc
n 47.297133 10.985398 m 47.542851 11.487516 l 47.293928 11.360384 l 47.042869 11.483243 l ef
n 47.297133 10.985398 m 47.542851 11.487516 l 47.293928 11.360384 l 47.042869 11.483243 l cp s
0.300000 slw
[] 0 sd
[] 0 sd
0 slj
0 slc
n 14.750000 8.375000 m 10.500000 8.375000 l 10.500000 15.875000 l 9.710410 15.875000 l s
[] 0 sd
0 slj
0 slc
n 9.335410 15.875000 m 9.835410 15.625000 l 9.710410 15.875000 l 9.835410 16.125000 l ef
n 9.335410 15.875000 m 9.835410 15.625000 l 9.710410 15.875000 l 9.835410 16.125000 l cp s
0.100000 slw
[] 0 sd
[] 0 sd
0 slj
0 slc
n 14.750000 18.750000 m 22.750000 18.750000 l 22.750000 21.250000 l 14.750000 21.250000 l 14.750000 20.000000 l ef
0.000000 0.000000 0.000000 srgb
n 14.750000 18.750000 m 22.750000 18.750000 l 22.750000 21.250000 l 14.750000 21.250000 l 14.750000 20.000000 l cp s
/Helvetica-latin1 ff 1.050000 scf sf
(GPS) dup sw 2 div 18.700000 ex sub 20.450000 m gs 1 -1 sc sh gr
0.100000 slw
[] 0 sd
[] 0 sd
0 slj
0 slc
0.000000 1.000000 0.000000 srgb
n 14.750000 23.000000 m 22.750000 23.000000 l 22.750000 25.500000 l 14.750000 25.500000 l 14.750000 24.250000 l ef
0.000000 0.000000 0.000000 srgb
n 14.750000 23.000000 m 22.750000 23.000000 l 22.750000 25.500000 l 14.750000 25.500000 l 14.750000 24.250000 l cp s
/Helvetica-latin1 ff 1.050000 scf sf
(IMU) dup sw 2 div 18.650000 ex sub 24.650000 m gs 1 -1 sc sh gr
0.100000 slw
[] 0 sd
[] 0 sd
0 slj
0 slc
1.000000 1.000000 0.000000 srgb
n 14.750000 4.000000 m 22.750000 4.000000 l 22.750000 6.500000 l 14.750000 6.500000 l 14.750000 5.250000 l ef
0.000000 0.000000 0.000000 srgb
n 14.750000 4.000000 m 22.750000 4.000000 l 22.750000 6.500000 l 14.750000 6.500000 l 14.750000 5.250000 l cp s
/Helvetica-latin1 ff 1.050000 scf sf
(Cameras) dup sw 2 div 18.700000 ex sub 5.650000 m gs 1 -1 sc sh gr
0.100000 slw
[] 0 sd
[] 0 sd
0 slj
0 slc
1.000000 0.000000 0.000000 srgb
n 1.000000 4.000000 m 9.000000 4.000000 l 9.000000 11.000000 l 1.000000 11.000000 l 1.000000 7.500000 l ef
0.000000 0.000000 0.000000 srgb
n 1.000000 4.000000 m 9.000000 4.000000 l 9.000000 11.000000 l 1.000000 11.000000 l 1.000000 7.500000 l cp s
/Helvetica-latin1 ff 1.050000 scf sf
(Sensor) dup sw 2 div 5.000000 ex sub 7.153750 m gs 1 -1 sc sh gr
(Calibration) dup sw 2 div 5.000000 ex sub 8.653750 m gs 1 -1 sc sh gr
1.000000 0.000000 0.000000 srgb
n 1.250000 22.250000 m 1.250000 26.750000 l 9.250000 26.750000 l 9.250000 22.250000 l f
0.100000 slw
[] 0 sd
[] 0 sd
0 slj
0.000000 0.000000 0.000000 srgb
n 1.250000 22.250000 m 1.250000 26.750000 l 9.250000 26.750000 l 9.250000 22.250000 l cp s
/Helvetica-latin1 ff 1.050000 scf sf
(Gimbal) dup sw 2 div 5.250000 ex sub 24.250000 m gs 1 -1 sc sh gr
(Pointing) dup sw 2 div 5.250000 ex sub 25.750000 m gs 1 -1 sc sh gr
1.000000 1.000000 1.000000 srgb
n 6.250000 22.250000 m 6.250000 23.250000 l 9.250000 23.250000 l 9.250000 22.250000 l f
0.100000 slw
[] 0 sd
[] 0 sd
0 slj
0.000000 0.000000 0.000000 srgb
n 6.250000 22.250000 m 6.250000 23.250000 l 9.250000 23.250000 l 9.250000 22.250000 l cp s
/Helvetica-latin1 ff 0.560000 scf sf
(Vehicle) dup sw 2 div 7.750000 ex sub 23.000000 m gs 1 -1 sc sh gr
0.100000 slw
[] 0 sd
[] 0 sd
0 slj
0 slc
1.000000 1.000000 0.000000 srgb
n 28.550000 10.950000 m 36.550000 10.950000 l 36.550000 13.450000 l 28.550000 13.450000 l 28.550000 12.200000 l ef
0.000000 0.000000 0.000000 srgb
n 28.550000 10.950000 m 36.550000 10.950000 l 36.550000 13.450000 l 28.550000 13.450000 l 28.550000 12.200000 l cp s
/Helvetica-latin1 ff 1.050000 scf sf
(Road Finding) dup sw 2 div 32.500000 ex sub 12.600000 m gs 1 -1 sc sh gr
0.100000 slw
[] 0 sd
[] 0 sd
0 slj
0 slc
1.000000 1.000000 0.000000 srgb
n 28.550000 5.900000 m 36.550000 5.900000 l 36.550000 8.400000 l 28.550000 8.400000 l 28.550000 7.150000 l ef
0.000000 0.000000 0.000000 srgb
n 28.550000 5.900000 m 36.550000 5.900000 l 36.550000 8.400000 l 28.550000 8.400000 l 28.550000 7.150000 l cp s
/Helvetica-latin1 ff 1.050000 scf sf
(Stereo Feeder) dup sw 2 div 32.550000 ex sub 7.550000 m gs 1 -1 sc sh gr
0.100000 slw
[] 0 sd
[] 0 sd
0 slj
0 slc
1.000000 1.000000 0.000000 srgb
n 28.500000 15.750000 m 36.500000 15.750000 l 36.500000 18.250000 l 28.500000 18.250000 l 28.500000 17.000000 l ef
0.000000 0.000000 0.000000 srgb
n 28.500000 15.750000 m 36.500000 15.750000 l 36.500000 18.250000 l 28.500000 18.250000 l 28.500000 17.000000 l cp s
/Helvetica-latin1 ff 1.050000 scf sf
(Ladar Feeder) dup sw 2 div 32.400000 ex sub 17.400000 m gs 1 -1 sc sh gr
0.100000 slw
[] 0 sd
[] 0 sd
0 slj
0 slc
1.000000 1.000000 0.000000 srgb
n 28.500000 23.250000 m 36.500000 23.250000 l 36.500000 25.750000 l 28.500000 25.750000 l 28.500000 24.500000 l ef
0.000000 0.000000 0.000000 srgb
n 28.500000 23.250000 m 36.500000 23.250000 l 36.500000 25.750000 l 28.500000 25.750000 l 28.500000 24.500000 l cp s
/Helvetica-latin1 ff 1.050000 scf sf
(State Server) dup sw 2 div 32.500000 ex sub 24.900000 m gs 1 -1 sc sh gr
0.117647 0.564706 1.000000 srgb
n 1.000000 13.750000 m 1.000000 18.000000 l 9.000000 18.000000 l 9.000000 13.750000 l f
0.100000 slw
[] 0 sd
[] 0 sd
0 slj
0.000000 0.000000 0.000000 srgb
n 1.000000 13.750000 m 1.000000 18.000000 l 9.000000 18.000000 l 9.000000 13.750000 l cp s
/Helvetica-latin1 ff 1.050000 scf sf
(Sensor Mounts/) dup sw 2 div 5.000000 ex sub 16.000000 m gs 1 -1 sc sh gr
(Gimbal) dup sw 2 div 5.000000 ex sub 17.500000 m gs 1 -1 sc sh gr
1.000000 1.000000 1.000000 srgb
n 6.000000 13.750000 m 6.000000 14.750000 l 9.000000 14.750000 l 9.000000 13.750000 l f
0.100000 slw
[] 0 sd
[] 0 sd
0 slj
0.000000 0.000000 0.000000 srgb
n 6.000000 13.750000 m 6.000000 14.750000 l 9.000000 14.750000 l 9.000000 13.750000 l cp s
/Helvetica-latin1 ff 0.560000 scf sf
(Vehicle) dup sw 2 div 7.500000 ex sub 14.500000 m gs 1 -1 sc sh gr
1.000000 1.000000 0.000000 srgb
n 43.250000 16.500000 m 43.250000 28.900000 l 51.250000 28.900000 l 51.250000 16.500000 l f
0.100000 slw
[] 0 sd
[] 0 sd
0 slj
0.000000 0.000000 0.000000 srgb
n 43.250000 16.500000 m 43.250000 28.900000 l 51.250000 28.900000 l 51.250000 16.500000 l cp s
/Helvetica-latin1 ff 1.050000 scf sf
(Fusion Mapper) dup sw 2 div 47.400000 ex sub 22.500000 m gs 1 -1 sc sh gr
0.100000 slw
[] 0 sd
[] 0 sd
0 slc
n 43.250000 16.500000 m 43.250000 28.900000 l s
0.300000 slw
[] 0 sd
[] 0 sd
0 slj
0 slc
1.000000 1.000000 0.000000 srgb
n 22.750000 12.375000 m 24.000000 12.375000 l 24.000000 12.825000 l 27.839590 12.825000 l s
[] 0 sd
0 slj
0 slc
n 28.214590 12.825000 m 27.714590 13.075000 l 27.839590 12.825000 l 27.714590 12.575000 l ef
n 28.214590 12.825000 m 27.714590 13.075000 l 27.839590 12.825000 l 27.714590 12.575000 l cp s
0.300000 slw
[] 0 sd
[] 0 sd
0 slj
0 slc
1.000000 0.000000 0.000000 srgb
n 47.250000 28.900000 m 47.250000 29.750000 l 5.250000 29.750000 l 5.250000 27.460410 l s
[] 0 sd
0 slj
0 slc
n 5.250000 27.085410 m 5.500000 27.585410 l 5.250000 27.460410 l 5.000000 27.585410 l ef
n 5.250000 27.085410 m 5.500000 27.585410 l 5.250000 27.460410 l 5.000000 27.585410 l cp s
0.117647 0.564706 1.000000 srgb
n 43.300000 6.400000 m 43.300000 10.650000 l 51.300000 10.650000 l 51.300000 6.400000 l f
0.100000 slw
[] 0 sd
[] 0 sd
0 slj
0.000000 0.000000 0.000000 srgb
n 43.300000 6.400000 m 43.300000 10.650000 l 51.300000 10.650000 l 51.300000 6.400000 l cp s
/Helvetica-latin1 ff 1.050000 scf sf
(Planning) dup sw 2 div 47.300000 ex sub 8.900000 m gs 1 -1 sc sh gr
1.000000 1.000000 0.000000 srgb
n 14.750000 9.000000 m 14.750000 11.250000 l 22.750000 11.250000 l 22.750000 9.000000 l f
0.100000 slw
[] 0 sd
[] 0 sd
0 slj
0.000000 0.000000 0.000000 srgb
n 14.750000 9.000000 m 14.750000 11.250000 l 22.750000 11.250000 l 22.750000 9.000000 l cp s
1.000000 1.000000 0.000000 srgb
n 14.750000 13.500000 m 14.750000 15.750000 l 22.750000 15.750000 l 22.750000 13.500000 l f
0.100000 slw
[] 0 sd
[] 0 sd
0 slj
0.000000 0.000000 0.000000 srgb
n 14.750000 13.500000 m 14.750000 15.750000 l 22.750000 15.750000 l 22.750000 13.500000 l cp s
1.000000 1.000000 1.000000 srgb
n 14.750000 7.750000 m 14.750000 9.000000 l 22.750000 9.000000 l 22.750000 7.750000 l f
0.100000 slw
[] 0 sd
[] 0 sd
0 slj
0.000000 0.000000 0.000000 srgb
n 14.750000 7.750000 m 14.750000 9.000000 l 22.750000 9.000000 l 22.750000 7.750000 l cp s
/Helvetica-latin1 ff 1.050000 scf sf
(Ladars) dup sw 2 div 18.750000 ex sub 8.700000 m gs 1 -1 sc sh gr
/Helvetica-latin1 ff 1.050000 scf sf
(SICK 291) dup sw 2 div 18.750000 ex sub 15.000000 m gs 1 -1 sc sh gr
1.000000 1.000000 0.000000 srgb
n 14.750000 11.250000 m 14.750000 13.500000 l 22.750000 13.500000 l 22.750000 11.250000 l f
0.100000 slw
[] 0 sd
[] 0 sd
0 slj
0.000000 0.000000 0.000000 srgb
n 14.750000 11.250000 m 14.750000 13.500000 l 22.750000 13.500000 l 22.750000 11.250000 l cp s
/Helvetica-latin1 ff 1.050000 scf sf
(SICK 221) dup sw 2 div 18.750000 ex sub 12.750000 m gs 1 -1 sc sh gr
/Helvetica-latin1 ff 1.050000 scf sf
(Riegl) dup sw 2 div 18.750000 ex sub 10.500000 m gs 1 -1 sc sh gr
1.000000 1.000000 1.000000 srgb
n 23.772500 20.750000 m 23.772500 22.500000 l 27.272500 22.500000 l 27.272500 20.750000 l f
0.100000 slw
[] 0 sd
[] 0 sd
0 slj
0.000000 0.000000 0.000000 srgb
n 23.772500 20.750000 m 23.772500 22.500000 l 27.272500 22.500000 l 27.272500 20.750000 l cp s
/Helvetica-latin1 ff 0.560000 scf sf
(Raw GPS) dup sw 2 div 25.511200 ex sub 21.500000 m gs 1 -1 sc sh gr
(Data) dup sw 2 div 25.511200 ex sub 22.300000 m gs 1 -1 sc sh gr
1.000000 1.000000 1.000000 srgb
n 23.761200 24.500000 m 23.761200 26.250000 l 27.261200 26.250000 l 27.261200 24.500000 l f
0.100000 slw
[] 0 sd
[] 0 sd
0 slj
0.000000 0.000000 0.000000 srgb
n 23.761200 24.500000 m 23.761200 26.250000 l 27.261200 26.250000 l 27.261200 24.500000 l cp s
/Helvetica-latin1 ff 0.560000 scf sf
(Raw IMU) dup sw 2 div 25.500000 ex sub 25.250000 m gs 1 -1 sc sh gr
(Data) dup sw 2 div 25.500000 ex sub 26.050000 m gs 1 -1 sc sh gr
1.000000 1.000000 1.000000 srgb
n 23.511200 11.500000 m 23.511200 13.250000 l 27.011200 13.250000 l 27.011200 11.500000 l f
0.100000 slw
[] 0 sd
[] 0 sd
0 slj
0.000000 0.000000 0.000000 srgb
n 23.511200 11.500000 m 23.511200 13.250000 l 27.011200 13.250000 l 27.011200 11.500000 l cp s
/Helvetica-latin1 ff 0.560000 scf sf
(Range) dup sw 2 div 25.150000 ex sub 12.250000 m gs 1 -1 sc sh gr
(measmnts) dup sw 2 div 25.150000 ex sub 13.050000 m gs 1 -1 sc sh gr
1.000000 1.000000 1.000000 srgb
n 23.761200 3.750000 m 23.761200 5.500000 l 27.261200 5.500000 l 27.261200 3.750000 l f
0.100000 slw
[] 0 sd
[] 0 sd
0 slj
0.000000 0.000000 0.000000 srgb
n 23.761200 3.750000 m 23.761200 5.500000 l 27.261200 5.500000 l 27.261200 3.750000 l cp s
/Helvetica-latin1 ff 0.560000 scf sf
(Image) dup sw 2 div 25.511200 ex sub 4.500000 m gs 1 -1 sc sh gr
(Pairs) dup sw 2 div 25.511200 ex sub 5.300000 m gs 1 -1 sc sh gr
1.000000 1.000000 1.000000 srgb
n 37.761300 28.750000 m 37.761300 30.500000 l 41.261300 30.500000 l 41.261300 28.750000 l f
0.100000 slw
[] 0 sd
[] 0 sd
0 slj
0.000000 0.000000 0.000000 srgb
n 37.761300 28.750000 m 37.761300 30.500000 l 41.261300 30.500000 l 41.261300 28.750000 l cp s
/Helvetica-latin1 ff 0.560000 scf sf
(Terrain Map) dup sw 2 div 39.450000 ex sub 29.750000 m gs 1 -1 sc sh gr
1.000000 1.000000 1.000000 srgb
n 37.500000 23.500000 m 37.500000 25.250000 l 41.000000 25.250000 l 41.000000 23.500000 l f
0.100000 slw
[] 0 sd
[] 0 sd
0 slj
0.000000 0.000000 0.000000 srgb
n 37.500000 23.500000 m 37.500000 25.250000 l 41.000000 25.250000 l 41.000000 23.500000 l cp s
/Helvetica-latin1 ff 0.560000 scf sf
(Vehicle) dup sw 2 div 39.238700 ex sub 24.250000 m gs 1 -1 sc sh gr
(State) dup sw 2 div 39.238700 ex sub 25.050000 m gs 1 -1 sc sh gr
1.000000 1.000000 1.000000 srgb
n 37.550000 5.400000 m 37.550000 7.150000 l 41.050000 7.150000 l 41.050000 5.400000 l f
0.100000 slw
[] 0 sd
[] 0 sd
0 slj
0.000000 0.000000 0.000000 srgb
n 37.550000 5.400000 m 37.550000 7.150000 l 41.050000 7.150000 l 41.050000 5.400000 l cp s
/Helvetica-latin1 ff 0.560000 scf sf
(Elevation) dup sw 2 div 39.288700 ex sub 6.150000 m gs 1 -1 sc sh gr
(Map Delta) dup sw 2 div 39.288700 ex sub 6.950000 m gs 1 -1 sc sh gr
0.300000 slw
[] 0 sd
[] 0 sd
0 slj
0 slc
1.000000 1.000000 0.000000 srgb
n 36.550000 12.200000 m 39.500000 12.200000 l 39.500000 8.525000 l 42.589590 8.525000 l s
[] 0 sd
0 slj
0 slc
n 42.964590 8.525000 m 42.464590 8.775000 l 42.589590 8.525000 l 42.464590 8.275000 l ef
n 42.964590 8.525000 m 42.464590 8.775000 l 42.589590 8.525000 l 42.464590 8.275000 l cp s
0.100000 slw
[] 0 sd
[] 0 sd
0 slc
0.000000 0.000000 0.000000 srgb
n 43.300000 6.400000 m 43.300000 10.650000 l s
1.000000 1.000000 1.000000 srgb
n 37.561300 10.450000 m 37.561300 12.200000 l 41.061300 12.200000 l 41.061300 10.450000 l f
0.100000 slw
[] 0 sd
[] 0 sd
0 slj
0.000000 0.000000 0.000000 srgb
n 37.561300 10.450000 m 37.561300 12.200000 l 41.061300 12.200000 l 41.061300 10.450000 l cp s
/Helvetica-latin1 ff 0.560000 scf sf
(Trajectory) dup sw 2 div 39.250000 ex sub 11.450000 m gs 1 -1 sc sh gr
1.000000 1.000000 1.000000 srgb
n 37.550000 13.200000 m 37.550000 14.950000 l 41.050000 14.950000 l 41.050000 13.200000 l f
0.100000 slw
[] 0 sd
[] 0 sd
0 slj
0.000000 0.000000 0.000000 srgb
n 37.550000 13.200000 m 37.550000 14.950000 l 41.050000 14.950000 l 41.050000 13.200000 l cp s
/Helvetica-latin1 ff 0.560000 scf sf
(Road Cost) dup sw 2 div 39.300000 ex sub 14.250000 m gs 1 -1 sc sh gr
1.000000 1.000000 1.000000 srgb
n 37.511300 19.500000 m 37.511300 21.250000 l 41.011300 21.250000 l 41.011300 19.500000 l f
0.100000 slw
[] 0 sd
[] 0 sd
0 slj
0.000000 0.000000 0.000000 srgb
n 37.511300 19.500000 m 37.511300 21.250000 l 41.011300 21.250000 l 41.011300 19.500000 l cp s
/Helvetica-latin1 ff 0.560000 scf sf
(Elevation) dup sw 2 div 39.250000 ex sub 20.250000 m gs 1 -1 sc sh gr
(Map Delta) dup sw 2 div 39.250000 ex sub 21.050000 m gs 1 -1 sc sh gr
showpage
