time latitude longitude easting northing n.velocity e.velocity 

0.320501 -1.99742 9.01852e-314 166223 -221080 2.26817 -1.99969
0.500502 -1.99742 9.01852e-314 166223 -221080 2.26817 -1.99969
0.680468 -1.99742 9.01852e-314 166223 -221080 2.26817 -1.99969
0.790471 34.1342 -118.047 403485 3.77753e+06 -0.555664 -0.00878906
1.80047 34.1342 -118.047 403485 3.77753e+06 -0.769531 0.00195312
2.79047 34.1342 -118.047 403485 3.77753e+06 -0.993164 -0.00976562
3.7905 34.1342 -118.047 403485 3.77753e+06 -1.09863 -0.00390625
4.79047 34.1342 -118.047 403485 3.77753e+06 -1.43359 0.0429688
5.79047 34.1341 -118.047 403485 3.77752e+06 -2.13184 -0.015625
6.79047 34.1341 -118.047 403485 3.77752e+06 -2.69727 0.015625
7.81051 34.1341 -118.047 403485 3.77752e+06 -3.35059 0.0654297
8.79047 34.1341 -118.047 403485 3.77752e+06 -4.21484 0.0849609
9.79047 34.134 -118.047 403485 3.77751e+06 -4.97559 0.0576172
10.8005 34.134 -118.047 403485 3.77751e+06 -5.51562 -0.138672
11.7905 34.1339 -118.047 403484 3.7775e+06 -6.21484 -0.186523
12.8005 34.1339 -118.047 403484 3.77749e+06 -6.99609 -0.160156
13.7905 34.1338 -118.047 403484 3.77749e+06 -7.625 -0.148438
14.7905 34.1337 -118.047 403484 3.77748e+06 -7.52832 -0.0878906
15.7905 34.1337 -118.047 403484 3.77747e+06 -7.39062 -0.0107422
16.7905 34.1336 -118.047 403484 3.77746e+06 -7.25781 0.00976562
17.8005 34.1335 -118.047 403484 3.77746e+06 -7.11035 0.0410156
18.8005 34.1335 -118.047 403484 3.77745e+06 -6.87695 0.133789
19.8005 34.1334 -118.047 403484 3.77744e+06 -6.69727 0.152344
20.8105 34.1333 -118.047 403484 3.77744e+06 -6.47461 0.000976562
21.8005 34.1333 -118.047 403483 3.77743e+06 -5.95996 -0.469727
22.8005 34.1332 -118.047 403483 3.77742e+06 -5.4668 -0.451172
23.8005 34.1332 -118.047 403482 3.77742e+06 -4.89453 -0.431641
24.7905 34.1331 -118.047 403482 3.77741e+06 -4.31152 -0.388672
25.8005 34.1331 -118.047 403481 3.77741e+06 -3.47559 -0.300781
26.7905 34.1331 -118.047 403481 3.77741e+06 -2.5957 -0.282227
27.7905 34.1331 -118.047 403481 3.7774e+06 -1.8125 -0.185547
28.8105 34.1331 -118.047 403481 3.7774e+06 -0.842773 -0.0703125
29.8005 34.133 -118.047 403481 3.7774e+06 0.107422 0.00585938
30.7905 34.133 -118.047 403481 3.7774e+06 0.0283203 -0.0351562
31.7905 34.133 -118.047 403481 3.7774e+06 -0.0585938 -0.00585938
32.7905 34.133 -118.047 403481 3.7774e+06 0.0341797 -0.0224609
