%!PS-Adobe-2.0 EPSF-2.0
%%Title: E:\school\projects\GC07\dgc07-final\CSSControlModule.dia
%%Creator: Dia v0.95-1
%%CreationDate: Wed Dec 12 19:45:30 2007
%%For: Nok
%%Orientation: Portrait
%%Magnification: 1.0000
%%BoundingBox: 0 0 1259 749
%%BeginSetup
%%EndSetup
%%EndComments
%%BeginProlog
[ /.notdef /.notdef /.notdef /.notdef /.notdef /.notdef /.notdef /.notdef /.notdef /.notdef
/.notdef /.notdef /.notdef /.notdef /.notdef /.notdef /.notdef /.notdef /.notdef /.notdef
/.notdef /.notdef /.notdef /.notdef /.notdef /.notdef /.notdef /.notdef /.notdef /.notdef
/.notdef /.notdef /space /exclam /quotedbl /numbersign /dollar /percent /ampersand /quoteright
/parenleft /parenright /asterisk /plus /comma /hyphen /period /slash /zero /one
/two /three /four /five /six /seven /eight /nine /colon /semicolon
/less /equal /greater /question /at /A /B /C /D /E
/F /G /H /I /J /K /L /M /N /O
/P /Q /R /S /T /U /V /W /X /Y
/Z /bracketleft /backslash /bracketright /asciicircum /underscore /quoteleft /a /b /c
/d /e /f /g /h /i /j /k /l /m
/n /o /p /q /r /s /t /u /v /w
/x /y /z /braceleft /bar /braceright /asciitilde /.notdef /.notdef /.notdef
/.notdef /.notdef /.notdef /.notdef /.notdef /.notdef /.notdef /.notdef /.notdef /.notdef
/.notdef /.notdef /.notdef /.notdef /.notdef /.notdef /.notdef /.notdef /.notdef /.notdef
/.notdef /.notdef /.notdef /.notdef /.notdef /.notdef /.notdef /.notdef /.notdef /.notdef
/space /exclamdown /cent /sterling /currency /yen /brokenbar /section /dieresis /copyright
/ordfeminine /guillemotleft /logicalnot /hyphen /registered /macron /degree /plusminus /twosuperior /threesuperior
/acute /mu /paragraph /periodcentered /cedilla /onesuperior /ordmasculine /guillemotright /onequarter /onehalf
/threequarters /questiondown /Agrave /Aacute /Acircumflex /Atilde /Adieresis /Aring /AE /Ccedilla
/Egrave /Eacute /Ecircumflex /Edieresis /Igrave /Iacute /Icircumflex /Idieresis /Eth /Ntilde
/Ograve /Oacute /Ocircumflex /Otilde /Odieresis /multiply /Oslash /Ugrave /Uacute /Ucircumflex
/Udieresis /Yacute /Thorn /germandbls /agrave /aacute /acircumflex /atilde /adieresis /aring
/ae /ccedilla /egrave /eacute /ecircumflex /edieresis /igrave /iacute /icircumflex /idieresis
/eth /ntilde /ograve /oacute /ocircumflex /otilde /odieresis /divide /oslash /ugrave
/uacute /ucircumflex /udieresis /yacute /thorn /ydieresis] /isolatin1encoding exch def
/cp {closepath} bind def
/c {curveto} bind def
/f {fill} bind def
/a {arc} bind def
/ef {eofill} bind def
/ex {exch} bind def
/gr {grestore} bind def
/gs {gsave} bind def
/sa {save} bind def
/rs {restore} bind def
/l {lineto} bind def
/m {moveto} bind def
/rm {rmoveto} bind def
/n {newpath} bind def
/s {stroke} bind def
/sh {show} bind def
/slc {setlinecap} bind def
/slj {setlinejoin} bind def
/slw {setlinewidth} bind def
/srgb {setrgbcolor} bind def
/rot {rotate} bind def
/sc {scale} bind def
/sd {setdash} bind def
/ff {findfont} bind def
/sf {setfont} bind def
/scf {scalefont} bind def
/sw {stringwidth pop} bind def
/tr {translate} bind def

/ellipsedict 8 dict def
ellipsedict /mtrx matrix put
/ellipse
{ ellipsedict begin
   /endangle exch def
   /startangle exch def
   /yrad exch def
   /xrad exch def
   /y exch def
   /x exch def   /savematrix mtrx currentmatrix def
   x y tr xrad yrad sc
   0 0 1 startangle endangle arc
   savematrix setmatrix
   end
} def

/mergeprocs {
dup length
3 -1 roll
dup
length
dup
5 1 roll
3 -1 roll
add
array cvx
dup
3 -1 roll
0 exch
putinterval
dup
4 2 roll
putinterval
} bind def
/Times-Roman-latin1
    /Times-Roman findfont
    dup length dict begin
	{1 index /FID ne {def} {pop pop} ifelse} forall
	/Encoding isolatin1encoding def
    currentdict end
definefont pop
/Times-Italic-latin1
    /Times-Italic findfont
    dup length dict begin
	{1 index /FID ne {def} {pop pop} ifelse} forall
	/Encoding isolatin1encoding def
    currentdict end
definefont pop
/Times-Bold-latin1
    /Times-Bold findfont
    dup length dict begin
	{1 index /FID ne {def} {pop pop} ifelse} forall
	/Encoding isolatin1encoding def
    currentdict end
definefont pop
/Times-BoldItalic-latin1
    /Times-BoldItalic findfont
    dup length dict begin
	{1 index /FID ne {def} {pop pop} ifelse} forall
	/Encoding isolatin1encoding def
    currentdict end
definefont pop
/AvantGarde-Book-latin1
    /AvantGarde-Book findfont
    dup length dict begin
	{1 index /FID ne {def} {pop pop} ifelse} forall
	/Encoding isolatin1encoding def
    currentdict end
definefont pop
/AvantGarde-BookOblique-latin1
    /AvantGarde-BookOblique findfont
    dup length dict begin
	{1 index /FID ne {def} {pop pop} ifelse} forall
	/Encoding isolatin1encoding def
    currentdict end
definefont pop
/AvantGarde-Demi-latin1
    /AvantGarde-Demi findfont
    dup length dict begin
	{1 index /FID ne {def} {pop pop} ifelse} forall
	/Encoding isolatin1encoding def
    currentdict end
definefont pop
/AvantGarde-DemiOblique-latin1
    /AvantGarde-DemiOblique findfont
    dup length dict begin
	{1 index /FID ne {def} {pop pop} ifelse} forall
	/Encoding isolatin1encoding def
    currentdict end
definefont pop
/Bookman-Light-latin1
    /Bookman-Light findfont
    dup length dict begin
	{1 index /FID ne {def} {pop pop} ifelse} forall
	/Encoding isolatin1encoding def
    currentdict end
definefont pop
/Bookman-LightItalic-latin1
    /Bookman-LightItalic findfont
    dup length dict begin
	{1 index /FID ne {def} {pop pop} ifelse} forall
	/Encoding isolatin1encoding def
    currentdict end
definefont pop
/Bookman-Demi-latin1
    /Bookman-Demi findfont
    dup length dict begin
	{1 index /FID ne {def} {pop pop} ifelse} forall
	/Encoding isolatin1encoding def
    currentdict end
definefont pop
/Bookman-DemiItalic-latin1
    /Bookman-DemiItalic findfont
    dup length dict begin
	{1 index /FID ne {def} {pop pop} ifelse} forall
	/Encoding isolatin1encoding def
    currentdict end
definefont pop
/Courier-latin1
    /Courier findfont
    dup length dict begin
	{1 index /FID ne {def} {pop pop} ifelse} forall
	/Encoding isolatin1encoding def
    currentdict end
definefont pop
/Courier-Oblique-latin1
    /Courier-Oblique findfont
    dup length dict begin
	{1 index /FID ne {def} {pop pop} ifelse} forall
	/Encoding isolatin1encoding def
    currentdict end
definefont pop
/Courier-Bold-latin1
    /Courier-Bold findfont
    dup length dict begin
	{1 index /FID ne {def} {pop pop} ifelse} forall
	/Encoding isolatin1encoding def
    currentdict end
definefont pop
/Courier-BoldOblique-latin1
    /Courier-BoldOblique findfont
    dup length dict begin
	{1 index /FID ne {def} {pop pop} ifelse} forall
	/Encoding isolatin1encoding def
    currentdict end
definefont pop
/Helvetica-latin1
    /Helvetica findfont
    dup length dict begin
	{1 index /FID ne {def} {pop pop} ifelse} forall
	/Encoding isolatin1encoding def
    currentdict end
definefont pop
/Helvetica-Oblique-latin1
    /Helvetica-Oblique findfont
    dup length dict begin
	{1 index /FID ne {def} {pop pop} ifelse} forall
	/Encoding isolatin1encoding def
    currentdict end
definefont pop
/Helvetica-Bold-latin1
    /Helvetica-Bold findfont
    dup length dict begin
	{1 index /FID ne {def} {pop pop} ifelse} forall
	/Encoding isolatin1encoding def
    currentdict end
definefont pop
/Helvetica-BoldOblique-latin1
    /Helvetica-BoldOblique findfont
    dup length dict begin
	{1 index /FID ne {def} {pop pop} ifelse} forall
	/Encoding isolatin1encoding def
    currentdict end
definefont pop
/Helvetica-Narrow-latin1
    /Helvetica-Narrow findfont
    dup length dict begin
	{1 index /FID ne {def} {pop pop} ifelse} forall
	/Encoding isolatin1encoding def
    currentdict end
definefont pop
/Helvetica-Narrow-Oblique-latin1
    /Helvetica-Narrow-Oblique findfont
    dup length dict begin
	{1 index /FID ne {def} {pop pop} ifelse} forall
	/Encoding isolatin1encoding def
    currentdict end
definefont pop
/Helvetica-Narrow-Bold-latin1
    /Helvetica-Narrow-Bold findfont
    dup length dict begin
	{1 index /FID ne {def} {pop pop} ifelse} forall
	/Encoding isolatin1encoding def
    currentdict end
definefont pop
/Helvetica-Narrow-BoldOblique-latin1
    /Helvetica-Narrow-BoldOblique findfont
    dup length dict begin
	{1 index /FID ne {def} {pop pop} ifelse} forall
	/Encoding isolatin1encoding def
    currentdict end
definefont pop
/NewCenturySchoolbook-Roman-latin1
    /NewCenturySchoolbook-Roman findfont
    dup length dict begin
	{1 index /FID ne {def} {pop pop} ifelse} forall
	/Encoding isolatin1encoding def
    currentdict end
definefont pop
/NewCenturySchoolbook-Italic-latin1
    /NewCenturySchoolbook-Italic findfont
    dup length dict begin
	{1 index /FID ne {def} {pop pop} ifelse} forall
	/Encoding isolatin1encoding def
    currentdict end
definefont pop
/NewCenturySchoolbook-Bold-latin1
    /NewCenturySchoolbook-Bold findfont
    dup length dict begin
	{1 index /FID ne {def} {pop pop} ifelse} forall
	/Encoding isolatin1encoding def
    currentdict end
definefont pop
/NewCenturySchoolbook-BoldItalic-latin1
    /NewCenturySchoolbook-BoldItalic findfont
    dup length dict begin
	{1 index /FID ne {def} {pop pop} ifelse} forall
	/Encoding isolatin1encoding def
    currentdict end
definefont pop
/Palatino-Roman-latin1
    /Palatino-Roman findfont
    dup length dict begin
	{1 index /FID ne {def} {pop pop} ifelse} forall
	/Encoding isolatin1encoding def
    currentdict end
definefont pop
/Palatino-Italic-latin1
    /Palatino-Italic findfont
    dup length dict begin
	{1 index /FID ne {def} {pop pop} ifelse} forall
	/Encoding isolatin1encoding def
    currentdict end
definefont pop
/Palatino-Bold-latin1
    /Palatino-Bold findfont
    dup length dict begin
	{1 index /FID ne {def} {pop pop} ifelse} forall
	/Encoding isolatin1encoding def
    currentdict end
definefont pop
/Palatino-BoldItalic-latin1
    /Palatino-BoldItalic findfont
    dup length dict begin
	{1 index /FID ne {def} {pop pop} ifelse} forall
	/Encoding isolatin1encoding def
    currentdict end
definefont pop
/Symbol-latin1
    /Symbol findfont
definefont pop
/ZapfChancery-MediumItalic-latin1
    /ZapfChancery-MediumItalic findfont
    dup length dict begin
	{1 index /FID ne {def} {pop pop} ifelse} forall
	/Encoding isolatin1encoding def
    currentdict end
definefont pop
/ZapfDingbats-latin1
    /ZapfDingbats findfont
    dup length dict begin
	{1 index /FID ne {def} {pop pop} ifelse} forall
	/Encoding isolatin1encoding def
    currentdict end
definefont pop
28.346000 -28.346000 scale
5.200000 -28.035000 translate
%%EndProlog


1.000000 1.000000 1.000000 srgb
n 2.600000 8.550000 m 2.600000 22.650000 l 31.800000 22.650000 l 31.800000 8.550000 l f
n 2.600000 8.550000 m 2.600000 8.550000 0.000000 0.000000 180.000000 270.000000 ellipse f
n 31.800000 8.550000 m 31.800000 8.550000 0.000000 0.000000 270.000000 360.000000 ellipse f
n 2.600000 8.550000 m 2.600000 22.650000 l 31.800000 22.650000 l 31.800000 8.550000 l f
n 2.600000 22.650000 m 2.600000 22.650000 0.000000 0.000000 90.000000 180.000000 ellipse f
n 31.800000 22.650000 m 31.800000 22.650000 0.000000 0.000000 0.000000 90.000000 ellipse f
0.100000 slw
[0.200000] 0 sd
[0.200000] 0 sd
0 slj
0.000000 0.000000 0.000000 srgb
n 2.600000 8.550000 m 31.800000 8.550000 l s
n 2.600000 22.650000 m 31.800000 22.650000 l s
n 2.600000 8.550000 0.000000 0.000000 180.000000 270.000000 ellipse s
n 31.800000 8.550000 0.000000 0.000000 270.000000 360.000000 ellipse s
n 2.600000 8.550000 m 2.600000 22.650000 l s
n 31.800000 8.550000 m 31.800000 22.650000 l s
n 2.600000 22.650000 0.000000 0.000000 90.000000 180.000000 ellipse s
n 31.800000 22.650000 0.000000 0.000000 0.000000 90.000000 ellipse s
1.000000 1.000000 1.000000 srgb
n 8.262524 10.050000 m 8.262524 13.100000 l 13.312476 13.100000 l 13.312476 10.050000 l f
0.100000 slw
[] 0 sd
[] 0 sd
0 slj
0.000000 0.000000 0.000000 srgb
n 8.262524 10.050000 m 8.262524 13.100000 l 13.312476 13.100000 l 13.312476 10.050000 l cp s
/Helvetica-latin1 ff 0.840000 scf sf
(Arbitration) dup sw 2 div 10.787500 ex sub 11.975000 m gs 1 -1 sc sh gr
1.000000 1.000000 1.000000 srgb
n 8.285000 17.515000 m 8.285000 20.565000 l 13.310000 20.565000 l 13.310000 17.515000 l f
0.100000 slw
[] 0 sd
[] 0 sd
0 slj
0.000000 0.000000 0.000000 srgb
n 8.285000 17.515000 m 8.285000 20.565000 l 13.310000 20.565000 l 13.310000 17.515000 l cp s
/Helvetica-latin1 ff 0.840000 scf sf
(Control) dup sw 2 div 10.797500 ex sub 19.440000 m gs 1 -1 sc sh gr
1.000000 1.000000 1.000000 srgb
n 23.535000 17.515000 m 23.535000 20.565000 l 28.560000 20.565000 l 28.560000 17.515000 l f
0.100000 slw
[] 0 sd
[] 0 sd
0 slj
0.000000 0.000000 0.000000 srgb
n 23.535000 17.515000 m 23.535000 20.565000 l 28.560000 20.565000 l 28.560000 17.515000 l cp s
/Helvetica-latin1 ff 0.840000 scf sf
(Tactics) dup sw 2 div 26.047500 ex sub 19.440000 m gs 1 -1 sc sh gr
0.100000 slw
[] 0 sd
[] 0 sd
0 slc
n 12.049988 13.100000 m 12.053281 16.965000 l s
0 slj
n 11.803281 16.965213 m 12.053707 17.465000 l 12.303281 16.964787 l ef
/Helvetica-latin1 ff 0.770000 scf sf
(Merged directive: start/end conditions,) 12.300000 14.300000 m gs 1 -1 sc sh gr
(parameterized constraints,) 12.300000 15.400000 m gs 1 -1 sc sh gr
(performance criteria) 12.300000 16.500000 m gs 1 -1 sc sh gr
0.100000 slw
[] 0 sd
[] 0 sd
0 slc
n 9.541250 17.515000 m 9.527035 13.649996 l s
0 slj
n 9.777033 13.649077 m 9.525196 13.150000 l 9.277037 13.650916 l ef
/Helvetica-latin1 ff 0.770000 scf sf
(Response:) dup sw 9.150000 ex sub 14.400000 m gs 1 -1 sc sh gr
(completed/) dup sw 9.150000 ex sub 15.500000 m gs 1 -1 sc sh gr
(failed) dup sw 9.150000 ex sub 16.600000 m gs 1 -1 sc sh gr
0.100000 slw
[] 0 sd
[] 0 sd
0 slc
n 17.800000 11.500000 m 13.862399 11.565809 l s
0 slj
n 13.858221 11.315844 m 13.362469 11.574164 l 13.866576 11.815774 l ef
/Helvetica-latin1 ff 0.770000 scf sf
(Initialize) 14.250000 11.300000 m gs 1 -1 sc sh gr
/Helvetica-Bold-latin1 ff 1.050000 scf sf
(A generic) dup sw 2 div 26.125000 ex sub 10.100000 m gs 1 -1 sc sh gr
(control module) dup sw 2 div 26.125000 ex sub 11.600000 m gs 1 -1 sc sh gr
0.100000 slw
[] 0 sd
[] 0 sd
0 slc
n 12.000000 4.500000 m 12.045034 9.500022 l s
0 slj
n 11.795044 9.502274 m 12.049537 10.000002 l 12.295024 9.497771 l ef
/Helvetica-latin1 ff 0.770000 scf sf
(Directive: start/end conditions,) 12.300000 5.600000 m gs 1 -1 sc sh gr
(parameterized constraints,) 12.300000 6.700000 m gs 1 -1 sc sh gr
(performance criteria, priority) 12.300000 7.800000 m gs 1 -1 sc sh gr
0.100000 slw
[] 0 sd
[] 0 sd
0 slc
n 9.525012 10.050000 m 9.547589 4.899995 l s
0 slj
n 9.797587 4.901091 m 9.549781 4.400000 l 9.297591 4.898899 l ef
/Helvetica-latin1 ff 0.770000 scf sf
(Response:) dup sw 9.150000 ex sub 5.700000 m gs 1 -1 sc sh gr
(accepted/rejected,) dup sw 9.150000 ex sub 6.800000 m gs 1 -1 sc sh gr
(completed/failed) dup sw 9.150000 ex sub 7.900000 m gs 1 -1 sc sh gr
0.100000 slw
[] 0 sd
[] 0 sd
0 slc
n -4.600000 19.050000 m 7.735000 19.040427 l s
0 slj
n 7.735194 19.290427 m 8.235000 19.040039 l 7.734806 18.790427 l ef
/Helvetica-latin1 ff 0.770000 scf sf
(State information) -5.200000 18.800000 m gs 1 -1 sc sh gr
0.100000 slw
[] 0 sd
[] 0 sd
0 slc
n 13.310000 18.277500 m 22.985000 18.277500 l s
0 slj
n 22.985000 18.527500 m 23.485000 18.277500 l 22.985000 18.027500 l ef
/Helvetica-latin1 ff 0.770000 scf sf
(Directive, state) 15.400000 18.000000 m gs 1 -1 sc sh gr
0.100000 slw
[] 0 sd
[] 0 sd
0 slc
n 23.535000 19.802500 m 13.860000 19.802500 l s
0 slj
n 13.860000 19.552500 m 13.360000 19.802500 l 13.860000 20.052500 l ef
/Helvetica-latin1 ff 0.770000 scf sf
(Tactic) 17.300000 20.650000 m gs 1 -1 sc sh gr
/Helvetica-Bold-latin1 ff 1.050000 scf sf
(Controlling module) dup sw 2 div 11.085000 ex sub 3.615000 m gs 1 -1 sc sh gr
/Helvetica-BoldOblique-latin1 ff 0.910000 scf sf
(Same interface with) 21.800000 2.750000 m gs 1 -1 sc sh gr
(other controlling modules) 21.800000 4.050000 m gs 1 -1 sc sh gr
/Helvetica-latin1 ff 0.560000 scf sf
/Helvetica-Bold-latin1 ff 1.050000 scf sf
(Controlled module        and/or        Estimator or Hardware) dup sw 2 div 19.985000 ex sub 27.402500 m gs 1 -1 sc sh gr
0.100000 slw
[] 0 sd
[] 0 sd
0 slc
n 9.797500 20.565000 m 9.754908 25.337522 l s
0 slj
n 9.504918 25.335291 m 9.750446 25.837502 l 10.004898 25.339753 l ef
/Helvetica-latin1 ff 0.770000 scf sf
(Directives) 10.250000 25.287500 m gs 1 -1 sc sh gr
0.100000 slw
[] 0 sd
[] 0 sd
0 slc
n 8.850000 25.837500 m 8.842163 21.114999 l s
0 slj
n 9.092162 21.114584 m 8.841333 20.615000 l 8.592163 21.115414 l ef
/Helvetica-latin1 ff 0.770000 scf sf
(Response) dup sw 8.485000 ex sub 25.202500 m gs 1 -1 sc sh gr
0.100000 slw
[] 0 sd
[] 0 sd
0 slj
0 slc
n 12.853750 20.565000 m 12.853750 23.376250 l 30.900000 23.376250 l 30.900000 25.637500 l s
0 slj
n 30.650000 25.637500 m 30.900000 26.137500 l 31.150000 25.637500 l ef
0.100000 slw
[] 0 sd
[] 0 sd
0 slj
0 slc
n 30.100000 25.887500 m 30.100000 24.037500 l 12.053750 24.037500 l 12.053750 21.115000 l s
0 slj
n 12.303750 21.115000 m 12.053750 20.615000 l 11.803750 21.115000 l ef
showpage
