%!PS-Adobe-2.0 EPSF-2.0
%%Title: E:\school\projects\GC07\dgc07-final\CSSPlanningSystem.dia
%%Creator: Dia v0.95-1
%%CreationDate: Fri Dec 14 00:53:13 2007
%%For: Nok
%%Orientation: Portrait
%%Magnification: 1.0000
%%BoundingBox: 0 0 1203 788
%%BeginSetup
%%EndSetup
%%EndComments
%%BeginProlog
[ /.notdef /.notdef /.notdef /.notdef /.notdef /.notdef /.notdef /.notdef /.notdef /.notdef
/.notdef /.notdef /.notdef /.notdef /.notdef /.notdef /.notdef /.notdef /.notdef /.notdef
/.notdef /.notdef /.notdef /.notdef /.notdef /.notdef /.notdef /.notdef /.notdef /.notdef
/.notdef /.notdef /space /exclam /quotedbl /numbersign /dollar /percent /ampersand /quoteright
/parenleft /parenright /asterisk /plus /comma /hyphen /period /slash /zero /one
/two /three /four /five /six /seven /eight /nine /colon /semicolon
/less /equal /greater /question /at /A /B /C /D /E
/F /G /H /I /J /K /L /M /N /O
/P /Q /R /S /T /U /V /W /X /Y
/Z /bracketleft /backslash /bracketright /asciicircum /underscore /quoteleft /a /b /c
/d /e /f /g /h /i /j /k /l /m
/n /o /p /q /r /s /t /u /v /w
/x /y /z /braceleft /bar /braceright /asciitilde /.notdef /.notdef /.notdef
/.notdef /.notdef /.notdef /.notdef /.notdef /.notdef /.notdef /.notdef /.notdef /.notdef
/.notdef /.notdef /.notdef /.notdef /.notdef /.notdef /.notdef /.notdef /.notdef /.notdef
/.notdef /.notdef /.notdef /.notdef /.notdef /.notdef /.notdef /.notdef /.notdef /.notdef
/space /exclamdown /cent /sterling /currency /yen /brokenbar /section /dieresis /copyright
/ordfeminine /guillemotleft /logicalnot /hyphen /registered /macron /degree /plusminus /twosuperior /threesuperior
/acute /mu /paragraph /periodcentered /cedilla /onesuperior /ordmasculine /guillemotright /onequarter /onehalf
/threequarters /questiondown /Agrave /Aacute /Acircumflex /Atilde /Adieresis /Aring /AE /Ccedilla
/Egrave /Eacute /Ecircumflex /Edieresis /Igrave /Iacute /Icircumflex /Idieresis /Eth /Ntilde
/Ograve /Oacute /Ocircumflex /Otilde /Odieresis /multiply /Oslash /Ugrave /Uacute /Ucircumflex
/Udieresis /Yacute /Thorn /germandbls /agrave /aacute /acircumflex /atilde /adieresis /aring
/ae /ccedilla /egrave /eacute /ecircumflex /edieresis /igrave /iacute /icircumflex /idieresis
/eth /ntilde /ograve /oacute /ocircumflex /otilde /odieresis /divide /oslash /ugrave
/uacute /ucircumflex /udieresis /yacute /thorn /ydieresis] /isolatin1encoding exch def
/cp {closepath} bind def
/c {curveto} bind def
/f {fill} bind def
/a {arc} bind def
/ef {eofill} bind def
/ex {exch} bind def
/gr {grestore} bind def
/gs {gsave} bind def
/sa {save} bind def
/rs {restore} bind def
/l {lineto} bind def
/m {moveto} bind def
/rm {rmoveto} bind def
/n {newpath} bind def
/s {stroke} bind def
/sh {show} bind def
/slc {setlinecap} bind def
/slj {setlinejoin} bind def
/slw {setlinewidth} bind def
/srgb {setrgbcolor} bind def
/rot {rotate} bind def
/sc {scale} bind def
/sd {setdash} bind def
/ff {findfont} bind def
/sf {setfont} bind def
/scf {scalefont} bind def
/sw {stringwidth pop} bind def
/tr {translate} bind def

/ellipsedict 8 dict def
ellipsedict /mtrx matrix put
/ellipse
{ ellipsedict begin
   /endangle exch def
   /startangle exch def
   /yrad exch def
   /xrad exch def
   /y exch def
   /x exch def   /savematrix mtrx currentmatrix def
   x y tr xrad yrad sc
   0 0 1 startangle endangle arc
   savematrix setmatrix
   end
} def

/mergeprocs {
dup length
3 -1 roll
dup
length
dup
5 1 roll
3 -1 roll
add
array cvx
dup
3 -1 roll
0 exch
putinterval
dup
4 2 roll
putinterval
} bind def
/Times-Roman-latin1
    /Times-Roman findfont
    dup length dict begin
	{1 index /FID ne {def} {pop pop} ifelse} forall
	/Encoding isolatin1encoding def
    currentdict end
definefont pop
/Times-Italic-latin1
    /Times-Italic findfont
    dup length dict begin
	{1 index /FID ne {def} {pop pop} ifelse} forall
	/Encoding isolatin1encoding def
    currentdict end
definefont pop
/Times-Bold-latin1
    /Times-Bold findfont
    dup length dict begin
	{1 index /FID ne {def} {pop pop} ifelse} forall
	/Encoding isolatin1encoding def
    currentdict end
definefont pop
/Times-BoldItalic-latin1
    /Times-BoldItalic findfont
    dup length dict begin
	{1 index /FID ne {def} {pop pop} ifelse} forall
	/Encoding isolatin1encoding def
    currentdict end
definefont pop
/AvantGarde-Book-latin1
    /AvantGarde-Book findfont
    dup length dict begin
	{1 index /FID ne {def} {pop pop} ifelse} forall
	/Encoding isolatin1encoding def
    currentdict end
definefont pop
/AvantGarde-BookOblique-latin1
    /AvantGarde-BookOblique findfont
    dup length dict begin
	{1 index /FID ne {def} {pop pop} ifelse} forall
	/Encoding isolatin1encoding def
    currentdict end
definefont pop
/AvantGarde-Demi-latin1
    /AvantGarde-Demi findfont
    dup length dict begin
	{1 index /FID ne {def} {pop pop} ifelse} forall
	/Encoding isolatin1encoding def
    currentdict end
definefont pop
/AvantGarde-DemiOblique-latin1
    /AvantGarde-DemiOblique findfont
    dup length dict begin
	{1 index /FID ne {def} {pop pop} ifelse} forall
	/Encoding isolatin1encoding def
    currentdict end
definefont pop
/Bookman-Light-latin1
    /Bookman-Light findfont
    dup length dict begin
	{1 index /FID ne {def} {pop pop} ifelse} forall
	/Encoding isolatin1encoding def
    currentdict end
definefont pop
/Bookman-LightItalic-latin1
    /Bookman-LightItalic findfont
    dup length dict begin
	{1 index /FID ne {def} {pop pop} ifelse} forall
	/Encoding isolatin1encoding def
    currentdict end
definefont pop
/Bookman-Demi-latin1
    /Bookman-Demi findfont
    dup length dict begin
	{1 index /FID ne {def} {pop pop} ifelse} forall
	/Encoding isolatin1encoding def
    currentdict end
definefont pop
/Bookman-DemiItalic-latin1
    /Bookman-DemiItalic findfont
    dup length dict begin
	{1 index /FID ne {def} {pop pop} ifelse} forall
	/Encoding isolatin1encoding def
    currentdict end
definefont pop
/Courier-latin1
    /Courier findfont
    dup length dict begin
	{1 index /FID ne {def} {pop pop} ifelse} forall
	/Encoding isolatin1encoding def
    currentdict end
definefont pop
/Courier-Oblique-latin1
    /Courier-Oblique findfont
    dup length dict begin
	{1 index /FID ne {def} {pop pop} ifelse} forall
	/Encoding isolatin1encoding def
    currentdict end
definefont pop
/Courier-Bold-latin1
    /Courier-Bold findfont
    dup length dict begin
	{1 index /FID ne {def} {pop pop} ifelse} forall
	/Encoding isolatin1encoding def
    currentdict end
definefont pop
/Courier-BoldOblique-latin1
    /Courier-BoldOblique findfont
    dup length dict begin
	{1 index /FID ne {def} {pop pop} ifelse} forall
	/Encoding isolatin1encoding def
    currentdict end
definefont pop
/Helvetica-latin1
    /Helvetica findfont
    dup length dict begin
	{1 index /FID ne {def} {pop pop} ifelse} forall
	/Encoding isolatin1encoding def
    currentdict end
definefont pop
/Helvetica-Oblique-latin1
    /Helvetica-Oblique findfont
    dup length dict begin
	{1 index /FID ne {def} {pop pop} ifelse} forall
	/Encoding isolatin1encoding def
    currentdict end
definefont pop
/Helvetica-Bold-latin1
    /Helvetica-Bold findfont
    dup length dict begin
	{1 index /FID ne {def} {pop pop} ifelse} forall
	/Encoding isolatin1encoding def
    currentdict end
definefont pop
/Helvetica-BoldOblique-latin1
    /Helvetica-BoldOblique findfont
    dup length dict begin
	{1 index /FID ne {def} {pop pop} ifelse} forall
	/Encoding isolatin1encoding def
    currentdict end
definefont pop
/Helvetica-Narrow-latin1
    /Helvetica-Narrow findfont
    dup length dict begin
	{1 index /FID ne {def} {pop pop} ifelse} forall
	/Encoding isolatin1encoding def
    currentdict end
definefont pop
/Helvetica-Narrow-Oblique-latin1
    /Helvetica-Narrow-Oblique findfont
    dup length dict begin
	{1 index /FID ne {def} {pop pop} ifelse} forall
	/Encoding isolatin1encoding def
    currentdict end
definefont pop
/Helvetica-Narrow-Bold-latin1
    /Helvetica-Narrow-Bold findfont
    dup length dict begin
	{1 index /FID ne {def} {pop pop} ifelse} forall
	/Encoding isolatin1encoding def
    currentdict end
definefont pop
/Helvetica-Narrow-BoldOblique-latin1
    /Helvetica-Narrow-BoldOblique findfont
    dup length dict begin
	{1 index /FID ne {def} {pop pop} ifelse} forall
	/Encoding isolatin1encoding def
    currentdict end
definefont pop
/NewCenturySchoolbook-Roman-latin1
    /NewCenturySchoolbook-Roman findfont
    dup length dict begin
	{1 index /FID ne {def} {pop pop} ifelse} forall
	/Encoding isolatin1encoding def
    currentdict end
definefont pop
/NewCenturySchoolbook-Italic-latin1
    /NewCenturySchoolbook-Italic findfont
    dup length dict begin
	{1 index /FID ne {def} {pop pop} ifelse} forall
	/Encoding isolatin1encoding def
    currentdict end
definefont pop
/NewCenturySchoolbook-Bold-latin1
    /NewCenturySchoolbook-Bold findfont
    dup length dict begin
	{1 index /FID ne {def} {pop pop} ifelse} forall
	/Encoding isolatin1encoding def
    currentdict end
definefont pop
/NewCenturySchoolbook-BoldItalic-latin1
    /NewCenturySchoolbook-BoldItalic findfont
    dup length dict begin
	{1 index /FID ne {def} {pop pop} ifelse} forall
	/Encoding isolatin1encoding def
    currentdict end
definefont pop
/Palatino-Roman-latin1
    /Palatino-Roman findfont
    dup length dict begin
	{1 index /FID ne {def} {pop pop} ifelse} forall
	/Encoding isolatin1encoding def
    currentdict end
definefont pop
/Palatino-Italic-latin1
    /Palatino-Italic findfont
    dup length dict begin
	{1 index /FID ne {def} {pop pop} ifelse} forall
	/Encoding isolatin1encoding def
    currentdict end
definefont pop
/Palatino-Bold-latin1
    /Palatino-Bold findfont
    dup length dict begin
	{1 index /FID ne {def} {pop pop} ifelse} forall
	/Encoding isolatin1encoding def
    currentdict end
definefont pop
/Palatino-BoldItalic-latin1
    /Palatino-BoldItalic findfont
    dup length dict begin
	{1 index /FID ne {def} {pop pop} ifelse} forall
	/Encoding isolatin1encoding def
    currentdict end
definefont pop
/Symbol-latin1
    /Symbol findfont
definefont pop
/ZapfChancery-MediumItalic-latin1
    /ZapfChancery-MediumItalic findfont
    dup length dict begin
	{1 index /FID ne {def} {pop pop} ifelse} forall
	/Encoding isolatin1encoding def
    currentdict end
definefont pop
/ZapfDingbats-latin1
    /ZapfDingbats findfont
    dup length dict begin
	{1 index /FID ne {def} {pop pop} ifelse} forall
	/Encoding isolatin1encoding def
    currentdict end
definefont pop
28.346000 -28.346000 scale
10.725000 -30.248800 translate
%%EndProlog


1.000000 1.000000 1.000000 srgb
n -1.475000 5.850000 m -1.475000 9.350000 l 3.875000 9.350000 l 3.875000 5.850000 l f
0.100000 slw
[] 0 sd
[] 0 sd
0 slj
0.000000 0.000000 0.000000 srgb
n -1.475000 5.850000 m -1.475000 9.350000 l 3.875000 9.350000 l 3.875000 5.850000 l cp s
/Helvetica-latin1 ff 0.700000 scf sf
(Sensing and) dup sw 2 div 1.200000 ex sub 7.000000 m gs 1 -1 sc sh gr
(Mapping) dup sw 2 div 1.200000 ex sub 8.000000 m gs 1 -1 sc sh gr
(Subsystem) dup sw 2 div 1.200000 ex sub 9.000000 m gs 1 -1 sc sh gr
1.000000 1.000000 1.000000 srgb
n 6.425000 13.700000 m 6.425000 16.400000 l 9.875000 16.400000 l 9.875000 13.700000 l f
0.100000 slw
[] 0 sd
[] 0 sd
0 slj
0.000000 0.000000 0.000000 srgb
n 6.425000 13.700000 m 6.425000 16.400000 l 9.875000 16.400000 l 9.875000 13.700000 l cp s
/Helvetica-latin1 ff 0.700000 scf sf
(Health) dup sw 2 div 8.150000 ex sub 14.950000 m gs 1 -1 sc sh gr
(Monitor) dup sw 2 div 8.150000 ex sub 15.950000 m gs 1 -1 sc sh gr
1.000000 1.000000 1.000000 srgb
n -9.300000 20.475000 m -9.300000 23.975000 l -5.000000 23.975000 l -5.000000 20.475000 l f
0.100000 slw
[] 0 sd
[] 0 sd
0 slj
0.000000 0.000000 0.000000 srgb
n -9.300000 20.475000 m -9.300000 23.975000 l -5.000000 23.975000 l -5.000000 20.475000 l cp s
/Helvetica-latin1 ff 0.700000 scf sf
(Applanix) dup sw 2 div -7.150000 ex sub 21.625000 m gs 1 -1 sc sh gr
(\(GPS and) dup sw 2 div -7.150000 ex sub 22.625000 m gs 1 -1 sc sh gr
(IMU\)) dup sw 2 div -7.150000 ex sub 23.625000 m gs 1 -1 sc sh gr
1.000000 1.000000 1.000000 srgb
n 0.950000 21.500000 m 0.950000 23.400000 l 4.050000 23.400000 l 4.050000 21.500000 l f
0.100000 slw
[] 0 sd
[] 0 sd
0 slj
0.000000 0.000000 0.000000 srgb
n 0.950000 21.500000 m 0.950000 23.400000 l 4.050000 23.400000 l 4.050000 21.500000 l cp s
/Helvetica-latin1 ff 0.700000 scf sf
(astate) dup sw 2 div 2.500000 ex sub 22.850000 m gs 1 -1 sc sh gr
1.000000 1.000000 1.000000 srgb
n 19.750000 15.550000 m 19.750000 17.450000 l 23.600000 17.450000 l 23.600000 15.550000 l f
0.100000 slw
[] 0 sd
[] 0 sd
0 slj
0.000000 0.000000 0.000000 srgb
n 19.750000 15.550000 m 19.750000 17.450000 l 23.600000 17.450000 l 23.600000 15.550000 l cp s
/Helvetica-latin1 ff 0.700000 scf sf
(Follower) dup sw 2 div 21.675000 ex sub 16.900000 m gs 1 -1 sc sh gr
0.100000 slw
[] 0 sd
[] 0 sd
0 slc
n 23.487500 9.300000 m 22.795748 10.990949 l s
0 slj
n 22.564361 10.896291 m 22.606432 11.453723 l 23.027135 11.085607 l ef
/Helvetica-latin1 ff 0.700000 scf sf
(Segment-level goals) 23.025000 10.800000 m gs 1 -1 sc sh gr
0.100000 slw
[] 0 sd
[] 0 sd
0 slc
n 22.587500 13.400000 m 22.624713 15.000149 l s
0 slj
n 22.374780 15.005961 m 22.636338 15.500014 l 22.874645 14.994336 l ef
/Helvetica-latin1 ff 0.700000 scf sf
(Trajectory) 22.850000 14.700000 m gs 1 -1 sc sh gr
/Helvetica-latin1 ff 0.700000 scf sf
(Actuator) 22.700000 18.500000 m gs 1 -1 sc sh gr
(command) 22.700000 19.500000 m gs 1 -1 sc sh gr
0.100000 slw
[] 0 sd
[] 0 sd
0 slc
n 22.537500 21.800000 m 22.662606 27.350140 l s
0 slj
n 22.412669 27.355773 m 22.673873 27.850013 l 22.912542 27.344506 l ef
/Helvetica-latin1 ff 0.700000 scf sf
(Actuator) 22.765100 23.251200 m gs 1 -1 sc sh gr
(command) 22.765100 24.251200 m gs 1 -1 sc sh gr
(\(including) 22.765100 25.251200 m gs 1 -1 sc sh gr
(reset) 22.765100 26.251200 m gs 1 -1 sc sh gr
(command\)) 22.765100 27.251200 m gs 1 -1 sc sh gr
/Helvetica-latin1 ff 0.700000 scf sf
(Connect/) -3.709900 23.881200 m gs 1 -1 sc sh gr
(disconnect) -3.709900 24.881200 m gs 1 -1 sc sh gr
(command) -3.709900 25.881200 m gs 1 -1 sc sh gr
0.100000 slw
[] 0 sd
[] 0 sd
0 slc
n 0.950000 22.925000 m -4.450238 23.083831 l s
0 slj
n -4.457587 22.833939 m -4.950022 23.098530 l -4.442888 23.333722 l ef
/Helvetica-latin1 ff 0.700000 scf sf
(Vehicle capability) dup sw 17.518900 ex sub 9.556250 m gs 1 -1 sc sh gr
0.100000 slw
[1.000000] 0 sd
[0.400000] 0 sd
0 slj
0 slc
n 9.875000 15.050000 m 10.475000 15.050000 l 10.475000 8.825000 l 17.725000 8.825000 l s
0 slj
n 17.725000 9.075000 m 18.225000 8.825000 l 17.725000 8.575000 l ef
0.100000 slw
[0.400000] 0 sd
[0.400000] 0 sd
0 slj
0 slc
n 19.525000 28.850000 m 9.012500 28.850000 l 9.012500 16.950000 l s
0 slj
n 9.262500 16.950000 m 9.012500 16.450000 l 8.762500 16.950000 l ef
/Helvetica-latin1 ff 0.700000 scf sf
(Actuator health) 12.518900 28.506200 m gs 1 -1 sc sh gr
/Helvetica-latin1 ff 0.700000 scf sf
(Vehicle state) dup sw 7.000000 ex sub 18.606200 m gs 1 -1 sc sh gr
(estimation) dup sw 7.000000 ex sub 19.606200 m gs 1 -1 sc sh gr
(health) dup sw 7.000000 ex sub 20.606200 m gs 1 -1 sc sh gr
0.100000 slw
[0.400000] 0 sd
[0.400000] 0 sd
0 slj
0 slc
n 3.875000 8.475000 m 7.287500 8.475000 l 7.287500 13.150000 l s
0 slj
n 7.037500 13.150000 m 7.287500 13.650000 l 7.537500 13.150000 l ef
/Helvetica-latin1 ff 0.700000 scf sf
(Connect/) -5.993650 9.251250 m gs 1 -1 sc sh gr
(disconnect) -5.993650 10.251250 m gs 1 -1 sc sh gr
(command) -5.993650 11.251250 m gs 1 -1 sc sh gr
/Helvetica-latin1 ff 0.700000 scf sf
(Sensor) dup sw 6.950000 ex sub 11.256200 m gs 1 -1 sc sh gr
(health) dup sw 6.950000 ex sub 12.256200 m gs 1 -1 sc sh gr
0.100000 slw
[0.400000] 0 sd
[0.400000] 0 sd
0 slj
0 slc
n 3.875000 6.725000 m 12.625000 6.725000 l 12.625000 7.875000 l 17.725000 7.875000 l s
0 slj
n 17.725000 8.125000 m 18.225000 7.875000 l 17.725000 7.625000 l ef
/Helvetica-latin1 ff 0.700000 scf sf
(World map) 12.800000 7.656250 m gs 1 -1 sc sh gr
0.100000 slw
[0.400000] 0 sd
[0.400000] 0 sd
0 slj
0 slc
n 3.875000 7.600000 m 9.225000 7.600000 l 9.225000 12.450000 l 19.337500 12.450000 l s
0 slj
n 19.337500 12.700000 m 19.837500 12.450000 l 19.337500 12.200000 l ef
/Helvetica-latin1 ff 0.700000 scf sf
(Local map) 15.025000 12.206200 m gs 1 -1 sc sh gr
0.100000 slw
[] 0 sd
[] 0 sd
0 slc
n 21.762600 4.781250 m 21.764239 6.668750 l s
0 slj
n 21.514239 6.668967 m 21.764673 7.168750 l 22.014238 6.668533 l ef
/Helvetica-latin1 ff 0.700000 scf sf
(MDF) 21.975000 6.206250 m gs 1 -1 sc sh gr
0.100000 slw
[] 0 sd
[] 0 sd
0 slc
n 1.223329 3.168750 m 1.204785 5.300021 l s
0 slj
n 0.954795 5.297846 m 1.200435 5.800002 l 1.454776 5.302196 l ef
/Helvetica-latin1 ff 0.700000 scf sf
(RNDF) 1.329070 4.726690 m gs 1 -1 sc sh gr
0.100000 slw
[1.000000] 0 sd
[0.400000] 0 sd
0 slj
0 slc
n 0.950000 21.975000 m -0.137500 21.975000 l -0.137500 9.900000 l s
0 slj
n 0.112500 9.900000 m -0.137500 9.400000 l -0.387500 9.900000 l ef
/Helvetica-latin1 ff 0.700000 scf sf
(Vehicle) dup sw -0.275000 ex sub 13.506200 m gs 1 -1 sc sh gr
(state) dup sw -0.275000 ex sub 14.506200 m gs 1 -1 sc sh gr
0.100000 slw
[0.400000] 0 sd
[0.400000] 0 sd
0 slj
0 slc
n 4.050000 22.925000 m 11.900000 22.925000 l 11.900000 16.500000 l 19.200000 16.500000 l s
0 slj
n 19.200000 16.750000 m 19.700000 16.500000 l 19.200000 16.250000 l ef
/Helvetica-latin1 ff 0.700000 scf sf
(Vehicle state) 13.925000 16.356300 m gs 1 -1 sc sh gr
1.000000 1.000000 1.000000 srgb
n 18.085400 7.218750 m 18.085400 9.503125 l 25.444032 9.503125 l 25.444032 7.218750 l f
0.100000 slw
[] 0 sd
[] 0 sd
0 slj
0.000000 0.000000 0.000000 srgb
n 18.085400 7.218750 m 18.085400 9.503125 l 25.444032 9.503125 l 25.444032 7.218750 l cp s
1.000000 1.000000 1.000000 srgb
n 18.275000 7.400000 m 18.275000 9.300000 l 25.225000 9.300000 l 25.225000 7.400000 l f
0.100000 slw
[] 0 sd
[] 0 sd
0 slj
0.000000 0.000000 0.000000 srgb
n 18.275000 7.400000 m 18.275000 9.300000 l 25.225000 9.300000 l 25.225000 7.400000 l cp s
/Helvetica-latin1 ff 0.700000 scf sf
(Mission Planner) dup sw 2 div 21.750000 ex sub 8.750000 m gs 1 -1 sc sh gr
0.100000 slw
[1.000000] 0 sd
[0.400000] 0 sd
0 slj
0 slc
n 4.050000 21.975000 m 7.287500 21.975000 l 7.287500 16.950000 l s
0 slj
n 7.537500 16.950000 m 7.287500 16.450000 l 7.037500 16.950000 l ef
0.100000 slw
[] 0 sd
[] 0 sd
0 slc
n -10.125000 2.956250 m -7.625000 2.956250 l s
0 slj
n -7.625000 3.206250 m -7.125000 2.956250 l -7.625000 2.706250 l ef
/Helvetica-latin1 ff 0.560000 scf sf
(Directive/response) -6.925000 3.206250 m gs 1 -1 sc sh gr
0.100000 slw
[1.000000] 0 sd
[0.400000] 0 sd
0 slc
n -10.150000 3.976250 m -7.650000 3.976250 l s
0 slj
n -7.650000 4.226250 m -7.150000 3.976250 l -7.650000 3.726250 l ef
/Helvetica-latin1 ff 0.560000 scf sf
(State knowledge) -6.975000 4.256250 m gs 1 -1 sc sh gr
1.000000 1.000000 1.000000 srgb
n 20.015100 28.298800 m 20.015100 30.198800 l 24.221350 30.198800 l 24.221350 28.298800 l f
0.100000 slw
[] 0 sd
[] 0 sd
0 slj
0.000000 0.000000 0.000000 srgb
n 20.015100 28.298800 m 20.015100 30.198800 l 24.221350 30.198800 l 24.221350 28.298800 l cp s
1.000000 1.000000 1.000000 srgb
n 19.802600 28.087500 m 19.802600 29.987500 l 24.008850 29.987500 l 24.008850 28.087500 l f
0.100000 slw
[] 0 sd
[] 0 sd
0 slj
0.000000 0.000000 0.000000 srgb
n 19.802600 28.087500 m 19.802600 29.987500 l 24.008850 29.987500 l 24.008850 28.087500 l cp s
1.000000 1.000000 1.000000 srgb
n 19.525000 27.900000 m 19.525000 29.800000 l 23.725000 29.800000 l 23.725000 27.900000 l f
0.100000 slw
[] 0 sd
[] 0 sd
0 slj
0.000000 0.000000 0.000000 srgb
n 19.525000 27.900000 m 19.525000 29.800000 l 23.725000 29.800000 l 23.725000 27.900000 l cp s
/Helvetica-latin1 ff 0.700000 scf sf
(Actuators) dup sw 2 div 21.625000 ex sub 29.250000 m gs 1 -1 sc sh gr
0.100000 slw
[] 0 sd
[] 0 sd
0 slc
n 22.637500 17.450000 m 22.559930 19.350458 l s
0 slj
n 22.310138 19.340262 m 22.539539 19.850042 l 22.809722 19.360653 l ef
1.000000 1.000000 1.000000 srgb
n -10.356200 7.136250 m -10.356200 9.023750 l -6.456200 9.023750 l -6.456200 7.136250 l f
0.100000 slw
[] 0 sd
[] 0 sd
0 slj
0.000000 0.000000 0.000000 srgb
n -10.356200 7.136250 m -10.356200 9.023750 l -6.456200 9.023750 l -6.456200 7.136250 l cp s
1.000000 1.000000 1.000000 srgb
n -10.537500 6.931250 m -10.537500 8.818750 l -6.637500 8.818750 l -6.637500 6.931250 l f
0.100000 slw
[] 0 sd
[] 0 sd
0 slj
0.000000 0.000000 0.000000 srgb
n -10.537500 6.931250 m -10.537500 8.818750 l -6.637500 8.818750 l -6.637500 6.931250 l cp s
1.000000 1.000000 1.000000 srgb
n -10.675000 6.737500 m -10.675000 8.637500 l -6.825000 8.637500 l -6.825000 6.737500 l f
0.100000 slw
[] 0 sd
[] 0 sd
0 slj
0.000000 0.000000 0.000000 srgb
n -10.675000 6.737500 m -10.675000 8.637500 l -6.825000 8.637500 l -6.825000 6.737500 l cp s
/Helvetica-latin1 ff 0.700000 scf sf
(Sensors) dup sw 2 div -8.750000 ex sub 8.087500 m gs 1 -1 sc sh gr
0.100000 slw
[] 0 sd
[] 0 sd
0 slc
n -1.475000 8.475000 m -6.275936 8.194572 l s
0 slj
n -6.261358 7.944997 m -6.775085 8.165416 l -6.290514 8.444146 l ef
0.100000 slw
[] 0 sd
[] 0 sd
0 slc
n -6.825000 7.212500 m -2.022731 6.774910 l s
0 slj
n -2.000044 7.023879 m -1.524794 6.729537 l -2.045417 6.525942 l ef
/Helvetica-latin1 ff 0.700000 scf sf
(Response) -6.172188 6.812500 m gs 1 -1 sc sh gr
0.100000 slw
[] 0 sd
[] 0 sd
0 slc
n -5.000000 22.225000 m 0.400393 22.429217 l s
0 slj
n 0.390946 22.679038 m 0.900036 22.448111 l 0.409840 22.179395 l ef
/Helvetica-latin1 ff 0.700000 scf sf
(Response) -4.492188 22.103750 m gs 1 -1 sc sh gr
0.100000 slw
[] 0 sd
[] 0 sd
0 slc
n 20.787500 11.500000 m 20.195243 9.818753 l s
0 slj
n 20.431040 9.735689 m 20.029113 9.347159 l 19.959446 9.901818 l ef
1.000000 1.000000 1.000000 srgb
n 19.675100 11.300000 m 19.675100 13.625000 l 23.700100 13.625000 l 23.700100 11.300000 l f
0.100000 slw
[] 0 sd
[] 0 sd
0 slj
0.000000 0.000000 0.000000 srgb
n 19.675100 11.300000 m 19.675100 13.625000 l 23.700100 13.625000 l 23.700100 11.300000 l cp s
1.000000 1.000000 1.000000 srgb
n 19.887500 11.500000 m 19.887500 13.400000 l 23.487500 13.400000 l 23.487500 11.500000 l f
0.100000 slw
[] 0 sd
[] 0 sd
0 slj
0.000000 0.000000 0.000000 srgb
n 19.887500 11.500000 m 19.887500 13.400000 l 23.487500 13.400000 l 23.487500 11.500000 l cp s
/Helvetica-latin1 ff 0.700000 scf sf
(Planner) dup sw 2 div 21.687500 ex sub 12.850000 m gs 1 -1 sc sh gr
/Helvetica-latin1 ff 0.700000 scf sf
(Response) dup sw 20.385100 ex sub 10.801250 m gs 1 -1 sc sh gr
0.100000 slw
[] 0 sd
[] 0 sd
0 slc
n 20.712500 15.550000 m 20.768326 13.949666 l s
0 slj
n 21.018174 13.958381 m 20.785757 13.449970 l 20.518478 13.940950 l ef
/Helvetica-latin1 ff 0.700000 scf sf
(Response) dup sw 20.685100 ex sub 14.901250 m gs 1 -1 sc sh gr
1.000000 1.000000 1.000000 srgb
n 19.646400 19.731300 m 19.646400 22.018750 l 23.619032 22.018750 l 23.619032 19.731300 l f
0.100000 slw
[] 0 sd
[] 0 sd
0 slj
0.000000 0.000000 0.000000 srgb
n 19.646400 19.731300 m 19.646400 22.018750 l 23.619032 22.018750 l 23.619032 19.731300 l cp s
1.000000 1.000000 1.000000 srgb
n 19.837500 19.900000 m 19.837500 21.800000 l 23.437500 21.800000 l 23.437500 19.900000 l f
0.100000 slw
[] 0 sd
[] 0 sd
0 slj
0.000000 0.000000 0.000000 srgb
n 19.837500 19.900000 m 19.837500 21.800000 l 23.437500 21.800000 l 23.437500 19.900000 l cp s
/Helvetica-latin1 ff 0.700000 scf sf
(Gcdrive) dup sw 2 div 21.637500 ex sub 21.250000 m gs 1 -1 sc sh gr
0.100000 slw
[] 0 sd
[] 0 sd
0 slc
n 20.737500 19.900000 m 20.718112 17.999971 l s
0 slj
n 20.968099 17.997420 m 20.713010 17.499997 l 20.468125 18.002522 l ef
/Helvetica-latin1 ff 0.700000 scf sf
(Response) dup sw 20.585100 ex sub 19.101250 m gs 1 -1 sc sh gr
0.100000 slw
[] 0 sd
[] 0 sd
0 slc
n 20.575000 27.900000 m 20.722854 22.349805 l s
0 slj
n 20.972765 22.356462 m 20.736169 21.849982 l 20.472942 22.343147 l ef
/Helvetica-latin1 ff 0.700000 scf sf
(Response) dup sw 20.535100 ex sub 25.351250 m gs 1 -1 sc sh gr
showpage
