%!PS-Adobe-2.0 EPSF-2.0
%%Title: E:\school\projects\GC07\LogicPlanner\report\logic_planner_fsm_road.dia
%%Creator: Dia v0.95-1
%%CreationDate: Fri Dec 14 13:23:38 2007
%%For: Nok
%%Orientation: Portrait
%%Magnification: 1.0000
%%BoundingBox: 0 0 1717 1200
%%BeginSetup
%%EndSetup
%%EndComments
%%BeginProlog
[ /.notdef /.notdef /.notdef /.notdef /.notdef /.notdef /.notdef /.notdef /.notdef /.notdef
/.notdef /.notdef /.notdef /.notdef /.notdef /.notdef /.notdef /.notdef /.notdef /.notdef
/.notdef /.notdef /.notdef /.notdef /.notdef /.notdef /.notdef /.notdef /.notdef /.notdef
/.notdef /.notdef /space /exclam /quotedbl /numbersign /dollar /percent /ampersand /quoteright
/parenleft /parenright /asterisk /plus /comma /hyphen /period /slash /zero /one
/two /three /four /five /six /seven /eight /nine /colon /semicolon
/less /equal /greater /question /at /A /B /C /D /E
/F /G /H /I /J /K /L /M /N /O
/P /Q /R /S /T /U /V /W /X /Y
/Z /bracketleft /backslash /bracketright /asciicircum /underscore /quoteleft /a /b /c
/d /e /f /g /h /i /j /k /l /m
/n /o /p /q /r /s /t /u /v /w
/x /y /z /braceleft /bar /braceright /asciitilde /.notdef /.notdef /.notdef
/.notdef /.notdef /.notdef /.notdef /.notdef /.notdef /.notdef /.notdef /.notdef /.notdef
/.notdef /.notdef /.notdef /.notdef /.notdef /.notdef /.notdef /.notdef /.notdef /.notdef
/.notdef /.notdef /.notdef /.notdef /.notdef /.notdef /.notdef /.notdef /.notdef /.notdef
/space /exclamdown /cent /sterling /currency /yen /brokenbar /section /dieresis /copyright
/ordfeminine /guillemotleft /logicalnot /hyphen /registered /macron /degree /plusminus /twosuperior /threesuperior
/acute /mu /paragraph /periodcentered /cedilla /onesuperior /ordmasculine /guillemotright /onequarter /onehalf
/threequarters /questiondown /Agrave /Aacute /Acircumflex /Atilde /Adieresis /Aring /AE /Ccedilla
/Egrave /Eacute /Ecircumflex /Edieresis /Igrave /Iacute /Icircumflex /Idieresis /Eth /Ntilde
/Ograve /Oacute /Ocircumflex /Otilde /Odieresis /multiply /Oslash /Ugrave /Uacute /Ucircumflex
/Udieresis /Yacute /Thorn /germandbls /agrave /aacute /acircumflex /atilde /adieresis /aring
/ae /ccedilla /egrave /eacute /ecircumflex /edieresis /igrave /iacute /icircumflex /idieresis
/eth /ntilde /ograve /oacute /ocircumflex /otilde /odieresis /divide /oslash /ugrave
/uacute /ucircumflex /udieresis /yacute /thorn /ydieresis] /isolatin1encoding exch def
/cp {closepath} bind def
/c {curveto} bind def
/f {fill} bind def
/a {arc} bind def
/ef {eofill} bind def
/ex {exch} bind def
/gr {grestore} bind def
/gs {gsave} bind def
/sa {save} bind def
/rs {restore} bind def
/l {lineto} bind def
/m {moveto} bind def
/rm {rmoveto} bind def
/n {newpath} bind def
/s {stroke} bind def
/sh {show} bind def
/slc {setlinecap} bind def
/slj {setlinejoin} bind def
/slw {setlinewidth} bind def
/srgb {setrgbcolor} bind def
/rot {rotate} bind def
/sc {scale} bind def
/sd {setdash} bind def
/ff {findfont} bind def
/sf {setfont} bind def
/scf {scalefont} bind def
/sw {stringwidth pop} bind def
/tr {translate} bind def

/ellipsedict 8 dict def
ellipsedict /mtrx matrix put
/ellipse
{ ellipsedict begin
   /endangle exch def
   /startangle exch def
   /yrad exch def
   /xrad exch def
   /y exch def
   /x exch def   /savematrix mtrx currentmatrix def
   x y tr xrad yrad sc
   0 0 1 startangle endangle arc
   savematrix setmatrix
   end
} def

/mergeprocs {
dup length
3 -1 roll
dup
length
dup
5 1 roll
3 -1 roll
add
array cvx
dup
3 -1 roll
0 exch
putinterval
dup
4 2 roll
putinterval
} bind def
/Times-Roman-latin1
    /Times-Roman findfont
    dup length dict begin
	{1 index /FID ne {def} {pop pop} ifelse} forall
	/Encoding isolatin1encoding def
    currentdict end
definefont pop
/Times-Italic-latin1
    /Times-Italic findfont
    dup length dict begin
	{1 index /FID ne {def} {pop pop} ifelse} forall
	/Encoding isolatin1encoding def
    currentdict end
definefont pop
/Times-Bold-latin1
    /Times-Bold findfont
    dup length dict begin
	{1 index /FID ne {def} {pop pop} ifelse} forall
	/Encoding isolatin1encoding def
    currentdict end
definefont pop
/Times-BoldItalic-latin1
    /Times-BoldItalic findfont
    dup length dict begin
	{1 index /FID ne {def} {pop pop} ifelse} forall
	/Encoding isolatin1encoding def
    currentdict end
definefont pop
/AvantGarde-Book-latin1
    /AvantGarde-Book findfont
    dup length dict begin
	{1 index /FID ne {def} {pop pop} ifelse} forall
	/Encoding isolatin1encoding def
    currentdict end
definefont pop
/AvantGarde-BookOblique-latin1
    /AvantGarde-BookOblique findfont
    dup length dict begin
	{1 index /FID ne {def} {pop pop} ifelse} forall
	/Encoding isolatin1encoding def
    currentdict end
definefont pop
/AvantGarde-Demi-latin1
    /AvantGarde-Demi findfont
    dup length dict begin
	{1 index /FID ne {def} {pop pop} ifelse} forall
	/Encoding isolatin1encoding def
    currentdict end
definefont pop
/AvantGarde-DemiOblique-latin1
    /AvantGarde-DemiOblique findfont
    dup length dict begin
	{1 index /FID ne {def} {pop pop} ifelse} forall
	/Encoding isolatin1encoding def
    currentdict end
definefont pop
/Bookman-Light-latin1
    /Bookman-Light findfont
    dup length dict begin
	{1 index /FID ne {def} {pop pop} ifelse} forall
	/Encoding isolatin1encoding def
    currentdict end
definefont pop
/Bookman-LightItalic-latin1
    /Bookman-LightItalic findfont
    dup length dict begin
	{1 index /FID ne {def} {pop pop} ifelse} forall
	/Encoding isolatin1encoding def
    currentdict end
definefont pop
/Bookman-Demi-latin1
    /Bookman-Demi findfont
    dup length dict begin
	{1 index /FID ne {def} {pop pop} ifelse} forall
	/Encoding isolatin1encoding def
    currentdict end
definefont pop
/Bookman-DemiItalic-latin1
    /Bookman-DemiItalic findfont
    dup length dict begin
	{1 index /FID ne {def} {pop pop} ifelse} forall
	/Encoding isolatin1encoding def
    currentdict end
definefont pop
/Courier-latin1
    /Courier findfont
    dup length dict begin
	{1 index /FID ne {def} {pop pop} ifelse} forall
	/Encoding isolatin1encoding def
    currentdict end
definefont pop
/Courier-Oblique-latin1
    /Courier-Oblique findfont
    dup length dict begin
	{1 index /FID ne {def} {pop pop} ifelse} forall
	/Encoding isolatin1encoding def
    currentdict end
definefont pop
/Courier-Bold-latin1
    /Courier-Bold findfont
    dup length dict begin
	{1 index /FID ne {def} {pop pop} ifelse} forall
	/Encoding isolatin1encoding def
    currentdict end
definefont pop
/Courier-BoldOblique-latin1
    /Courier-BoldOblique findfont
    dup length dict begin
	{1 index /FID ne {def} {pop pop} ifelse} forall
	/Encoding isolatin1encoding def
    currentdict end
definefont pop
/Helvetica-latin1
    /Helvetica findfont
    dup length dict begin
	{1 index /FID ne {def} {pop pop} ifelse} forall
	/Encoding isolatin1encoding def
    currentdict end
definefont pop
/Helvetica-Oblique-latin1
    /Helvetica-Oblique findfont
    dup length dict begin
	{1 index /FID ne {def} {pop pop} ifelse} forall
	/Encoding isolatin1encoding def
    currentdict end
definefont pop
/Helvetica-Bold-latin1
    /Helvetica-Bold findfont
    dup length dict begin
	{1 index /FID ne {def} {pop pop} ifelse} forall
	/Encoding isolatin1encoding def
    currentdict end
definefont pop
/Helvetica-BoldOblique-latin1
    /Helvetica-BoldOblique findfont
    dup length dict begin
	{1 index /FID ne {def} {pop pop} ifelse} forall
	/Encoding isolatin1encoding def
    currentdict end
definefont pop
/Helvetica-Narrow-latin1
    /Helvetica-Narrow findfont
    dup length dict begin
	{1 index /FID ne {def} {pop pop} ifelse} forall
	/Encoding isolatin1encoding def
    currentdict end
definefont pop
/Helvetica-Narrow-Oblique-latin1
    /Helvetica-Narrow-Oblique findfont
    dup length dict begin
	{1 index /FID ne {def} {pop pop} ifelse} forall
	/Encoding isolatin1encoding def
    currentdict end
definefont pop
/Helvetica-Narrow-Bold-latin1
    /Helvetica-Narrow-Bold findfont
    dup length dict begin
	{1 index /FID ne {def} {pop pop} ifelse} forall
	/Encoding isolatin1encoding def
    currentdict end
definefont pop
/Helvetica-Narrow-BoldOblique-latin1
    /Helvetica-Narrow-BoldOblique findfont
    dup length dict begin
	{1 index /FID ne {def} {pop pop} ifelse} forall
	/Encoding isolatin1encoding def
    currentdict end
definefont pop
/NewCenturySchoolbook-Roman-latin1
    /NewCenturySchoolbook-Roman findfont
    dup length dict begin
	{1 index /FID ne {def} {pop pop} ifelse} forall
	/Encoding isolatin1encoding def
    currentdict end
definefont pop
/NewCenturySchoolbook-Italic-latin1
    /NewCenturySchoolbook-Italic findfont
    dup length dict begin
	{1 index /FID ne {def} {pop pop} ifelse} forall
	/Encoding isolatin1encoding def
    currentdict end
definefont pop
/NewCenturySchoolbook-Bold-latin1
    /NewCenturySchoolbook-Bold findfont
    dup length dict begin
	{1 index /FID ne {def} {pop pop} ifelse} forall
	/Encoding isolatin1encoding def
    currentdict end
definefont pop
/NewCenturySchoolbook-BoldItalic-latin1
    /NewCenturySchoolbook-BoldItalic findfont
    dup length dict begin
	{1 index /FID ne {def} {pop pop} ifelse} forall
	/Encoding isolatin1encoding def
    currentdict end
definefont pop
/Palatino-Roman-latin1
    /Palatino-Roman findfont
    dup length dict begin
	{1 index /FID ne {def} {pop pop} ifelse} forall
	/Encoding isolatin1encoding def
    currentdict end
definefont pop
/Palatino-Italic-latin1
    /Palatino-Italic findfont
    dup length dict begin
	{1 index /FID ne {def} {pop pop} ifelse} forall
	/Encoding isolatin1encoding def
    currentdict end
definefont pop
/Palatino-Bold-latin1
    /Palatino-Bold findfont
    dup length dict begin
	{1 index /FID ne {def} {pop pop} ifelse} forall
	/Encoding isolatin1encoding def
    currentdict end
definefont pop
/Palatino-BoldItalic-latin1
    /Palatino-BoldItalic findfont
    dup length dict begin
	{1 index /FID ne {def} {pop pop} ifelse} forall
	/Encoding isolatin1encoding def
    currentdict end
definefont pop
/Symbol-latin1
    /Symbol findfont
definefont pop
/ZapfChancery-MediumItalic-latin1
    /ZapfChancery-MediumItalic findfont
    dup length dict begin
	{1 index /FID ne {def} {pop pop} ifelse} forall
	/Encoding isolatin1encoding def
    currentdict end
definefont pop
/ZapfDingbats-latin1
    /ZapfDingbats findfont
    dup length dict begin
	{1 index /FID ne {def} {pop pop} ifelse} forall
	/Encoding isolatin1encoding def
    currentdict end
definefont pop
28.346000 -28.346000 scale
3.697190 -44.746300 translate
%%EndProlog


1.000000 1.000000 1.000000 srgb
n -3.622190 2.616410 m -3.622190 36.774826 l 54.044000 36.774826 l 54.044000 2.616410 l f
n -3.622190 2.616410 m -3.622190 2.616410 0.000000 0.000000 180.000000 270.000000 ellipse f
n 54.044000 2.616410 m 54.044000 2.616410 0.000000 0.000000 270.000000 360.000000 ellipse f
n -3.622190 2.616410 m -3.622190 36.774826 l 54.044000 36.774826 l 54.044000 2.616410 l f
n -3.622190 36.774826 m -3.622190 36.774826 0.000000 0.000000 90.000000 180.000000 ellipse f
n 54.044000 36.774826 m 54.044000 36.774826 0.000000 0.000000 0.000000 90.000000 ellipse f
0.150000 slw
[1.000000] 0 sd
[1.000000] 0 sd
0 slj
0.000000 0.000000 0.000000 srgb
n -3.622190 2.616410 m 54.044000 2.616410 l s
n -3.622190 36.774826 m 54.044000 36.774826 l s
n -3.622190 2.616410 0.000000 0.000000 180.000000 270.000000 ellipse s
n 54.044000 2.616410 0.000000 0.000000 270.000000 360.000000 ellipse s
n -3.622190 2.616410 m -3.622190 36.774826 l s
n 54.044000 2.616410 m 54.044000 36.774826 l s
n -3.622190 36.774826 0.000000 0.000000 90.000000 180.000000 ellipse s
n 54.044000 36.774826 0.000000 0.000000 0.000000 90.000000 ellipse s
0.100000 slw
[] 0 sd
[] 0 sd
0 slc
n 16.472200 9.850000 m 27.455305 9.802384 l s
0 slj
n 27.456389 10.052382 m 27.955300 9.800217 l 27.454221 9.552387 l ef
0.100000 slw
[] 0 sd
[] 0 sd
0 slc
n 31.476921 8.357577 18.778563 18.778563 107.418753 150.920530 ellipse s
0 slj
n 15.280376 17.373233 m 14.828311 17.044390 l 14.836475 17.603347 l ef
0.100000 slw
[] 0 sd
[] 0 sd
0 slc
n 13.155300 16.050000 m 4.155320 16.050000 l s
0 slj
n 4.155320 15.800000 m 3.655320 16.050000 l 4.155320 16.300000 l ef
0.100000 slw
[] 0 sd
[] 0 sd
0 slj
0 slc
n 14.805300 15.100000 m 14.748600 12.674500 28.600100 13.700100 29.545542 11.427509 c s
0 slj
n 29.776364 11.523535 m 29.737595 10.965864 l 29.314719 11.331482 l ef
0.100000 slw
[] 0 sd
[] 0 sd
0 slj
0 slc
n 1.655320 15.100000 m 1.648590 11.969900 25.000000 12.850000 27.862827 10.928512 c s
0 slj
n 28.002151 11.136091 m 28.277984 10.649865 l 27.723503 10.720934 l ef
0.100000 slw
[] 0 sd
[] 0 sd
0 slj
0 slc
n 1.655320 17.000000 m 0.966387 18.953100 9.594390 23.974300 10.925464 26.226511 c s
0 slj
n 10.710242 26.353709 m 11.179860 26.656956 l 11.140687 26.099313 l ef
0.100000 slw
[] 0 sd
[] 0 sd
0 slc
n 11.955300 29.000000 m 16.038258 32.992473 l s
0 slj
n 15.863473 33.171219 m 16.395751 33.342043 l 16.213043 32.813727 l ef
0.100000 slw
[] 0 sd
[] 0 sd
0 slc
n -0.055692 33.357100 m -0.046054 29.499998 l s
0 slj
n 0.203945 29.500623 m -0.044805 29.000000 l -0.296054 29.499374 l ef
1.000000 1.000000 1.000000 srgb
n 6.237059 41.195505 3.614869 1.904505 0 360 ellipse f
0.100000 slw
[] 0 sd
[] 0 sd
0.000000 0.000000 0.000000 srgb
n 6.237059 41.195505 3.614869 1.904505 0 360 ellipse cp s
1.000000 1.000000 1.000000 srgb
n 6.244236 41.215313 3.263026 1.631513 0 360 ellipse f
0.100000 slw
[] 0 sd
[] 0 sd
0 slj
0.000000 0.000000 0.000000 srgb
n 6.244236 41.215313 3.263026 1.631513 0 360 ellipse cp s
/Helvetica-Bold-latin1 ff 0.700000 scf sf
(OFF-ROAD) dup sw 2 div 6.244236 ex sub 41.115313 m gs 1 -1 sc sh gr
(mode) dup sw 2 div 6.244236 ex sub 42.115313 m gs 1 -1 sc sh gr
0.100000 slw
[] 0 sd
[] 0 sd
0 slj
0 slc
n 25.380500 17.200000 m 28.455500 20.050000 12.655300 23.900000 12.695480 26.150088 c s
0 slj
n 12.445520 26.154551 m 12.704407 26.650008 l 12.945440 26.145624 l ef
1.000000 1.000000 1.000000 srgb
n -3.027810 8.950000 m -3.027810 10.850000 l 0.922190 10.850000 l 0.922190 8.950000 l f
0.100000 slw
[] 0 sd
[] 0 sd
0 slj
0.000000 0.000000 0.000000 srgb
n -3.027810 8.950000 m -3.027810 10.850000 l 0.922190 10.850000 l 0.922190 8.950000 l cp s
/Helvetica-latin1 ff 0.700000 scf sf
(DR,NP,S) dup sw 2 div -1.052810 ex sub 10.300000 m gs 1 -1 sc sh gr
1.000000 1.000000 1.000000 srgb
n 11.922200 8.900000 m 11.922200 10.800000 l 16.472200 10.800000 l 16.472200 8.900000 l f
0.100000 slw
[] 0 sd
[] 0 sd
0 slj
0.000000 0.000000 0.000000 srgb
n 11.922200 8.900000 m 11.922200 10.800000 l 16.472200 10.800000 l 16.472200 8.900000 l cp s
/Helvetica-latin1 ff 0.700000 scf sf
(STO,NP,S) dup sw 2 div 14.197200 ex sub 10.250000 m gs 1 -1 sc sh gr
0.100000 slw
[] 0 sd
[] 0 sd
0 slc
n 0.922187 9.425000 m 11.372206 9.377500 l s
0 slj
n 11.373342 9.627497 m 11.872201 9.375227 l 11.371069 9.127503 l ef
0.100000 slw
[] 0 sd
[] 0 sd
0 slc
n 11.922200 10.325000 m 1.472181 10.372500 l s
0 slj
n 1.471045 10.122503 m 0.972186 10.374773 l 1.473318 10.622497 l ef
/Helvetica-latin1 ff 0.700000 scf sf
(no collision-free path exists) 1.536370 9.225000 m gs 1 -1 sc sh gr
/Helvetica-latin1 ff 0.700000 scf sf
(Alice has been stopped for long) 17.072200 9.375000 m gs 1 -1 sc sh gr
(enough and there is an obstacle) 17.072200 10.375000 m gs 1 -1 sc sh gr
(in the vicinity of Alice) 17.072200 11.375000 m gs 1 -1 sc sh gr
/Helvetica-latin1 ff 0.700000 scf sf
(passing finished or obstacle disappeared) 8.297190 6.800000 m gs 1 -1 sc sh gr
0.100000 slw
[] 0 sd
[] 0 sd
0 slj
0 slc
n 29.756800 8.887080 m 29.756800 7.050000 l 0.922187 7.050000 l 0.922187 8.400000 l s
0 slj
n 0.672187 8.400000 m 0.922187 8.900000 l 1.172187 8.400000 l ef
0.100000 slw
[] 0 sd
[] 0 sd
0 slj
0 slc
n 48.389200 16.800000 m 48.389200 4.200000 l -1.052810 4.200000 l -1.052810 8.400000 l s
0 slj
n -1.302810 8.400000 m -1.052810 8.900000 l -0.802810 8.400000 l ef
1.000000 1.000000 1.000000 srgb
n 28.005300 8.850000 m 28.005300 10.750000 l 31.305300 10.750000 l 31.305300 8.850000 l f
0.100000 slw
[] 0 sd
[] 0 sd
0 slj
0.000000 0.000000 0.000000 srgb
n 28.005300 8.850000 m 28.005300 10.750000 l 31.305300 10.750000 l 31.305300 8.850000 l cp s
/Helvetica-latin1 ff 0.700000 scf sf
(DR,P,S) dup sw 2 div 29.655300 ex sub 10.200000 m gs 1 -1 sc sh gr
1.000000 1.000000 1.000000 srgb
n 41.978700 8.850000 m 41.978700 10.750000 l 45.878700 10.750000 l 45.878700 8.850000 l f
0.100000 slw
[] 0 sd
[] 0 sd
0 slj
0.000000 0.000000 0.000000 srgb
n 41.978700 8.850000 m 41.978700 10.750000 l 45.878700 10.750000 l 45.878700 8.850000 l cp s
/Helvetica-latin1 ff 0.700000 scf sf
(STO,P,S) dup sw 2 div 43.928700 ex sub 10.200000 m gs 1 -1 sc sh gr
0.100000 slw
[] 0 sd
[] 0 sd
0 slj
0 slc
n 31.305300 9.325000 m 31.305300 9.325000 l 41.428700 9.325000 l s
0 slj
n 41.428700 9.575000 m 41.928700 9.325000 l 41.428700 9.075000 l ef
0.100000 slw
[] 0 sd
[] 0 sd
0 slc
n 41.978700 10.275000 m 31.855300 10.275000 l s
0 slj
n 31.855300 10.025000 m 31.355300 10.275000 l 31.855300 10.525000 l ef
/Helvetica-latin1 ff 0.700000 scf sf
(no collision-free path exists) 31.754600 9.140000 m gs 1 -1 sc sh gr
/Helvetica-latin1 ff 0.700000 scf sf
(collision-free path is found) 32.266800 10.969300 m gs 1 -1 sc sh gr
0.100000 slw
[] 0 sd
[] 0 sd
0 slc
n 43.928700 10.750000 m 43.917900 15.699801 l s
0 slj
n 43.667901 15.699256 m 43.916809 16.199800 l 44.167899 15.700347 l ef
/Helvetica-latin1 ff 0.700000 scf sf
(no collision-free path exists) 44.311600 11.755000 m gs 1 -1 sc sh gr
(and the number of times Alice) 44.311600 12.755000 m gs 1 -1 sc sh gr
(has switched to the DR,P,R) 44.311600 13.755000 m gs 1 -1 sc sh gr
(state near the current position) 44.311600 14.755000 m gs 1 -1 sc sh gr
(is less than some threshold) 44.311600 15.755000 m gs 1 -1 sc sh gr
1.000000 1.000000 1.000000 srgb
n 41.914500 16.300000 m 41.914500 18.200000 l 45.914500 18.200000 l 45.914500 16.300000 l f
0.100000 slw
[] 0 sd
[] 0 sd
0 slj
0.000000 0.000000 0.000000 srgb
n 41.914500 16.300000 m 41.914500 18.200000 l 45.914500 18.200000 l 45.914500 16.300000 l cp s
/Helvetica-latin1 ff 0.700000 scf sf
(DR,PR,S) dup sw 2 div 43.914500 ex sub 17.650000 m gs 1 -1 sc sh gr
0.100000 slw
[] 0 sd
[] 0 sd
0 slc
n 41.914500 16.775000 m 30.530495 16.727304 l s
0 slj
n 30.531543 16.477307 m 30.030500 16.725209 l 30.529448 16.977302 l ef
/Helvetica-latin1 ff 0.700000 scf sf
(no collision-free path exists and the) 30.119000 13.390000 m gs 1 -1 sc sh gr
(number of times Alice has switched) 30.119000 14.390000 m gs 1 -1 sc sh gr
(to the DR,P,R state near the current) 30.119000 15.390000 m gs 1 -1 sc sh gr
(position is less than some threshold) 30.119000 16.390000 m gs 1 -1 sc sh gr
0.100000 slw
[] 0 sd
[] 0 sd
0 slc
n 29.980500 17.675000 m 41.364505 17.722696 l s
0 slj
n 41.363457 17.972693 m 41.864500 17.724791 l 41.365552 17.472698 l ef
/Helvetica-latin1 ff 0.700000 scf sf
(collision-free path is found) 30.755500 18.340000 m gs 1 -1 sc sh gr
1.000000 1.000000 1.000000 srgb
n 25.380500 16.250000 m 25.380500 18.150000 l 29.980500 18.150000 l 29.980500 16.250000 l f
0.100000 slw
[] 0 sd
[] 0 sd
0 slj
0.000000 0.000000 0.000000 srgb
n 25.380500 16.250000 m 25.380500 18.150000 l 29.980500 18.150000 l 29.980500 16.250000 l cp s
/Helvetica-latin1 ff 0.700000 scf sf
(STO,PR,S) dup sw 2 div 27.680500 ex sub 17.600000 m gs 1 -1 sc sh gr
1.000000 1.000000 1.000000 srgb
n 25.855500 25.800000 m 25.855500 27.700000 l 29.905500 27.700000 l 29.905500 25.800000 l f
0.100000 slw
[] 0 sd
[] 0 sd
0 slj
0.000000 0.000000 0.000000 srgb
n 25.855500 25.800000 m 25.855500 27.700000 l 29.905500 27.700000 l 29.905500 25.800000 l cp s
/Helvetica-latin1 ff 0.700000 scf sf
(BACKUP) dup sw 2 div 27.880500 ex sub 27.150000 m gs 1 -1 sc sh gr
0.100000 slw
[] 0 sd
[] 0 sd
0 slc
n 27.680500 18.150000 m 27.866126 25.250188 l s
0 slj
n 27.616211 25.256722 m 27.879193 25.750017 l 28.116040 25.243654 l ef
/Helvetica-latin1 ff 0.700000 scf sf
(no collision-free) 27.843300 19.905800 m gs 1 -1 sc sh gr
(path exists and) 27.843300 20.905800 m gs 1 -1 sc sh gr
(there is more) 27.843300 21.905800 m gs 1 -1 sc sh gr
(than one lane) 27.843300 22.905800 m gs 1 -1 sc sh gr
/Helvetica-latin1 ff 0.700000 scf sf
(no collision-free) 20.705500 19.090000 m gs 1 -1 sc sh gr
(path exists and) 20.705500 20.090000 m gs 1 -1 sc sh gr
(there is only) 20.705500 21.090000 m gs 1 -1 sc sh gr
(one lane) 20.705500 22.090000 m gs 1 -1 sc sh gr
/Helvetica-latin1 ff 0.700000 scf sf
(backup finished) 9.507470 18.429300 m gs 1 -1 sc sh gr
(or failed and the) 9.507470 19.429300 m gs 1 -1 sc sh gr
(number of times Alice) 9.507470 20.429300 m gs 1 -1 sc sh gr
(has switched to BACKUP) 9.507470 21.429300 m gs 1 -1 sc sh gr
(is less than some threshold) 9.507470 22.429300 m gs 1 -1 sc sh gr
1.000000 1.000000 1.000000 srgb
n 13.155300 15.100000 m 13.155300 17.000000 l 16.455300 17.000000 l 16.455300 15.100000 l f
0.100000 slw
[] 0 sd
[] 0 sd
0 slj
0.000000 0.000000 0.000000 srgb
n 13.155300 15.100000 m 13.155300 17.000000 l 16.455300 17.000000 l 16.455300 15.100000 l cp s
/Helvetica-latin1 ff 0.700000 scf sf
(DR,P,S) dup sw 2 div 14.805300 ex sub 16.450000 m gs 1 -1 sc sh gr
1.000000 1.000000 1.000000 srgb
n -0.294680 15.100000 m -0.294680 17.000000 l 3.605320 17.000000 l 3.605320 15.100000 l f
0.100000 slw
[] 0 sd
[] 0 sd
0 slj
0.000000 0.000000 0.000000 srgb
n -0.294680 15.100000 m -0.294680 17.000000 l 3.605320 17.000000 l 3.605320 15.100000 l cp s
/Helvetica-latin1 ff 0.700000 scf sf
(STO,P,S) dup sw 2 div 1.655320 ex sub 16.450000 m gs 1 -1 sc sh gr
/Helvetica-latin1 ff 0.700000 scf sf
(no collision-free path exists) 3.938880 15.748600 m gs 1 -1 sc sh gr
/Helvetica-latin1 ff 0.700000 scf sf
(collision-free path is found) 6.130320 12.790000 m gs 1 -1 sc sh gr
/Helvetica-latin1 ff 0.700000 scf sf
(collision-free path is found) 16.080300 13.740000 m gs 1 -1 sc sh gr
/Helvetica-latin1 ff 0.700000 scf sf
(no collision-free) -0.244008 21.013000 m gs 1 -1 sc sh gr
(path exists) -0.244008 22.013000 m gs 1 -1 sc sh gr
/Helvetica-latin1 ff 0.700000 scf sf
(no collision-free path exists and the number ) 30.072400 24.464300 m gs 1 -1 sc sh gr
(of times Alice has switched to the DR,P,R) 30.072400 25.464300 m gs 1 -1 sc sh gr
(state near the current position exceeds some) 30.072400 26.464300 m gs 1 -1 sc sh gr
(threshold and there is more than one lane) 30.072400 27.464300 m gs 1 -1 sc sh gr
0.100000 slw
[] 0 sd
[] 0 sd
0 slj
0 slc
n -1.244680 27.850000 m -2.894680 27.850000 l -2.894680 43.634900 l 51.689200 43.634900 l 51.689200 17.800000 l s
0.100000 slw
[] 0 sd
[] 0 sd
0 slj
0 slc
n 44.914500 18.200000 m 44.914500 28.425000 l 14.005300 28.425000 l s
0 slj
n 14.005300 28.175000 m 13.505300 28.425000 l 14.005300 28.675000 l ef
/Helvetica-latin1 ff 0.700000 scf sf
(no collision-free path exists and the number of times Alice has switched to the DR,P,R) 13.902100 29.109800 m gs 1 -1 sc sh gr
(state near the current position exceeds some threshold and there is only one lane) 13.902100 30.109800 m gs 1 -1 sc sh gr
0.100000 slw
[] 0 sd
[] 0 sd
0 slj
0 slc
n 43.914500 18.200000 m 43.914500 26.750000 l 30.455500 26.750000 l s
0 slj
n 30.455500 26.500000 m 29.955500 26.750000 l 30.455500 27.000000 l ef
0.100000 slw
[] 0 sd
[] 0 sd
0 slc
n 45.914500 16.775000 m 48.339200 16.800000 l s
1.000000 1.000000 1.000000 srgb
n 10.455300 26.700000 m 10.455300 29.000000 l 13.455300 29.000000 l 13.455300 26.700000 l f
0.100000 slw
[] 0 sd
[] 0 sd
0 slj
0.000000 0.000000 0.000000 srgb
n 10.455300 26.700000 m 10.455300 29.000000 l 13.455300 29.000000 l 13.455300 26.700000 l cp s
/Helvetica-latin1 ff 0.700000 scf sf
(STO,A) dup sw 2 div 11.955300 ex sub 28.250000 m gs 1 -1 sc sh gr
0.100000 slw
[] 0 sd
[] 0 sd
0 slc
n 25.855500 26.750000 m 14.005296 26.702218 l s
0 slj
n 14.006304 26.452220 m 13.505300 26.700202 l 14.004287 26.952216 l ef
/Helvetica-latin1 ff 0.700000 scf sf
(backup finished or failed and the) 14.001000 25.557100 m gs 1 -1 sc sh gr
(number of times Alice has switched) 14.001000 26.557100 m gs 1 -1 sc sh gr
(to BACKUP exceeds some threshold) 14.001000 27.557100 m gs 1 -1 sc sh gr
1.000000 1.000000 1.000000 srgb
n -1.244680 26.750000 m -1.244680 28.950000 l 1.155320 28.950000 l 1.155320 26.750000 l f
0.100000 slw
[] 0 sd
[] 0 sd
0 slj
0.000000 0.000000 0.000000 srgb
n -1.244680 26.750000 m -1.244680 28.950000 l 1.155320 28.950000 l 1.155320 26.750000 l cp s
/Helvetica-latin1 ff 0.700000 scf sf
(DR,A) dup sw 2 div -0.044680 ex sub 28.250000 m gs 1 -1 sc sh gr
0.100000 slw
[] 0 sd
[] 0 sd
0 slc
n 1.155320 27.300000 m 9.905302 27.276478 l s
0 slj
n 9.905974 27.526478 m 10.405300 27.275134 l 9.904630 27.026479 l ef
/Helvetica-latin1 ff 0.700000 scf sf
(no collision-free path exists) 1.355320 27.075000 m gs 1 -1 sc sh gr
0.100000 slw
[] 0 sd
[] 0 sd
0 slc
n 10.455300 28.425000 m 1.705318 28.401478 l s
0 slj
n 1.705990 28.151479 m 1.205320 28.400134 l 1.704646 28.651478 l ef
/Helvetica-latin1 ff 0.700000 scf sf
(no collision-free path exists) 14.951000 32.053500 m gs 1 -1 sc sh gr
/Helvetica-latin1 ff 0.700000 scf sf
(collision-free path is found) 1.523530 10.990000 m gs 1 -1 sc sh gr
/Helvetica-latin1 ff 0.700000 scf sf
(collision-free path is found) 1.367480 29.162200 m gs 1 -1 sc sh gr
/Helvetica-latin1 ff 0.700000 scf sf
(collision-free path) -1.319680 30.840000 m gs 1 -1 sc sh gr
(with DR,A is found) -1.319680 31.840000 m gs 1 -1 sc sh gr
1.000000 1.000000 1.000000 srgb
n -1.508190 33.406300 m -1.508190 35.306300 l 1.391810 35.306300 l 1.391810 33.406300 l f
0.100000 slw
[] 0 sd
[] 0 sd
0 slj
0.000000 0.000000 0.000000 srgb
n -1.508190 33.406300 m -1.508190 35.306300 l 1.391810 35.306300 l 1.391810 33.406300 l cp s
/Helvetica-latin1 ff 0.700000 scf sf
(DR,B) dup sw 2 div -0.058190 ex sub 34.756300 m gs 1 -1 sc sh gr
1.000000 1.000000 1.000000 srgb
n 14.931500 33.377000 m 14.931500 35.277000 l 17.931500 35.277000 l 17.931500 33.377000 l f
0.100000 slw
[] 0 sd
[] 0 sd
0 slj
0.000000 0.000000 0.000000 srgb
n 14.931500 33.377000 m 14.931500 35.277000 l 17.931500 35.277000 l 17.931500 33.377000 l cp s
/Helvetica-latin1 ff 0.700000 scf sf
(STO,B) dup sw 2 div 16.431500 ex sub 34.727000 m gs 1 -1 sc sh gr
0.100000 slw
[] 0 sd
[] 0 sd
0 slc
n 1.391810 33.881300 m 14.381501 33.853190 l s
0 slj
n 14.382042 34.103190 m 14.881500 33.852108 l 14.380960 33.603191 l ef
/Helvetica-latin1 ff 0.700000 scf sf
(no collision-free path exists) 2.303730 33.604900 m gs 1 -1 sc sh gr
0.100000 slw
[] 0 sd
[] 0 sd
0 slc
n 14.931500 34.802000 m 1.941809 34.830110 l s
0 slj
n 1.941268 34.580110 m 1.441810 34.831192 l 1.942350 35.080109 l ef
/Helvetica-latin1 ff 0.700000 scf sf
(collision-free path is found) 2.212280 35.587700 m gs 1 -1 sc sh gr
0.100000 slw
[] 0 sd
[] 0 sd
0 slc
n 15.681500 35.277000 m 6.743240 39.075868 l s
0 slj
n 6.645452 38.845786 m 6.283076 39.271443 l 6.841027 39.305949 l ef
0.100000 slw
[] 0 sd
[] 0 sd
0 slc
n 17.181500 35.277000 m 25.327650 39.927328 l s
0 slj
n 25.203708 40.144441 m 25.761877 40.175212 l 25.451592 39.710214 l ef
/Helvetica-latin1 ff 0.700000 scf sf
(no collision-free path exists) 21.914000 37.608500 m gs 1 -1 sc sh gr
(and there is more than one lane) 21.914000 38.608500 m gs 1 -1 sc sh gr
/Helvetica-latin1 ff 0.700000 scf sf
(collision-free path with DR,P,R is found) 13.985700 44.446300 m gs 1 -1 sc sh gr
/Helvetica-latin1 ff 0.700000 scf sf
(no collision-free path exists) 2.891140 37.458500 m gs 1 -1 sc sh gr
(and there is only one lane) 2.891140 38.458500 m gs 1 -1 sc sh gr
/Helvetica-latin1 ff 0.700000 scf sf
(passing finished or obstacle disappeared) 12.371500 3.990000 m gs 1 -1 sc sh gr
0.100000 slw
[] 0 sd
[] 0 sd
0 slc
n 51.689200 17.700000 m 46.464495 17.722619 l s
0 slj
n 46.463413 17.472621 m 45.964500 17.724784 l 46.465577 17.972617 l ef
1.000000 1.000000 1.000000 srgb
n 24.005300 40.200000 m 24.005300 42.100000 l 27.605300 42.100000 l 27.605300 40.200000 l f
0.100000 slw
[] 0 sd
[] 0 sd
0 slj
0.000000 0.000000 0.000000 srgb
n 24.005300 40.200000 m 24.005300 42.100000 l 27.605300 42.100000 l 27.605300 40.200000 l cp s
/Helvetica-latin1 ff 0.700000 scf sf
(FAILED) dup sw 2 div 25.805300 ex sub 41.550000 m gs 1 -1 sc sh gr
1.000000 1.000000 1.000000 srgb
n 37.922200 40.190000 m 37.922200 42.090000 l 41.972200 42.090000 l 41.972200 40.190000 l f
0.100000 slw
[] 0 sd
[] 0 sd
0 slj
0.000000 0.000000 0.000000 srgb
n 37.922200 40.190000 m 37.922200 42.090000 l 41.972200 42.090000 l 41.972200 40.190000 l cp s
/Helvetica-latin1 ff 0.700000 scf sf
(PAUSED) dup sw 2 div 39.947200 ex sub 41.540000 m gs 1 -1 sc sh gr
0.100000 slw
[] 0 sd
[] 0 sd
0 slc
n 27.605300 41.150000 m 37.372200 41.140533 l s
0 slj
n 37.372443 41.390533 m 37.872200 41.140048 l 37.371958 40.890533 l ef
/Helvetica-Bold-latin1 ff 1.050000 scf sf
(ROAD REGION) 46.088600 3.718670 m gs 1 -1 sc sh gr
showpage
