%!PS-Adobe-2.0 EPSF-2.0
%%Title: E:\school\projects\GC07\LogicPlanner\report\logic_planner_fsm_zone.dia
%%Creator: Dia v0.95-1
%%CreationDate: Fri Dec 14 13:24:47 2007
%%For: Nok
%%Orientation: Portrait
%%Magnification: 1.0000
%%BoundingBox: 0 0 1432 615
%%BeginSetup
%%EndSetup
%%EndComments
%%BeginProlog
[ /.notdef /.notdef /.notdef /.notdef /.notdef /.notdef /.notdef /.notdef /.notdef /.notdef
/.notdef /.notdef /.notdef /.notdef /.notdef /.notdef /.notdef /.notdef /.notdef /.notdef
/.notdef /.notdef /.notdef /.notdef /.notdef /.notdef /.notdef /.notdef /.notdef /.notdef
/.notdef /.notdef /space /exclam /quotedbl /numbersign /dollar /percent /ampersand /quoteright
/parenleft /parenright /asterisk /plus /comma /hyphen /period /slash /zero /one
/two /three /four /five /six /seven /eight /nine /colon /semicolon
/less /equal /greater /question /at /A /B /C /D /E
/F /G /H /I /J /K /L /M /N /O
/P /Q /R /S /T /U /V /W /X /Y
/Z /bracketleft /backslash /bracketright /asciicircum /underscore /quoteleft /a /b /c
/d /e /f /g /h /i /j /k /l /m
/n /o /p /q /r /s /t /u /v /w
/x /y /z /braceleft /bar /braceright /asciitilde /.notdef /.notdef /.notdef
/.notdef /.notdef /.notdef /.notdef /.notdef /.notdef /.notdef /.notdef /.notdef /.notdef
/.notdef /.notdef /.notdef /.notdef /.notdef /.notdef /.notdef /.notdef /.notdef /.notdef
/.notdef /.notdef /.notdef /.notdef /.notdef /.notdef /.notdef /.notdef /.notdef /.notdef
/space /exclamdown /cent /sterling /currency /yen /brokenbar /section /dieresis /copyright
/ordfeminine /guillemotleft /logicalnot /hyphen /registered /macron /degree /plusminus /twosuperior /threesuperior
/acute /mu /paragraph /periodcentered /cedilla /onesuperior /ordmasculine /guillemotright /onequarter /onehalf
/threequarters /questiondown /Agrave /Aacute /Acircumflex /Atilde /Adieresis /Aring /AE /Ccedilla
/Egrave /Eacute /Ecircumflex /Edieresis /Igrave /Iacute /Icircumflex /Idieresis /Eth /Ntilde
/Ograve /Oacute /Ocircumflex /Otilde /Odieresis /multiply /Oslash /Ugrave /Uacute /Ucircumflex
/Udieresis /Yacute /Thorn /germandbls /agrave /aacute /acircumflex /atilde /adieresis /aring
/ae /ccedilla /egrave /eacute /ecircumflex /edieresis /igrave /iacute /icircumflex /idieresis
/eth /ntilde /ograve /oacute /ocircumflex /otilde /odieresis /divide /oslash /ugrave
/uacute /ucircumflex /udieresis /yacute /thorn /ydieresis] /isolatin1encoding exch def
/cp {closepath} bind def
/c {curveto} bind def
/f {fill} bind def
/a {arc} bind def
/ef {eofill} bind def
/ex {exch} bind def
/gr {grestore} bind def
/gs {gsave} bind def
/sa {save} bind def
/rs {restore} bind def
/l {lineto} bind def
/m {moveto} bind def
/rm {rmoveto} bind def
/n {newpath} bind def
/s {stroke} bind def
/sh {show} bind def
/slc {setlinecap} bind def
/slj {setlinejoin} bind def
/slw {setlinewidth} bind def
/srgb {setrgbcolor} bind def
/rot {rotate} bind def
/sc {scale} bind def
/sd {setdash} bind def
/ff {findfont} bind def
/sf {setfont} bind def
/scf {scalefont} bind def
/sw {stringwidth pop} bind def
/tr {translate} bind def

/ellipsedict 8 dict def
ellipsedict /mtrx matrix put
/ellipse
{ ellipsedict begin
   /endangle exch def
   /startangle exch def
   /yrad exch def
   /xrad exch def
   /y exch def
   /x exch def   /savematrix mtrx currentmatrix def
   x y tr xrad yrad sc
   0 0 1 startangle endangle arc
   savematrix setmatrix
   end
} def

/mergeprocs {
dup length
3 -1 roll
dup
length
dup
5 1 roll
3 -1 roll
add
array cvx
dup
3 -1 roll
0 exch
putinterval
dup
4 2 roll
putinterval
} bind def
/Times-Roman-latin1
    /Times-Roman findfont
    dup length dict begin
	{1 index /FID ne {def} {pop pop} ifelse} forall
	/Encoding isolatin1encoding def
    currentdict end
definefont pop
/Times-Italic-latin1
    /Times-Italic findfont
    dup length dict begin
	{1 index /FID ne {def} {pop pop} ifelse} forall
	/Encoding isolatin1encoding def
    currentdict end
definefont pop
/Times-Bold-latin1
    /Times-Bold findfont
    dup length dict begin
	{1 index /FID ne {def} {pop pop} ifelse} forall
	/Encoding isolatin1encoding def
    currentdict end
definefont pop
/Times-BoldItalic-latin1
    /Times-BoldItalic findfont
    dup length dict begin
	{1 index /FID ne {def} {pop pop} ifelse} forall
	/Encoding isolatin1encoding def
    currentdict end
definefont pop
/AvantGarde-Book-latin1
    /AvantGarde-Book findfont
    dup length dict begin
	{1 index /FID ne {def} {pop pop} ifelse} forall
	/Encoding isolatin1encoding def
    currentdict end
definefont pop
/AvantGarde-BookOblique-latin1
    /AvantGarde-BookOblique findfont
    dup length dict begin
	{1 index /FID ne {def} {pop pop} ifelse} forall
	/Encoding isolatin1encoding def
    currentdict end
definefont pop
/AvantGarde-Demi-latin1
    /AvantGarde-Demi findfont
    dup length dict begin
	{1 index /FID ne {def} {pop pop} ifelse} forall
	/Encoding isolatin1encoding def
    currentdict end
definefont pop
/AvantGarde-DemiOblique-latin1
    /AvantGarde-DemiOblique findfont
    dup length dict begin
	{1 index /FID ne {def} {pop pop} ifelse} forall
	/Encoding isolatin1encoding def
    currentdict end
definefont pop
/Bookman-Light-latin1
    /Bookman-Light findfont
    dup length dict begin
	{1 index /FID ne {def} {pop pop} ifelse} forall
	/Encoding isolatin1encoding def
    currentdict end
definefont pop
/Bookman-LightItalic-latin1
    /Bookman-LightItalic findfont
    dup length dict begin
	{1 index /FID ne {def} {pop pop} ifelse} forall
	/Encoding isolatin1encoding def
    currentdict end
definefont pop
/Bookman-Demi-latin1
    /Bookman-Demi findfont
    dup length dict begin
	{1 index /FID ne {def} {pop pop} ifelse} forall
	/Encoding isolatin1encoding def
    currentdict end
definefont pop
/Bookman-DemiItalic-latin1
    /Bookman-DemiItalic findfont
    dup length dict begin
	{1 index /FID ne {def} {pop pop} ifelse} forall
	/Encoding isolatin1encoding def
    currentdict end
definefont pop
/Courier-latin1
    /Courier findfont
    dup length dict begin
	{1 index /FID ne {def} {pop pop} ifelse} forall
	/Encoding isolatin1encoding def
    currentdict end
definefont pop
/Courier-Oblique-latin1
    /Courier-Oblique findfont
    dup length dict begin
	{1 index /FID ne {def} {pop pop} ifelse} forall
	/Encoding isolatin1encoding def
    currentdict end
definefont pop
/Courier-Bold-latin1
    /Courier-Bold findfont
    dup length dict begin
	{1 index /FID ne {def} {pop pop} ifelse} forall
	/Encoding isolatin1encoding def
    currentdict end
definefont pop
/Courier-BoldOblique-latin1
    /Courier-BoldOblique findfont
    dup length dict begin
	{1 index /FID ne {def} {pop pop} ifelse} forall
	/Encoding isolatin1encoding def
    currentdict end
definefont pop
/Helvetica-latin1
    /Helvetica findfont
    dup length dict begin
	{1 index /FID ne {def} {pop pop} ifelse} forall
	/Encoding isolatin1encoding def
    currentdict end
definefont pop
/Helvetica-Oblique-latin1
    /Helvetica-Oblique findfont
    dup length dict begin
	{1 index /FID ne {def} {pop pop} ifelse} forall
	/Encoding isolatin1encoding def
    currentdict end
definefont pop
/Helvetica-Bold-latin1
    /Helvetica-Bold findfont
    dup length dict begin
	{1 index /FID ne {def} {pop pop} ifelse} forall
	/Encoding isolatin1encoding def
    currentdict end
definefont pop
/Helvetica-BoldOblique-latin1
    /Helvetica-BoldOblique findfont
    dup length dict begin
	{1 index /FID ne {def} {pop pop} ifelse} forall
	/Encoding isolatin1encoding def
    currentdict end
definefont pop
/Helvetica-Narrow-latin1
    /Helvetica-Narrow findfont
    dup length dict begin
	{1 index /FID ne {def} {pop pop} ifelse} forall
	/Encoding isolatin1encoding def
    currentdict end
definefont pop
/Helvetica-Narrow-Oblique-latin1
    /Helvetica-Narrow-Oblique findfont
    dup length dict begin
	{1 index /FID ne {def} {pop pop} ifelse} forall
	/Encoding isolatin1encoding def
    currentdict end
definefont pop
/Helvetica-Narrow-Bold-latin1
    /Helvetica-Narrow-Bold findfont
    dup length dict begin
	{1 index /FID ne {def} {pop pop} ifelse} forall
	/Encoding isolatin1encoding def
    currentdict end
definefont pop
/Helvetica-Narrow-BoldOblique-latin1
    /Helvetica-Narrow-BoldOblique findfont
    dup length dict begin
	{1 index /FID ne {def} {pop pop} ifelse} forall
	/Encoding isolatin1encoding def
    currentdict end
definefont pop
/NewCenturySchoolbook-Roman-latin1
    /NewCenturySchoolbook-Roman findfont
    dup length dict begin
	{1 index /FID ne {def} {pop pop} ifelse} forall
	/Encoding isolatin1encoding def
    currentdict end
definefont pop
/NewCenturySchoolbook-Italic-latin1
    /NewCenturySchoolbook-Italic findfont
    dup length dict begin
	{1 index /FID ne {def} {pop pop} ifelse} forall
	/Encoding isolatin1encoding def
    currentdict end
definefont pop
/NewCenturySchoolbook-Bold-latin1
    /NewCenturySchoolbook-Bold findfont
    dup length dict begin
	{1 index /FID ne {def} {pop pop} ifelse} forall
	/Encoding isolatin1encoding def
    currentdict end
definefont pop
/NewCenturySchoolbook-BoldItalic-latin1
    /NewCenturySchoolbook-BoldItalic findfont
    dup length dict begin
	{1 index /FID ne {def} {pop pop} ifelse} forall
	/Encoding isolatin1encoding def
    currentdict end
definefont pop
/Palatino-Roman-latin1
    /Palatino-Roman findfont
    dup length dict begin
	{1 index /FID ne {def} {pop pop} ifelse} forall
	/Encoding isolatin1encoding def
    currentdict end
definefont pop
/Palatino-Italic-latin1
    /Palatino-Italic findfont
    dup length dict begin
	{1 index /FID ne {def} {pop pop} ifelse} forall
	/Encoding isolatin1encoding def
    currentdict end
definefont pop
/Palatino-Bold-latin1
    /Palatino-Bold findfont
    dup length dict begin
	{1 index /FID ne {def} {pop pop} ifelse} forall
	/Encoding isolatin1encoding def
    currentdict end
definefont pop
/Palatino-BoldItalic-latin1
    /Palatino-BoldItalic findfont
    dup length dict begin
	{1 index /FID ne {def} {pop pop} ifelse} forall
	/Encoding isolatin1encoding def
    currentdict end
definefont pop
/Symbol-latin1
    /Symbol findfont
definefont pop
/ZapfChancery-MediumItalic-latin1
    /ZapfChancery-MediumItalic findfont
    dup length dict begin
	{1 index /FID ne {def} {pop pop} ifelse} forall
	/Encoding isolatin1encoding def
    currentdict end
definefont pop
/ZapfDingbats-latin1
    /ZapfDingbats findfont
    dup length dict begin
	{1 index /FID ne {def} {pop pop} ifelse} forall
	/Encoding isolatin1encoding def
    currentdict end
definefont pop
28.346000 -28.346000 scale
-6.525100 -29.997500 translate
%%EndProlog


1.000000 1.000000 1.000000 srgb
n 31.838000 8.637500 m 31.838000 22.237500 l 55.888000 22.237500 l 55.888000 8.637500 l f
n 31.838000 8.637500 m 31.838000 8.637500 0.000000 0.000000 180.000000 270.000000 ellipse f
n 55.888000 8.637500 m 55.888000 8.637500 0.000000 0.000000 270.000000 360.000000 ellipse f
n 31.838000 8.637500 m 31.838000 22.237500 l 55.888000 22.237500 l 55.888000 8.637500 l f
n 31.838000 22.237500 m 31.838000 22.237500 0.000000 0.000000 90.000000 180.000000 ellipse f
n 55.888000 22.237500 m 55.888000 22.237500 0.000000 0.000000 0.000000 90.000000 ellipse f
0.150000 slw
[1.000000] 0 sd
[1.000000] 0 sd
0 slj
0.000000 0.000000 0.000000 srgb
n 31.838000 8.637500 m 55.888000 8.637500 l s
n 31.838000 22.237500 m 55.888000 22.237500 l s
n 31.838000 8.637500 0.000000 0.000000 180.000000 270.000000 ellipse s
n 55.888000 8.637500 0.000000 0.000000 270.000000 360.000000 ellipse s
n 31.838000 8.637500 m 31.838000 22.237500 l s
n 55.888000 8.637500 m 55.888000 22.237500 l s
n 31.838000 22.237500 0.000000 0.000000 90.000000 180.000000 ellipse s
n 55.888000 22.237500 0.000000 0.000000 0.000000 90.000000 ellipse s
1.000000 1.000000 1.000000 srgb
n 6.600100 8.637500 m 6.600100 19.537500 l 27.425100 19.537500 l 27.425100 8.637500 l f
n 6.600100 8.637500 m 6.600100 8.637500 0.000000 0.000000 180.000000 270.000000 ellipse f
n 27.425100 8.637500 m 27.425100 8.637500 0.000000 0.000000 270.000000 360.000000 ellipse f
n 6.600100 8.637500 m 6.600100 19.537500 l 27.425100 19.537500 l 27.425100 8.637500 l f
n 6.600100 19.537500 m 6.600100 19.537500 0.000000 0.000000 90.000000 180.000000 ellipse f
n 27.425100 19.537500 m 27.425100 19.537500 0.000000 0.000000 0.000000 90.000000 ellipse f
0.150000 slw
[1.000000] 0 sd
[1.000000] 0 sd
0 slj
0.000000 0.000000 0.000000 srgb
n 6.600100 8.637500 m 27.425100 8.637500 l s
n 6.600100 19.537500 m 27.425100 19.537500 l s
n 6.600100 8.637500 0.000000 0.000000 180.000000 270.000000 ellipse s
n 27.425100 8.637500 0.000000 0.000000 270.000000 360.000000 ellipse s
n 6.600100 8.637500 m 6.600100 19.537500 l s
n 27.425100 8.637500 m 27.425100 19.537500 l s
n 6.600100 19.537500 0.000000 0.000000 90.000000 180.000000 ellipse s
n 27.425100 19.537500 0.000000 0.000000 0.000000 90.000000 ellipse s
1.000000 1.000000 1.000000 srgb
n 6.900000 10.337500 m 6.900000 12.237500 l 10.800000 12.237500 l 10.800000 10.337500 l f
0.100000 slw
[] 0 sd
[] 0 sd
0 slj
0.000000 0.000000 0.000000 srgb
n 6.900000 10.337500 m 6.900000 12.237500 l 10.800000 12.237500 l 10.800000 10.337500 l cp s
/Helvetica-latin1 ff 0.700000 scf sf
(SAFETY) dup sw 2 div 8.850000 ex sub 11.687500 m gs 1 -1 sc sh gr
1.000000 1.000000 1.000000 srgb
n 20.530000 10.347500 m 20.530000 12.247500 l 27.030000 12.247500 l 27.030000 10.347500 l f
0.100000 slw
[] 0 sd
[] 0 sd
0 slj
0.000000 0.000000 0.000000 srgb
n 20.530000 10.347500 m 20.530000 12.247500 l 27.030000 12.247500 l 27.030000 10.347500 l cp s
/Helvetica-latin1 ff 0.700000 scf sf
(AGGRESSIVE) dup sw 2 div 23.780000 ex sub 11.697500 m gs 1 -1 sc sh gr
1.000000 1.000000 1.000000 srgb
n 12.500000 16.937500 m 12.500000 18.837500 l 15.600000 18.837500 l 15.600000 16.937500 l f
0.100000 slw
[] 0 sd
[] 0 sd
0 slj
0.000000 0.000000 0.000000 srgb
n 12.500000 16.937500 m 12.500000 18.837500 l 15.600000 18.837500 l 15.600000 16.937500 l cp s
/Helvetica-latin1 ff 0.700000 scf sf
(BARE) dup sw 2 div 14.050000 ex sub 18.287500 m gs 1 -1 sc sh gr
/Helvetica-latin1 ff 0.700000 scf sf
(no collision-free path exists) 11.480000 10.597500 m gs 1 -1 sc sh gr
0.100000 slw
[] 0 sd
[] 0 sd
0 slc
n 10.800000 10.812500 m 19.980000 10.821935 l s
0 slj
n 19.979743 11.071935 m 20.480000 10.822449 l 19.980257 10.571935 l ef
0.100000 slw
[] 0 sd
[] 0 sd
0 slc
n 20.530000 11.772500 m 11.350000 11.763065 l s
0 slj
n 11.350257 11.513065 m 10.850000 11.762551 l 11.349743 12.013065 l ef
/Helvetica-latin1 ff 0.700000 scf sf
(timeout) 14.630000 12.547500 m gs 1 -1 sc sh gr
0.100000 slw
[] 0 sd
[] 0 sd
0 slj
0 slc
n 22.155000 12.247500 m 22.155000 17.412500 l 16.150000 17.412500 l s
0 slj
n 16.150000 17.162500 m 15.650000 17.412500 l 16.150000 17.662500 l ef
/Helvetica-latin1 ff 0.700000 scf sf
(no collision-free) dup sw 21.880000 ex sub 14.347500 m gs 1 -1 sc sh gr
(path exists) dup sw 21.880000 ex sub 15.347500 m gs 1 -1 sc sh gr
0.100000 slw
[] 0 sd
[] 0 sd
0 slj
0 slc
n 15.600000 18.362500 m 25.405000 18.362500 l 25.405000 12.797500 l s
0 slj
n 25.655000 12.797500 m 25.405000 12.297500 l 25.155000 12.797500 l ef
1.000000 1.000000 1.000000 srgb
n 12.205000 22.147500 m 12.205000 24.047500 l 15.755000 24.047500 l 15.755000 22.147500 l f
0.100000 slw
[] 0 sd
[] 0 sd
0 slj
0.000000 0.000000 0.000000 srgb
n 12.205000 22.147500 m 12.205000 24.047500 l 15.755000 24.047500 l 15.755000 22.147500 l cp s
/Helvetica-latin1 ff 0.700000 scf sf
(FAILED) dup sw 2 div 13.980000 ex sub 23.497500 m gs 1 -1 sc sh gr
0.100000 slw
[] 0 sd
[] 0 sd
0 slc
n 14.050000 18.837500 m 14.005440 21.548074 l s
0 slj
n 13.755474 21.543965 m 13.997222 22.048007 l 14.255407 21.552184 l ef
/Helvetica-latin1 ff 0.700000 scf sf
(timeout) 18.480000 19.147500 m gs 1 -1 sc sh gr
/Helvetica-latin1 ff 0.700000 scf sf
(no collision-free) dup sw 13.780000 ex sub 20.547500 m gs 1 -1 sc sh gr
(path exists) dup sw 13.780000 ex sub 21.547500 m gs 1 -1 sc sh gr
1.000000 1.000000 1.000000 srgb
n 20.800000 22.187500 m 20.800000 24.087500 l 24.850000 24.087500 l 24.850000 22.187500 l f
0.100000 slw
[] 0 sd
[] 0 sd
0 slj
0.000000 0.000000 0.000000 srgb
n 20.800000 22.187500 m 20.800000 24.087500 l 24.850000 24.087500 l 24.850000 22.187500 l cp s
/Helvetica-latin1 ff 0.700000 scf sf
(PAUSED) dup sw 2 div 22.825000 ex sub 23.537500 m gs 1 -1 sc sh gr
0.100000 slw
[] 0 sd
[] 0 sd
0 slc
n 15.755000 23.097500 m 20.250017 23.133139 l s
0 slj
n 20.248035 23.383132 m 20.750002 23.137104 l 20.251999 22.883147 l ef
/Helvetica-Bold-latin1 ff 1.050000 scf sf
(ZONE REGION) 19.500100 9.612500 m gs 1 -1 sc sh gr
0.100000 slw
[] 0 sd
[] 0 sd
0 slc
n 37.680300 19.697500 m 37.740670 17.397311 l s
0 slj
n 37.990584 17.403870 m 37.753788 16.897483 l 37.490756 17.390752 l ef
0.100000 slw
[] 0 sd
[] 0 sd
0 slc
n 37.780400 14.897800 m 37.836297 12.687324 l s
0 slj
n 38.086217 12.693644 m 37.848936 12.187484 l 37.586376 12.681004 l ef
1.000000 1.000000 1.000000 srgb
n 36.400200 10.237500 m 36.400200 12.137500 l 39.300200 12.137500 l 39.300200 10.237500 l f
0.100000 slw
[] 0 sd
[] 0 sd
0 slj
0.000000 0.000000 0.000000 srgb
n 36.400200 10.237500 m 36.400200 12.137500 l 39.300200 12.137500 l 39.300200 10.237500 l cp s
/Helvetica-latin1 ff 0.700000 scf sf
(DR,S) dup sw 2 div 37.850200 ex sub 11.587500 m gs 1 -1 sc sh gr
1.000000 1.000000 1.000000 srgb
n 48.350200 10.187500 m 48.350200 12.087500 l 51.350200 12.087500 l 51.350200 10.187500 l f
0.100000 slw
[] 0 sd
[] 0 sd
0 slj
0.000000 0.000000 0.000000 srgb
n 48.350200 10.187500 m 48.350200 12.087500 l 51.350200 12.087500 l 51.350200 10.187500 l cp s
/Helvetica-latin1 ff 0.700000 scf sf
(STO,S) dup sw 2 div 49.850200 ex sub 11.537500 m gs 1 -1 sc sh gr
0.100000 slw
[] 0 sd
[] 0 sd
0 slc
n 39.300200 10.712500 m 47.800208 10.665539 l s
0 slj
n 47.801590 10.915535 m 48.300201 10.662776 l 47.798827 10.415542 l ef
/Helvetica-latin1 ff 0.700000 scf sf
(no collision-free path exists) 39.330200 10.447500 m gs 1 -1 sc sh gr
0.100000 slw
[] 0 sd
[] 0 sd
0 slc
n 48.350200 11.612500 m 39.850192 11.659461 l s
0 slj
n 39.848810 11.409465 m 39.350199 11.662224 l 39.851573 11.909458 l ef
/Helvetica-latin1 ff 0.700000 scf sf
(collision-free path) dup sw 37.815300 ex sub 13.517700 m gs 1 -1 sc sh gr
(with DR,S is found) dup sw 37.815300 ex sub 14.517700 m gs 1 -1 sc sh gr
1.000000 1.000000 1.000000 srgb
n 36.305100 14.947500 m 36.305100 16.847500 l 39.205100 16.847500 l 39.205100 14.947500 l f
0.100000 slw
[] 0 sd
[] 0 sd
0 slj
0.000000 0.000000 0.000000 srgb
n 36.305100 14.947500 m 36.305100 16.847500 l 39.205100 16.847500 l 39.205100 14.947500 l cp s
/Helvetica-latin1 ff 0.700000 scf sf
(DR,A) dup sw 2 div 37.755100 ex sub 16.297500 m gs 1 -1 sc sh gr
1.000000 1.000000 1.000000 srgb
n 48.280300 14.997500 m 48.280300 16.897500 l 51.280300 16.897500 l 51.280300 14.997500 l f
0.100000 slw
[] 0 sd
[] 0 sd
0 slj
0.000000 0.000000 0.000000 srgb
n 48.280300 14.997500 m 48.280300 16.897500 l 51.280300 16.897500 l 51.280300 14.997500 l cp s
/Helvetica-latin1 ff 0.700000 scf sf
(STO,A) dup sw 2 div 49.780300 ex sub 16.347500 m gs 1 -1 sc sh gr
/Helvetica-latin1 ff 0.700000 scf sf
(no collision-free) 49.930300 13.147500 m gs 1 -1 sc sh gr
(path exists) 49.930300 14.147500 m gs 1 -1 sc sh gr
0.100000 slw
[] 0 sd
[] 0 sd
0 slc
n 49.850200 12.087500 m 49.793508 14.447659 l s
0 slj
n 49.543580 14.441655 m 49.781501 14.947514 l 50.043435 14.453662 l ef
0.100000 slw
[] 0 sd
[] 0 sd
0 slc
n 39.205100 15.422500 m 47.730308 15.469470 l s
0 slj
n 47.728931 15.719466 m 48.230301 15.472225 l 47.731686 15.219474 l ef
0.100000 slw
[] 0 sd
[] 0 sd
0 slc
n 48.280300 16.422500 m 39.755092 16.375530 l s
0 slj
n 39.756469 16.125534 m 39.255099 16.372775 l 39.753714 16.625526 l ef
/Helvetica-latin1 ff 0.700000 scf sf
(no collision-free path exists) 39.530300 15.247500 m gs 1 -1 sc sh gr
/Helvetica-latin1 ff 0.700000 scf sf
(collision-free path is found) 39.980300 12.347500 m gs 1 -1 sc sh gr
/Helvetica-latin1 ff 0.700000 scf sf
(collision-free path is found) 40.080300 17.197500 m gs 1 -1 sc sh gr
/Helvetica-latin1 ff 0.700000 scf sf
(no collision-free) 49.980300 18.047500 m gs 1 -1 sc sh gr
(path exists) 49.980300 19.047500 m gs 1 -1 sc sh gr
1.000000 1.000000 1.000000 srgb
n 48.280300 19.697500 m 48.280300 21.597500 l 51.280300 21.597500 l 51.280300 19.697500 l f
0.100000 slw
[] 0 sd
[] 0 sd
0 slj
0.000000 0.000000 0.000000 srgb
n 48.280300 19.697500 m 48.280300 21.597500 l 51.280300 21.597500 l 51.280300 19.697500 l cp s
/Helvetica-latin1 ff 0.700000 scf sf
(STO,B) dup sw 2 div 49.780300 ex sub 21.047500 m gs 1 -1 sc sh gr
0.100000 slw
[] 0 sd
[] 0 sd
0 slc
n 49.780300 16.897500 m 49.780300 19.147500 l s
0 slj
n 49.530300 19.147500 m 49.780300 19.647500 l 50.030300 19.147500 l ef
1.000000 1.000000 1.000000 srgb
n 36.230300 19.697500 m 36.230300 21.597500 l 39.130300 21.597500 l 39.130300 19.697500 l f
0.100000 slw
[] 0 sd
[] 0 sd
0 slj
0.000000 0.000000 0.000000 srgb
n 36.230300 19.697500 m 36.230300 21.597500 l 39.130300 21.597500 l 39.130300 19.697500 l cp s
/Helvetica-latin1 ff 0.700000 scf sf
(DR,B) dup sw 2 div 37.680300 ex sub 21.047500 m gs 1 -1 sc sh gr
/Helvetica-latin1 ff 0.700000 scf sf
(no collision-free path exists) 39.380300 19.997500 m gs 1 -1 sc sh gr
/Helvetica-latin1 ff 0.700000 scf sf
(collision-free path is found) 39.930300 21.947500 m gs 1 -1 sc sh gr
0.100000 slw
[] 0 sd
[] 0 sd
0 slc
n 39.130300 20.172500 m 47.730300 20.172500 l s
0 slj
n 47.730300 20.422500 m 48.230300 20.172500 l 47.730300 19.922500 l ef
0.100000 slw
[] 0 sd
[] 0 sd
0 slc
n 48.280300 21.122500 m 39.680300 21.122500 l s
0 slj
n 39.680300 20.872500 m 39.180300 21.122500 l 39.680300 21.372500 l ef
/Helvetica-latin1 ff 0.700000 scf sf
(collision-free path) dup sw 37.430300 ex sub 18.197500 m gs 1 -1 sc sh gr
(with DR,A is found) dup sw 37.430300 ex sub 19.197500 m gs 1 -1 sc sh gr
1.000000 1.000000 1.000000 srgb
n 47.958400 24.747500 m 47.958400 26.647500 l 51.508400 26.647500 l 51.508400 24.747500 l f
0.100000 slw
[] 0 sd
[] 0 sd
0 slj
0.000000 0.000000 0.000000 srgb
n 47.958400 24.747500 m 47.958400 26.647500 l 51.508400 26.647500 l 51.508400 24.747500 l cp s
/Helvetica-latin1 ff 0.700000 scf sf
(FAILED) dup sw 2 div 49.733400 ex sub 26.097500 m gs 1 -1 sc sh gr
/Helvetica-latin1 ff 0.700000 scf sf
(no collision-free) 49.762600 23.149000 m gs 1 -1 sc sh gr
(path exists) 49.762600 24.149000 m gs 1 -1 sc sh gr
0.100000 slw
[] 0 sd
[] 0 sd
0 slc
n 49.780300 21.597500 m 49.751092 24.150536 l s
0 slj
n 49.501108 24.147676 m 49.745372 24.650503 l 50.001076 24.153396 l ef
1.000000 1.000000 1.000000 srgb
n 37.987900 24.747500 m 37.987900 26.647500 l 42.037900 26.647500 l 42.037900 24.747500 l f
0.100000 slw
[] 0 sd
[] 0 sd
0 slj
0.000000 0.000000 0.000000 srgb
n 37.987900 24.747500 m 37.987900 26.647500 l 42.037900 26.647500 l 42.037900 24.747500 l cp s
/Helvetica-latin1 ff 0.700000 scf sf
(PAUSED) dup sw 2 div 40.012900 ex sub 26.097500 m gs 1 -1 sc sh gr
0.100000 slw
[] 0 sd
[] 0 sd
0 slc
n 47.958400 25.697500 m 42.636567 25.697500 l s
0 slj
n 42.636567 25.447500 m 42.136567 25.697500 l 42.636567 25.947500 l ef
/Helvetica-Bold-latin1 ff 1.050000 scf sf
(OFF-ROAD) 49.837900 9.647500 m gs 1 -1 sc sh gr
/Helvetica-latin1 ff 1.050000 scf sf
(\(a\)) 16.825100 29.487500 m gs 1 -1 sc sh gr
/Helvetica-latin1 ff 1.050000 scf sf
(\(b\)) 43.505100 29.497500 m gs 1 -1 sc sh gr
showpage
