%!PS-Adobe-3.0 EPSF-3.0
%%Creator: MATLAB, The Mathworks, Inc. Version 7.4.0.287 (R2007a). Operating System: Darwin 8.11.1 Darwin Kernel Version 8.11.1: Wed Oct 10 18:23:28 PDT 2007; root:xnu-792.25.20~1/RELEASE_I386 i386.
%%Title: /Users/nok/Documents/DGC07/dgc07-final/LPstate-nqe-b1-1.eps
%%CreationDate: 12/15/2007  00:10:20
%%DocumentNeededFonts: Helvetica
%%+ Helvetica-Bold
%%DocumentProcessColors: Cyan Magenta Yellow Black
%%LanguageLevel: 2
%%Pages: 1
%%BoundingBox:  -293    55   906   736
%%EndComments

%%BeginProlog
% MathWorks dictionary
/MathWorks 160 dict begin
% definition operators
/bdef {bind def} bind def
/ldef {load def} bind def
/xdef {exch def} bdef
/xstore {exch store} bdef
% operator abbreviations
/c  /clip ldef
/cc /concat ldef
/cp /closepath ldef
/gr /grestore ldef
/gs /gsave ldef
/mt /moveto ldef
/np /newpath ldef
/cm /currentmatrix ldef
/sm /setmatrix ldef
/rm /rmoveto ldef
/rl /rlineto ldef
/s {show newpath} bdef
/sc {setcmykcolor} bdef
/sr /setrgbcolor ldef
/sg /setgray ldef
/w /setlinewidth ldef
/j /setlinejoin ldef
/cap /setlinecap ldef
/rc {rectclip} bdef
/rf {rectfill} bdef
% page state control
/pgsv () def
/bpage {/pgsv save def} bdef
/epage {pgsv restore} bdef
/bplot /gsave ldef
/eplot {stroke grestore} bdef
% orientation switch
/portraitMode 0 def /landscapeMode 1 def /rotateMode 2 def
% coordinate system mappings
/dpi2point 0 def
% font control
/FontSize 0 def
/FMS {/FontSize xstore findfont [FontSize 0 0 FontSize neg 0 0]
  makefont setfont} bdef
/reencode {exch dup where {pop load} {pop StandardEncoding} ifelse
  exch dup 3 1 roll findfont dup length dict begin
  { 1 index /FID ne {def}{pop pop} ifelse } forall
  /Encoding exch def currentdict end definefont pop} bdef
/isroman {findfont /CharStrings get /Agrave known} bdef
/FMSR {3 1 roll 1 index dup isroman {reencode} {pop pop} ifelse
  exch FMS} bdef
/csm {1 dpi2point div -1 dpi2point div scale neg translate
 dup landscapeMode eq {pop -90 rotate}
  {rotateMode eq {90 rotate} if} ifelse} bdef
% line types: solid, dotted, dashed, dotdash
/SO { [] 0 setdash } bdef
/DO { [.5 dpi2point mul 4 dpi2point mul] 0 setdash } bdef
/DA { [6 dpi2point mul] 0 setdash } bdef
/DD { [.5 dpi2point mul 4 dpi2point mul 6 dpi2point mul 4
  dpi2point mul] 0 setdash } bdef
% macros for lines and objects
/L {lineto stroke} bdef
/MP {3 1 roll moveto 1 sub {rlineto} repeat} bdef
/AP {{rlineto} repeat} bdef
/PDlw -1 def
/W {/PDlw currentlinewidth def setlinewidth} def
/PP {closepath eofill} bdef
/DP {closepath stroke} bdef
/MR {4 -2 roll moveto dup  0 exch rlineto exch 0 rlineto
  neg 0 exch rlineto closepath} bdef
/FR {MR stroke} bdef
/PR {MR fill} bdef
/L1i {{currentfile picstr readhexstring pop} image} bdef
/tMatrix matrix def
/MakeOval {newpath tMatrix currentmatrix pop translate scale
0 0 1 0 360 arc tMatrix setmatrix} bdef
/FO {MakeOval stroke} bdef
/PO {MakeOval fill} bdef
/PD {currentlinewidth 2 div 0 360 arc fill
   PDlw -1 eq not {PDlw w /PDlw -1 def} if} def
/FA {newpath tMatrix currentmatrix pop translate scale
  0 0 1 5 -2 roll arc tMatrix setmatrix stroke} bdef
/PA {newpath tMatrix currentmatrix pop	translate 0 0 moveto scale
  0 0 1 5 -2 roll arc closepath tMatrix setmatrix fill} bdef
/FAn {newpath tMatrix currentmatrix pop translate scale
  0 0 1 5 -2 roll arcn tMatrix setmatrix stroke} bdef
/PAn {newpath tMatrix currentmatrix pop translate 0 0 moveto scale
  0 0 1 5 -2 roll arcn closepath tMatrix setmatrix fill} bdef
/vradius 0 def /hradius 0 def /lry 0 def
/lrx 0 def /uly 0 def /ulx 0 def /rad 0 def
/MRR {/vradius xdef /hradius xdef /lry xdef /lrx xdef /uly xdef
  /ulx xdef newpath tMatrix currentmatrix pop ulx hradius add uly
  vradius add translate hradius vradius scale 0 0 1 180 270 arc 
  tMatrix setmatrix lrx hradius sub uly vradius add translate
  hradius vradius scale 0 0 1 270 360 arc tMatrix setmatrix
  lrx hradius sub lry vradius sub translate hradius vradius scale
  0 0 1 0 90 arc tMatrix setmatrix ulx hradius add lry vradius sub
  translate hradius vradius scale 0 0 1 90 180 arc tMatrix setmatrix
  closepath} bdef
/FRR {MRR stroke } bdef
/PRR {MRR fill } bdef
/MlrRR {/lry xdef /lrx xdef /uly xdef /ulx xdef /rad lry uly sub 2 div def
  newpath tMatrix currentmatrix pop ulx rad add uly rad add translate
  rad rad scale 0 0 1 90 270 arc tMatrix setmatrix lrx rad sub lry rad
  sub translate rad rad scale 0 0 1 270 90 arc tMatrix setmatrix
  closepath} bdef
/FlrRR {MlrRR stroke } bdef
/PlrRR {MlrRR fill } bdef
/MtbRR {/lry xdef /lrx xdef /uly xdef /ulx xdef /rad lrx ulx sub 2 div def
  newpath tMatrix currentmatrix pop ulx rad add uly rad add translate
  rad rad scale 0 0 1 180 360 arc tMatrix setmatrix lrx rad sub lry rad
  sub translate rad rad scale 0 0 1 0 180 arc tMatrix setmatrix
  closepath} bdef
/FtbRR {MtbRR stroke } bdef
/PtbRR {MtbRR fill } bdef
/stri 6 array def /dtri 6 array def
/smat 6 array def /dmat 6 array def
/tmat1 6 array def /tmat2 6 array def /dif 3 array def
/asub {/ind2 exch def /ind1 exch def dup dup
  ind1 get exch ind2 get sub exch } bdef
/tri_to_matrix {
  2 0 asub 3 1 asub 4 0 asub 5 1 asub
  dup 0 get exch 1 get 7 -1 roll astore } bdef
/compute_transform {
  dmat dtri tri_to_matrix tmat1 invertmatrix 
  smat stri tri_to_matrix tmat2 concatmatrix } bdef
/ds {stri astore pop} bdef
/dt {dtri astore pop} bdef
/db {2 copy /cols xdef /rows xdef mul dup 3 mul string
  currentfile 
  3 index 0 eq {/ASCIIHexDecode filter}
  {/ASCII85Decode filter 3 index 2 eq {/RunLengthDecode filter} if }
  ifelse exch readstring pop
  dup 0 3 index getinterval /rbmap xdef
  dup 2 index dup getinterval /gbmap xdef
  1 index dup 2 mul exch getinterval /bbmap xdef pop pop}bdef
/it {gs np dtri aload pop moveto lineto lineto cp c
  cols rows 8 compute_transform 
  rbmap gbmap bbmap true 3 colorimage gr}bdef
/il {newpath moveto lineto stroke}bdef
currentdict end def
%%EndProlog

%%BeginSetup
MathWorks begin

0 cap

end
%%EndSetup

%%Page: 1 1
%%BeginPageSetup
%%PageBoundingBox:  -293    55   906   736
MathWorks begin
bpage
%%EndPageSetup

%%BeginObject: obj1
bplot

/dpi2point 12 def
portraitMode -3516 8832 csm

    0     0 14398  8167 rc
85 dict begin %Colortable dictionary
/c0 { 0.000000 0.000000 0.000000 sr} bdef
/c1 { 1.000000 1.000000 1.000000 sr} bdef
/c2 { 0.900000 0.000000 0.000000 sr} bdef
/c3 { 0.000000 0.820000 0.000000 sr} bdef
/c4 { 0.000000 0.000000 0.800000 sr} bdef
/c5 { 0.910000 0.820000 0.320000 sr} bdef
/c6 { 1.000000 0.260000 0.820000 sr} bdef
/c7 { 0.000000 0.820000 0.820000 sr} bdef
c0
1 j
1 sg
   0    0 14399 8168 rf
6 w
0 6656 10883 0 0 -6656 2147 7269 4 MP
PP
-10883 0 0 6656 10883 0 0 -6656 2147 7269 5 MP stroke
4 w
DO
SO
6 w
0 sg
2147 7269 mt 13030 7269 L
2147 7269 mt 2147  613 L
2147 7269 mt 2147 7160 L
%%IncludeResource: font Helvetica
/Helvetica /ISOLatin1Encoding 192 FMSR

2094 7481 mt 
(0) s
3151 7269 mt 3151 7160 L
2991 7481 mt 
(200) s
4155 7269 mt 4155 7160 L
3995 7481 mt 
(400) s
5160 7269 mt 5160 7160 L
5000 7481 mt 
(600) s
6164 7269 mt 6164 7160 L
6004 7481 mt 
(800) s
7169 7269 mt 7169 7160 L
6956 7481 mt 
(1000) s
8173 7269 mt 8173 7160 L
7960 7481 mt 
(1200) s
9178 7269 mt 9178 7160 L
8965 7481 mt 
(1400) s
10182 7269 mt 10182 7160 L
9969 7481 mt 
(1600) s
11186 7269 mt 11186 7160 L
10973 7481 mt 
(1800) s
12191 7269 mt 12191 7160 L
11978 7481 mt 
(2000) s
2147 6853 mt 2255 6853 L
   0 6924 mt 
(No passing, no reversing) s
2147 6437 mt 2255 6437 L
 125 6508 mt 
(   Passing, no reversing) s
2147 6021 mt 2255 6021 L
  71 6092 mt 
(   Passing and reversing) s
2147 5605 mt 2255 5605 L
 515 5676 mt 
(                  Backup) s
2147 5189 mt 2255 5189 L
 422 5260 mt 
(              Aggressive) s
2147 4773 mt 2255 4773 L
 639 4844 mt 
(                    Bare) s
2147 4357 mt 2255 4357 L
 421 4428 mt 
(             Zone safety) s
2147 3941 mt 2255 3941 L
 220 4012 mt 
(         Zone aggressive) s
2147 3525 mt 2255 3525 L
 437 3596 mt 
(               Zone bare) s
2147 3109 mt 2255 3109 L
 320 3180 mt 
(         Off-road safety) s
2147 2693 mt 2255 2693 L
 118 2764 mt 
(     Off-road aggressive) s
2147 2277 mt 2255 2277 L
 335 2348 mt 
(           Off-road bare) s
2147 1861 mt 2255 1861 L
 480 1932 mt 
(            Intersection) s
2147 1445 mt 2255 1445 L
 565 1516 mt 
(                  U-turn) s
2147 1029 mt 2255 1029 L
 508 1100 mt 
(                  Paused) s
gs 2147 613 10884 6657 rc
/c8 { 0.000000 0.000000 1.000000 sr} bdef
c8
0 167 185 0 0 -167 2147 6520 4 MP
PP
0 sg
-185 0 0 167 185 0 0 -167 2147 6520 5 MP stroke
gr

6552 7677 mt 
(Time Elapsed \(seconds\)) s
gs 2147 613 10884 6657 rc
c8
0 167 226 0 0 -167 2332 6104 4 MP
PP
0 sg
-226 0 0 167 226 0 0 -167 2332 6104 5 MP stroke
c8
0 167 30 0 0 -167 2558 5272 4 MP
PP
0 sg
-30 0 0 167 30 0 0 -167 2558 5272 5 MP stroke
c8
0 167 5 0 0 -167 2588 1944 4 MP
PP
0 sg
-5 0 0 167 5 0 0 -167 2588 1944 5 MP stroke
c8
0 167 166 0 0 -167 2593 6936 4 MP
PP
0 sg
-166 0 0 167 166 0 0 -167 2593 6936 5 MP stroke
c8
0 167 5 0 0 -167 2759 1112 4 MP
PP
0 sg
-5 0 0 167 5 0 0 -167 2759 1112 5 MP stroke
c8
0 167 317 0 0 -167 2764 6520 4 MP
PP
0 sg
-317 0 0 167 317 0 0 -167 2764 6520 5 MP stroke
c8
0 167 25 0 0 -167 3081 6104 4 MP
PP
0 sg
-25 0 0 167 25 0 0 -167 3081 6104 5 MP stroke
c8
0 167 20 0 0 -167 3106 5272 4 MP
PP
0 sg
-20 0 0 167 20 0 0 -167 3106 5272 5 MP stroke
c8
0 167 191 0 0 -167 3126 6936 4 MP
PP
0 sg
-191 0 0 167 191 0 0 -167 3126 6936 5 MP stroke
c8
0 167 165 0 0 -167 3317 6520 4 MP
PP
0 sg
-165 0 0 167 165 0 0 -167 3317 6520 5 MP stroke
c8
0 167 20 0 0 -167 3482 6104 4 MP
PP
0 sg
-20 0 0 167 20 0 0 -167 3482 6104 5 MP stroke
c8
0 167 11 0 0 -167 3502 5272 4 MP
PP
0 sg
-11 0 0 167 11 0 0 -167 3502 5272 5 MP stroke
c8
0 167 5 0 0 -167 3513 1944 4 MP
PP
0 sg
-5 0 0 167 5 0 0 -167 3513 1944 5 MP stroke
c8
0 167 160 0 0 -167 3518 6936 4 MP
PP
0 sg
-160 0 0 167 160 0 0 -167 3518 6936 5 MP stroke
c8
0 167 312 0 0 -167 3678 6520 4 MP
PP
0 sg
-312 0 0 167 312 0 0 -167 3678 6520 5 MP stroke
c8
0 167 20 0 0 -167 3990 6104 4 MP
PP
0 sg
-20 0 0 167 20 0 0 -167 3990 6104 5 MP stroke
c8
0 167 20 0 0 -167 4010 5272 4 MP
PP
0 sg
-20 0 0 167 20 0 0 -167 4010 5272 5 MP stroke
c8
0 167 80 0 0 -167 4030 1944 4 MP
PP
0 sg
-80 0 0 167 80 0 0 -167 4030 1944 5 MP stroke
c8
0 167 241 0 0 -167 4110 6936 4 MP
PP
0 sg
-241 0 0 167 241 0 0 -167 4110 6936 5 MP stroke
c8
0 167 66 0 0 -167 4351 1944 4 MP
PP
0 sg
-66 0 0 167 66 0 0 -167 4351 1944 5 MP stroke
c8
0 167 251 0 0 -167 4417 6936 4 MP
PP
0 sg
-251 0 0 167 251 0 0 -167 4417 6936 5 MP stroke
c8
0 167 110 0 0 -167 4668 1944 4 MP
PP
0 sg
-110 0 0 167 110 0 0 -167 4668 1944 5 MP stroke
c8
0 167 96 0 0 -167 4778 6936 4 MP
PP
0 sg
-96 0 0 167 96 0 0 -167 4778 6936 5 MP stroke
c8
0 167 15 0 0 -167 4874 6520 4 MP
PP
0 sg
-15 0 0 167 15 0 0 -167 4874 6520 5 MP stroke
c8
0 167 25 0 0 -167 4889 6104 4 MP
PP
0 sg
-25 0 0 167 25 0 0 -167 4889 6104 5 MP stroke
c8
0 167 25 0 0 -167 4914 5272 4 MP
PP
0 sg
-25 0 0 167 25 0 0 -167 4914 5272 5 MP stroke
c8
0 167 20 0 0 -167 4939 4856 4 MP
PP
0 sg
-20 0 0 167 20 0 0 -167 4939 4856 5 MP stroke
c8
0 167 10 0 0 -167 4959 3192 4 MP
PP
0 sg
-10 0 0 167 10 0 0 -167 4959 3192 5 MP stroke
c8
0 167 25 0 0 -167 4969 5272 4 MP
PP
0 sg
-25 0 0 167 25 0 0 -167 4969 5272 5 MP stroke
c8
0 167 20 0 0 -167 4994 4856 4 MP
PP
0 sg
-20 0 0 167 20 0 0 -167 4994 4856 5 MP stroke
c8
0 167 10 0 0 -167 5014 3192 4 MP
PP
0 sg
-10 0 0 167 10 0 0 -167 5014 3192 5 MP stroke
c8
0 167 20 0 0 -167 5024 5272 4 MP
PP
0 sg
-20 0 0 167 20 0 0 -167 5024 5272 5 MP stroke
c8
0 167 25 0 0 -167 5044 4856 4 MP
PP
0 sg
-25 0 0 167 25 0 0 -167 5044 4856 5 MP stroke
c8
0 167 10 0 0 -167 5069 3192 4 MP
PP
0 sg
-10 0 0 167 10 0 0 -167 5069 3192 5 MP stroke
c8
0 167 21 0 0 -167 5079 5272 4 MP
PP
0 sg
-21 0 0 167 21 0 0 -167 5079 5272 5 MP stroke
c8
0 167 301 0 0 -167 5100 4856 4 MP
PP
0 sg
-301 0 0 167 301 0 0 -167 5100 4856 5 MP stroke
c8
0 167 50 0 0 -167 5401 5272 4 MP
PP
0 sg
-50 0 0 167 50 0 0 -167 5401 5272 5 MP stroke
c8
0 167 151 0 0 -167 5451 6936 4 MP
PP
0 sg
-151 0 0 167 151 0 0 -167 5451 6936 5 MP stroke
c8
0 167 5 0 0 -167 5602 1944 4 MP
PP
0 sg
-5 0 0 167 5 0 0 -167 5602 1944 5 MP stroke
c8
0 167 10 0 0 -167 5607 6936 4 MP
PP
0 sg
-10 0 0 167 10 0 0 -167 5607 6936 5 MP stroke
c8
0 167 5 0 0 -167 5617 1944 4 MP
PP
0 sg
-5 0 0 167 5 0 0 -167 5617 1944 5 MP stroke
c8
0 167 5 0 0 -167 5622 6936 4 MP
PP
0 sg
-5 0 0 167 5 0 0 -167 5622 6936 5 MP stroke
c8
0 167 60 0 0 -167 5627 1944 4 MP
PP
0 sg
-60 0 0 167 60 0 0 -167 5627 1944 5 MP stroke
c8
0 167 65 0 0 -167 5687 6936 4 MP
PP
0 sg
-65 0 0 167 65 0 0 -167 5687 6936 5 MP stroke
c8
0 167 86 0 0 -167 5752 1944 4 MP
PP
0 sg
-86 0 0 167 86 0 0 -167 5752 1944 5 MP stroke
c8
0 167 5 0 0 -167 5838 6936 4 MP
PP
0 sg
-5 0 0 167 5 0 0 -167 5838 6936 5 MP stroke
c8
0 167 5 0 0 -167 5843 1112 4 MP
PP
0 sg
-5 0 0 167 5 0 0 -167 5843 1112 5 MP stroke
c8
0 167 50 0 0 -167 5848 6520 4 MP
PP
0 sg
-50 0 0 167 50 0 0 -167 5848 6520 5 MP stroke
c8
0 167 181 0 0 -167 5898 6104 4 MP
PP
0 sg
-181 0 0 167 181 0 0 -167 5898 6104 5 MP stroke
c8
0 167 35 0 0 -167 6079 6936 4 MP
PP
0 sg
-35 0 0 167 35 0 0 -167 6079 6936 5 MP stroke
c8
0 167 105 0 0 -167 6114 1944 4 MP
PP
0 sg
-105 0 0 167 105 0 0 -167 6114 1944 5 MP stroke
c8
0 167 191 0 0 -167 6219 6936 4 MP
PP
0 sg
-191 0 0 167 191 0 0 -167 6219 6936 5 MP stroke
c8
0 167 101 0 0 -167 6410 1944 4 MP
PP
0 sg
-101 0 0 167 101 0 0 -167 6410 1944 5 MP stroke
c8
0 167 60 0 0 -167 6511 6936 4 MP
PP
0 sg
-60 0 0 167 60 0 0 -167 6511 6936 5 MP stroke
c8
0 167 15 0 0 -167 6571 6520 4 MP
PP
0 sg
-15 0 0 167 15 0 0 -167 6571 6520 5 MP stroke
c8
0 167 65 0 0 -167 6586 6104 4 MP
PP
0 sg
-65 0 0 167 65 0 0 -167 6586 6104 5 MP stroke
c8
0 167 191 0 0 -167 6651 6936 4 MP
PP
0 sg
-191 0 0 167 191 0 0 -167 6651 6936 5 MP stroke
c8
0 167 5 0 0 -167 6842 1112 4 MP
PP
0 sg
-5 0 0 167 5 0 0 -167 6842 1112 5 MP stroke
c8
0 167 45 0 0 -167 6847 4440 4 MP
PP
0 sg
-45 0 0 167 45 0 0 -167 6847 4440 5 MP stroke
c8
0 167 31 0 0 -167 6892 4024 4 MP
PP
0 sg
-31 0 0 167 31 0 0 -167 6892 4024 5 MP stroke
c8
0 167 2857 0 0 -167 6923 3608 4 MP
PP
0 sg
-2857 0 0 167 2857 0 0 -167 6923 3608 5 MP stroke
c8
0 167 944 0 0 -167 9780 4440 4 MP
PP
0 sg
-944 0 0 167 944 0 0 -167 9780 4440 5 MP stroke
c8
0 167 457 0 0 -167 10724 6936 4 MP
PP
0 sg
-457 0 0 167 457 0 0 -167 10724 6936 5 MP stroke
c8
0 167 5 0 0 -167 11181 1112 4 MP
PP
0 sg
-5 0 0 167 5 0 0 -167 11181 1112 5 MP stroke
c8
0 167 10 0 0 -167 11186 6520 4 MP
PP
0 sg
-10 0 0 167 10 0 0 -167 11186 6520 5 MP stroke
c8
0 167 15 0 0 -167 11196 6104 4 MP
PP
0 sg
-15 0 0 167 15 0 0 -167 11196 6104 5 MP stroke
c8
0 167 11 0 0 -167 11211 6936 4 MP
PP
0 sg
-11 0 0 167 11 0 0 -167 11211 6936 5 MP stroke
c8
0 167 15 0 0 -167 11222 6520 4 MP
PP
0 sg
-15 0 0 167 15 0 0 -167 11222 6520 5 MP stroke
c8
0 167 30 0 0 -167 11237 6104 4 MP
PP
0 sg
-30 0 0 167 30 0 0 -167 11237 6104 5 MP stroke
c8
0 167 1712 0 0 -167 11267 6936 4 MP
PP
0 sg
-1712 0 0 167 1712 0 0 -167 11267 6936 5 MP stroke
gr

13030 6921 mt 
(36.9%) s
13030 6505 mt 
(10.0%) s
13030 6089 mt 
(5.6%) s
13030 5673 mt 
(0.0%) s
13030 5257 mt 
(2.0%) s
13030 4841 mt 
(3.4%) s
13030 4425 mt 
(9.1%) s
13030 4009 mt 
(0.3%) s
13030 3593 mt 
(26.4%) s
13030 3177 mt 
(0.3%) s
13030 2761 mt 
(0.0%) s
13030 2345 mt 
(0.0%) s
13030 1929 mt 
(5.8%) s
13030 1513 mt 
(0.0%) s
13030 1097 mt 
(0.2%) s
gs 2147 613 10884 6657 rc
DA
10883 0 2147 4565 2 MP stroke
gr

DA
%%IncludeResource: font Helvetica-Bold
/Helvetica-Bold /ISOLatin1Encoding 240 FMSR

11479 5069 mt 
(Road region) s
gs 2147 613 10884 6657 rc
10883 0 2147 3317 2 MP stroke
gr

11506 3821 mt 
(Zone region) s
gs 2147 613 10884 6657 rc
10883 0 2147 2069 2 MP stroke
gr

11877 2573 mt 
(Off-road) s
SO

end %%Color Dict

eplot
%%EndObject

epage
end

showpage

%%Trailer
%%EOF
