%!PS-Adobe-3.0 EPSF-3.0
%%Creator: MATLAB, The Mathworks, Inc. Version 7.4.0.287 (R2007a). Operating System: Darwin 8.11.1 Darwin Kernel Version 8.11.1: Wed Oct 10 18:23:28 PDT 2007; root:xnu-792.25.20~1/RELEASE_I386 i386.
%%Title: /Users/nok/Documents/DGC07/dgc07-final/LPstate-nqe-b1-2.eps
%%CreationDate: 12/15/2007  00:09:40
%%DocumentNeededFonts: Helvetica
%%+ Helvetica-Bold
%%DocumentProcessColors: Cyan Magenta Yellow Black
%%LanguageLevel: 2
%%Pages: 1
%%BoundingBox:  -293    55   906   736
%%EndComments

%%BeginProlog
% MathWorks dictionary
/MathWorks 160 dict begin
% definition operators
/bdef {bind def} bind def
/ldef {load def} bind def
/xdef {exch def} bdef
/xstore {exch store} bdef
% operator abbreviations
/c  /clip ldef
/cc /concat ldef
/cp /closepath ldef
/gr /grestore ldef
/gs /gsave ldef
/mt /moveto ldef
/np /newpath ldef
/cm /currentmatrix ldef
/sm /setmatrix ldef
/rm /rmoveto ldef
/rl /rlineto ldef
/s {show newpath} bdef
/sc {setcmykcolor} bdef
/sr /setrgbcolor ldef
/sg /setgray ldef
/w /setlinewidth ldef
/j /setlinejoin ldef
/cap /setlinecap ldef
/rc {rectclip} bdef
/rf {rectfill} bdef
% page state control
/pgsv () def
/bpage {/pgsv save def} bdef
/epage {pgsv restore} bdef
/bplot /gsave ldef
/eplot {stroke grestore} bdef
% orientation switch
/portraitMode 0 def /landscapeMode 1 def /rotateMode 2 def
% coordinate system mappings
/dpi2point 0 def
% font control
/FontSize 0 def
/FMS {/FontSize xstore findfont [FontSize 0 0 FontSize neg 0 0]
  makefont setfont} bdef
/reencode {exch dup where {pop load} {pop StandardEncoding} ifelse
  exch dup 3 1 roll findfont dup length dict begin
  { 1 index /FID ne {def}{pop pop} ifelse } forall
  /Encoding exch def currentdict end definefont pop} bdef
/isroman {findfont /CharStrings get /Agrave known} bdef
/FMSR {3 1 roll 1 index dup isroman {reencode} {pop pop} ifelse
  exch FMS} bdef
/csm {1 dpi2point div -1 dpi2point div scale neg translate
 dup landscapeMode eq {pop -90 rotate}
  {rotateMode eq {90 rotate} if} ifelse} bdef
% line types: solid, dotted, dashed, dotdash
/SO { [] 0 setdash } bdef
/DO { [.5 dpi2point mul 4 dpi2point mul] 0 setdash } bdef
/DA { [6 dpi2point mul] 0 setdash } bdef
/DD { [.5 dpi2point mul 4 dpi2point mul 6 dpi2point mul 4
  dpi2point mul] 0 setdash } bdef
% macros for lines and objects
/L {lineto stroke} bdef
/MP {3 1 roll moveto 1 sub {rlineto} repeat} bdef
/AP {{rlineto} repeat} bdef
/PDlw -1 def
/W {/PDlw currentlinewidth def setlinewidth} def
/PP {closepath eofill} bdef
/DP {closepath stroke} bdef
/MR {4 -2 roll moveto dup  0 exch rlineto exch 0 rlineto
  neg 0 exch rlineto closepath} bdef
/FR {MR stroke} bdef
/PR {MR fill} bdef
/L1i {{currentfile picstr readhexstring pop} image} bdef
/tMatrix matrix def
/MakeOval {newpath tMatrix currentmatrix pop translate scale
0 0 1 0 360 arc tMatrix setmatrix} bdef
/FO {MakeOval stroke} bdef
/PO {MakeOval fill} bdef
/PD {currentlinewidth 2 div 0 360 arc fill
   PDlw -1 eq not {PDlw w /PDlw -1 def} if} def
/FA {newpath tMatrix currentmatrix pop translate scale
  0 0 1 5 -2 roll arc tMatrix setmatrix stroke} bdef
/PA {newpath tMatrix currentmatrix pop	translate 0 0 moveto scale
  0 0 1 5 -2 roll arc closepath tMatrix setmatrix fill} bdef
/FAn {newpath tMatrix currentmatrix pop translate scale
  0 0 1 5 -2 roll arcn tMatrix setmatrix stroke} bdef
/PAn {newpath tMatrix currentmatrix pop translate 0 0 moveto scale
  0 0 1 5 -2 roll arcn closepath tMatrix setmatrix fill} bdef
/vradius 0 def /hradius 0 def /lry 0 def
/lrx 0 def /uly 0 def /ulx 0 def /rad 0 def
/MRR {/vradius xdef /hradius xdef /lry xdef /lrx xdef /uly xdef
  /ulx xdef newpath tMatrix currentmatrix pop ulx hradius add uly
  vradius add translate hradius vradius scale 0 0 1 180 270 arc 
  tMatrix setmatrix lrx hradius sub uly vradius add translate
  hradius vradius scale 0 0 1 270 360 arc tMatrix setmatrix
  lrx hradius sub lry vradius sub translate hradius vradius scale
  0 0 1 0 90 arc tMatrix setmatrix ulx hradius add lry vradius sub
  translate hradius vradius scale 0 0 1 90 180 arc tMatrix setmatrix
  closepath} bdef
/FRR {MRR stroke } bdef
/PRR {MRR fill } bdef
/MlrRR {/lry xdef /lrx xdef /uly xdef /ulx xdef /rad lry uly sub 2 div def
  newpath tMatrix currentmatrix pop ulx rad add uly rad add translate
  rad rad scale 0 0 1 90 270 arc tMatrix setmatrix lrx rad sub lry rad
  sub translate rad rad scale 0 0 1 270 90 arc tMatrix setmatrix
  closepath} bdef
/FlrRR {MlrRR stroke } bdef
/PlrRR {MlrRR fill } bdef
/MtbRR {/lry xdef /lrx xdef /uly xdef /ulx xdef /rad lrx ulx sub 2 div def
  newpath tMatrix currentmatrix pop ulx rad add uly rad add translate
  rad rad scale 0 0 1 180 360 arc tMatrix setmatrix lrx rad sub lry rad
  sub translate rad rad scale 0 0 1 0 180 arc tMatrix setmatrix
  closepath} bdef
/FtbRR {MtbRR stroke } bdef
/PtbRR {MtbRR fill } bdef
/stri 6 array def /dtri 6 array def
/smat 6 array def /dmat 6 array def
/tmat1 6 array def /tmat2 6 array def /dif 3 array def
/asub {/ind2 exch def /ind1 exch def dup dup
  ind1 get exch ind2 get sub exch } bdef
/tri_to_matrix {
  2 0 asub 3 1 asub 4 0 asub 5 1 asub
  dup 0 get exch 1 get 7 -1 roll astore } bdef
/compute_transform {
  dmat dtri tri_to_matrix tmat1 invertmatrix 
  smat stri tri_to_matrix tmat2 concatmatrix } bdef
/ds {stri astore pop} bdef
/dt {dtri astore pop} bdef
/db {2 copy /cols xdef /rows xdef mul dup 3 mul string
  currentfile 
  3 index 0 eq {/ASCIIHexDecode filter}
  {/ASCII85Decode filter 3 index 2 eq {/RunLengthDecode filter} if }
  ifelse exch readstring pop
  dup 0 3 index getinterval /rbmap xdef
  dup 2 index dup getinterval /gbmap xdef
  1 index dup 2 mul exch getinterval /bbmap xdef pop pop}bdef
/it {gs np dtri aload pop moveto lineto lineto cp c
  cols rows 8 compute_transform 
  rbmap gbmap bbmap true 3 colorimage gr}bdef
/il {newpath moveto lineto stroke}bdef
currentdict end def
%%EndProlog

%%BeginSetup
MathWorks begin

0 cap

end
%%EndSetup

%%Page: 1 1
%%BeginPageSetup
%%PageBoundingBox:  -293    55   906   736
MathWorks begin
bpage
%%EndPageSetup

%%BeginObject: obj1
bplot

/dpi2point 12 def
portraitMode -3516 8832 csm

    0     0 14398  8167 rc
85 dict begin %Colortable dictionary
/c0 { 0.000000 0.000000 0.000000 sr} bdef
/c1 { 1.000000 1.000000 1.000000 sr} bdef
/c2 { 0.900000 0.000000 0.000000 sr} bdef
/c3 { 0.000000 0.820000 0.000000 sr} bdef
/c4 { 0.000000 0.000000 0.800000 sr} bdef
/c5 { 0.910000 0.820000 0.320000 sr} bdef
/c6 { 1.000000 0.260000 0.820000 sr} bdef
/c7 { 0.000000 0.820000 0.820000 sr} bdef
c0
1 j
1 sg
   0    0 14399 8168 rf
6 w
0 6656 10883 0 0 -6656 2147 7269 4 MP
PP
-10883 0 0 6656 10883 0 0 -6656 2147 7269 5 MP stroke
4 w
DO
SO
6 w
0 sg
2147 7269 mt 13030 7269 L
2147 7269 mt 2147  613 L
2147 7269 mt 2147 7160 L
%%IncludeResource: font Helvetica
/Helvetica /ISOLatin1Encoding 192 FMSR

2094 7481 mt 
(0) s
3671 7269 mt 3671 7160 L
3511 7481 mt 
(200) s
5195 7269 mt 5195 7160 L
5035 7481 mt 
(400) s
6719 7269 mt 6719 7160 L
6559 7481 mt 
(600) s
8243 7269 mt 8243 7160 L
8083 7481 mt 
(800) s
9768 7269 mt 9768 7160 L
9555 7481 mt 
(1000) s
11292 7269 mt 11292 7160 L
11079 7481 mt 
(1200) s
12816 7269 mt 12816 7160 L
12603 7481 mt 
(1400) s
2147 6853 mt 2255 6853 L
   0 6924 mt 
(No passing, no reversing) s
2147 6437 mt 2255 6437 L
 125 6508 mt 
(   Passing, no reversing) s
2147 6021 mt 2255 6021 L
  71 6092 mt 
(   Passing and reversing) s
2147 5605 mt 2255 5605 L
 515 5676 mt 
(                  Backup) s
2147 5189 mt 2255 5189 L
 422 5260 mt 
(              Aggressive) s
2147 4773 mt 2255 4773 L
 639 4844 mt 
(                    Bare) s
2147 4357 mt 2255 4357 L
 421 4428 mt 
(             Zone safety) s
2147 3941 mt 2255 3941 L
 220 4012 mt 
(         Zone aggressive) s
2147 3525 mt 2255 3525 L
 437 3596 mt 
(               Zone bare) s
2147 3109 mt 2255 3109 L
 320 3180 mt 
(         Off-road safety) s
2147 2693 mt 2255 2693 L
 118 2764 mt 
(     Off-road aggressive) s
2147 2277 mt 2255 2277 L
 335 2348 mt 
(           Off-road bare) s
2147 1861 mt 2255 1861 L
 480 1932 mt 
(            Intersection) s
2147 1445 mt 2255 1445 L
 565 1516 mt 
(                  U-turn) s
2147 1029 mt 2255 1029 L
 508 1100 mt 
(                  Paused) s
gs 2147 613 10884 6657 rc
/c8 { 0.000000 0.000000 1.000000 sr} bdef
c8
0 167 335 0 0 -167 2147 6936 4 MP
PP
0 sg
-335 0 0 167 335 0 0 -167 2147 6936 5 MP stroke
gr

6552 7677 mt 
(Time Elapsed \(seconds\)) s
gs 2147 613 10884 6657 rc
c8
0 167 99 0 0 -167 2482 1944 4 MP
PP
0 sg
-99 0 0 167 99 0 0 -167 2482 1944 5 MP stroke
c8
0 167 1905 0 0 -167 2581 6936 4 MP
PP
0 sg
-1905 0 0 167 1905 0 0 -167 2581 6936 5 MP stroke
c8
0 167 92 0 0 -167 4486 1944 4 MP
PP
0 sg
-92 0 0 167 92 0 0 -167 4486 1944 5 MP stroke
c8
0 167 396 0 0 -167 4578 6936 4 MP
PP
0 sg
-396 0 0 167 396 0 0 -167 4578 6936 5 MP stroke
c8
0 167 122 0 0 -167 4974 1944 4 MP
PP
0 sg
-122 0 0 167 122 0 0 -167 4974 1944 5 MP stroke
c8
0 167 137 0 0 -167 5096 6936 4 MP
PP
0 sg
-137 0 0 167 137 0 0 -167 5096 6936 5 MP stroke
c8
0 167 92 0 0 -167 5233 1944 4 MP
PP
0 sg
-92 0 0 167 92 0 0 -167 5233 1944 5 MP stroke
c8
0 167 76 0 0 -167 5325 6936 4 MP
PP
0 sg
-76 0 0 167 76 0 0 -167 5325 6936 5 MP stroke
c8
0 167 129 0 0 -167 5401 1944 4 MP
PP
0 sg
-129 0 0 167 129 0 0 -167 5401 1944 5 MP stroke
c8
0 167 381 0 0 -167 5530 6936 4 MP
PP
0 sg
-381 0 0 167 381 0 0 -167 5530 6936 5 MP stroke
c8
0 167 16 0 0 -167 5911 1112 4 MP
PP
0 sg
-16 0 0 167 16 0 0 -167 5911 1112 5 MP stroke
c8
0 167 922 0 0 -167 5927 4440 4 MP
PP
0 sg
-922 0 0 167 922 0 0 -167 5927 4440 5 MP stroke
c8
0 167 251 0 0 -167 6849 6936 4 MP
PP
0 sg
-251 0 0 167 251 0 0 -167 6849 6936 5 MP stroke
c8
0 167 320 0 0 -167 7100 1944 4 MP
PP
0 sg
-320 0 0 167 320 0 0 -167 7100 1944 5 MP stroke
c8
0 167 252 0 0 -167 7420 6936 4 MP
PP
0 sg
-252 0 0 167 252 0 0 -167 7420 6936 5 MP stroke
c8
0 167 137 0 0 -167 7672 1944 4 MP
PP
0 sg
-137 0 0 167 137 0 0 -167 7672 1944 5 MP stroke
c8
0 167 244 0 0 -167 7809 6936 4 MP
PP
0 sg
-244 0 0 167 244 0 0 -167 7809 6936 5 MP stroke
c8
0 167 122 0 0 -167 8053 6520 4 MP
PP
0 sg
-122 0 0 167 122 0 0 -167 8053 6520 5 MP stroke
c8
0 167 46 0 0 -167 8175 6104 4 MP
PP
0 sg
-46 0 0 167 46 0 0 -167 8175 6104 5 MP stroke
c8
0 167 7 0 0 -167 8221 1112 4 MP
PP
0 sg
-7 0 0 167 7 0 0 -167 8221 1112 5 MP stroke
c8
0 167 8 0 0 -167 8228 6104 4 MP
PP
0 sg
-8 0 0 167 8 0 0 -167 8228 6104 5 MP stroke
c8
0 167 503 0 0 -167 8236 6520 4 MP
PP
0 sg
-503 0 0 167 503 0 0 -167 8236 6520 5 MP stroke
c8
0 167 23 0 0 -167 8739 6936 4 MP
PP
0 sg
-23 0 0 167 23 0 0 -167 8739 6936 5 MP stroke
c8
0 167 114 0 0 -167 8762 1944 4 MP
PP
0 sg
-114 0 0 167 114 0 0 -167 8762 1944 5 MP stroke
c8
0 167 472 0 0 -167 8876 6936 4 MP
PP
0 sg
-472 0 0 167 472 0 0 -167 8876 6936 5 MP stroke
c8
0 167 122 0 0 -167 9348 1944 4 MP
PP
0 sg
-122 0 0 167 122 0 0 -167 9348 1944 5 MP stroke
c8
0 167 374 0 0 -167 9470 6936 4 MP
PP
0 sg
-374 0 0 167 374 0 0 -167 9470 6936 5 MP stroke
c8
0 167 15 0 0 -167 9844 1112 4 MP
PP
0 sg
-15 0 0 167 15 0 0 -167 9844 1112 5 MP stroke
c8
0 167 137 0 0 -167 9859 6520 4 MP
PP
0 sg
-137 0 0 167 137 0 0 -167 9859 6520 5 MP stroke
c8
0 167 31 0 0 -167 9996 6936 4 MP
PP
0 sg
-31 0 0 167 31 0 0 -167 9996 6936 5 MP stroke
c8
0 167 122 0 0 -167 10027 1944 4 MP
PP
0 sg
-122 0 0 167 122 0 0 -167 10027 1944 5 MP stroke
c8
0 167 411 0 0 -167 10149 6936 4 MP
PP
0 sg
-411 0 0 167 411 0 0 -167 10149 6936 5 MP stroke
c8
0 167 76 0 0 -167 10560 6520 4 MP
PP
0 sg
-76 0 0 167 76 0 0 -167 10560 6520 5 MP stroke
c8
0 167 130 0 0 -167 10636 6936 4 MP
PP
0 sg
-130 0 0 167 130 0 0 -167 10636 6936 5 MP stroke
c8
0 167 152 0 0 -167 10766 3192 4 MP
PP
0 sg
-152 0 0 167 152 0 0 -167 10766 3192 5 MP stroke
c8
0 167 252 0 0 -167 10918 6936 4 MP
PP
0 sg
-252 0 0 167 252 0 0 -167 10918 6936 5 MP stroke
c8
0 167 114 0 0 -167 11170 1944 4 MP
PP
0 sg
-114 0 0 167 114 0 0 -167 11170 1944 5 MP stroke
c8
0 167 183 0 0 -167 11284 6936 4 MP
PP
0 sg
-183 0 0 167 183 0 0 -167 11284 6936 5 MP stroke
c8
0 167 122 0 0 -167 11467 1944 4 MP
PP
0 sg
-122 0 0 167 122 0 0 -167 11467 1944 5 MP stroke
c8
0 167 122 0 0 -167 11589 6936 4 MP
PP
0 sg
-122 0 0 167 122 0 0 -167 11589 6936 5 MP stroke
c8
0 167 122 0 0 -167 11711 1944 4 MP
PP
0 sg
-122 0 0 167 122 0 0 -167 11711 1944 5 MP stroke
c8
0 167 351 0 0 -167 11833 6936 4 MP
PP
0 sg
-351 0 0 167 351 0 0 -167 11833 6936 5 MP stroke
c8
0 167 335 0 0 -167 12184 6520 4 MP
PP
0 sg
-335 0 0 167 335 0 0 -167 12184 6520 5 MP stroke
c8
0 167 99 0 0 -167 12519 1944 4 MP
PP
0 sg
-99 0 0 167 99 0 0 -167 12519 1944 5 MP stroke
c8
0 167 335 0 0 -167 12618 6936 4 MP
PP
0 sg
-335 0 0 167 335 0 0 -167 12618 6936 5 MP stroke
gr

13030 6921 mt 
(61.6%) s
13030 6505 mt 
(10.9%) s
13030 6089 mt 
(0.5%) s
13030 5673 mt 
(0.0%) s
13030 5257 mt 
(0.0%) s
13030 4841 mt 
(0.0%) s
13030 4425 mt 
(8.5%) s
13030 4009 mt 
(0.0%) s
13030 3593 mt 
(0.0%) s
13030 3177 mt 
(1.4%) s
13030 2761 mt 
(0.0%) s
13030 2345 mt 
(0.0%) s
13030 1929 mt 
(16.7%) s
13030 1513 mt 
(0.0%) s
13030 1097 mt 
(0.4%) s
gs 2147 613 10884 6657 rc
DA
10883 0 2147 4565 2 MP stroke
gr

DA
%%IncludeResource: font Helvetica-Bold
/Helvetica-Bold /ISOLatin1Encoding 240 FMSR

11401 5069 mt 
(Road region) s
gs 2147 613 10884 6657 rc
10883 0 2147 3317 2 MP stroke
gr

11428 3821 mt 
(Zone region) s
gs 2147 613 10884 6657 rc
10883 0 2147 2069 2 MP stroke
gr

11799 2573 mt 
(Off-road) s
SO

end %%Color Dict

eplot
%%EndObject

epage
end

showpage

%%Trailer
%%EOF
