%!PS-Adobe-3.0 EPSF-3.0
%%Creator: MATLAB, The Mathworks, Inc. Version 7.4.0.287 (R2007a). Operating System: Darwin 8.11.1 Darwin Kernel Version 8.11.1: Wed Oct 10 18:23:28 PDT 2007; root:xnu-792.25.20~1/RELEASE_I386 i386.
%%Title: /Users/nok/Documents/DGC07/dgc07-final/LPstate-nqe-c1-1.eps
%%CreationDate: 12/18/2007  21:02:29
%%DocumentNeededFonts: Helvetica
%%+ Helvetica-Bold
%%DocumentProcessColors: Cyan Magenta Yellow Black
%%LanguageLevel: 2
%%Pages: 1
%%BoundingBox:  -293    55   906   736
%%EndComments

%%BeginProlog
% MathWorks dictionary
/MathWorks 160 dict begin
% definition operators
/bdef {bind def} bind def
/ldef {load def} bind def
/xdef {exch def} bdef
/xstore {exch store} bdef
% operator abbreviations
/c  /clip ldef
/cc /concat ldef
/cp /closepath ldef
/gr /grestore ldef
/gs /gsave ldef
/mt /moveto ldef
/np /newpath ldef
/cm /currentmatrix ldef
/sm /setmatrix ldef
/rm /rmoveto ldef
/rl /rlineto ldef
/s {show newpath} bdef
/sc {setcmykcolor} bdef
/sr /setrgbcolor ldef
/sg /setgray ldef
/w /setlinewidth ldef
/j /setlinejoin ldef
/cap /setlinecap ldef
/rc {rectclip} bdef
/rf {rectfill} bdef
% page state control
/pgsv () def
/bpage {/pgsv save def} bdef
/epage {pgsv restore} bdef
/bplot /gsave ldef
/eplot {stroke grestore} bdef
% orientation switch
/portraitMode 0 def /landscapeMode 1 def /rotateMode 2 def
% coordinate system mappings
/dpi2point 0 def
% font control
/FontSize 0 def
/FMS {/FontSize xstore findfont [FontSize 0 0 FontSize neg 0 0]
  makefont setfont} bdef
/reencode {exch dup where {pop load} {pop StandardEncoding} ifelse
  exch dup 3 1 roll findfont dup length dict begin
  { 1 index /FID ne {def}{pop pop} ifelse } forall
  /Encoding exch def currentdict end definefont pop} bdef
/isroman {findfont /CharStrings get /Agrave known} bdef
/FMSR {3 1 roll 1 index dup isroman {reencode} {pop pop} ifelse
  exch FMS} bdef
/csm {1 dpi2point div -1 dpi2point div scale neg translate
 dup landscapeMode eq {pop -90 rotate}
  {rotateMode eq {90 rotate} if} ifelse} bdef
% line types: solid, dotted, dashed, dotdash
/SO { [] 0 setdash } bdef
/DO { [.5 dpi2point mul 4 dpi2point mul] 0 setdash } bdef
/DA { [6 dpi2point mul] 0 setdash } bdef
/DD { [.5 dpi2point mul 4 dpi2point mul 6 dpi2point mul 4
  dpi2point mul] 0 setdash } bdef
% macros for lines and objects
/L {lineto stroke} bdef
/MP {3 1 roll moveto 1 sub {rlineto} repeat} bdef
/AP {{rlineto} repeat} bdef
/PDlw -1 def
/W {/PDlw currentlinewidth def setlinewidth} def
/PP {closepath eofill} bdef
/DP {closepath stroke} bdef
/MR {4 -2 roll moveto dup  0 exch rlineto exch 0 rlineto
  neg 0 exch rlineto closepath} bdef
/FR {MR stroke} bdef
/PR {MR fill} bdef
/L1i {{currentfile picstr readhexstring pop} image} bdef
/tMatrix matrix def
/MakeOval {newpath tMatrix currentmatrix pop translate scale
0 0 1 0 360 arc tMatrix setmatrix} bdef
/FO {MakeOval stroke} bdef
/PO {MakeOval fill} bdef
/PD {currentlinewidth 2 div 0 360 arc fill
   PDlw -1 eq not {PDlw w /PDlw -1 def} if} def
/FA {newpath tMatrix currentmatrix pop translate scale
  0 0 1 5 -2 roll arc tMatrix setmatrix stroke} bdef
/PA {newpath tMatrix currentmatrix pop	translate 0 0 moveto scale
  0 0 1 5 -2 roll arc closepath tMatrix setmatrix fill} bdef
/FAn {newpath tMatrix currentmatrix pop translate scale
  0 0 1 5 -2 roll arcn tMatrix setmatrix stroke} bdef
/PAn {newpath tMatrix currentmatrix pop translate 0 0 moveto scale
  0 0 1 5 -2 roll arcn closepath tMatrix setmatrix fill} bdef
/vradius 0 def /hradius 0 def /lry 0 def
/lrx 0 def /uly 0 def /ulx 0 def /rad 0 def
/MRR {/vradius xdef /hradius xdef /lry xdef /lrx xdef /uly xdef
  /ulx xdef newpath tMatrix currentmatrix pop ulx hradius add uly
  vradius add translate hradius vradius scale 0 0 1 180 270 arc 
  tMatrix setmatrix lrx hradius sub uly vradius add translate
  hradius vradius scale 0 0 1 270 360 arc tMatrix setmatrix
  lrx hradius sub lry vradius sub translate hradius vradius scale
  0 0 1 0 90 arc tMatrix setmatrix ulx hradius add lry vradius sub
  translate hradius vradius scale 0 0 1 90 180 arc tMatrix setmatrix
  closepath} bdef
/FRR {MRR stroke } bdef
/PRR {MRR fill } bdef
/MlrRR {/lry xdef /lrx xdef /uly xdef /ulx xdef /rad lry uly sub 2 div def
  newpath tMatrix currentmatrix pop ulx rad add uly rad add translate
  rad rad scale 0 0 1 90 270 arc tMatrix setmatrix lrx rad sub lry rad
  sub translate rad rad scale 0 0 1 270 90 arc tMatrix setmatrix
  closepath} bdef
/FlrRR {MlrRR stroke } bdef
/PlrRR {MlrRR fill } bdef
/MtbRR {/lry xdef /lrx xdef /uly xdef /ulx xdef /rad lrx ulx sub 2 div def
  newpath tMatrix currentmatrix pop ulx rad add uly rad add translate
  rad rad scale 0 0 1 180 360 arc tMatrix setmatrix lrx rad sub lry rad
  sub translate rad rad scale 0 0 1 0 180 arc tMatrix setmatrix
  closepath} bdef
/FtbRR {MtbRR stroke } bdef
/PtbRR {MtbRR fill } bdef
/stri 6 array def /dtri 6 array def
/smat 6 array def /dmat 6 array def
/tmat1 6 array def /tmat2 6 array def /dif 3 array def
/asub {/ind2 exch def /ind1 exch def dup dup
  ind1 get exch ind2 get sub exch } bdef
/tri_to_matrix {
  2 0 asub 3 1 asub 4 0 asub 5 1 asub
  dup 0 get exch 1 get 7 -1 roll astore } bdef
/compute_transform {
  dmat dtri tri_to_matrix tmat1 invertmatrix 
  smat stri tri_to_matrix tmat2 concatmatrix } bdef
/ds {stri astore pop} bdef
/dt {dtri astore pop} bdef
/db {2 copy /cols xdef /rows xdef mul dup 3 mul string
  currentfile 
  3 index 0 eq {/ASCIIHexDecode filter}
  {/ASCII85Decode filter 3 index 2 eq {/RunLengthDecode filter} if }
  ifelse exch readstring pop
  dup 0 3 index getinterval /rbmap xdef
  dup 2 index dup getinterval /gbmap xdef
  1 index dup 2 mul exch getinterval /bbmap xdef pop pop}bdef
/it {gs np dtri aload pop moveto lineto lineto cp c
  cols rows 8 compute_transform 
  rbmap gbmap bbmap true 3 colorimage gr}bdef
/il {newpath moveto lineto stroke}bdef
currentdict end def
%%EndProlog

%%BeginSetup
MathWorks begin

0 cap

end
%%EndSetup

%%Page: 1 1
%%BeginPageSetup
%%PageBoundingBox:  -293    55   906   736
MathWorks begin
bpage
%%EndPageSetup

%%BeginObject: obj1
bplot

/dpi2point 12 def
portraitMode -3516 8832 csm

    0     0 14398  8167 rc
85 dict begin %Colortable dictionary
/c0 { 0.000000 0.000000 0.000000 sr} bdef
/c1 { 1.000000 1.000000 1.000000 sr} bdef
/c2 { 0.900000 0.000000 0.000000 sr} bdef
/c3 { 0.000000 0.820000 0.000000 sr} bdef
/c4 { 0.000000 0.000000 0.800000 sr} bdef
/c5 { 0.910000 0.820000 0.320000 sr} bdef
/c6 { 1.000000 0.260000 0.820000 sr} bdef
/c7 { 0.000000 0.820000 0.820000 sr} bdef
c0
1 j
1 sg
   0    0 14399 8168 rf
6 w
0 6656 10882 0 0 -6656 2147 7269 4 MP
PP
-10882 0 0 6656 10882 0 0 -6656 2147 7269 5 MP stroke
4 w
DO
SO
6 w
0 sg
2147 7269 mt 13029 7269 L
2147 7269 mt 2147  613 L
2147 7269 mt 2147 7160 L
%%IncludeResource: font Helvetica
/Helvetica /ISOLatin1Encoding 192 FMSR

2094 7481 mt 
(0) s
3156 7269 mt 3156 7160 L
2996 7481 mt 
(200) s
4165 7269 mt 4165 7160 L
4005 7481 mt 
(400) s
5174 7269 mt 5174 7160 L
5014 7481 mt 
(600) s
6183 7269 mt 6183 7160 L
6023 7481 mt 
(800) s
7192 7269 mt 7192 7160 L
6979 7481 mt 
(1000) s
8201 7269 mt 8201 7160 L
7988 7481 mt 
(1200) s
9210 7269 mt 9210 7160 L
8997 7481 mt 
(1400) s
10219 7269 mt 10219 7160 L
10006 7481 mt 
(1600) s
11228 7269 mt 11228 7160 L
11015 7481 mt 
(1800) s
12237 7269 mt 12237 7160 L
12024 7481 mt 
(2000) s
2147 6853 mt 2255 6853 L
   0 6924 mt 
(No passing, no reversing) s
2147 6437 mt 2255 6437 L
 125 6508 mt 
(   Passing, no reversing) s
2147 6021 mt 2255 6021 L
  71 6092 mt 
(   Passing and reversing) s
2147 5605 mt 2255 5605 L
 515 5676 mt 
(                  Backup) s
2147 5189 mt 2255 5189 L
 422 5260 mt 
(              Aggressive) s
2147 4773 mt 2255 4773 L
 639 4844 mt 
(                    Bare) s
2147 4357 mt 2255 4357 L
 421 4428 mt 
(             Zone safety) s
2147 3941 mt 2255 3941 L
 220 4012 mt 
(         Zone aggressive) s
2147 3525 mt 2255 3525 L
 437 3596 mt 
(               Zone bare) s
2147 3109 mt 2255 3109 L
 320 3180 mt 
(         Off-road safety) s
2147 2693 mt 2255 2693 L
 118 2764 mt 
(     Off-road aggressive) s
2147 2277 mt 2255 2277 L
 335 2348 mt 
(           Off-road bare) s
2147 1861 mt 2255 1861 L
 480 1932 mt 
(            Intersection) s
2147 1445 mt 2255 1445 L
 565 1516 mt 
(                  U-turn) s
2147 1029 mt 2255 1029 L
 508 1100 mt 
(                  Paused) s
gs 2147 613 10884 6657 rc
/c8 { 0.000000 0.000000 1.000000 sr} bdef
c8
0 167 20 0 0 -167 2147 6936 4 MP
PP
0 sg
-20 0 0 167 20 0 0 -167 2147 6936 5 MP stroke
gr

6552 7677 mt 
(Time Elapsed \(seconds\)) s
gs 2147 613 10884 6657 rc
c8
0 167 55 0 0 -167 2167 1944 4 MP
PP
0 sg
-55 0 0 167 55 0 0 -167 2167 1944 5 MP stroke
c8
0 167 293 0 0 -167 2222 6936 4 MP
PP
0 sg
-293 0 0 167 293 0 0 -167 2222 6936 5 MP stroke
c8
0 167 116 0 0 -167 2515 1944 4 MP
PP
0 sg
-116 0 0 167 116 0 0 -167 2515 1944 5 MP stroke
c8
0 167 25 0 0 -167 2631 6936 4 MP
PP
0 sg
-25 0 0 167 25 0 0 -167 2631 6936 5 MP stroke
c8
0 167 15 0 0 -167 2656 1944 4 MP
PP
0 sg
-15 0 0 167 15 0 0 -167 2656 1944 5 MP stroke
c8
0 167 288 0 0 -167 2671 6936 4 MP
PP
0 sg
-288 0 0 167 288 0 0 -167 2671 6936 5 MP stroke
c8
0 167 30 0 0 -167 2959 1944 4 MP
PP
0 sg
-30 0 0 167 30 0 0 -167 2959 1944 5 MP stroke
c8
0 167 5 0 0 -167 2989 6936 4 MP
PP
0 sg
-5 0 0 167 5 0 0 -167 2989 6936 5 MP stroke
c8
0 167 172 0 0 -167 2994 1944 4 MP
PP
0 sg
-172 0 0 167 172 0 0 -167 2994 1944 5 MP stroke
c8
0 167 312 0 0 -167 3166 6936 4 MP
PP
0 sg
-312 0 0 167 312 0 0 -167 3166 6936 5 MP stroke
c8
0 167 207 0 0 -167 3478 1944 4 MP
PP
0 sg
-207 0 0 167 207 0 0 -167 3478 1944 5 MP stroke
c8
0 167 288 0 0 -167 3685 6936 4 MP
PP
0 sg
-288 0 0 167 288 0 0 -167 3685 6936 5 MP stroke
c8
0 167 252 0 0 -167 3973 1944 4 MP
PP
0 sg
-252 0 0 167 252 0 0 -167 3973 1944 5 MP stroke
c8
0 167 298 0 0 -167 4225 6936 4 MP
PP
0 sg
-298 0 0 167 298 0 0 -167 4225 6936 5 MP stroke
c8
0 167 20 0 0 -167 4523 1944 4 MP
PP
0 sg
-20 0 0 167 20 0 0 -167 4523 1944 5 MP stroke
c8
0 167 141 0 0 -167 4543 6936 4 MP
PP
0 sg
-141 0 0 167 141 0 0 -167 4543 6936 5 MP stroke
c8
0 167 5 0 0 -167 4684 1112 4 MP
PP
0 sg
-5 0 0 167 5 0 0 -167 4684 1112 5 MP stroke
c8
0 167 41 0 0 -167 4689 6520 4 MP
PP
0 sg
-41 0 0 167 41 0 0 -167 4689 6520 5 MP stroke
c8
0 167 116 0 0 -167 4730 1944 4 MP
PP
0 sg
-116 0 0 167 116 0 0 -167 4730 1944 5 MP stroke
c8
0 167 303 0 0 -167 4846 6936 4 MP
PP
0 sg
-303 0 0 167 303 0 0 -167 4846 6936 5 MP stroke
c8
0 167 262 0 0 -167 5149 1944 4 MP
PP
0 sg
-262 0 0 167 262 0 0 -167 5149 1944 5 MP stroke
c8
0 167 656 0 0 -167 5411 6936 4 MP
PP
0 sg
-656 0 0 167 656 0 0 -167 5411 6936 5 MP stroke
c8
0 167 91 0 0 -167 6067 1944 4 MP
PP
0 sg
-91 0 0 167 91 0 0 -167 6067 1944 5 MP stroke
c8
0 167 237 0 0 -167 6158 6936 4 MP
PP
0 sg
-237 0 0 167 237 0 0 -167 6158 6936 5 MP stroke
c8
0 167 45 0 0 -167 6395 6520 4 MP
PP
0 sg
-45 0 0 167 45 0 0 -167 6395 6520 5 MP stroke
c8
0 167 126 0 0 -167 6440 6104 4 MP
PP
0 sg
-126 0 0 167 126 0 0 -167 6440 6104 5 MP stroke
c8
0 167 5 0 0 -167 6566 1112 4 MP
PP
0 sg
-5 0 0 167 5 0 0 -167 6566 1112 5 MP stroke
c8
0 167 106 0 0 -167 6571 6104 4 MP
PP
0 sg
-106 0 0 167 106 0 0 -167 6571 6104 5 MP stroke
c8
0 167 5 0 0 -167 6677 1112 4 MP
PP
0 sg
-5 0 0 167 5 0 0 -167 6677 1112 5 MP stroke
c8
0 167 293 0 0 -167 6682 1528 4 MP
PP
0 sg
-293 0 0 167 293 0 0 -167 6682 1528 5 MP stroke
c8
0 167 136 0 0 -167 6975 6936 4 MP
PP
0 sg
-136 0 0 167 136 0 0 -167 6975 6936 5 MP stroke
c8
0 167 237 0 0 -167 7111 1944 4 MP
PP
0 sg
-237 0 0 167 237 0 0 -167 7111 1944 5 MP stroke
c8
0 167 126 0 0 -167 7348 6936 4 MP
PP
0 sg
-126 0 0 167 126 0 0 -167 7348 6936 5 MP stroke
c8
0 167 6 0 0 -167 7474 6520 4 MP
PP
0 sg
-6 0 0 167 6 0 0 -167 7474 6520 5 MP stroke
c8
0 167 5 0 0 -167 7480 1112 4 MP
PP
0 sg
-5 0 0 167 5 0 0 -167 7480 1112 5 MP stroke
c8
0 167 35 0 0 -167 7485 6520 4 MP
PP
0 sg
-35 0 0 167 35 0 0 -167 7485 6520 5 MP stroke
c8
0 167 50 0 0 -167 7520 6104 4 MP
PP
0 sg
-50 0 0 167 50 0 0 -167 7520 6104 5 MP stroke
c8
0 167 5 0 0 -167 7570 1112 4 MP
PP
0 sg
-5 0 0 167 5 0 0 -167 7570 1112 5 MP stroke
c8
0 167 81 0 0 -167 7575 6104 4 MP
PP
0 sg
-81 0 0 167 81 0 0 -167 7575 6104 5 MP stroke
c8
0 167 10 0 0 -167 7656 1112 4 MP
PP
0 sg
-10 0 0 167 10 0 0 -167 7656 1112 5 MP stroke
c8
0 167 560 0 0 -167 7666 1528 4 MP
PP
0 sg
-560 0 0 167 560 0 0 -167 7666 1528 5 MP stroke
c8
0 167 25 0 0 -167 8226 6936 4 MP
PP
0 sg
-25 0 0 167 25 0 0 -167 8226 6936 5 MP stroke
c8
0 167 470 0 0 -167 8251 1528 4 MP
PP
0 sg
-470 0 0 167 470 0 0 -167 8251 1528 5 MP stroke
c8
0 167 50 0 0 -167 8721 6936 4 MP
PP
0 sg
-50 0 0 167 50 0 0 -167 8721 6936 5 MP stroke
c8
0 167 71 0 0 -167 8771 1944 4 MP
PP
0 sg
-71 0 0 167 71 0 0 -167 8771 1944 5 MP stroke
c8
0 167 282 0 0 -167 8842 6936 4 MP
PP
0 sg
-282 0 0 167 282 0 0 -167 8842 6936 5 MP stroke
c8
0 167 46 0 0 -167 9124 6520 4 MP
PP
0 sg
-46 0 0 167 46 0 0 -167 9124 6520 5 MP stroke
c8
0 167 65 0 0 -167 9170 6104 4 MP
PP
0 sg
-65 0 0 167 65 0 0 -167 9170 6104 5 MP stroke
c8
0 167 10 0 0 -167 9235 1112 4 MP
PP
0 sg
-10 0 0 167 10 0 0 -167 9235 1112 5 MP stroke
c8
0 167 46 0 0 -167 9245 6104 4 MP
PP
0 sg
-46 0 0 167 46 0 0 -167 9245 6104 5 MP stroke
c8
0 167 40 0 0 -167 9291 1112 4 MP
PP
0 sg
-40 0 0 167 40 0 0 -167 9291 1112 5 MP stroke
c8
0 167 61 0 0 -167 9331 6104 4 MP
PP
0 sg
-61 0 0 167 61 0 0 -167 9331 6104 5 MP stroke
c8
0 167 5 0 0 -167 9392 1112 4 MP
PP
0 sg
-5 0 0 167 5 0 0 -167 9392 1112 5 MP stroke
c8
0 167 45 0 0 -167 9397 6104 4 MP
PP
0 sg
-45 0 0 167 45 0 0 -167 9397 6104 5 MP stroke
c8
0 167 5 0 0 -167 9442 1112 4 MP
PP
0 sg
-5 0 0 167 5 0 0 -167 9442 1112 5 MP stroke
c8
0 167 46 0 0 -167 9447 6104 4 MP
PP
0 sg
-46 0 0 167 46 0 0 -167 9447 6104 5 MP stroke
c8
0 167 5 0 0 -167 9493 1112 4 MP
PP
0 sg
-5 0 0 167 5 0 0 -167 9493 1112 5 MP stroke
c8
0 167 111 0 0 -167 9498 6104 4 MP
PP
0 sg
-111 0 0 167 111 0 0 -167 9498 6104 5 MP stroke
c8
0 167 10 0 0 -167 9609 1112 4 MP
PP
0 sg
-10 0 0 167 10 0 0 -167 9609 1112 5 MP stroke
c8
0 167 388 0 0 -167 9619 1528 4 MP
PP
0 sg
-388 0 0 167 388 0 0 -167 9619 1528 5 MP stroke
c8
0 167 192 0 0 -167 10007 6936 4 MP
PP
0 sg
-192 0 0 167 192 0 0 -167 10007 6936 5 MP stroke
c8
0 167 81 0 0 -167 10199 1944 4 MP
PP
0 sg
-81 0 0 167 81 0 0 -167 10199 1944 5 MP stroke
c8
0 167 111 0 0 -167 10280 6936 4 MP
PP
0 sg
-111 0 0 167 111 0 0 -167 10280 6936 5 MP stroke
c8
0 167 40 0 0 -167 10391 6520 4 MP
PP
0 sg
-40 0 0 167 40 0 0 -167 10391 6520 5 MP stroke
c8
0 167 35 0 0 -167 10431 6104 4 MP
PP
0 sg
-35 0 0 167 35 0 0 -167 10431 6104 5 MP stroke
c8
0 167 5 0 0 -167 10466 1112 4 MP
PP
0 sg
-5 0 0 167 5 0 0 -167 10466 1112 5 MP stroke
c8
0 167 46 0 0 -167 10471 6104 4 MP
PP
0 sg
-46 0 0 167 46 0 0 -167 10471 6104 5 MP stroke
c8
0 167 35 0 0 -167 10517 1112 4 MP
PP
0 sg
-35 0 0 167 35 0 0 -167 10517 1112 5 MP stroke
c8
0 167 61 0 0 -167 10552 6104 4 MP
PP
0 sg
-61 0 0 167 61 0 0 -167 10552 6104 5 MP stroke
c8
0 167 5 0 0 -167 10613 1112 4 MP
PP
0 sg
-5 0 0 167 5 0 0 -167 10613 1112 5 MP stroke
c8
0 167 70 0 0 -167 10618 6104 4 MP
PP
0 sg
-70 0 0 167 70 0 0 -167 10618 6104 5 MP stroke
c8
0 167 5 0 0 -167 10688 1112 4 MP
PP
0 sg
-5 0 0 167 5 0 0 -167 10688 1112 5 MP stroke
c8
0 167 46 0 0 -167 10693 6104 4 MP
PP
0 sg
-46 0 0 167 46 0 0 -167 10693 6104 5 MP stroke
c8
0 167 5 0 0 -167 10739 1112 4 MP
PP
0 sg
-5 0 0 167 5 0 0 -167 10739 1112 5 MP stroke
c8
0 167 393 0 0 -167 10744 1528 4 MP
PP
0 sg
-393 0 0 167 393 0 0 -167 10744 1528 5 MP stroke
c8
0 167 51 0 0 -167 11137 6936 4 MP
PP
0 sg
-51 0 0 167 51 0 0 -167 11137 6936 5 MP stroke
c8
0 167 96 0 0 -167 11188 1944 4 MP
PP
0 sg
-96 0 0 167 96 0 0 -167 11188 1944 5 MP stroke
c8
0 167 1695 0 0 -167 11284 6936 4 MP
PP
0 sg
-1695 0 0 167 1695 0 0 -167 11284 6936 5 MP stroke
gr

13029 6921 mt 
(51.1%) s
13029 6505 mt 
(2.0%) s
13029 6089 mt 
(9.2%) s
13029 5673 mt 
(0.0%) s
13029 5257 mt 
(0.0%) s
13029 4841 mt 
(0.0%) s
13029 4425 mt 
(0.0%) s
13029 4009 mt 
(0.0%) s
13029 3593 mt 
(0.0%) s
13029 3177 mt 
(0.0%) s
13029 2761 mt 
(0.0%) s
13029 2345 mt 
(0.0%) s
13029 1929 mt 
(16.8%) s
13029 1513 mt 
(19.4%) s
13029 1097 mt 
(1.5%) s
gs 2147 613 10884 6657 rc
DA
10882 0 2147 4565 2 MP stroke
gr

DA
%%IncludeResource: font Helvetica-Bold
/Helvetica-Bold /ISOLatin1Encoding 240 FMSR

11478 5069 mt 
(Road region) s
gs 2147 613 10884 6657 rc
10882 0 2147 3317 2 MP stroke
gr

11505 3821 mt 
(Zone region) s
gs 2147 613 10884 6657 rc
10882 0 2147 2069 2 MP stroke
gr

11876 2573 mt 
(Off-road) s
SO

end %%Color Dict

eplot
%%EndObject

epage
end

showpage

%%Trailer
%%EOF
