<?xml version="1.0" encoding="UTF-8" standalone="no"?>
<!-- Created with Inkscape (http://www.inkscape.org/) -->
<svg
   xmlns:dc="http://purl.org/dc/elements/1.1/"
   xmlns:cc="http://web.resource.org/cc/"
   xmlns:rdf="http://www.w3.org/1999/02/22-rdf-syntax-ns#"
   xmlns:svg="http://www.w3.org/2000/svg"
   xmlns="http://www.w3.org/2000/svg"
   xmlns:sodipodi="http://sodipodi.sourceforge.net/DTD/sodipodi-0.dtd"
   xmlns:inkscape="http://www.inkscape.org/namespaces/inkscape"
   width="744.09448819"
   height="1052.3622047"
   id="svg2"
   sodipodi:version="0.32"
   inkscape:version="0.44"
   sodipodi:docbase="/home/ahoward/projects-dgc/dgc/projects/ahoward/arch"
   sodipodi:docname="frames.svg"
   inkscape:export-filename="/home/ahoward/projects-dgc/dgc/projects/ahoward/arch/frames.png"
   inkscape:export-xdpi="90"
   inkscape:export-ydpi="90">
  <defs
     id="defs4">
    <marker
       inkscape:stockid="Dot_m"
       orient="auto"
       refY="0.0"
       refX="0.0"
       id="Dot_m"
       style="overflow:visible">
      <path
         id="path5248"
         d="M -2.5,-1.0 C -2.5,1.7600000 -4.7400000,4.0 -7.5,4.0 C -10.260000,4.0 -12.5,1.7600000 -12.5,-1.0 C -12.5,-3.7600000 -10.260000,-6.0 -7.5,-6.0 C -4.7400000,-6.0 -2.5,-3.7600000 -2.5,-1.0 z "
         style="fill-rule:evenodd;stroke:#000000;stroke-width:1.0pt;marker-start:none;marker-end:none"
         transform="scale(0.4) translate(7.4, 1)" />
    </marker>
    <marker
       inkscape:stockid="Arrow1Mend"
       orient="auto"
       refY="0.0"
       refX="0.0"
       id="Arrow1Mend"
       style="overflow:visible;">
      <path
         id="path8679"
         d="M 0.0,0.0 L 5.0,-5.0 L -12.5,0.0 L 5.0,5.0 L 0.0,0.0 z "
         style="fill-rule:evenodd;stroke:#000000;stroke-width:1.0pt;marker-start:none;"
         transform="scale(0.4) rotate(180)" />
    </marker>
  </defs>
  <sodipodi:namedview
     id="base"
     pagecolor="#ffffff"
     bordercolor="#666666"
     borderopacity="1.0"
     inkscape:pageopacity="0.0"
     inkscape:pageshadow="2"
     inkscape:zoom="1.0622222"
     inkscape:cx="386.80669"
     inkscape:cy="368.84173"
     inkscape:document-units="px"
     inkscape:current-layer="layer1"
     showgrid="true"
     showguides="true"
     inkscape:window-width="982"
     inkscape:window-height="999"
     inkscape:window-x="286"
     inkscape:window-y="0" />
  <metadata
     id="metadata7">
    <rdf:RDF>
      <cc:Work
         rdf:about="">
        <dc:format>image/svg+xml</dc:format>
        <dc:type
           rdf:resource="http://purl.org/dc/dcmitype/StillImage" />
      </cc:Work>
    </rdf:RDF>
  </metadata>
  <g
     inkscape:groupmode="layer"
     id="layer2"
     inkscape:label="background"
     style="display:inline" />
  <g
     inkscape:label="Layer 1"
     inkscape:groupmode="layer"
     id="layer1"
     style="display:inline">
    <rect
       style="opacity:1;fill:white;fill-opacity:1;stroke:#7a7a7a;stroke-width:1.5;stroke-miterlimit:4;stroke-dasharray:1.5, 1.5;stroke-dashoffset:0;stroke-opacity:1"
       id="rect1936"
       width="701.35986"
       height="550.73224"
       x="3.7656906"
       y="310.52115" />
    <rect
       style="fill:#b6b6b6;fill-opacity:0.75;fill-rule:evenodd;stroke:black;stroke-width:1.09467232px;stroke-linecap:butt;stroke-linejoin:miter;stroke-opacity:1"
       id="rect1313"
       width="330.84079"
       height="157.74715"
       x="117.69015"
       y="575.05096"
       transform="matrix(0.96584,-0.259138,0.25915,0.965837,0,0)"
       inkscape:export-filename="/home/ahoward/projects-dgc/dgc/projects/ahoward/arch/path4253.png"
       inkscape:export-xdpi="90"
       inkscape:export-ydpi="90" />
    <text
       id="text10536"
       y="722.26007"
       x="127.88023"
       style="font-size:23.58690071px;font-style:normal;font-weight:normal;fill:black;fill-opacity:1;stroke:none;stroke-width:1px;stroke-linecap:butt;stroke-linejoin:miter;stroke-opacity:1;font-family:Bitstream Vera Sans"
       xml:space="preserve"
       transform="matrix(0.965926,-0.258819,0.258819,0.965926,0,0)"
       inkscape:export-filename="/home/ahoward/projects-dgc/dgc/projects/ahoward/arch/path4253.png"
       inkscape:export-xdpi="90"
       inkscape:export-ydpi="90"><tspan
         y="722.26007"
         x="127.88023"
         id="tspan10538"
         sodipodi:role="line">Alice</tspan></text>
    <text
       id="text10567"
       y="765.59729"
       x="222"
       style="font-size:15.12380219px;font-style:normal;font-weight:normal;fill:black;fill-opacity:1;stroke:none;stroke-width:1px;stroke-linecap:butt;stroke-linejoin:miter;stroke-opacity:1;font-family:Bitstream Vera Sans"
       xml:space="preserve"
       inkscape:export-filename="/home/ahoward/projects-dgc/dgc/projects/ahoward/arch/path4253.png"
       inkscape:export-xdpi="90"
       inkscape:export-ydpi="90"><tspan
         y="765.59729"
         x="222"
         id="tspan10569"
         sodipodi:role="line">Notes:</tspan><tspan
         id="tspan10573"
         y="784.50204"
         x="222"
         sodipodi:role="line">  - Sensors are assumed to be fixed.</tspan><tspan
         id="tspan10577"
         y="803.4068"
         x="222"
         sodipodi:role="line">  - AState reports vehicle pose L_t in local frame at time t.</tspan><tspan
         id="tspan10579"
         y="822.31155"
         x="222"
         sodipodi:role="line">  - AState reports vehicle pose G_t in global frame at time t.</tspan><tspan
         id="tspan10581"
         y="841.2163"
         x="222"
         sodipodi:role="line">  - The local/global transform will drift slowly over time. </tspan></text>
    <g
       id="g2362"
       transform="matrix(0.707107,-0.707107,0.707107,0.707107,-413.2691,286.1415)"
       inkscape:export-filename="/home/ahoward/projects-dgc/dgc/projects/ahoward/arch/path4253.png"
       inkscape:export-xdpi="90"
       inkscape:export-ydpi="90">
      <text
         transform="matrix(0.965926,0.258819,-0.258819,0.965926,0,0)"
         id="text6747"
         y="537.37476"
         x="205.573"
         style="font-size:12.00000381px;font-style:normal;font-weight:normal;fill:black;fill-opacity:1;stroke:none;stroke-width:1px;stroke-linecap:butt;stroke-linejoin:miter;stroke-opacity:1;font-family:Bitstream Vera Sans"
         xml:space="preserve"><tspan
           y="537.37476"
           x="205.573"
           id="tspan6749"
           sodipodi:role="line">Origin of local frame</tspan></text>
      <g
         transform="matrix(0.965926,0.258819,-0.258819,0.965926,238.8418,-252.9054)"
         id="g1375">
        <g
           id="g10443"
           transform="matrix(1,0,0,-0.982709,-208.9957,1620.596)">
          <path
             id="path6764"
             d="M 249.89454,782.36218 L 378.5,782.36218"
             style="opacity:1;fill:none;fill-opacity:1;fill-rule:evenodd;stroke:red;stroke-width:2;stroke-linecap:butt;stroke-linejoin:miter;marker-start:none;marker-end:url(#Arrow1Mend);stroke-miterlimit:4;stroke-dasharray:none;stroke-opacity:1" />
          <path
             id="path9568"
             d="M 250.02929,782.46766 L 250.02929,653.86218"
             style="opacity:1;fill:none;fill-opacity:1;fill-rule:evenodd;stroke:#01ff00;stroke-width:2;stroke-linecap:butt;stroke-linejoin:miter;marker-start:none;marker-end:url(#Arrow1Mend);stroke-miterlimit:4;stroke-dasharray:none;stroke-opacity:1" />
        </g>
        <text
           xml:space="preserve"
           style="font-size:12px;font-style:normal;font-weight:normal;fill:black;fill-opacity:1;stroke:none;stroke-width:1px;stroke-linecap:butt;stroke-linejoin:miter;stroke-opacity:1;font-family:Bitstream Vera Sans"
           x="160.23633"
           y="868.88562"
           id="text1353"><tspan
             sodipodi:role="line"
             id="tspan1355"
             x="160.23633"
             y="868.88562">+x</tspan></text>
        <text
           xml:space="preserve"
           style="font-size:12px;font-style:normal;font-weight:normal;fill:black;fill-opacity:1;stroke:none;stroke-width:1px;stroke-linecap:butt;stroke-linejoin:miter;stroke-opacity:1;font-family:Bitstream Vera Sans"
           x="49.728516"
           y="983.88562"
           id="text1357"><tspan
             sodipodi:role="line"
             id="tspan1359"
             x="49.728516"
             y="983.88562">+y</tspan></text>
      </g>
    </g>
    <g
       id="g2374"
       transform="matrix(0.965926,-0.258819,0.258819,0.965926,-107.747,195.521)"
       inkscape:export-filename="/home/ahoward/projects-dgc/dgc/projects/ahoward/arch/path4253.png"
       inkscape:export-xdpi="90"
       inkscape:export-ydpi="90">
      <text
         xml:space="preserve"
         style="font-size:12px;font-style:normal;font-weight:normal;fill:black;fill-opacity:1;stroke:none;stroke-width:1px;stroke-linecap:butt;stroke-linejoin:miter;stroke-opacity:1;font-family:Bitstream Vera Sans"
         x="451.71255"
         y="487.47937"
         id="text10478"><tspan
           sodipodi:role="line"
           id="tspan10480"
           x="451.71255"
           y="487.47937">Origin of vehicle frame</tspan></text>
      <g
         transform="translate(413.7224,-355.387)"
         id="g1384">
        <g
           id="g1386"
           transform="matrix(1,0,0,-0.982709,-208.9957,1620.596)">
          <path
             id="path1388"
             d="M 249.89454,782.36218 L 378.5,782.36218"
             style="opacity:1;fill:none;fill-opacity:1;fill-rule:evenodd;stroke:red;stroke-width:2;stroke-linecap:butt;stroke-linejoin:miter;marker-start:none;marker-end:url(#Arrow1Mend);stroke-miterlimit:4;stroke-dasharray:none;stroke-opacity:1" />
          <path
             id="path1390"
             d="M 250.02929,782.46766 L 250.02929,653.86218"
             style="opacity:1;fill:none;fill-opacity:1;fill-rule:evenodd;stroke:#01ff00;stroke-width:2;stroke-linecap:butt;stroke-linejoin:miter;marker-start:none;marker-end:url(#Arrow1Mend);stroke-miterlimit:4;stroke-dasharray:none;stroke-opacity:1" />
        </g>
        <text
           xml:space="preserve"
           style="font-size:12px;font-style:normal;font-weight:normal;fill:black;fill-opacity:1;stroke:none;stroke-width:1px;stroke-linecap:butt;stroke-linejoin:miter;stroke-opacity:1;font-family:Bitstream Vera Sans"
           x="160.23633"
           y="868.88562"
           id="text1392"><tspan
             sodipodi:role="line"
             id="tspan1394"
             x="160.23633"
             y="868.88562">+x</tspan></text>
        <text
           xml:space="preserve"
           style="font-size:12px;font-style:normal;font-weight:normal;fill:black;fill-opacity:1;stroke:none;stroke-width:1px;stroke-linecap:butt;stroke-linejoin:miter;stroke-opacity:1;font-family:Bitstream Vera Sans"
           x="49.728516"
           y="983.88562"
           id="text1396"><tspan
             sodipodi:role="line"
             id="tspan1398"
             x="49.728516"
             y="983.88562">+y</tspan></text>
      </g>
    </g>
    <g
       id="g2350"
       transform="translate(-14.61782,70.38672)"
       inkscape:export-filename="/home/ahoward/projects-dgc/dgc/projects/ahoward/arch/path4253.png"
       inkscape:export-xdpi="90"
       inkscape:export-ydpi="90">
      <text
         xml:space="preserve"
         style="font-size:12px;font-style:normal;font-weight:normal;fill:black;fill-opacity:1;stroke:none;stroke-width:1px;stroke-linecap:butt;stroke-linejoin:miter;stroke-opacity:1;font-family:Bitstream Vera Sans"
         x="66.326172"
         y="418.47937"
         id="text10556"><tspan
           sodipodi:role="line"
           id="tspan10558"
           x="66.326172"
           y="418.47937">Origin of global frame</tspan></text>
      <g
         id="g2341">
        <g
           id="g2312"
           transform="matrix(-8.852539e-8,-1,-0.982709,8.69947e-8,836.8787,650.6157)">
          <path
             id="path2314"
             d="M 249.89454,782.36218 L 378.5,782.36218"
             style="opacity:1;fill:none;fill-opacity:1;fill-rule:evenodd;stroke:red;stroke-width:2;stroke-linecap:butt;stroke-linejoin:miter;marker-start:none;marker-end:url(#Arrow1Mend);stroke-miterlimit:4;stroke-dasharray:none;stroke-opacity:1" />
          <path
             id="path2316"
             d="M 250.02929,782.46766 L 250.02929,653.86218"
             style="opacity:1;fill:none;fill-opacity:1;fill-rule:evenodd;stroke:#01ff00;stroke-width:2;stroke-linecap:butt;stroke-linejoin:miter;marker-start:none;marker-end:url(#Arrow1Mend);stroke-miterlimit:4;stroke-dasharray:none;stroke-opacity:1" />
        </g>
        <text
           xml:space="preserve"
           style="font-size:12px;font-style:normal;font-weight:normal;fill:black;fill-opacity:1;stroke:none;stroke-width:1px;stroke-linecap:butt;stroke-linejoin:miter;stroke-opacity:1;font-family:Bitstream Vera Sans"
           x="121.72852"
           y="390.47937"
           id="text2333"><tspan
             sodipodi:role="line"
             id="tspan2335"
             x="121.72852"
             y="390.47937">+y, eastings</tspan></text>
        <text
           xml:space="preserve"
           style="font-size:11.99999809px;font-style:normal;font-weight:normal;fill:black;fill-opacity:1;stroke:none;stroke-width:1px;stroke-linecap:butt;stroke-linejoin:miter;stroke-opacity:1;font-family:Bitstream Vera Sans"
           x="-342.63367"
           y="85.117165"
           id="text2337"
           transform="matrix(-8.852537e-8,-1,1,-8.852537e-8,0,0)"><tspan
             sodipodi:role="line"
             id="tspan2339"
             x="-342.63367"
             y="85.117165">+x, northings</tspan></text>
      </g>
    </g>
    <g
       id="g4205"
       transform="matrix(0.665027,0.178194,-0.178194,0.665027,707.0198,-12.57352)"
       inkscape:export-filename="/home/ahoward/projects-dgc/dgc/projects/ahoward/arch/path4253.png"
       inkscape:export-xdpi="90"
       inkscape:export-ydpi="90">
      <text
         id="text2388"
         y="864.20435"
         x="73.459496"
         style="font-size:12.00000381px;font-style:normal;font-weight:normal;fill:black;fill-opacity:1;stroke:none;stroke-width:1px;stroke-linecap:butt;stroke-linejoin:miter;stroke-opacity:1;font-family:Bitstream Vera Sans"
         xml:space="preserve"><tspan
           y="864.20435"
           x="73.459496"
           id="tspan2390"
           sodipodi:role="line">Origin of camera frame</tspan></text>
      <g
         id="g4197">
        <path
           style="fill:none;fill-opacity:1;fill-rule:evenodd;stroke:#0100ff;stroke-width:1.98263359;stroke-linecap:butt;stroke-linejoin:miter;marker-start:none;marker-end:url(#Arrow1Mend);stroke-miterlimit:4;stroke-dasharray:none;stroke-opacity:1"
           d="M 74.03214,872.48664 L 202.6376,872.48664"
           id="path2396" />
        <path
           style="fill:none;fill-opacity:1;fill-rule:evenodd;stroke:red;stroke-width:1.98263359;stroke-linecap:butt;stroke-linejoin:miter;marker-start:none;marker-end:url(#Arrow1Mend);stroke-miterlimit:4;stroke-dasharray:none;stroke-opacity:1"
           d="M 74.16689,872.38299 L 74.16689,998.76475"
           id="path2398" />
        <text
           xml:space="preserve"
           style="font-size:12px;font-style:normal;font-weight:normal;fill:black;fill-opacity:1;stroke:none;stroke-width:1px;stroke-linecap:butt;stroke-linejoin:miter;stroke-opacity:1;font-family:Bitstream Vera Sans"
           x="193.36961"
           y="889.61053"
           id="text2400"><tspan
             sodipodi:role="line"
             id="tspan2402"
             x="193.36961"
             y="889.61053">+z</tspan></text>
        <text
           xml:space="preserve"
           style="font-size:12px;font-style:normal;font-weight:normal;fill:black;fill-opacity:1;stroke:none;stroke-width:1px;stroke-linecap:butt;stroke-linejoin:miter;stroke-opacity:1;font-family:Bitstream Vera Sans"
           x="82.861794"
           y="1004.6105"
           id="text2404"><tspan
             sodipodi:role="line"
             id="tspan2406"
             x="82.861794"
             y="1004.6105">+x</tspan></text>
      </g>
    </g>
    <g
       id="g4229"
       transform="matrix(0.486835,-0.486834,0.486834,0.486835,105.6304,68.08266)"
       inkscape:export-filename="/home/ahoward/projects-dgc/dgc/projects/ahoward/arch/path4253.png"
       inkscape:export-xdpi="90"
       inkscape:export-ydpi="90">
      <text
         id="text4231"
         y="864.20435"
         x="73.459496"
         style="font-size:12.00000381px;font-style:normal;font-weight:normal;fill:black;fill-opacity:1;stroke:none;stroke-width:1px;stroke-linecap:butt;stroke-linejoin:miter;stroke-opacity:1;font-family:Bitstream Vera Sans"
         xml:space="preserve"><tspan
           y="864.20435"
           x="73.459496"
           id="tspan4233"
           sodipodi:role="line">Origin of camera frame</tspan></text>
      <g
         id="g4235">
        <path
           style="fill:none;fill-opacity:1;fill-rule:evenodd;stroke:#0100ff;stroke-width:1.98263359;stroke-linecap:butt;stroke-linejoin:miter;marker-start:none;marker-end:url(#Arrow1Mend);stroke-miterlimit:4;stroke-dasharray:none;stroke-opacity:1"
           d="M 74.03214,872.48664 L 202.6376,872.48664"
           id="path4237" />
        <path
           style="fill:none;fill-opacity:1;fill-rule:evenodd;stroke:red;stroke-width:1.98263359;stroke-linecap:butt;stroke-linejoin:miter;marker-start:none;marker-end:url(#Arrow1Mend);stroke-miterlimit:4;stroke-dasharray:none;stroke-opacity:1"
           d="M 74.16689,872.38299 L 74.16689,998.76475"
           id="path4239" />
        <text
           xml:space="preserve"
           style="font-size:12px;font-style:normal;font-weight:normal;fill:black;fill-opacity:1;stroke:none;stroke-width:1px;stroke-linecap:butt;stroke-linejoin:miter;stroke-opacity:1;font-family:Bitstream Vera Sans"
           x="193.36961"
           y="889.61053"
           id="text4241"><tspan
             sodipodi:role="line"
             id="tspan4243"
             x="193.36961"
             y="889.61053">+z</tspan></text>
        <text
           xml:space="preserve"
           style="font-size:12px;font-style:normal;font-weight:normal;fill:black;fill-opacity:1;stroke:none;stroke-width:1px;stroke-linecap:butt;stroke-linejoin:miter;stroke-opacity:1;font-family:Bitstream Vera Sans"
           x="82.861794"
           y="1004.6105"
           id="text4245"><tspan
             sodipodi:role="line"
             id="tspan4247"
             x="82.861794"
             y="1004.6105">+x</tspan></text>
      </g>
    </g>
    <path
       style="fill:none;fill-opacity:0.75;fill-rule:evenodd;stroke:#7a7a7a;stroke-width:1.5;stroke-linecap:butt;stroke-linejoin:miter;marker-mid:none;stroke-miterlimit:4;stroke-dasharray:1.5, 1.5;stroke-dashoffset:0;stroke-opacity:1"
       d="M 38,655.36218 C 201.70293,561.1195 223.35712,553.26589 293.96234,573.358 C 376.39024,596.81448 391.98746,575.06929 457.53139,558.71364"
       id="path4253"
       sodipodi:nodetypes="csc"
       inkscape:export-xdpi="90"
       inkscape:export-ydpi="90" />
  </g>
</svg>
