0.164404 539 0
0.314412 559 0
0.504399 554 0
0.684364 568 0
1.15437 581 0
2.15437 584 0
3.15437 594 1.06452
4.15437 604 1.06452
5.15437 620 1.06452
6.15438 640 1.06452
7.14436 629 1.06452
8.15437 640 1.06452
9.16436 630 1.06452
10.1644 629 1.06452
11.1644 634 1.06452
12.1644 633 1.06452
13.1644 632 1.06452
14.1544 637 1.06452
15.1544 625 1.06452
