%!PS-Adobe-2.0 EPSF-2.0
%%Title: /home/lindzey/reports/finalPaper/OverallArchitecture.dia
%%Creator: Dia v0.95-1
%%CreationDate: Thu Aug 17 00:32:01 2006
%%For: lindzey
%%Orientation: Portrait
%%Magnification: 1.0000
%%BoundingBox: 0 0 1105 643
%%BeginSetup
%%EndSetup
%%EndComments
%%BeginProlog
[ /.notdef /.notdef /.notdef /.notdef /.notdef /.notdef /.notdef /.notdef /.notdef /.notdef
/.notdef /.notdef /.notdef /.notdef /.notdef /.notdef /.notdef /.notdef /.notdef /.notdef
/.notdef /.notdef /.notdef /.notdef /.notdef /.notdef /.notdef /.notdef /.notdef /.notdef
/.notdef /.notdef /space /exclam /quotedbl /numbersign /dollar /percent /ampersand /quoteright
/parenleft /parenright /asterisk /plus /comma /hyphen /period /slash /zero /one
/two /three /four /five /six /seven /eight /nine /colon /semicolon
/less /equal /greater /question /at /A /B /C /D /E
/F /G /H /I /J /K /L /M /N /O
/P /Q /R /S /T /U /V /W /X /Y
/Z /bracketleft /backslash /bracketright /asciicircum /underscore /quoteleft /a /b /c
/d /e /f /g /h /i /j /k /l /m
/n /o /p /q /r /s /t /u /v /w
/x /y /z /braceleft /bar /braceright /asciitilde /.notdef /.notdef /.notdef
/.notdef /.notdef /.notdef /.notdef /.notdef /.notdef /.notdef /.notdef /.notdef /.notdef
/.notdef /.notdef /.notdef /.notdef /.notdef /.notdef /.notdef /.notdef /.notdef /.notdef
/.notdef /.notdef /.notdef /.notdef /.notdef /.notdef /.notdef /.notdef /.notdef /.notdef
/space /exclamdown /cent /sterling /currency /yen /brokenbar /section /dieresis /copyright
/ordfeminine /guillemotleft /logicalnot /hyphen /registered /macron /degree /plusminus /twosuperior /threesuperior
/acute /mu /paragraph /periodcentered /cedilla /onesuperior /ordmasculine /guillemotright /onequarter /onehalf
/threequarters /questiondown /Agrave /Aacute /Acircumflex /Atilde /Adieresis /Aring /AE /Ccedilla
/Egrave /Eacute /Ecircumflex /Edieresis /Igrave /Iacute /Icircumflex /Idieresis /Eth /Ntilde
/Ograve /Oacute /Ocircumflex /Otilde /Odieresis /multiply /Oslash /Ugrave /Uacute /Ucircumflex
/Udieresis /Yacute /Thorn /germandbls /agrave /aacute /acircumflex /atilde /adieresis /aring
/ae /ccedilla /egrave /eacute /ecircumflex /edieresis /igrave /iacute /icircumflex /idieresis
/eth /ntilde /ograve /oacute /ocircumflex /otilde /odieresis /divide /oslash /ugrave
/uacute /ucircumflex /udieresis /yacute /thorn /ydieresis] /isolatin1encoding exch def
/cp {closepath} bind def
/c {curveto} bind def
/f {fill} bind def
/a {arc} bind def
/ef {eofill} bind def
/ex {exch} bind def
/gr {grestore} bind def
/gs {gsave} bind def
/sa {save} bind def
/rs {restore} bind def
/l {lineto} bind def
/m {moveto} bind def
/rm {rmoveto} bind def
/n {newpath} bind def
/s {stroke} bind def
/sh {show} bind def
/slc {setlinecap} bind def
/slj {setlinejoin} bind def
/slw {setlinewidth} bind def
/srgb {setrgbcolor} bind def
/rot {rotate} bind def
/sc {scale} bind def
/sd {setdash} bind def
/ff {findfont} bind def
/sf {setfont} bind def
/scf {scalefont} bind def
/sw {stringwidth pop} bind def
/tr {translate} bind def

/ellipsedict 8 dict def
ellipsedict /mtrx matrix put
/ellipse
{ ellipsedict begin
   /endangle exch def
   /startangle exch def
   /yrad exch def
   /xrad exch def
   /y exch def
   /x exch def   /savematrix mtrx currentmatrix def
   x y tr xrad yrad sc
   0 0 1 startangle endangle arc
   savematrix setmatrix
   end
} def

/mergeprocs {
dup length
3 -1 roll
dup
length
dup
5 1 roll
3 -1 roll
add
array cvx
dup
3 -1 roll
0 exch
putinterval
dup
4 2 roll
putinterval
} bind def
/dpi_x 300 def
/dpi_y 300 def
/conicto {
    /to_y exch def
    /to_x exch def
    /conic_cntrl_y exch def
    /conic_cntrl_x exch def
    currentpoint
    /p0_y exch def
    /p0_x exch def
    /p1_x p0_x conic_cntrl_x p0_x sub 2 3 div mul add def
    /p1_y p0_y conic_cntrl_y p0_y sub 2 3 div mul add def
    /p2_x p1_x to_x p0_x sub 1 3 div mul add def
    /p2_y p1_y to_y p0_y sub 1 3 div mul add def
    p1_x p1_y p2_x p2_y to_x to_y curveto
} bind def
/start_ol { gsave 1.1 dpi_x div dup scale} bind def
/end_ol { closepath fill grestore } bind def
28.346000 -28.346000 scale
-13.250000 -24.620000 translate
%%EndProlog


0.117647 0.564706 1.000000 srgb
n 43.800000 13.900000 m 43.800000 17.600000 l 49.750000 17.600000 l 49.750000 13.900000 l f
n 43.800000 13.900000 m 43.800000 13.900000 0.000000 0.000000 180.000000 270.000000 ellipse f
n 49.750000 13.900000 m 49.750000 13.900000 0.000000 0.000000 270.000000 360.000000 ellipse f
n 43.800000 13.900000 m 43.800000 17.600000 l 49.750000 17.600000 l 49.750000 13.900000 l f
n 43.800000 17.600000 m 43.800000 17.600000 0.000000 0.000000 90.000000 180.000000 ellipse f
n 49.750000 17.600000 m 49.750000 17.600000 0.000000 0.000000 0.000000 90.000000 ellipse f
0.100000 slw
[] 0 sd
[] 0 sd
0 slj
0.000000 0.000000 0.000000 srgb
n 43.800000 13.900000 m 49.750000 13.900000 l s
n 43.800000 17.600000 m 49.750000 17.600000 l s
n 43.800000 13.900000 0.000000 0.000000 180.000000 270.000000 ellipse s
n 49.750000 13.900000 0.000000 0.000000 270.000000 360.000000 ellipse s
n 43.800000 13.900000 m 43.800000 17.600000 l s
n 49.750000 13.900000 m 49.750000 17.600000 l s
n 43.800000 17.600000 0.000000 0.000000 90.000000 180.000000 ellipse s
n 49.750000 17.600000 0.000000 0.000000 0.000000 90.000000 ellipse s
0.678431 0.847059 0.901961 srgb
n 23.650000 18.850000 m 23.650000 20.950000 l 29.800000 20.950000 l 29.800000 18.850000 l f
n 23.650000 18.850000 m 23.650000 18.850000 0.000000 0.000000 180.000000 270.000000 ellipse f
n 29.800000 18.850000 m 29.800000 18.850000 0.000000 0.000000 270.000000 360.000000 ellipse f
n 23.650000 18.850000 m 23.650000 20.950000 l 29.800000 20.950000 l 29.800000 18.850000 l f
n 23.650000 20.950000 m 23.650000 20.950000 0.000000 0.000000 90.000000 180.000000 ellipse f
n 29.800000 20.950000 m 29.800000 20.950000 0.000000 0.000000 0.000000 90.000000 ellipse f
0.100000 slw
[] 0 sd
[] 0 sd
0 slj
0.000000 0.000000 0.000000 srgb
n 23.650000 18.850000 m 29.800000 18.850000 l s
n 23.650000 20.950000 m 29.800000 20.950000 l s
n 23.650000 18.850000 0.000000 0.000000 180.000000 270.000000 ellipse s
n 29.800000 18.850000 0.000000 0.000000 270.000000 360.000000 ellipse s
n 23.650000 18.850000 m 23.650000 20.950000 l s
n 29.800000 18.850000 m 29.800000 20.950000 l s
n 23.650000 20.950000 0.000000 0.000000 90.000000 180.000000 ellipse s
n 29.800000 20.950000 0.000000 0.000000 0.000000 90.000000 ellipse s
gsave 27.350000 3.425000 translate 0.035278 -0.035278 scale
start_ol
1600 2882 moveto
985 1216 lineto
2218 1216 lineto
1600 2882 lineto
1344 3328 moveto
1858 3328 lineto
3136 0 lineto
2665 0 lineto
2360 832 lineto
847 832 lineto
542 0 lineto
64 0 lineto
1344 3328 lineto
end_ol grestore 
gsave 27.764867 3.425000 translate 0.035278 -0.035278 scale
start_ol
2496 3200 moveto
2496 2752 lineto
2234 2882 2001 2945 conicto
1768 3008 1552 3008 conicto
1175 3008 971 2863 conicto
768 2718 768 2452 conicto
768 2228 905 2113 conicto
1042 1999 1426 1929 conicto
1708 1873 lineto
2210 1778 2449 1540 conicto
2688 1303 2688 903 conicto
2688 427 2358 181 conicto
2029 -64 1392 -64 conicto
1152 -64 881 -15 conicto
610 33 320 128 conicto
320 576 lineto
603 448 875 384 conicto
1147 320 1409 320 conicto
1807 320 2023 465 conicto
2240 610 2240 878 conicto
2240 1113 2084 1245 conicto
1928 1378 1572 1444 conicto
1288 1497 lineto
776 1599 548 1817 conicto
320 2035 320 2424 conicto
320 2874 636 3133 conicto
952 3392 1507 3392 conicto
1744 3392 1991 3344 conicto
2238 3297 2496 3200 conicto
end_ol grestore 
gsave 28.154333 3.425000 translate 0.035278 -0.035278 scale
start_ol
832 3200 moveto
832 2496 lineto
1664 2496 lineto
1664 2176 lineto
832 2176 lineto
832 804 lineto
832 495 914 407 conicto
997 320 1248 320 conicto
1664 320 lineto
1664 0 lineto
1248 0 lineto
793 0 620 173 conicto
448 347 448 804 conicto
448 2176 lineto
128 2176 lineto
128 2496 lineto
448 2496 lineto
448 3200 lineto
832 3200 lineto
end_ol grestore 
gsave 28.391400 3.425000 translate 0.035278 -0.035278 scale
start_ol
1559 1280 moveto
1040 1280 840 1160 conicto
640 1041 640 754 conicto
640 525 790 390 conicto
940 256 1198 256 conicto
1554 256 1769 510 conicto
1984 765 1984 1187 conicto
1984 1280 lineto
1559 1280 lineto
2368 1449 moveto
2368 0 lineto
1984 0 lineto
1984 384 lineto
1842 154 1628 45 conicto
1415 -64 1107 -64 conicto
717 -64 486 154 conicto
256 372 256 739 conicto
256 1166 539 1383 conicto
822 1600 1384 1600 conicto
1984 1600 lineto
1984 1641 lineto
1984 1927 1796 2083 conicto
1608 2240 1266 2240 conicto
1049 2240 843 2192 conicto
638 2144 448 2048 conicto
448 2432 lineto
673 2496 884 2528 conicto
1095 2560 1295 2560 conicto
1835 2560 2101 2284 conicto
2368 2009 2368 1449 conicto
end_ol grestore 
gsave 28.763933 3.425000 translate 0.035278 -0.035278 scale
start_ol
832 3200 moveto
832 2496 lineto
1664 2496 lineto
1664 2176 lineto
832 2176 lineto
832 804 lineto
832 495 914 407 conicto
997 320 1248 320 conicto
1664 320 lineto
1664 0 lineto
1248 0 lineto
793 0 620 173 conicto
448 347 448 804 conicto
448 2176 lineto
128 2176 lineto
128 2496 lineto
448 2496 lineto
448 3200 lineto
832 3200 lineto
end_ol grestore 
gsave 29.001000 3.425000 translate 0.035278 -0.035278 scale
start_ol
2624 1352 moveto
2624 1152 lineto
704 1152 lineto
731 715 960 485 conicto
1189 256 1597 256 conicto
1834 256 2056 320 conicto
2278 384 2496 512 conicto
2496 128 lineto
2273 34 2039 -15 conicto
1805 -64 1565 -64 conicto
961 -64 608 284 conicto
256 632 256 1225 conicto
256 1839 595 2199 conicto
934 2560 1509 2560 conicto
2024 2560 2324 2235 conicto
2624 1910 2624 1352 conicto
2240 1472 moveto
2235 1822 2043 2031 conicto
1852 2240 1537 2240 conicto
1180 2240 965 2038 conicto
750 1836 718 1470 conicto
2240 1472 lineto
end_ol grestore 
gsave 29.373533 3.425000 translate 0.035278 -0.035278 scale
start_ol
end_ol grestore 
gsave 29.568267 3.425000 translate 0.035278 -0.035278 scale
start_ol
2112 2112 moveto
2112 3520 lineto
2496 3520 lineto
2496 0 lineto
2112 0 lineto
2112 384 lineto
1980 156 1779 46 conicto
1578 -64 1297 -64 conicto
835 -64 545 297 conicto
256 659 256 1248 conicto
256 1837 545 2198 conicto
835 2560 1297 2560 conicto
1578 2560 1779 2450 conicto
1980 2340 2112 2112 conicto
704 1249 moveto
704 784 891 520 conicto
1079 256 1407 256 conicto
1735 256 1923 520 conicto
2112 784 2112 1249 conicto
2112 1713 1923 1976 conicto
1735 2240 1407 2240 conicto
1079 2240 891 1976 conicto
704 1713 704 1249 conicto
end_ol grestore 
gsave 29.957733 3.425000 translate 0.035278 -0.035278 scale
start_ol
1559 1280 moveto
1040 1280 840 1160 conicto
640 1041 640 754 conicto
640 525 790 390 conicto
940 256 1198 256 conicto
1554 256 1769 510 conicto
1984 765 1984 1187 conicto
1984 1280 lineto
1559 1280 lineto
2368 1449 moveto
2368 0 lineto
1984 0 lineto
1984 384 lineto
1842 154 1628 45 conicto
1415 -64 1107 -64 conicto
717 -64 486 154 conicto
256 372 256 739 conicto
256 1166 539 1383 conicto
822 1600 1384 1600 conicto
1984 1600 lineto
1984 1641 lineto
1984 1927 1796 2083 conicto
1608 2240 1266 2240 conicto
1049 2240 843 2192 conicto
638 2144 448 2048 conicto
448 2432 lineto
673 2496 884 2528 conicto
1095 2560 1295 2560 conicto
1835 2560 2101 2284 conicto
2368 2009 2368 1449 conicto
end_ol grestore 
gsave 30.330267 3.425000 translate 0.035278 -0.035278 scale
start_ol
832 3200 moveto
832 2496 lineto
1664 2496 lineto
1664 2176 lineto
832 2176 lineto
832 804 lineto
832 495 914 407 conicto
997 320 1248 320 conicto
1664 320 lineto
1664 0 lineto
1248 0 lineto
793 0 620 173 conicto
448 347 448 804 conicto
448 2176 lineto
128 2176 lineto
128 2496 lineto
448 2496 lineto
448 3200 lineto
832 3200 lineto
end_ol grestore 
gsave 30.567333 3.425000 translate 0.035278 -0.035278 scale
start_ol
1559 1280 moveto
1040 1280 840 1160 conicto
640 1041 640 754 conicto
640 525 790 390 conicto
940 256 1198 256 conicto
1554 256 1769 510 conicto
1984 765 1984 1187 conicto
1984 1280 lineto
1559 1280 lineto
2368 1449 moveto
2368 0 lineto
1984 0 lineto
1984 384 lineto
1842 154 1628 45 conicto
1415 -64 1107 -64 conicto
717 -64 486 154 conicto
256 372 256 739 conicto
256 1166 539 1383 conicto
822 1600 1384 1600 conicto
1984 1600 lineto
1984 1641 lineto
1984 1927 1796 2083 conicto
1608 2240 1266 2240 conicto
1049 2240 843 2192 conicto
638 2144 448 2048 conicto
448 2432 lineto
673 2496 884 2528 conicto
1095 2560 1295 2560 conicto
1835 2560 2101 2284 conicto
2368 2009 2368 1449 conicto
end_ol grestore 
0.678431 0.847059 0.901961 srgb
n 15.000000 2.000000 m 15.000000 4.850000 l 39.700000 4.850000 l 39.700000 2.000000 l f
n 15.000000 2.000000 m 15.000000 2.000000 0.000000 0.000000 180.000000 270.000000 ellipse f
n 39.700000 2.000000 m 39.700000 2.000000 0.000000 0.000000 270.000000 360.000000 ellipse f
n 15.000000 2.000000 m 15.000000 4.850000 l 39.700000 4.850000 l 39.700000 2.000000 l f
n 15.000000 4.850000 m 15.000000 4.850000 0.000000 0.000000 90.000000 180.000000 ellipse f
n 39.700000 4.850000 m 39.700000 4.850000 0.000000 0.000000 0.000000 90.000000 ellipse f
0.100000 slw
[] 0 sd
[] 0 sd
0 slj
0.000000 0.000000 0.000000 srgb
n 15.000000 2.000000 m 39.700000 2.000000 l s
n 15.000000 4.850000 m 39.700000 4.850000 l s
n 15.000000 2.000000 0.000000 0.000000 180.000000 270.000000 ellipse s
n 39.700000 2.000000 0.000000 0.000000 270.000000 360.000000 ellipse s
n 15.000000 2.000000 m 15.000000 4.850000 l s
n 39.700000 2.000000 m 39.700000 4.850000 l s
n 15.000000 4.850000 0.000000 0.000000 90.000000 180.000000 ellipse s
n 39.700000 4.850000 0.000000 0.000000 0.000000 90.000000 ellipse s
0.117647 0.564706 1.000000 srgb
n 30.550000 8.700000 m 30.550000 12.150000 l 38.000000 12.150000 l 38.000000 8.700000 l f
n 30.550000 8.700000 m 30.550000 8.700000 0.000000 0.000000 180.000000 270.000000 ellipse f
n 38.000000 8.700000 m 38.000000 8.700000 0.000000 0.000000 270.000000 360.000000 ellipse f
n 30.550000 8.700000 m 30.550000 12.150000 l 38.000000 12.150000 l 38.000000 8.700000 l f
n 30.550000 12.150000 m 30.550000 12.150000 0.000000 0.000000 90.000000 180.000000 ellipse f
n 38.000000 12.150000 m 38.000000 12.150000 0.000000 0.000000 0.000000 90.000000 ellipse f
0.100000 slw
[] 0 sd
[] 0 sd
0 slj
0.000000 0.000000 0.000000 srgb
n 30.550000 8.700000 m 38.000000 8.700000 l s
n 30.550000 12.150000 m 38.000000 12.150000 l s
n 30.550000 8.700000 0.000000 0.000000 180.000000 270.000000 ellipse s
n 38.000000 8.700000 0.000000 0.000000 270.000000 360.000000 ellipse s
n 30.550000 8.700000 m 30.550000 12.150000 l s
n 38.000000 8.700000 m 38.000000 12.150000 l s
n 30.550000 12.150000 0.000000 0.000000 90.000000 180.000000 ellipse s
n 38.000000 12.150000 0.000000 0.000000 0.000000 90.000000 ellipse s
gsave 31.200000 10.050000 translate 0.035278 -0.035278 scale
start_ol
end_ol grestore 
gsave 31.487867 10.050000 translate 0.035278 -0.035278 scale
start_ol
end_ol grestore 
gsave 31.775733 10.050000 translate 0.035278 -0.035278 scale
start_ol
end_ol grestore 
gsave 32.063600 10.050000 translate 0.035278 -0.035278 scale
start_ol
end_ol grestore 
gsave 32.351467 10.050000 translate 0.035278 -0.035278 scale
start_ol
1344 4480 moveto
1344 576 lineto
2162 576 lineto
3198 576 3679 1046 conicto
4160 1517 4160 2533 conicto
4160 3542 3679 4011 conicto
3198 4480 2162 4480 conicto
1344 4480 lineto
640 5056 moveto
2058 5056 lineto
3508 5056 4186 4445 conicto
4864 3834 4864 2534 conicto
4864 1226 4182 613 conicto
3501 0 2058 0 conicto
640 0 lineto
640 5056 lineto
end_ol grestore 
gsave 33.054200 10.050000 translate 0.035278 -0.035278 scale
start_ol
2184 -332 moveto
1922 -1000 1673 -1204 conicto
1424 -1408 1007 -1408 conicto
512 -1408 lineto
512 -896 lineto
875 -896 lineto
1131 -896 1272 -777 conicto
1413 -659 1585 -218 conicto
1696 65 lineto
192 3776 lineto
828 3776 lineto
2006 823 lineto
3184 3776 lineto
3840 3776 lineto
2184 -332 lineto
end_ol grestore 
gsave 33.596067 10.050000 translate 0.035278 -0.035278 scale
start_ol
3776 2287 moveto
3776 0 lineto
3136 0 lineto
3136 2266 lineto
3136 2831 2933 3111 conicto
2731 3392 2327 3392 conicto
1841 3392 1560 3056 conicto
1280 2721 1280 2141 conicto
1280 0 lineto
640 0 lineto
640 3776 lineto
1280 3776 lineto
1280 3200 lineto
1499 3554 1795 3729 conicto
2092 3904 2480 3904 conicto
3119 3904 3447 3494 conicto
3776 3084 3776 2287 conicto
end_ol grestore 
gsave 34.171800 10.050000 translate 0.035278 -0.035278 scale
start_ol
2336 1856 moveto
1596 1856 1310 1684 conicto
1024 1513 1024 1100 conicto
1024 770 1238 577 conicto
1453 384 1821 384 conicto
2330 384 2637 749 conicto
2944 1115 2944 1723 conicto
2944 1856 lineto
2336 1856 lineto
3584 2127 moveto
3584 0 lineto
2944 0 lineto
2944 576 lineto
2732 216 2416 44 conicto
2101 -128 1644 -128 conicto
1066 -128 725 199 conicto
384 527 384 1076 conicto
384 1717 811 2042 conicto
1239 2368 2087 2368 conicto
2944 2368 lineto
2944 2434 lineto
2944 2892 2661 3142 conicto
2378 3392 1867 3392 conicto
1542 3392 1233 3311 conicto
924 3231 640 3072 conicto
640 3648 lineto
984 3776 1307 3840 conicto
1631 3904 1938 3904 conicto
2766 3904 3175 3463 conicto
3584 3023 3584 2127 conicto
end_ol grestore 
gsave 34.730600 10.050000 translate 0.035278 -0.035278 scale
start_ol
3604 3061 moveto
3836 3493 4158 3698 conicto
4481 3904 4918 3904 conicto
5506 3904 5825 3483 conicto
6144 3062 6144 2287 conicto
6144 0 lineto
5504 0 lineto
5504 2266 lineto
5504 2838 5315 3115 conicto
5126 3392 4737 3392 conicto
4262 3392 3987 3056 conicto
3712 2721 3712 2141 conicto
3712 0 lineto
3072 0 lineto
3072 2266 lineto
3072 2842 2883 3117 conicto
2694 3392 2298 3392 conicto
1830 3392 1555 3055 conicto
1280 2718 1280 2141 conicto
1280 0 lineto
640 0 lineto
640 3776 lineto
1280 3776 lineto
1280 3200 lineto
1491 3560 1786 3732 conicto
2081 3904 2486 3904 conicto
2894 3904 3180 3688 conicto
3467 3473 3604 3061 conicto
end_ol grestore 
gsave 35.619600 10.050000 translate 0.035278 -0.035278 scale
start_ol
640 3776 moveto
1280 3776 lineto
1280 0 lineto
640 0 lineto
640 3776 lineto
640 5248 moveto
1280 5248 lineto
1280 4480 lineto
640 4480 lineto
640 5248 lineto
end_ol grestore 
gsave 35.873600 10.050000 translate 0.035278 -0.035278 scale
start_ol
3392 3648 moveto
3392 3072 lineto
3124 3233 2856 3312 conicto
2588 3392 2314 3392 conicto
1701 3392 1362 2997 conicto
1024 2602 1024 1888 conicto
1024 1174 1362 779 conicto
1701 384 2314 384 conicto
2588 384 2856 464 conicto
3124 544 3392 704 conicto
3392 128 lineto
3131 1 2850 -63 conicto
2570 -128 2255 -128 conicto
1396 -128 890 417 conicto
384 962 384 1889 conicto
384 2827 895 3365 conicto
1406 3904 2296 3904 conicto
2583 3904 2858 3840 conicto
3134 3776 3392 3648 conicto
end_ol grestore 
gsave 31.200000 11.250000 translate 0.035278 -0.035278 scale
start_ol
640 5056 moveto
3520 5056 lineto
3520 4480 lineto
1344 4480 lineto
1344 3008 lineto
3328 3008 lineto
3328 2432 lineto
1344 2432 lineto
1344 0 lineto
640 0 lineto
640 5056 lineto
end_ol grestore 
gsave 31.674133 11.250000 translate 0.035278 -0.035278 scale
start_ol
640 1487 moveto
640 3776 lineto
1280 3776 lineto
1280 1510 lineto
1280 948 1482 666 conicto
1684 384 2087 384 conicto
2573 384 2854 718 conicto
3136 1053 3136 1632 conicto
3136 3776 lineto
3776 3776 lineto
3776 0 lineto
3136 0 lineto
3136 576 lineto
2914 218 2621 45 conicto
2329 -128 1941 -128 conicto
1302 -128 971 283 conicto
640 695 640 1487 conicto
end_ol grestore 
gsave 32.249867 11.250000 translate 0.035278 -0.035278 scale
start_ol
3072 3712 moveto
3072 3136 lineto
2810 3264 2528 3328 conicto
2246 3392 1944 3392 conicto
1485 3392 1254 3249 conicto
1024 3106 1024 2820 conicto
1024 2601 1187 2477 conicto
1350 2353 1843 2241 conicto
2052 2191 lineto
2710 2046 2987 1781 conicto
3264 1516 3264 1042 conicto
3264 502 2848 187 conicto
2433 -128 1706 -128 conicto
1403 -128 1075 -64 conicto
747 0 384 128 conicto
384 768 lineto
726 576 1058 480 conicto
1391 384 1717 384 conicto
2153 384 2388 540 conicto
2624 697 2624 982 conicto
2624 1246 2456 1386 conicto
2288 1527 1720 1657 conicto
1507 1709 lineto
913 1832 648 2085 conicto
384 2339 384 2781 conicto
384 3319 766 3611 conicto
1148 3904 1851 3904 conicto
2199 3904 2506 3856 conicto
2813 3808 3072 3712 conicto
end_ol grestore 
gsave 32.724000 11.250000 translate 0.035278 -0.035278 scale
start_ol
640 3776 moveto
1280 3776 lineto
1280 0 lineto
640 0 lineto
640 3776 lineto
640 5248 moveto
1280 5248 lineto
1280 4480 lineto
640 4480 lineto
640 5248 lineto
end_ol grestore 
gsave 32.978000 11.250000 translate 0.035278 -0.035278 scale
start_ol
2114 3392 moveto
1610 3392 1317 2989 conicto
1024 2587 1024 1888 conicto
1024 1188 1315 786 conicto
1606 384 2114 384 conicto
2614 384 2907 788 conicto
3200 1192 3200 1888 conicto
3200 2580 2907 2986 conicto
2614 3392 2114 3392 conicto
2112 3904 moveto
2919 3904 3379 3369 conicto
3840 2834 3840 1889 conicto
3840 946 3379 409 conicto
2919 -128 2112 -128 conicto
1302 -128 843 409 conicto
384 946 384 1889 conicto
384 2834 843 3369 conicto
1302 3904 2112 3904 conicto
end_ol grestore 
gsave 33.536800 11.250000 translate 0.035278 -0.035278 scale
start_ol
3776 2287 moveto
3776 0 lineto
3136 0 lineto
3136 2266 lineto
3136 2831 2933 3111 conicto
2731 3392 2327 3392 conicto
1841 3392 1560 3056 conicto
1280 2721 1280 2141 conicto
1280 0 lineto
640 0 lineto
640 3776 lineto
1280 3776 lineto
1280 3200 lineto
1499 3554 1795 3729 conicto
2092 3904 2480 3904 conicto
3119 3904 3447 3494 conicto
3776 3084 3776 2287 conicto
end_ol grestore 
gsave 34.112533 11.250000 translate 0.035278 -0.035278 scale
start_ol
end_ol grestore 
gsave 34.400400 11.250000 translate 0.035278 -0.035278 scale
start_ol
640 5056 moveto
1689 5056 lineto
2942 1605 lineto
4202 5056 lineto
5248 5056 lineto
5248 0 lineto
4544 0 lineto
4544 4438 lineto
3277 960 lineto
2610 960 lineto
1344 4438 lineto
1344 0 lineto
640 0 lineto
640 5056 lineto
end_ol grestore 
gsave 35.187800 11.250000 translate 0.035278 -0.035278 scale
start_ol
2336 1856 moveto
1596 1856 1310 1684 conicto
1024 1513 1024 1100 conicto
1024 770 1238 577 conicto
1453 384 1821 384 conicto
2330 384 2637 749 conicto
2944 1115 2944 1723 conicto
2944 1856 lineto
2336 1856 lineto
3584 2127 moveto
3584 0 lineto
2944 0 lineto
2944 576 lineto
2732 216 2416 44 conicto
2101 -128 1644 -128 conicto
1066 -128 725 199 conicto
384 527 384 1076 conicto
384 1717 811 2042 conicto
1239 2368 2087 2368 conicto
2944 2368 lineto
2944 2434 lineto
2944 2892 2661 3142 conicto
2378 3392 1867 3392 conicto
1542 3392 1233 3311 conicto
924 3231 640 3072 conicto
640 3648 lineto
984 3776 1307 3840 conicto
1631 3904 1938 3904 conicto
2766 3904 3175 3463 conicto
3584 3023 3584 2127 conicto
end_ol grestore 
gsave 35.746600 11.250000 translate 0.035278 -0.035278 scale
start_ol
1280 512 moveto
1280 -1408 lineto
640 -1408 lineto
640 3776 lineto
1280 3776 lineto
1280 3264 lineto
1476 3589 1773 3746 conicto
2071 3904 2485 3904 conicto
3173 3904 3602 3349 conicto
4032 2794 4032 1889 conicto
4032 983 3602 427 conicto
3173 -128 2485 -128 conicto
2071 -128 1773 30 conicto
1476 188 1280 512 conicto
3392 1889 moveto
3392 2592 3110 2992 conicto
2828 3392 2336 3392 conicto
1844 3392 1562 2992 conicto
1280 2592 1280 1889 conicto
1280 1185 1562 784 conicto
1844 384 2336 384 conicto
2828 384 3110 784 conicto
3392 1185 3392 1889 conicto
end_ol grestore 
gsave 36.330800 11.250000 translate 0.035278 -0.035278 scale
start_ol
1280 512 moveto
1280 -1408 lineto
640 -1408 lineto
640 3776 lineto
1280 3776 lineto
1280 3264 lineto
1476 3589 1773 3746 conicto
2071 3904 2485 3904 conicto
3173 3904 3602 3349 conicto
4032 2794 4032 1889 conicto
4032 983 3602 427 conicto
3173 -128 2485 -128 conicto
2071 -128 1773 30 conicto
1476 188 1280 512 conicto
3392 1889 moveto
3392 2592 3110 2992 conicto
2828 3392 2336 3392 conicto
1844 3392 1562 2992 conicto
1280 2592 1280 1889 conicto
1280 1185 1562 784 conicto
1844 384 2336 384 conicto
2828 384 3110 784 conicto
3392 1185 3392 1889 conicto
end_ol grestore 
gsave 36.915000 11.250000 translate 0.035278 -0.035278 scale
start_ol
3904 2111 moveto
3904 1792 lineto
1024 1792 lineto
1066 1104 1417 744 conicto
1768 384 2394 384 conicto
2758 384 3099 464 conicto
3440 544 3776 704 conicto
3776 128 lineto
3438 4 3083 -62 conicto
2729 -128 2364 -128 conicto
1451 -128 917 407 conicto
384 942 384 1854 conicto
384 2797 888 3350 conicto
1392 3904 2245 3904 conicto
3012 3904 3458 3422 conicto
3904 2940 3904 2111 conicto
3264 2304 moveto
3257 2800 2978 3096 conicto
2699 3392 2239 3392 conicto
1718 3392 1405 3105 conicto
1092 2819 1045 2300 conicto
3264 2304 lineto
end_ol grestore 
gsave 37.473800 11.250000 translate 0.035278 -0.035278 scale
start_ol
2880 3200 moveto
2774 3265 2650 3296 conicto
2527 3328 2377 3328 conicto
1848 3328 1564 2984 conicto
1280 2640 1280 1995 conicto
1280 0 lineto
640 0 lineto
640 3776 lineto
1280 3776 lineto
1280 3200 lineto
1477 3557 1793 3730 conicto
2109 3904 2561 3904 conicto
2625 3904 2703 3888 conicto
2781 3872 2876 3840 conicto
2880 3200 lineto
end_ol grestore 
0.100000 slw
[] 0 sd
[] 0 sd
0 slc
n 25.626100 4.818200 m 21.238617 8.364015 l s
[] 0 sd
0 slj
0 slc
n 20.946956 8.599725 m 21.178697 8.091005 l 21.238617 8.364015 l 21.492977 8.479885 l ef
n 20.946956 8.599725 m 21.178697 8.091005 l 21.238617 8.364015 l 21.492977 8.479885 l cp s
0.100000 slw
[] 0 sd
[] 0 sd
0 slc
n 29.285800 4.899580 m 33.887748 8.405019 l s
[] 0 sd
0 slj
0 slc
n 34.186061 8.632252 m 33.636822 8.528149 l 33.887748 8.405019 l 33.939800 8.130400 l ef
n 34.186061 8.632252 m 33.636822 8.528149 l 33.887748 8.405019 l 33.939800 8.130400 l cp s
0.100000 slw
[] 0 sd
[] 0 sd
0 slc
n 24.585000 10.395000 m 30.063203 10.422552 l s
[] 0 sd
0 slj
0 slc
n 30.438198 10.424438 m 29.936947 10.671920 l 30.063203 10.422552 l 29.939462 10.171926 l ef
n 30.438198 10.424438 m 29.936947 10.671920 l 30.063203 10.422552 l 29.939462 10.171926 l cp s
0.000000 0.000000 1.000000 srgb
n 17.135000 8.670000 m 17.135000 12.120000 l 24.585000 12.120000 l 24.585000 8.670000 l f
n 17.135000 8.670000 m 17.135000 8.670000 0.000000 0.000000 180.000000 270.000000 ellipse f
n 24.585000 8.670000 m 24.585000 8.670000 0.000000 0.000000 270.000000 360.000000 ellipse f
n 17.135000 8.670000 m 17.135000 12.120000 l 24.585000 12.120000 l 24.585000 8.670000 l f
n 17.135000 12.120000 m 17.135000 12.120000 0.000000 0.000000 90.000000 180.000000 ellipse f
n 24.585000 12.120000 m 24.585000 12.120000 0.000000 0.000000 0.000000 90.000000 ellipse f
0.100000 slw
[] 0 sd
[] 0 sd
0 slj
0.000000 0.000000 0.000000 srgb
n 17.135000 8.670000 m 24.585000 8.670000 l s
n 17.135000 12.120000 m 24.585000 12.120000 l s
n 17.135000 8.670000 0.000000 0.000000 180.000000 270.000000 ellipse s
n 24.585000 8.670000 0.000000 0.000000 270.000000 360.000000 ellipse s
n 17.135000 8.670000 m 17.135000 12.120000 l s
n 24.585000 8.670000 m 24.585000 12.120000 l s
n 17.135000 12.120000 0.000000 0.000000 90.000000 180.000000 ellipse s
n 24.585000 12.120000 0.000000 0.000000 0.000000 90.000000 ellipse s
gsave 17.535000 10.220000 translate 0.035278 -0.035278 scale
start_ol
end_ol grestore 
gsave 17.822867 10.220000 translate 0.035278 -0.035278 scale
start_ol
end_ol grestore 
gsave 18.110733 10.220000 translate 0.035278 -0.035278 scale
start_ol
end_ol grestore 
gsave 18.398600 10.220000 translate 0.035278 -0.035278 scale
start_ol
end_ol grestore 
gsave 18.686467 10.220000 translate 0.035278 -0.035278 scale
start_ol
end_ol grestore 
gsave 18.974333 10.220000 translate 0.035278 -0.035278 scale
start_ol
end_ol grestore 
gsave 19.262200 10.220000 translate 0.035278 -0.035278 scale
start_ol
end_ol grestore 
gsave 19.550067 10.220000 translate 0.035278 -0.035278 scale
start_ol
0 5056 moveto
4288 5056 lineto
4288 4480 lineto
2496 4480 lineto
2496 0 lineto
1792 0 lineto
1792 4480 lineto
0 4480 lineto
0 5056 lineto
end_ol grestore 
gsave 19.973400 10.220000 translate 0.035278 -0.035278 scale
start_ol
2880 3200 moveto
2774 3265 2650 3296 conicto
2527 3328 2377 3328 conicto
1848 3328 1564 2984 conicto
1280 2640 1280 1995 conicto
1280 0 lineto
640 0 lineto
640 3776 lineto
1280 3776 lineto
1280 3200 lineto
1477 3557 1793 3730 conicto
2109 3904 2561 3904 conicto
2625 3904 2703 3888 conicto
2781 3872 2876 3840 conicto
2880 3200 lineto
end_ol grestore 
gsave 20.345933 10.220000 translate 0.035278 -0.035278 scale
start_ol
2336 1856 moveto
1596 1856 1310 1684 conicto
1024 1513 1024 1100 conicto
1024 770 1238 577 conicto
1453 384 1821 384 conicto
2330 384 2637 749 conicto
2944 1115 2944 1723 conicto
2944 1856 lineto
2336 1856 lineto
3584 2127 moveto
3584 0 lineto
2944 0 lineto
2944 576 lineto
2732 216 2416 44 conicto
2101 -128 1644 -128 conicto
1066 -128 725 199 conicto
384 527 384 1076 conicto
384 1717 811 2042 conicto
1239 2368 2087 2368 conicto
2944 2368 lineto
2944 2434 lineto
2944 2892 2661 3142 conicto
2378 3392 1867 3392 conicto
1542 3392 1233 3311 conicto
924 3231 640 3072 conicto
640 3648 lineto
984 3776 1307 3840 conicto
1631 3904 1938 3904 conicto
2766 3904 3175 3463 conicto
3584 3023 3584 2127 conicto
end_ol grestore 
gsave 20.904733 10.220000 translate 0.035278 -0.035278 scale
start_ol
3392 3648 moveto
3392 3072 lineto
3124 3233 2856 3312 conicto
2588 3392 2314 3392 conicto
1701 3392 1362 2997 conicto
1024 2602 1024 1888 conicto
1024 1174 1362 779 conicto
1701 384 2314 384 conicto
2588 384 2856 464 conicto
3124 544 3392 704 conicto
3392 128 lineto
3131 1 2850 -63 conicto
2570 -128 2255 -128 conicto
1396 -128 890 417 conicto
384 962 384 1889 conicto
384 2827 895 3365 conicto
1406 3904 2296 3904 conicto
2583 3904 2858 3840 conicto
3134 3776 3392 3648 conicto
end_ol grestore 
gsave 21.404267 10.220000 translate 0.035278 -0.035278 scale
start_ol
640 5248 moveto
1280 5248 lineto
1280 2148 lineto
3118 3776 lineto
3904 3776 lineto
1916 2010 lineto
3968 0 lineto
3171 0 lineto
1280 1844 lineto
1280 0 lineto
640 0 lineto
640 5248 lineto
end_ol grestore 
gsave 17.535000 11.420000 translate 0.035278 -0.035278 scale
start_ol
640 5056 moveto
1689 5056 lineto
2942 1605 lineto
4202 5056 lineto
5248 5056 lineto
5248 0 lineto
4544 0 lineto
4544 4438 lineto
3277 960 lineto
2610 960 lineto
1344 4438 lineto
1344 0 lineto
640 0 lineto
640 5056 lineto
end_ol grestore 
gsave 18.322400 11.420000 translate 0.035278 -0.035278 scale
start_ol
2114 3392 moveto
1610 3392 1317 2989 conicto
1024 2587 1024 1888 conicto
1024 1188 1315 786 conicto
1606 384 2114 384 conicto
2614 384 2907 788 conicto
3200 1192 3200 1888 conicto
3200 2580 2907 2986 conicto
2614 3392 2114 3392 conicto
2112 3904 moveto
2919 3904 3379 3369 conicto
3840 2834 3840 1889 conicto
3840 946 3379 409 conicto
2919 -128 2112 -128 conicto
1302 -128 843 409 conicto
384 946 384 1889 conicto
384 2834 843 3369 conicto
1302 3904 2112 3904 conicto
end_ol grestore 
gsave 18.881200 11.420000 translate 0.035278 -0.035278 scale
start_ol
192 3776 moveto
844 3776 lineto
2016 607 lineto
3188 3776 lineto
3840 3776 lineto
2434 0 lineto
1597 0 lineto
192 3776 lineto
end_ol grestore 
gsave 19.423067 11.420000 translate 0.035278 -0.035278 scale
start_ol
640 3776 moveto
1280 3776 lineto
1280 0 lineto
640 0 lineto
640 3776 lineto
640 5248 moveto
1280 5248 lineto
1280 4480 lineto
640 4480 lineto
640 5248 lineto
end_ol grestore 
gsave 19.677067 11.420000 translate 0.035278 -0.035278 scale
start_ol
3776 2287 moveto
3776 0 lineto
3136 0 lineto
3136 2266 lineto
3136 2831 2933 3111 conicto
2731 3392 2327 3392 conicto
1841 3392 1560 3056 conicto
1280 2721 1280 2141 conicto
1280 0 lineto
640 0 lineto
640 3776 lineto
1280 3776 lineto
1280 3200 lineto
1499 3554 1795 3729 conicto
2092 3904 2480 3904 conicto
3119 3904 3447 3494 conicto
3776 3084 3776 2287 conicto
end_ol grestore 
gsave 20.252800 11.420000 translate 0.035278 -0.035278 scale
start_ol
3136 1950 moveto
3136 2637 2858 3014 conicto
2580 3392 2078 3392 conicto
1580 3392 1302 3014 conicto
1024 2637 1024 1950 conicto
1024 1267 1302 889 conicto
1580 512 2078 512 conicto
2580 512 2858 889 conicto
3136 1267 3136 1950 conicto
3776 462 moveto
3776 -484 3344 -946 conicto
2913 -1408 2021 -1408 conicto
1692 -1408 1399 -1345 conicto
1107 -1282 832 -1152 conicto
832 -576 lineto
1105 -739 1372 -817 conicto
1640 -896 1916 -896 conicto
2527 -896 2831 -585 conicto
3136 -275 3136 352 conicto
3136 640 lineto
2943 319 2644 159 conicto
2345 0 1927 0 conicto
1233 0 808 534 conicto
384 1069 384 1950 conicto
384 2835 808 3369 conicto
1233 3904 1927 3904 conicto
2345 3904 2644 3744 conicto
2943 3585 3136 3264 conicto
3136 3776 lineto
3776 3776 lineto
3776 462 lineto
end_ol grestore 
gsave 20.837000 11.420000 translate 0.035278 -0.035278 scale
start_ol
end_ol grestore 
gsave 21.124867 11.420000 translate 0.035278 -0.035278 scale
start_ol
2724 4608 moveto
1972 4608 1530 4049 conicto
1088 3491 1088 2525 conicto
1088 1565 1530 1006 conicto
1972 448 2724 448 conicto
3474 448 3913 1006 conicto
4352 1565 4352 2525 conicto
4352 3491 3913 4049 conicto
3474 4608 2724 4608 conicto
2724 5184 moveto
3785 5184 4420 4462 conicto
5056 3740 5056 2526 conicto
5056 1316 4420 594 conicto
3785 -128 2724 -128 conicto
1659 -128 1021 592 conicto
384 1313 384 2526 conicto
384 3740 1021 4462 conicto
1659 5184 2724 5184 conicto
end_ol grestore 
gsave 21.844533 11.420000 translate 0.035278 -0.035278 scale
start_ol
3392 1889 moveto
3392 2592 3110 2992 conicto
2828 3392 2336 3392 conicto
1844 3392 1562 2992 conicto
1280 2592 1280 1889 conicto
1280 1185 1562 784 conicto
1844 384 2336 384 conicto
2828 384 3110 784 conicto
3392 1185 3392 1889 conicto
1280 3264 moveto
1476 3589 1773 3746 conicto
2071 3904 2485 3904 conicto
3173 3904 3602 3349 conicto
4032 2794 4032 1889 conicto
4032 983 3602 427 conicto
3173 -128 2485 -128 conicto
2071 -128 1773 30 conicto
1476 188 1280 512 conicto
1280 0 lineto
640 0 lineto
640 5248 lineto
1280 5248 lineto
1280 3264 lineto
end_ol grestore 
gsave 22.428733 11.420000 translate 0.035278 -0.035278 scale
start_ol
640 3776 moveto
1280 3776 lineto
1280 -56 lineto
1280 -769 1002 -1088 conicto
724 -1408 106 -1408 conicto
-128 -1408 lineto
-128 -896 lineto
40 -896 lineto
388 -896 514 -733 conicto
640 -570 640 -56 conicto
640 3776 lineto
640 5248 moveto
1280 5248 lineto
1280 4480 lineto
640 4480 lineto
640 5248 lineto
end_ol grestore 
gsave 22.682733 11.420000 translate 0.035278 -0.035278 scale
start_ol
3904 2111 moveto
3904 1792 lineto
1024 1792 lineto
1066 1104 1417 744 conicto
1768 384 2394 384 conicto
2758 384 3099 464 conicto
3440 544 3776 704 conicto
3776 128 lineto
3438 4 3083 -62 conicto
2729 -128 2364 -128 conicto
1451 -128 917 407 conicto
384 942 384 1854 conicto
384 2797 888 3350 conicto
1392 3904 2245 3904 conicto
3012 3904 3458 3422 conicto
3904 2940 3904 2111 conicto
3264 2304 moveto
3257 2800 2978 3096 conicto
2699 3392 2239 3392 conicto
1718 3392 1405 3105 conicto
1092 2819 1045 2300 conicto
3264 2304 lineto
end_ol grestore 
gsave 23.241533 11.420000 translate 0.035278 -0.035278 scale
start_ol
3392 3648 moveto
3392 3072 lineto
3124 3233 2856 3312 conicto
2588 3392 2314 3392 conicto
1701 3392 1362 2997 conicto
1024 2602 1024 1888 conicto
1024 1174 1362 779 conicto
1701 384 2314 384 conicto
2588 384 2856 464 conicto
3124 544 3392 704 conicto
3392 128 lineto
3131 1 2850 -63 conicto
2570 -128 2255 -128 conicto
1396 -128 890 417 conicto
384 962 384 1889 conicto
384 2827 895 3365 conicto
1406 3904 2296 3904 conicto
2583 3904 2858 3840 conicto
3134 3776 3392 3648 conicto
end_ol grestore 
gsave 23.741067 11.420000 translate 0.035278 -0.035278 scale
start_ol
1280 4864 moveto
1280 3776 lineto
2560 3776 lineto
2560 3264 lineto
1280 3264 lineto
1280 1230 lineto
1280 772 1406 642 conicto
1533 512 1922 512 conicto
2560 512 lineto
2560 0 lineto
1922 0 lineto
1194 0 917 265 conicto
640 531 640 1230 conicto
640 3264 lineto
192 3264 lineto
192 3776 lineto
640 3776 lineto
640 4864 lineto
1280 4864 lineto
end_ol grestore 
gsave 24.096667 11.420000 translate 0.035278 -0.035278 scale
start_ol
3072 3712 moveto
3072 3136 lineto
2810 3264 2528 3328 conicto
2246 3392 1944 3392 conicto
1485 3392 1254 3249 conicto
1024 3106 1024 2820 conicto
1024 2601 1187 2477 conicto
1350 2353 1843 2241 conicto
2052 2191 lineto
2710 2046 2987 1781 conicto
3264 1516 3264 1042 conicto
3264 502 2848 187 conicto
2433 -128 1706 -128 conicto
1403 -128 1075 -64 conicto
747 0 384 128 conicto
384 768 lineto
726 576 1058 480 conicto
1391 384 1717 384 conicto
2153 384 2388 540 conicto
2624 697 2624 982 conicto
2624 1246 2456 1386 conicto
2288 1527 1720 1657 conicto
1507 1709 lineto
913 1832 648 2085 conicto
384 2339 384 2781 conicto
384 3319 766 3611 conicto
1148 3904 1851 3904 conicto
2199 3904 2506 3856 conicto
2813 3808 3072 3712 conicto
end_ol grestore 
1.000000 1.000000 1.000000 srgb
n 17.450000 2.450000 m 17.450000 4.350000 l 24.050000 4.350000 l 24.050000 2.450000 l f
0.100000 slw
[] 0 sd
[] 0 sd
0 slj
0.000000 0.000000 0.000000 srgb
n 17.450000 2.450000 m 17.450000 4.350000 l 24.050000 4.350000 l 24.050000 2.450000 l cp s
0.117647 0.564706 1.000000 srgb
n 15.250000 14.250000 m 15.250000 17.400000 l 38.200000 17.400000 l 38.200000 14.250000 l f
n 15.250000 14.250000 m 15.250000 14.250000 0.000000 0.000000 180.000000 270.000000 ellipse f
n 38.200000 14.250000 m 38.200000 14.250000 0.000000 0.000000 270.000000 360.000000 ellipse f
n 15.250000 14.250000 m 15.250000 17.400000 l 38.200000 17.400000 l 38.200000 14.250000 l f
n 15.250000 17.400000 m 15.250000 17.400000 0.000000 0.000000 90.000000 180.000000 ellipse f
n 38.200000 17.400000 m 38.200000 17.400000 0.000000 0.000000 0.000000 90.000000 ellipse f
0.100000 slw
[] 0 sd
[] 0 sd
0 slj
0.000000 0.000000 0.000000 srgb
n 15.250000 14.250000 m 38.200000 14.250000 l s
n 15.250000 17.400000 m 38.200000 17.400000 l s
n 15.250000 14.250000 0.000000 0.000000 180.000000 270.000000 ellipse s
n 38.200000 14.250000 0.000000 0.000000 270.000000 360.000000 ellipse s
n 15.250000 14.250000 m 15.250000 17.400000 l s
n 38.200000 14.250000 m 38.200000 17.400000 l s
n 15.250000 17.400000 0.000000 0.000000 90.000000 180.000000 ellipse s
n 38.200000 17.400000 0.000000 0.000000 0.000000 90.000000 ellipse s
gsave 24.450000 16.050000 translate 0.035278 -0.035278 scale
start_ol
1344 4480 moveto
1344 576 lineto
2162 576 lineto
3198 576 3679 1046 conicto
4160 1517 4160 2533 conicto
4160 3542 3679 4011 conicto
3198 4480 2162 4480 conicto
1344 4480 lineto
640 5056 moveto
2058 5056 lineto
3508 5056 4186 4445 conicto
4864 3834 4864 2534 conicto
4864 1226 4182 613 conicto
3501 0 2058 0 conicto
640 0 lineto
640 5056 lineto
end_ol grestore 
gsave 25.152733 16.050000 translate 0.035278 -0.035278 scale
start_ol
2184 -332 moveto
1922 -1000 1673 -1204 conicto
1424 -1408 1007 -1408 conicto
512 -1408 lineto
512 -896 lineto
875 -896 lineto
1131 -896 1272 -777 conicto
1413 -659 1585 -218 conicto
1696 65 lineto
192 3776 lineto
828 3776 lineto
2006 823 lineto
3184 3776 lineto
3840 3776 lineto
2184 -332 lineto
end_ol grestore 
gsave 25.694600 16.050000 translate 0.035278 -0.035278 scale
start_ol
3776 2287 moveto
3776 0 lineto
3136 0 lineto
3136 2266 lineto
3136 2831 2933 3111 conicto
2731 3392 2327 3392 conicto
1841 3392 1560 3056 conicto
1280 2721 1280 2141 conicto
1280 0 lineto
640 0 lineto
640 3776 lineto
1280 3776 lineto
1280 3200 lineto
1499 3554 1795 3729 conicto
2092 3904 2480 3904 conicto
3119 3904 3447 3494 conicto
3776 3084 3776 2287 conicto
end_ol grestore 
gsave 26.270333 16.050000 translate 0.035278 -0.035278 scale
start_ol
2336 1856 moveto
1596 1856 1310 1684 conicto
1024 1513 1024 1100 conicto
1024 770 1238 577 conicto
1453 384 1821 384 conicto
2330 384 2637 749 conicto
2944 1115 2944 1723 conicto
2944 1856 lineto
2336 1856 lineto
3584 2127 moveto
3584 0 lineto
2944 0 lineto
2944 576 lineto
2732 216 2416 44 conicto
2101 -128 1644 -128 conicto
1066 -128 725 199 conicto
384 527 384 1076 conicto
384 1717 811 2042 conicto
1239 2368 2087 2368 conicto
2944 2368 lineto
2944 2434 lineto
2944 2892 2661 3142 conicto
2378 3392 1867 3392 conicto
1542 3392 1233 3311 conicto
924 3231 640 3072 conicto
640 3648 lineto
984 3776 1307 3840 conicto
1631 3904 1938 3904 conicto
2766 3904 3175 3463 conicto
3584 3023 3584 2127 conicto
end_ol grestore 
gsave 26.829133 16.050000 translate 0.035278 -0.035278 scale
start_ol
3604 3061 moveto
3836 3493 4158 3698 conicto
4481 3904 4918 3904 conicto
5506 3904 5825 3483 conicto
6144 3062 6144 2287 conicto
6144 0 lineto
5504 0 lineto
5504 2266 lineto
5504 2838 5315 3115 conicto
5126 3392 4737 3392 conicto
4262 3392 3987 3056 conicto
3712 2721 3712 2141 conicto
3712 0 lineto
3072 0 lineto
3072 2266 lineto
3072 2842 2883 3117 conicto
2694 3392 2298 3392 conicto
1830 3392 1555 3055 conicto
1280 2718 1280 2141 conicto
1280 0 lineto
640 0 lineto
640 3776 lineto
1280 3776 lineto
1280 3200 lineto
1491 3560 1786 3732 conicto
2081 3904 2486 3904 conicto
2894 3904 3180 3688 conicto
3467 3473 3604 3061 conicto
end_ol grestore 
gsave 27.718133 16.050000 translate 0.035278 -0.035278 scale
start_ol
640 3776 moveto
1280 3776 lineto
1280 0 lineto
640 0 lineto
640 3776 lineto
640 5248 moveto
1280 5248 lineto
1280 4480 lineto
640 4480 lineto
640 5248 lineto
end_ol grestore 
gsave 27.972133 16.050000 translate 0.035278 -0.035278 scale
start_ol
3392 3648 moveto
3392 3072 lineto
3124 3233 2856 3312 conicto
2588 3392 2314 3392 conicto
1701 3392 1362 2997 conicto
1024 2602 1024 1888 conicto
1024 1174 1362 779 conicto
1701 384 2314 384 conicto
2588 384 2856 464 conicto
3124 544 3392 704 conicto
3392 128 lineto
3131 1 2850 -63 conicto
2570 -128 2255 -128 conicto
1396 -128 890 417 conicto
384 962 384 1889 conicto
384 2827 895 3365 conicto
1406 3904 2296 3904 conicto
2583 3904 2858 3840 conicto
3134 3776 3392 3648 conicto
end_ol grestore 
gsave 28.471667 16.050000 translate 0.035278 -0.035278 scale
start_ol
end_ol grestore 
gsave 28.759533 16.050000 translate 0.035278 -0.035278 scale
start_ol
1344 4480 moveto
1344 2624 lineto
2202 2624 lineto
2679 2624 2939 2865 conicto
3200 3107 3200 3554 conicto
3200 3997 2939 4238 conicto
2679 4480 2202 4480 conicto
1344 4480 lineto
640 5056 moveto
2202 5056 lineto
3044 5056 3474 4674 conicto
3904 4292 3904 3554 conicto
3904 2809 3474 2428 conicto
3044 2048 2202 2048 conicto
1344 2048 lineto
1344 0 lineto
640 0 lineto
640 5056 lineto
end_ol grestore 
gsave 29.309867 16.050000 translate 0.035278 -0.035278 scale
start_ol
640 5248 moveto
1280 5248 lineto
1280 0 lineto
640 0 lineto
640 5248 lineto
end_ol grestore 
gsave 29.563867 16.050000 translate 0.035278 -0.035278 scale
start_ol
2336 1856 moveto
1596 1856 1310 1684 conicto
1024 1513 1024 1100 conicto
1024 770 1238 577 conicto
1453 384 1821 384 conicto
2330 384 2637 749 conicto
2944 1115 2944 1723 conicto
2944 1856 lineto
2336 1856 lineto
3584 2127 moveto
3584 0 lineto
2944 0 lineto
2944 576 lineto
2732 216 2416 44 conicto
2101 -128 1644 -128 conicto
1066 -128 725 199 conicto
384 527 384 1076 conicto
384 1717 811 2042 conicto
1239 2368 2087 2368 conicto
2944 2368 lineto
2944 2434 lineto
2944 2892 2661 3142 conicto
2378 3392 1867 3392 conicto
1542 3392 1233 3311 conicto
924 3231 640 3072 conicto
640 3648 lineto
984 3776 1307 3840 conicto
1631 3904 1938 3904 conicto
2766 3904 3175 3463 conicto
3584 3023 3584 2127 conicto
end_ol grestore 
gsave 30.122667 16.050000 translate 0.035278 -0.035278 scale
start_ol
3776 2287 moveto
3776 0 lineto
3136 0 lineto
3136 2266 lineto
3136 2831 2933 3111 conicto
2731 3392 2327 3392 conicto
1841 3392 1560 3056 conicto
1280 2721 1280 2141 conicto
1280 0 lineto
640 0 lineto
640 3776 lineto
1280 3776 lineto
1280 3200 lineto
1499 3554 1795 3729 conicto
2092 3904 2480 3904 conicto
3119 3904 3447 3494 conicto
3776 3084 3776 2287 conicto
end_ol grestore 
gsave 30.698400 16.050000 translate 0.035278 -0.035278 scale
start_ol
3776 2287 moveto
3776 0 lineto
3136 0 lineto
3136 2266 lineto
3136 2831 2933 3111 conicto
2731 3392 2327 3392 conicto
1841 3392 1560 3056 conicto
1280 2721 1280 2141 conicto
1280 0 lineto
640 0 lineto
640 3776 lineto
1280 3776 lineto
1280 3200 lineto
1499 3554 1795 3729 conicto
2092 3904 2480 3904 conicto
3119 3904 3447 3494 conicto
3776 3084 3776 2287 conicto
end_ol grestore 
gsave 31.274133 16.050000 translate 0.035278 -0.035278 scale
start_ol
3904 2111 moveto
3904 1792 lineto
1024 1792 lineto
1066 1104 1417 744 conicto
1768 384 2394 384 conicto
2758 384 3099 464 conicto
3440 544 3776 704 conicto
3776 128 lineto
3438 4 3083 -62 conicto
2729 -128 2364 -128 conicto
1451 -128 917 407 conicto
384 942 384 1854 conicto
384 2797 888 3350 conicto
1392 3904 2245 3904 conicto
3012 3904 3458 3422 conicto
3904 2940 3904 2111 conicto
3264 2304 moveto
3257 2800 2978 3096 conicto
2699 3392 2239 3392 conicto
1718 3392 1405 3105 conicto
1092 2819 1045 2300 conicto
3264 2304 lineto
end_ol grestore 
gsave 31.832933 16.050000 translate 0.035278 -0.035278 scale
start_ol
2880 3200 moveto
2774 3265 2650 3296 conicto
2527 3328 2377 3328 conicto
1848 3328 1564 2984 conicto
1280 2640 1280 1995 conicto
1280 0 lineto
640 0 lineto
640 3776 lineto
1280 3776 lineto
1280 3200 lineto
1477 3557 1793 3730 conicto
2109 3904 2561 3904 conicto
2625 3904 2703 3888 conicto
2781 3872 2876 3840 conicto
2880 3200 lineto
end_ol grestore 
0.100000 slw
[] 0 sd
[] 0 sd
0 slc
n 22.776600 12.169400 m 24.613690 13.870276 l s
[] 0 sd
0 slj
0 slc
n 24.888860 14.125043 m 24.352122 13.968800 l 24.613690 13.870276 l 24.691811 13.601907 l ef
n 24.888860 14.125043 m 24.352122 13.968800 l 24.613690 13.870276 l 24.691811 13.601907 l cp s
0.100000 slw
[] 0 sd
[] 0 sd
0 slc
n 31.793000 12.200200 m 29.392753 13.916906 l s
[] 0 sd
0 slj
0 slc
n 29.087738 14.135059 m 29.348989 13.640845 l 29.392753 13.916906 l 29.639860 14.047532 l ef
n 29.087738 14.135059 m 29.348989 13.640845 l 29.392753 13.916906 l 29.639860 14.047532 l cp s
gsave 24.050000 20.150000 translate 0.035278 -0.035278 scale
start_ol
0 5056 moveto
4288 5056 lineto
4288 4480 lineto
2496 4480 lineto
2496 0 lineto
1792 0 lineto
1792 4480 lineto
0 4480 lineto
0 5056 lineto
end_ol grestore 
gsave 24.473333 20.150000 translate 0.035278 -0.035278 scale
start_ol
2880 3200 moveto
2774 3265 2650 3296 conicto
2527 3328 2377 3328 conicto
1848 3328 1564 2984 conicto
1280 2640 1280 1995 conicto
1280 0 lineto
640 0 lineto
640 3776 lineto
1280 3776 lineto
1280 3200 lineto
1477 3557 1793 3730 conicto
2109 3904 2561 3904 conicto
2625 3904 2703 3888 conicto
2781 3872 2876 3840 conicto
2880 3200 lineto
end_ol grestore 
gsave 24.845867 20.150000 translate 0.035278 -0.035278 scale
start_ol
2336 1856 moveto
1596 1856 1310 1684 conicto
1024 1513 1024 1100 conicto
1024 770 1238 577 conicto
1453 384 1821 384 conicto
2330 384 2637 749 conicto
2944 1115 2944 1723 conicto
2944 1856 lineto
2336 1856 lineto
3584 2127 moveto
3584 0 lineto
2944 0 lineto
2944 576 lineto
2732 216 2416 44 conicto
2101 -128 1644 -128 conicto
1066 -128 725 199 conicto
384 527 384 1076 conicto
384 1717 811 2042 conicto
1239 2368 2087 2368 conicto
2944 2368 lineto
2944 2434 lineto
2944 2892 2661 3142 conicto
2378 3392 1867 3392 conicto
1542 3392 1233 3311 conicto
924 3231 640 3072 conicto
640 3648 lineto
984 3776 1307 3840 conicto
1631 3904 1938 3904 conicto
2766 3904 3175 3463 conicto
3584 3023 3584 2127 conicto
end_ol grestore 
gsave 25.404667 20.150000 translate 0.035278 -0.035278 scale
start_ol
640 3776 moveto
1280 3776 lineto
1280 -56 lineto
1280 -769 1002 -1088 conicto
724 -1408 106 -1408 conicto
-128 -1408 lineto
-128 -896 lineto
40 -896 lineto
388 -896 514 -733 conicto
640 -570 640 -56 conicto
640 3776 lineto
640 5248 moveto
1280 5248 lineto
1280 4480 lineto
640 4480 lineto
640 5248 lineto
end_ol grestore 
gsave 25.658667 20.150000 translate 0.035278 -0.035278 scale
start_ol
640 5056 moveto
3520 5056 lineto
3520 4480 lineto
1344 4480 lineto
1344 3008 lineto
3328 3008 lineto
3328 2432 lineto
1344 2432 lineto
1344 0 lineto
640 0 lineto
640 5056 lineto
end_ol grestore 
gsave 26.149733 20.150000 translate 0.035278 -0.035278 scale
start_ol
2114 3392 moveto
1610 3392 1317 2989 conicto
1024 2587 1024 1888 conicto
1024 1188 1315 786 conicto
1606 384 2114 384 conicto
2614 384 2907 788 conicto
3200 1192 3200 1888 conicto
3200 2580 2907 2986 conicto
2614 3392 2114 3392 conicto
2112 3904 moveto
2919 3904 3379 3369 conicto
3840 2834 3840 1889 conicto
3840 946 3379 409 conicto
2919 -128 2112 -128 conicto
1302 -128 843 409 conicto
384 946 384 1889 conicto
384 2834 843 3369 conicto
1302 3904 2112 3904 conicto
end_ol grestore 
gsave 26.708533 20.150000 translate 0.035278 -0.035278 scale
start_ol
640 5248 moveto
1280 5248 lineto
1280 0 lineto
640 0 lineto
640 5248 lineto
end_ol grestore 
gsave 26.962533 20.150000 translate 0.035278 -0.035278 scale
start_ol
640 5248 moveto
1280 5248 lineto
1280 0 lineto
640 0 lineto
640 5248 lineto
end_ol grestore 
gsave 27.216533 20.150000 translate 0.035278 -0.035278 scale
start_ol
2114 3392 moveto
1610 3392 1317 2989 conicto
1024 2587 1024 1888 conicto
1024 1188 1315 786 conicto
1606 384 2114 384 conicto
2614 384 2907 788 conicto
3200 1192 3200 1888 conicto
3200 2580 2907 2986 conicto
2614 3392 2114 3392 conicto
2112 3904 moveto
2919 3904 3379 3369 conicto
3840 2834 3840 1889 conicto
3840 946 3379 409 conicto
2919 -128 2112 -128 conicto
1302 -128 843 409 conicto
384 946 384 1889 conicto
384 2834 843 3369 conicto
1302 3904 2112 3904 conicto
end_ol grestore 
gsave 27.775333 20.150000 translate 0.035278 -0.035278 scale
start_ol
320 3776 moveto
939 3776 lineto
1713 829 lineto
2483 3776 lineto
3213 3776 lineto
3987 829 lineto
4757 3776 lineto
5376 3776 lineto
4390 0 lineto
3661 0 lineto
2849 3095 lineto
2036 0 lineto
1306 0 lineto
320 3776 lineto
end_ol grestore 
gsave 28.520400 20.150000 translate 0.035278 -0.035278 scale
start_ol
3904 2111 moveto
3904 1792 lineto
1024 1792 lineto
1066 1104 1417 744 conicto
1768 384 2394 384 conicto
2758 384 3099 464 conicto
3440 544 3776 704 conicto
3776 128 lineto
3438 4 3083 -62 conicto
2729 -128 2364 -128 conicto
1451 -128 917 407 conicto
384 942 384 1854 conicto
384 2797 888 3350 conicto
1392 3904 2245 3904 conicto
3012 3904 3458 3422 conicto
3904 2940 3904 2111 conicto
3264 2304 moveto
3257 2800 2978 3096 conicto
2699 3392 2239 3392 conicto
1718 3392 1405 3105 conicto
1092 2819 1045 2300 conicto
3264 2304 lineto
end_ol grestore 
gsave 29.079200 20.150000 translate 0.035278 -0.035278 scale
start_ol
2880 3200 moveto
2774 3265 2650 3296 conicto
2527 3328 2377 3328 conicto
1848 3328 1564 2984 conicto
1280 2640 1280 1995 conicto
1280 0 lineto
640 0 lineto
640 3776 lineto
1280 3776 lineto
1280 3200 lineto
1477 3557 1793 3730 conicto
2109 3904 2561 3904 conicto
2625 3904 2703 3888 conicto
2781 3872 2876 3840 conicto
2880 3200 lineto
end_ol grestore 
0.678431 0.847059 0.901961 srgb
n 23.785000 22.470000 m 23.785000 24.570000 l 29.935000 24.570000 l 29.935000 22.470000 l f
n 23.785000 22.470000 m 23.785000 22.470000 0.000000 0.000000 180.000000 270.000000 ellipse f
n 29.935000 22.470000 m 29.935000 22.470000 0.000000 0.000000 270.000000 360.000000 ellipse f
n 23.785000 22.470000 m 23.785000 24.570000 l 29.935000 24.570000 l 29.935000 22.470000 l f
n 23.785000 24.570000 m 23.785000 24.570000 0.000000 0.000000 90.000000 180.000000 ellipse f
n 29.935000 24.570000 m 29.935000 24.570000 0.000000 0.000000 0.000000 90.000000 ellipse f
0.100000 slw
[] 0 sd
[] 0 sd
0 slj
0.000000 0.000000 0.000000 srgb
n 23.785000 22.470000 m 29.935000 22.470000 l s
n 23.785000 24.570000 m 29.935000 24.570000 l s
n 23.785000 22.470000 0.000000 0.000000 180.000000 270.000000 ellipse s
n 29.935000 22.470000 0.000000 0.000000 270.000000 360.000000 ellipse s
n 23.785000 22.470000 m 23.785000 24.570000 l s
n 29.935000 22.470000 m 29.935000 24.570000 l s
n 23.785000 24.570000 0.000000 0.000000 90.000000 180.000000 ellipse s
n 29.935000 24.570000 0.000000 0.000000 0.000000 90.000000 ellipse s
gsave 25.250000 23.750000 translate 0.035278 -0.035278 scale
start_ol
2368 4380 moveto
1445 1856 lineto
3295 1856 lineto
2368 4380 lineto
1984 5056 moveto
2756 5056 lineto
4672 0 lineto
3964 0 lineto
3506 1280 lineto
1240 1280 lineto
782 0 lineto
64 0 lineto
1984 5056 lineto
end_ol grestore 
gsave 25.876533 23.750000 translate 0.035278 -0.035278 scale
start_ol
1344 4480 moveto
1344 576 lineto
2162 576 lineto
3198 576 3679 1046 conicto
4160 1517 4160 2533 conicto
4160 3542 3679 4011 conicto
3198 4480 2162 4480 conicto
1344 4480 lineto
640 5056 moveto
2058 5056 lineto
3508 5056 4186 4445 conicto
4864 3834 4864 2534 conicto
4864 1226 4182 613 conicto
3501 0 2058 0 conicto
640 0 lineto
640 5056 lineto
end_ol grestore 
gsave 26.579267 23.750000 translate 0.035278 -0.035278 scale
start_ol
2880 3200 moveto
2774 3265 2650 3296 conicto
2527 3328 2377 3328 conicto
1848 3328 1564 2984 conicto
1280 2640 1280 1995 conicto
1280 0 lineto
640 0 lineto
640 3776 lineto
1280 3776 lineto
1280 3200 lineto
1477 3557 1793 3730 conicto
2109 3904 2561 3904 conicto
2625 3904 2703 3888 conicto
2781 3872 2876 3840 conicto
2880 3200 lineto
end_ol grestore 
gsave 26.951800 23.750000 translate 0.035278 -0.035278 scale
start_ol
640 3776 moveto
1280 3776 lineto
1280 0 lineto
640 0 lineto
640 3776 lineto
640 5248 moveto
1280 5248 lineto
1280 4480 lineto
640 4480 lineto
640 5248 lineto
end_ol grestore 
gsave 27.205800 23.750000 translate 0.035278 -0.035278 scale
start_ol
192 3776 moveto
844 3776 lineto
2016 607 lineto
3188 3776 lineto
3840 3776 lineto
2434 0 lineto
1597 0 lineto
192 3776 lineto
end_ol grestore 
gsave 27.747667 23.750000 translate 0.035278 -0.035278 scale
start_ol
3904 2111 moveto
3904 1792 lineto
1024 1792 lineto
1066 1104 1417 744 conicto
1768 384 2394 384 conicto
2758 384 3099 464 conicto
3440 544 3776 704 conicto
3776 128 lineto
3438 4 3083 -62 conicto
2729 -128 2364 -128 conicto
1451 -128 917 407 conicto
384 942 384 1854 conicto
384 2797 888 3350 conicto
1392 3904 2245 3904 conicto
3012 3904 3458 3422 conicto
3904 2940 3904 2111 conicto
3264 2304 moveto
3257 2800 2978 3096 conicto
2699 3392 2239 3392 conicto
1718 3392 1405 3105 conicto
1092 2819 1045 2300 conicto
3264 2304 lineto
end_ol grestore 
1.000000 1.000000 1.000000 srgb
n 41.900000 2.400000 m 41.900000 8.700000 l 52.150000 8.700000 l 52.150000 2.400000 l f
0.100000 slw
[] 0 sd
[] 0 sd
0 slj
0.000000 0.000000 0.000000 srgb
n 41.900000 2.400000 m 41.900000 8.700000 l 52.150000 8.700000 l 52.150000 2.400000 l cp s
0.000000 0.000000 1.000000 srgb
n 42.850000 3.150000 m 42.850000 3.750000 l 43.450000 3.750000 l 43.450000 3.150000 l f
n 42.850000 3.150000 m 42.850000 3.150000 0.000000 0.000000 180.000000 270.000000 ellipse f
n 43.450000 3.150000 m 43.450000 3.150000 0.000000 0.000000 270.000000 360.000000 ellipse f
n 42.850000 3.150000 m 42.850000 3.750000 l 43.450000 3.750000 l 43.450000 3.150000 l f
n 42.850000 3.750000 m 42.850000 3.750000 0.000000 0.000000 90.000000 180.000000 ellipse f
n 43.450000 3.750000 m 43.450000 3.750000 0.000000 0.000000 0.000000 90.000000 ellipse f
0.100000 slw
[] 0 sd
[] 0 sd
0 slj
0.000000 0.000000 0.000000 srgb
n 42.850000 3.150000 m 43.450000 3.150000 l s
n 42.850000 3.750000 m 43.450000 3.750000 l s
n 42.850000 3.150000 0.000000 0.000000 180.000000 270.000000 ellipse s
n 43.450000 3.150000 0.000000 0.000000 270.000000 360.000000 ellipse s
n 42.850000 3.150000 m 42.850000 3.750000 l s
n 43.450000 3.150000 m 43.450000 3.750000 l s
n 42.850000 3.750000 0.000000 0.000000 90.000000 180.000000 ellipse s
n 43.450000 3.750000 0.000000 0.000000 0.000000 90.000000 ellipse s
0.117647 0.564706 1.000000 srgb
n 42.835000 5.070000 m 42.835000 5.670000 l 43.435000 5.670000 l 43.435000 5.070000 l f
n 42.835000 5.070000 m 42.835000 5.070000 0.000000 0.000000 180.000000 270.000000 ellipse f
n 43.435000 5.070000 m 43.435000 5.070000 0.000000 0.000000 270.000000 360.000000 ellipse f
n 42.835000 5.070000 m 42.835000 5.670000 l 43.435000 5.670000 l 43.435000 5.070000 l f
n 42.835000 5.670000 m 42.835000 5.670000 0.000000 0.000000 90.000000 180.000000 ellipse f
n 43.435000 5.670000 m 43.435000 5.670000 0.000000 0.000000 0.000000 90.000000 ellipse f
0.100000 slw
[] 0 sd
[] 0 sd
0 slj
0.000000 0.000000 0.000000 srgb
n 42.835000 5.070000 m 43.435000 5.070000 l s
n 42.835000 5.670000 m 43.435000 5.670000 l s
n 42.835000 5.070000 0.000000 0.000000 180.000000 270.000000 ellipse s
n 43.435000 5.070000 0.000000 0.000000 270.000000 360.000000 ellipse s
n 42.835000 5.070000 m 42.835000 5.670000 l s
n 43.435000 5.070000 m 43.435000 5.670000 l s
n 42.835000 5.670000 0.000000 0.000000 90.000000 180.000000 ellipse s
n 43.435000 5.670000 0.000000 0.000000 0.000000 90.000000 ellipse s
0.678431 0.847059 0.901961 srgb
n 42.885000 6.970000 m 42.885000 7.570000 l 43.485000 7.570000 l 43.485000 6.970000 l f
n 42.885000 6.970000 m 42.885000 6.970000 0.000000 0.000000 180.000000 270.000000 ellipse f
n 43.485000 6.970000 m 43.485000 6.970000 0.000000 0.000000 270.000000 360.000000 ellipse f
n 42.885000 6.970000 m 42.885000 7.570000 l 43.485000 7.570000 l 43.485000 6.970000 l f
n 42.885000 7.570000 m 42.885000 7.570000 0.000000 0.000000 90.000000 180.000000 ellipse f
n 43.485000 7.570000 m 43.485000 7.570000 0.000000 0.000000 0.000000 90.000000 ellipse f
0.100000 slw
[] 0 sd
[] 0 sd
0 slj
0.000000 0.000000 0.000000 srgb
n 42.885000 6.970000 m 43.485000 6.970000 l s
n 42.885000 7.570000 m 43.485000 7.570000 l s
n 42.885000 6.970000 0.000000 0.000000 180.000000 270.000000 ellipse s
n 43.485000 6.970000 0.000000 0.000000 270.000000 360.000000 ellipse s
n 42.885000 6.970000 m 42.885000 7.570000 l s
n 43.485000 6.970000 m 43.485000 7.570000 l s
n 42.885000 7.570000 0.000000 0.000000 90.000000 180.000000 ellipse s
n 43.485000 7.570000 0.000000 0.000000 0.000000 90.000000 ellipse s
gsave 44.350000 3.650000 translate 0.035278 -0.035278 scale
start_ol
-64 3328 moveto
2816 3328 lineto
2816 2944 lineto
1600 2944 lineto
1600 0 lineto
1152 0 lineto
1152 2944 lineto
-64 2944 lineto
-64 3328 lineto
end_ol grestore 
gsave 44.722533 3.650000 translate 0.035278 -0.035278 scale
start_ol
2560 1509 moveto
2560 0 lineto
2176 0 lineto
2176 1496 lineto
2176 1869 2029 2054 conicto
1883 2240 1590 2240 conicto
1238 2240 1035 2018 conicto
832 1796 832 1413 conicto
832 0 lineto
448 0 lineto
448 3520 lineto
832 3520 lineto
832 2112 lineto
983 2337 1188 2448 conicto
1394 2560 1662 2560 conicto
2106 2560 2333 2293 conicto
2560 2027 2560 1509 conicto
end_ol grestore 
gsave 45.112000 3.650000 translate 0.035278 -0.035278 scale
start_ol
448 2496 moveto
832 2496 lineto
832 0 lineto
448 0 lineto
448 2496 lineto
448 3520 moveto
832 3520 lineto
832 3008 lineto
448 3008 lineto
448 3520 lineto
end_ol grestore 
gsave 45.281333 3.650000 translate 0.035278 -0.035278 scale
start_ol
2048 2432 moveto
2048 2048 lineto
1868 2144 1674 2192 conicto
1480 2240 1273 2240 conicto
957 2240 798 2144 conicto
640 2048 640 1856 conicto
640 1709 757 1625 conicto
875 1542 1229 1467 conicto
1380 1435 lineto
1812 1341 1994 1170 conicto
2176 999 2176 692 conicto
2176 343 1899 139 conicto
1622 -64 1137 -64 conicto
936 -64 717 -32 conicto
498 0 256 64 conicto
256 512 lineto
490 385 718 320 conicto
947 256 1170 256 conicto
1470 256 1631 358 conicto
1792 461 1792 647 conicto
1792 820 1670 912 conicto
1549 1004 1141 1089 conicto
988 1123 lineto
600 1203 428 1369 conicto
256 1535 256 1824 conicto
256 2177 510 2368 conicto
765 2560 1233 2560 conicto
1466 2560 1670 2528 conicto
1875 2496 2048 2432 conicto
end_ol grestore 
gsave 45.603067 3.650000 translate 0.035278 -0.035278 scale
start_ol
end_ol grestore 
gsave 45.797800 3.650000 translate 0.035278 -0.035278 scale
start_ol
832 384 moveto
832 -960 lineto
448 -960 lineto
448 2496 lineto
832 2496 lineto
832 2112 lineto
963 2340 1164 2450 conicto
1366 2560 1645 2560 conicto
2108 2560 2398 2198 conicto
2688 1837 2688 1248 conicto
2688 659 2398 297 conicto
2108 -64 1645 -64 conicto
1366 -64 1164 46 conicto
963 156 832 384 conicto
2240 1249 moveto
2240 1713 2052 1976 conicto
1865 2240 1536 2240 conicto
1208 2240 1020 1976 conicto
832 1713 832 1249 conicto
832 784 1020 520 conicto
1208 256 1536 256 conicto
1865 256 2052 520 conicto
2240 784 2240 1249 conicto
end_ol grestore 
gsave 46.187267 3.650000 translate 0.035278 -0.035278 scale
start_ol
1920 2112 moveto
1848 2178 1764 2209 conicto
1680 2240 1578 2240 conicto
1218 2240 1025 2001 conicto
832 1763 832 1317 conicto
832 0 lineto
448 0 lineto
448 2496 lineto
832 2496 lineto
832 2112 lineto
965 2339 1180 2449 conicto
1396 2560 1702 2560 conicto
1747 2560 1799 2560 conicto
1852 2560 1917 2560 conicto
1920 2112 lineto
end_ol grestore 
gsave 46.424333 3.650000 translate 0.035278 -0.035278 scale
start_ol
1409 2240 moveto
1083 2240 893 1974 conicto
704 1709 704 1248 conicto
704 787 892 521 conicto
1081 256 1409 256 conicto
1733 256 1922 522 conicto
2112 789 2112 1248 conicto
2112 1705 1922 1972 conicto
1733 2240 1409 2240 conicto
1408 2560 moveto
1946 2560 2253 2212 conicto
2560 1864 2560 1248 conicto
2560 634 2253 285 conicto
1946 -64 1408 -64 conicto
869 -64 562 285 conicto
256 634 256 1248 conicto
256 1864 562 2212 conicto
869 2560 1408 2560 conicto
end_ol grestore 
gsave 46.796867 3.650000 translate 0.035278 -0.035278 scale
start_ol
448 2496 moveto
832 2496 lineto
832 -76 lineto
832 -542 657 -751 conicto
482 -960 91 -960 conicto
-64 -960 lineto
-64 -640 lineto
28 -640 lineto
272 -640 360 -530 conicto
448 -421 448 -76 conicto
448 2496 lineto
448 3520 moveto
832 3520 lineto
832 3008 lineto
448 3008 lineto
448 3520 lineto
end_ol grestore 
gsave 46.966200 3.650000 translate 0.035278 -0.035278 scale
start_ol
2624 1352 moveto
2624 1152 lineto
704 1152 lineto
731 715 960 485 conicto
1189 256 1597 256 conicto
1834 256 2056 320 conicto
2278 384 2496 512 conicto
2496 128 lineto
2273 34 2039 -15 conicto
1805 -64 1565 -64 conicto
961 -64 608 284 conicto
256 632 256 1225 conicto
256 1839 595 2199 conicto
934 2560 1509 2560 conicto
2024 2560 2324 2235 conicto
2624 1910 2624 1352 conicto
2240 1472 moveto
2235 1822 2043 2031 conicto
1852 2240 1537 2240 conicto
1180 2240 965 2038 conicto
750 1836 718 1470 conicto
2240 1472 lineto
end_ol grestore 
gsave 47.338733 3.650000 translate 0.035278 -0.035278 scale
start_ol
2240 2432 moveto
2240 2048 lineto
2066 2144 1892 2192 conicto
1718 2240 1541 2240 conicto
1143 2240 923 1979 conicto
704 1718 704 1248 conicto
704 778 923 517 conicto
1143 256 1541 256 conicto
1718 256 1892 304 conicto
2066 352 2240 448 conicto
2240 64 lineto
2068 0 1883 -32 conicto
1698 -64 1490 -64 conicto
924 -64 590 290 conicto
256 645 256 1248 conicto
256 1859 593 2209 conicto
931 2560 1517 2560 conicto
1707 2560 1888 2528 conicto
2070 2496 2240 2432 conicto
end_ol grestore 
gsave 47.677400 3.650000 translate 0.035278 -0.035278 scale
start_ol
832 3200 moveto
832 2496 lineto
1664 2496 lineto
1664 2176 lineto
832 2176 lineto
832 804 lineto
832 495 914 407 conicto
997 320 1248 320 conicto
1664 320 lineto
1664 0 lineto
1248 0 lineto
793 0 620 173 conicto
448 347 448 804 conicto
448 2176 lineto
128 2176 lineto
128 2496 lineto
448 2496 lineto
448 3200 lineto
832 3200 lineto
end_ol grestore 
gsave 44.300000 5.450000 translate 0.035278 -0.035278 scale
start_ol
1827 3008 moveto
1311 3008 1007 2647 conicto
704 2286 704 1663 conicto
704 1042 1007 681 conicto
1311 320 1827 320 conicto
2342 320 2643 681 conicto
2944 1042 2944 1663 conicto
2944 2286 2643 2647 conicto
2342 3008 1827 3008 conicto
1827 3392 moveto
2539 3392 2965 2922 conicto
3392 2453 3392 1663 conicto
3392 875 2965 405 conicto
2539 -64 1827 -64 conicto
1111 -64 683 404 conicto
256 873 256 1663 conicto
256 2453 683 2922 conicto
1111 3392 1827 3392 conicto
end_ol grestore 
gsave 44.782600 5.450000 translate 0.035278 -0.035278 scale
start_ol
832 3200 moveto
832 2496 lineto
1664 2496 lineto
1664 2176 lineto
832 2176 lineto
832 804 lineto
832 495 914 407 conicto
997 320 1248 320 conicto
1664 320 lineto
1664 0 lineto
1248 0 lineto
793 0 620 173 conicto
448 347 448 804 conicto
448 2176 lineto
128 2176 lineto
128 2496 lineto
448 2496 lineto
448 3200 lineto
832 3200 lineto
end_ol grestore 
gsave 45.019667 5.450000 translate 0.035278 -0.035278 scale
start_ol
2560 1509 moveto
2560 0 lineto
2176 0 lineto
2176 1496 lineto
2176 1869 2029 2054 conicto
1883 2240 1590 2240 conicto
1238 2240 1035 2018 conicto
832 1796 832 1413 conicto
832 0 lineto
448 0 lineto
448 3520 lineto
832 3520 lineto
832 2112 lineto
983 2337 1188 2448 conicto
1394 2560 1662 2560 conicto
2106 2560 2333 2293 conicto
2560 2027 2560 1509 conicto
end_ol grestore 
gsave 45.409133 5.450000 translate 0.035278 -0.035278 scale
start_ol
2624 1352 moveto
2624 1152 lineto
704 1152 lineto
731 715 960 485 conicto
1189 256 1597 256 conicto
1834 256 2056 320 conicto
2278 384 2496 512 conicto
2496 128 lineto
2273 34 2039 -15 conicto
1805 -64 1565 -64 conicto
961 -64 608 284 conicto
256 632 256 1225 conicto
256 1839 595 2199 conicto
934 2560 1509 2560 conicto
2024 2560 2324 2235 conicto
2624 1910 2624 1352 conicto
2240 1472 moveto
2235 1822 2043 2031 conicto
1852 2240 1537 2240 conicto
1180 2240 965 2038 conicto
750 1836 718 1470 conicto
2240 1472 lineto
end_ol grestore 
gsave 45.781667 5.450000 translate 0.035278 -0.035278 scale
start_ol
1920 2112 moveto
1848 2178 1764 2209 conicto
1680 2240 1578 2240 conicto
1218 2240 1025 2001 conicto
832 1763 832 1317 conicto
832 0 lineto
448 0 lineto
448 2496 lineto
832 2496 lineto
832 2112 lineto
965 2339 1180 2449 conicto
1396 2560 1702 2560 conicto
1747 2560 1799 2560 conicto
1852 2560 1917 2560 conicto
1920 2112 lineto
end_ol grestore 
gsave 46.035667 5.450000 translate 0.035278 -0.035278 scale
start_ol
end_ol grestore 
gsave 46.230400 5.450000 translate 0.035278 -0.035278 scale
start_ol
2240 2432 moveto
2240 2048 lineto
2066 2144 1892 2192 conicto
1718 2240 1541 2240 conicto
1143 2240 923 1979 conicto
704 1718 704 1248 conicto
704 778 923 517 conicto
1143 256 1541 256 conicto
1718 256 1892 304 conicto
2066 352 2240 448 conicto
2240 64 lineto
2068 0 1883 -32 conicto
1698 -64 1490 -64 conicto
924 -64 590 290 conicto
256 645 256 1248 conicto
256 1859 593 2209 conicto
931 2560 1517 2560 conicto
1707 2560 1888 2528 conicto
2070 2496 2240 2432 conicto
end_ol grestore 
gsave 46.569067 5.450000 translate 0.035278 -0.035278 scale
start_ol
448 986 moveto
448 2496 lineto
832 2496 lineto
832 1001 lineto
832 629 978 442 conicto
1124 256 1417 256 conicto
1768 256 1972 477 conicto
2176 699 2176 1081 conicto
2176 2496 lineto
2560 2496 lineto
2560 0 lineto
2176 0 lineto
2176 384 lineto
2022 157 1819 46 conicto
1617 -64 1349 -64 conicto
906 -64 677 203 conicto
448 471 448 986 conicto
end_ol grestore 
gsave 46.958533 5.450000 translate 0.035278 -0.035278 scale
start_ol
1920 2112 moveto
1848 2178 1764 2209 conicto
1680 2240 1578 2240 conicto
1218 2240 1025 2001 conicto
832 1763 832 1317 conicto
832 0 lineto
448 0 lineto
448 2496 lineto
832 2496 lineto
832 2112 lineto
965 2339 1180 2449 conicto
1396 2560 1702 2560 conicto
1747 2560 1799 2560 conicto
1852 2560 1917 2560 conicto
1920 2112 lineto
end_ol grestore 
gsave 47.204067 5.450000 translate 0.035278 -0.035278 scale
start_ol
1920 2112 moveto
1848 2178 1764 2209 conicto
1680 2240 1578 2240 conicto
1218 2240 1025 2001 conicto
832 1763 832 1317 conicto
832 0 lineto
448 0 lineto
448 2496 lineto
832 2496 lineto
832 2112 lineto
965 2339 1180 2449 conicto
1396 2560 1702 2560 conicto
1747 2560 1799 2560 conicto
1852 2560 1917 2560 conicto
1920 2112 lineto
end_ol grestore 
gsave 47.441133 5.450000 translate 0.035278 -0.035278 scale
start_ol
2624 1352 moveto
2624 1152 lineto
704 1152 lineto
731 715 960 485 conicto
1189 256 1597 256 conicto
1834 256 2056 320 conicto
2278 384 2496 512 conicto
2496 128 lineto
2273 34 2039 -15 conicto
1805 -64 1565 -64 conicto
961 -64 608 284 conicto
256 632 256 1225 conicto
256 1839 595 2199 conicto
934 2560 1509 2560 conicto
2024 2560 2324 2235 conicto
2624 1910 2624 1352 conicto
2240 1472 moveto
2235 1822 2043 2031 conicto
1852 2240 1537 2240 conicto
1180 2240 965 2038 conicto
750 1836 718 1470 conicto
2240 1472 lineto
end_ol grestore 
gsave 47.813667 5.450000 translate 0.035278 -0.035278 scale
start_ol
2560 1509 moveto
2560 0 lineto
2176 0 lineto
2176 1496 lineto
2176 1869 2029 2054 conicto
1883 2240 1590 2240 conicto
1238 2240 1035 2018 conicto
832 1796 832 1413 conicto
832 0 lineto
448 0 lineto
448 2496 lineto
832 2496 lineto
832 2112 lineto
983 2337 1188 2448 conicto
1394 2560 1662 2560 conicto
2106 2560 2333 2293 conicto
2560 2027 2560 1509 conicto
end_ol grestore 
gsave 48.203133 5.450000 translate 0.035278 -0.035278 scale
start_ol
832 3200 moveto
832 2496 lineto
1664 2496 lineto
1664 2176 lineto
832 2176 lineto
832 804 lineto
832 495 914 407 conicto
997 320 1248 320 conicto
1664 320 lineto
1664 0 lineto
1248 0 lineto
793 0 620 173 conicto
448 347 448 804 conicto
448 2176 lineto
128 2176 lineto
128 2496 lineto
448 2496 lineto
448 3200 lineto
832 3200 lineto
end_ol grestore 
gsave 48.440200 5.450000 translate 0.035278 -0.035278 scale
start_ol
end_ol grestore 
gsave 48.634933 5.450000 translate 0.035278 -0.035278 scale
start_ol
832 384 moveto
832 -960 lineto
448 -960 lineto
448 2496 lineto
832 2496 lineto
832 2112 lineto
963 2340 1164 2450 conicto
1366 2560 1645 2560 conicto
2108 2560 2398 2198 conicto
2688 1837 2688 1248 conicto
2688 659 2398 297 conicto
2108 -64 1645 -64 conicto
1366 -64 1164 46 conicto
963 156 832 384 conicto
2240 1249 moveto
2240 1713 2052 1976 conicto
1865 2240 1536 2240 conicto
1208 2240 1020 1976 conicto
832 1713 832 1249 conicto
832 784 1020 520 conicto
1208 256 1536 256 conicto
1865 256 2052 520 conicto
2240 784 2240 1249 conicto
end_ol grestore 
gsave 49.024400 5.450000 translate 0.035278 -0.035278 scale
start_ol
1920 2112 moveto
1848 2178 1764 2209 conicto
1680 2240 1578 2240 conicto
1218 2240 1025 2001 conicto
832 1763 832 1317 conicto
832 0 lineto
448 0 lineto
448 2496 lineto
832 2496 lineto
832 2112 lineto
965 2339 1180 2449 conicto
1396 2560 1702 2560 conicto
1747 2560 1799 2560 conicto
1852 2560 1917 2560 conicto
1920 2112 lineto
end_ol grestore 
gsave 49.261467 5.450000 translate 0.035278 -0.035278 scale
start_ol
1409 2240 moveto
1083 2240 893 1974 conicto
704 1709 704 1248 conicto
704 787 892 521 conicto
1081 256 1409 256 conicto
1733 256 1922 522 conicto
2112 789 2112 1248 conicto
2112 1705 1922 1972 conicto
1733 2240 1409 2240 conicto
1408 2560 moveto
1946 2560 2253 2212 conicto
2560 1864 2560 1248 conicto
2560 634 2253 285 conicto
1946 -64 1408 -64 conicto
869 -64 562 285 conicto
256 634 256 1248 conicto
256 1864 562 2212 conicto
869 2560 1408 2560 conicto
end_ol grestore 
gsave 49.634000 5.450000 translate 0.035278 -0.035278 scale
start_ol
448 2496 moveto
832 2496 lineto
832 -76 lineto
832 -542 657 -751 conicto
482 -960 91 -960 conicto
-64 -960 lineto
-64 -640 lineto
28 -640 lineto
272 -640 360 -530 conicto
448 -421 448 -76 conicto
448 2496 lineto
448 3520 moveto
832 3520 lineto
832 3008 lineto
448 3008 lineto
448 3520 lineto
end_ol grestore 
gsave 49.803333 5.450000 translate 0.035278 -0.035278 scale
start_ol
2624 1352 moveto
2624 1152 lineto
704 1152 lineto
731 715 960 485 conicto
1189 256 1597 256 conicto
1834 256 2056 320 conicto
2278 384 2496 512 conicto
2496 128 lineto
2273 34 2039 -15 conicto
1805 -64 1565 -64 conicto
961 -64 608 284 conicto
256 632 256 1225 conicto
256 1839 595 2199 conicto
934 2560 1509 2560 conicto
2024 2560 2324 2235 conicto
2624 1910 2624 1352 conicto
2240 1472 moveto
2235 1822 2043 2031 conicto
1852 2240 1537 2240 conicto
1180 2240 965 2038 conicto
750 1836 718 1470 conicto
2240 1472 lineto
end_ol grestore 
gsave 50.175867 5.450000 translate 0.035278 -0.035278 scale
start_ol
2240 2432 moveto
2240 2048 lineto
2066 2144 1892 2192 conicto
1718 2240 1541 2240 conicto
1143 2240 923 1979 conicto
704 1718 704 1248 conicto
704 778 923 517 conicto
1143 256 1541 256 conicto
1718 256 1892 304 conicto
2066 352 2240 448 conicto
2240 64 lineto
2068 0 1883 -32 conicto
1698 -64 1490 -64 conicto
924 -64 590 290 conicto
256 645 256 1248 conicto
256 1859 593 2209 conicto
931 2560 1517 2560 conicto
1707 2560 1888 2528 conicto
2070 2496 2240 2432 conicto
end_ol grestore 
gsave 50.514533 5.450000 translate 0.035278 -0.035278 scale
start_ol
832 3200 moveto
832 2496 lineto
1664 2496 lineto
1664 2176 lineto
832 2176 lineto
832 804 lineto
832 495 914 407 conicto
997 320 1248 320 conicto
1664 320 lineto
1664 0 lineto
1248 0 lineto
793 0 620 173 conicto
448 347 448 804 conicto
448 2176 lineto
128 2176 lineto
128 2496 lineto
448 2496 lineto
448 3200 lineto
832 3200 lineto
end_ol grestore 
gsave 50.751600 5.450000 translate 0.035278 -0.035278 scale
start_ol
2048 2432 moveto
2048 2048 lineto
1868 2144 1674 2192 conicto
1480 2240 1273 2240 conicto
957 2240 798 2144 conicto
640 2048 640 1856 conicto
640 1709 757 1625 conicto
875 1542 1229 1467 conicto
1380 1435 lineto
1812 1341 1994 1170 conicto
2176 999 2176 692 conicto
2176 343 1899 139 conicto
1622 -64 1137 -64 conicto
936 -64 717 -32 conicto
498 0 256 64 conicto
256 512 lineto
490 385 718 320 conicto
947 256 1170 256 conicto
1470 256 1631 358 conicto
1792 461 1792 647 conicto
1792 820 1670 912 conicto
1549 1004 1141 1089 conicto
988 1123 lineto
600 1203 428 1369 conicto
256 1535 256 1824 conicto
256 2177 510 2368 conicto
765 2560 1233 2560 conicto
1466 2560 1670 2528 conicto
1875 2496 2048 2432 conicto
end_ol grestore 
gsave 44.450000 7.550000 translate 0.035278 -0.035278 scale
start_ol
1600 2882 moveto
985 1216 lineto
2218 1216 lineto
1600 2882 lineto
1344 3328 moveto
1858 3328 lineto
3136 0 lineto
2665 0 lineto
2360 832 lineto
847 832 lineto
542 0 lineto
64 0 lineto
1344 3328 lineto
end_ol grestore 
gsave 44.864867 7.550000 translate 0.035278 -0.035278 scale
start_ol
448 3520 moveto
832 3520 lineto
832 0 lineto
448 0 lineto
448 3520 lineto
end_ol grestore 
gsave 45.034200 7.550000 translate 0.035278 -0.035278 scale
start_ol
1920 2112 moveto
1848 2178 1764 2209 conicto
1680 2240 1578 2240 conicto
1218 2240 1025 2001 conicto
832 1763 832 1317 conicto
832 0 lineto
448 0 lineto
448 2496 lineto
832 2496 lineto
832 2112 lineto
965 2339 1180 2449 conicto
1396 2560 1702 2560 conicto
1747 2560 1799 2560 conicto
1852 2560 1917 2560 conicto
1920 2112 lineto
end_ol grestore 
gsave 45.271267 7.550000 translate 0.035278 -0.035278 scale
start_ol
2624 1352 moveto
2624 1152 lineto
704 1152 lineto
731 715 960 485 conicto
1189 256 1597 256 conicto
1834 256 2056 320 conicto
2278 384 2496 512 conicto
2496 128 lineto
2273 34 2039 -15 conicto
1805 -64 1565 -64 conicto
961 -64 608 284 conicto
256 632 256 1225 conicto
256 1839 595 2199 conicto
934 2560 1509 2560 conicto
2024 2560 2324 2235 conicto
2624 1910 2624 1352 conicto
2240 1472 moveto
2235 1822 2043 2031 conicto
1852 2240 1537 2240 conicto
1180 2240 965 2038 conicto
750 1836 718 1470 conicto
2240 1472 lineto
end_ol grestore 
gsave 45.643800 7.550000 translate 0.035278 -0.035278 scale
start_ol
1559 1280 moveto
1040 1280 840 1160 conicto
640 1041 640 754 conicto
640 525 790 390 conicto
940 256 1198 256 conicto
1554 256 1769 510 conicto
1984 765 1984 1187 conicto
1984 1280 lineto
1559 1280 lineto
2368 1449 moveto
2368 0 lineto
1984 0 lineto
1984 384 lineto
1842 154 1628 45 conicto
1415 -64 1107 -64 conicto
717 -64 486 154 conicto
256 372 256 739 conicto
256 1166 539 1383 conicto
822 1600 1384 1600 conicto
1984 1600 lineto
1984 1641 lineto
1984 1927 1796 2083 conicto
1608 2240 1266 2240 conicto
1049 2240 843 2192 conicto
638 2144 448 2048 conicto
448 2432 lineto
673 2496 884 2528 conicto
1095 2560 1295 2560 conicto
1835 2560 2101 2284 conicto
2368 2009 2368 1449 conicto
end_ol grestore 
gsave 46.016333 7.550000 translate 0.035278 -0.035278 scale
start_ol
2112 2112 moveto
2112 3520 lineto
2496 3520 lineto
2496 0 lineto
2112 0 lineto
2112 384 lineto
1980 156 1779 46 conicto
1578 -64 1297 -64 conicto
835 -64 545 297 conicto
256 659 256 1248 conicto
256 1837 545 2198 conicto
835 2560 1297 2560 conicto
1578 2560 1779 2450 conicto
1980 2340 2112 2112 conicto
704 1249 moveto
704 784 891 520 conicto
1079 256 1407 256 conicto
1735 256 1923 520 conicto
2112 784 2112 1249 conicto
2112 1713 1923 1976 conicto
1735 2240 1407 2240 conicto
1079 2240 891 1976 conicto
704 1713 704 1249 conicto
end_ol grestore 
gsave 46.405800 7.550000 translate 0.035278 -0.035278 scale
start_ol
1477 -262 moveto
1305 -695 1142 -827 conicto
980 -960 707 -960 conicto
384 -960 lineto
384 -640 lineto
622 -640 lineto
789 -640 881 -555 conicto
974 -471 1085 -156 conicto
1159 33 lineto
128 2496 lineto
590 2496 lineto
1361 544 lineto
2131 2496 lineto
2560 2496 lineto
1477 -262 lineto
end_ol grestore 
gsave 46.769867 7.550000 translate 0.035278 -0.035278 scale
start_ol
end_ol grestore 
gsave 46.964600 7.550000 translate 0.035278 -0.035278 scale
start_ol
448 3328 moveto
2560 3328 lineto
2560 2944 lineto
896 2944 lineto
896 1984 lineto
2496 1984 lineto
2496 1600 lineto
896 1600 lineto
896 384 lineto
2624 384 lineto
2624 0 lineto
448 0 lineto
448 3328 lineto
end_ol grestore 
gsave 47.354067 7.550000 translate 0.035278 -0.035278 scale
start_ol
2496 2496 moveto
1589 1282 lineto
2560 0 lineto
2067 0 lineto
1327 981 lineto
607 0 lineto
128 0 lineto
1085 1306 lineto
192 2496 lineto
678 2496 lineto
1344 1607 lineto
2010 2496 lineto
2496 2496 lineto
end_ol grestore 
gsave 47.718133 7.550000 translate 0.035278 -0.035278 scale
start_ol
448 2496 moveto
832 2496 lineto
832 0 lineto
448 0 lineto
448 2496 lineto
448 3520 moveto
832 3520 lineto
832 3008 lineto
448 3008 lineto
448 3520 lineto
end_ol grestore 
gsave 47.887467 7.550000 translate 0.035278 -0.035278 scale
start_ol
2048 2432 moveto
2048 2048 lineto
1868 2144 1674 2192 conicto
1480 2240 1273 2240 conicto
957 2240 798 2144 conicto
640 2048 640 1856 conicto
640 1709 757 1625 conicto
875 1542 1229 1467 conicto
1380 1435 lineto
1812 1341 1994 1170 conicto
2176 999 2176 692 conicto
2176 343 1899 139 conicto
1622 -64 1137 -64 conicto
936 -64 717 -32 conicto
498 0 256 64 conicto
256 512 lineto
490 385 718 320 conicto
947 256 1170 256 conicto
1470 256 1631 358 conicto
1792 461 1792 647 conicto
1792 820 1670 912 conicto
1549 1004 1141 1089 conicto
988 1123 lineto
600 1203 428 1369 conicto
256 1535 256 1824 conicto
256 2177 510 2368 conicto
765 2560 1233 2560 conicto
1466 2560 1670 2528 conicto
1875 2496 2048 2432 conicto
end_ol grestore 
gsave 48.209200 7.550000 translate 0.035278 -0.035278 scale
start_ol
832 3200 moveto
832 2496 lineto
1664 2496 lineto
1664 2176 lineto
832 2176 lineto
832 804 lineto
832 495 914 407 conicto
997 320 1248 320 conicto
1664 320 lineto
1664 0 lineto
1248 0 lineto
793 0 620 173 conicto
448 347 448 804 conicto
448 2176 lineto
128 2176 lineto
128 2496 lineto
448 2496 lineto
448 3200 lineto
832 3200 lineto
end_ol grestore 
gsave 48.446267 7.550000 translate 0.035278 -0.035278 scale
start_ol
2048 2432 moveto
2048 2048 lineto
1868 2144 1674 2192 conicto
1480 2240 1273 2240 conicto
957 2240 798 2144 conicto
640 2048 640 1856 conicto
640 1709 757 1625 conicto
875 1542 1229 1467 conicto
1380 1435 lineto
1812 1341 1994 1170 conicto
2176 999 2176 692 conicto
2176 343 1899 139 conicto
1622 -64 1137 -64 conicto
936 -64 717 -32 conicto
498 0 256 64 conicto
256 512 lineto
490 385 718 320 conicto
947 256 1170 256 conicto
1470 256 1631 358 conicto
1792 461 1792 647 conicto
1792 820 1670 912 conicto
1549 1004 1141 1089 conicto
988 1123 lineto
600 1203 428 1369 conicto
256 1535 256 1824 conicto
256 2177 510 2368 conicto
765 2560 1233 2560 conicto
1466 2560 1670 2528 conicto
1875 2496 2048 2432 conicto
end_ol grestore 
0.100000 slw
[] 0 sd
[] 0 sd
0 slc
n 26.725000 17.449600 m 26.725000 18.313897 l s
[] 0 sd
0 slj
0 slc
n 26.725000 18.688897 m 26.475000 18.188897 l 26.725000 18.313897 l 26.975000 18.188897 l ef
n 26.725000 18.688897 m 26.475000 18.188897 l 26.725000 18.313897 l 26.975000 18.188897 l cp s
0.100000 slw
[] 0 sd
[] 0 sd
0 slc
n 26.766000 20.999900 m 26.800846 21.933635 l s
[] 0 sd
0 slj
0 slc
n 26.814831 22.308374 m 26.546358 21.818045 l 26.800846 21.933635 l 27.046010 21.799399 l ef
n 26.814831 22.308374 m 26.546358 21.818045 l 26.800846 21.933635 l 27.046010 21.799399 l cp s
gsave 44.850000 16.050000 translate 0.035278 -0.035278 scale
start_ol
4480 4736 moveto
4480 4032 lineto
4130 4322 3735 4465 conicto
3340 4608 2895 4608 conicto
2019 4608 1553 4073 conicto
1088 3538 1088 2526 conicto
1088 1518 1553 983 conicto
2019 448 2895 448 conicto
3340 448 3735 607 conicto
4130 767 4480 1088 conicto
4480 384 lineto
4119 128 3716 0 conicto
3313 -128 2864 -128 conicto
1710 -128 1047 584 conicto
384 1296 384 2526 conicto
384 3760 1047 4472 conicto
1710 5184 2864 5184 conicto
3320 5184 3723 5072 conicto
4126 4960 4480 4736 conicto
end_ol grestore 
gsave 45.485000 16.050000 translate 0.035278 -0.035278 scale
start_ol
2114 3392 moveto
1610 3392 1317 2989 conicto
1024 2587 1024 1888 conicto
1024 1188 1315 786 conicto
1606 384 2114 384 conicto
2614 384 2907 788 conicto
3200 1192 3200 1888 conicto
3200 2580 2907 2986 conicto
2614 3392 2114 3392 conicto
2112 3904 moveto
2919 3904 3379 3369 conicto
3840 2834 3840 1889 conicto
3840 946 3379 409 conicto
2919 -128 2112 -128 conicto
1302 -128 843 409 conicto
384 946 384 1889 conicto
384 2834 843 3369 conicto
1302 3904 2112 3904 conicto
end_ol grestore 
gsave 46.043800 16.050000 translate 0.035278 -0.035278 scale
start_ol
2880 3200 moveto
2774 3265 2650 3296 conicto
2527 3328 2377 3328 conicto
1848 3328 1564 2984 conicto
1280 2640 1280 1995 conicto
1280 0 lineto
640 0 lineto
640 3776 lineto
1280 3776 lineto
1280 3200 lineto
1477 3557 1793 3730 conicto
2109 3904 2561 3904 conicto
2625 3904 2703 3888 conicto
2781 3872 2876 3840 conicto
2880 3200 lineto
end_ol grestore 
gsave 46.399400 16.050000 translate 0.035278 -0.035278 scale
start_ol
2880 3200 moveto
2774 3265 2650 3296 conicto
2527 3328 2377 3328 conicto
1848 3328 1564 2984 conicto
1280 2640 1280 1995 conicto
1280 0 lineto
640 0 lineto
640 3776 lineto
1280 3776 lineto
1280 3200 lineto
1477 3557 1793 3730 conicto
2109 3904 2561 3904 conicto
2625 3904 2703 3888 conicto
2781 3872 2876 3840 conicto
2880 3200 lineto
end_ol grestore 
gsave 46.771933 16.050000 translate 0.035278 -0.035278 scale
start_ol
640 3776 moveto
1280 3776 lineto
1280 0 lineto
640 0 lineto
640 3776 lineto
640 5248 moveto
1280 5248 lineto
1280 4480 lineto
640 4480 lineto
640 5248 lineto
end_ol grestore 
gsave 47.025933 16.050000 translate 0.035278 -0.035278 scale
start_ol
3136 3264 moveto
3136 5248 lineto
3776 5248 lineto
3776 0 lineto
3136 0 lineto
3136 512 lineto
2940 188 2642 30 conicto
2345 -128 1927 -128 conicto
1243 -128 813 427 conicto
384 983 384 1889 conicto
384 2794 813 3349 conicto
1243 3904 1927 3904 conicto
2345 3904 2642 3746 conicto
2940 3589 3136 3264 conicto
1024 1889 moveto
1024 1185 1305 784 conicto
1586 384 2078 384 conicto
2570 384 2853 784 conicto
3136 1185 3136 1889 conicto
3136 2592 2853 2992 conicto
2570 3392 2078 3392 conicto
1586 3392 1305 2992 conicto
1024 2592 1024 1889 conicto
end_ol grestore 
gsave 47.610133 16.050000 translate 0.035278 -0.035278 scale
start_ol
2114 3392 moveto
1610 3392 1317 2989 conicto
1024 2587 1024 1888 conicto
1024 1188 1315 786 conicto
1606 384 2114 384 conicto
2614 384 2907 788 conicto
3200 1192 3200 1888 conicto
3200 2580 2907 2986 conicto
2614 3392 2114 3392 conicto
2112 3904 moveto
2919 3904 3379 3369 conicto
3840 2834 3840 1889 conicto
3840 946 3379 409 conicto
2919 -128 2112 -128 conicto
1302 -128 843 409 conicto
384 946 384 1889 conicto
384 2834 843 3369 conicto
1302 3904 2112 3904 conicto
end_ol grestore 
gsave 48.168933 16.050000 translate 0.035278 -0.035278 scale
start_ol
2880 3200 moveto
2774 3265 2650 3296 conicto
2527 3328 2377 3328 conicto
1848 3328 1564 2984 conicto
1280 2640 1280 1995 conicto
1280 0 lineto
640 0 lineto
640 3776 lineto
1280 3776 lineto
1280 3200 lineto
1477 3557 1793 3730 conicto
2109 3904 2561 3904 conicto
2625 3904 2703 3888 conicto
2781 3872 2876 3840 conicto
2880 3200 lineto
end_ol grestore 
0.100000 slw
[] 0 sd
[] 0 sd
0 slc
n 43.750900 15.776400 m 38.686785 15.820738 l s
[] 0 sd
0 slj
0 slc
n 38.311799 15.824021 m 38.809591 15.569653 l 38.686785 15.820738 l 38.813969 16.069634 l ef
n 38.311799 15.824021 m 38.809591 15.569653 l 38.686785 15.820738 l 38.813969 16.069634 l cp s
0.100000 slw
[0.200000] 0 sd
[0.200000] 0 sd
0 slj
0 slc
n 38.050309 10.425000 m 41.685709 10.425000 46.736590 10.350991 46.758027 13.364200 c s
[] 0 sd
0 slj
0 slc
n 46.760695 13.739190 m 46.507144 13.240982 l 46.758027 13.364200 l 47.007131 13.237425 l ef
n 46.760695 13.739190 m 46.507144 13.240982 l 46.758027 13.364200 l 47.007131 13.237425 l cp s
gsave 18.200000 3.650000 translate 0.035278 -0.035278 scale
start_ol
640 5056 moveto
1344 5056 lineto
1344 576 lineto
3776 576 lineto
3776 0 lineto
640 0 lineto
640 5056 lineto
end_ol grestore 
gsave 18.724933 3.650000 translate 0.035278 -0.035278 scale
start_ol
2368 4380 moveto
1445 1856 lineto
3295 1856 lineto
2368 4380 lineto
1984 5056 moveto
2756 5056 lineto
4672 0 lineto
3964 0 lineto
3506 1280 lineto
1240 1280 lineto
782 0 lineto
64 0 lineto
1984 5056 lineto
end_ol grestore 
gsave 19.351467 3.650000 translate 0.035278 -0.035278 scale
start_ol
1344 4480 moveto
1344 576 lineto
2162 576 lineto
3198 576 3679 1046 conicto
4160 1517 4160 2533 conicto
4160 3542 3679 4011 conicto
3198 4480 2162 4480 conicto
1344 4480 lineto
640 5056 moveto
2058 5056 lineto
3508 5056 4186 4445 conicto
4864 3834 4864 2534 conicto
4864 1226 4182 613 conicto
3501 0 2058 0 conicto
640 0 lineto
640 5056 lineto
end_ol grestore 
gsave 20.037267 3.650000 translate 0.035278 -0.035278 scale
start_ol
2368 4380 moveto
1445 1856 lineto
3295 1856 lineto
2368 4380 lineto
1984 5056 moveto
2756 5056 lineto
4672 0 lineto
3964 0 lineto
3506 1280 lineto
1240 1280 lineto
782 0 lineto
64 0 lineto
1984 5056 lineto
end_ol grestore 
gsave 20.663800 3.650000 translate 0.035278 -0.035278 scale
start_ol
3055 2416 moveto
3270 2339 3474 2090 conicto
3678 1842 3884 1407 conicto
4608 0 lineto
3844 0 lineto
3214 1321 lineto
2964 1838 2729 2007 conicto
2494 2176 2088 2176 conicto
1344 2176 lineto
1344 0 lineto
640 0 lineto
640 5056 lineto
2202 5056 lineto
3059 5056 3481 4700 conicto
3904 4344 3904 3625 conicto
3904 3155 3687 2845 conicto
3470 2535 3055 2416 conicto
1344 4480 moveto
1344 2752 lineto
2202 2752 lineto
2696 2752 2948 2972 conicto
3200 3192 3200 3619 conicto
3200 4046 2948 4263 conicto
2696 4480 2202 4480 conicto
1344 4480 lineto
end_ol grestore 
gsave 21.298800 3.650000 translate 0.035278 -0.035278 scale
start_ol
end_ol grestore 
gsave 21.586667 3.650000 translate 0.035278 -0.035278 scale
start_ol
3136 3264 moveto
3136 5248 lineto
3776 5248 lineto
3776 0 lineto
3136 0 lineto
3136 512 lineto
2940 188 2642 30 conicto
2345 -128 1927 -128 conicto
1243 -128 813 427 conicto
384 983 384 1889 conicto
384 2794 813 3349 conicto
1243 3904 1927 3904 conicto
2345 3904 2642 3746 conicto
2940 3589 3136 3264 conicto
1024 1889 moveto
1024 1185 1305 784 conicto
1586 384 2078 384 conicto
2570 384 2853 784 conicto
3136 1185 3136 1889 conicto
3136 2592 2853 2992 conicto
2570 3392 2078 3392 conicto
1586 3392 1305 2992 conicto
1024 2592 1024 1889 conicto
end_ol grestore 
gsave 22.170867 3.650000 translate 0.035278 -0.035278 scale
start_ol
2336 1856 moveto
1596 1856 1310 1684 conicto
1024 1513 1024 1100 conicto
1024 770 1238 577 conicto
1453 384 1821 384 conicto
2330 384 2637 749 conicto
2944 1115 2944 1723 conicto
2944 1856 lineto
2336 1856 lineto
3584 2127 moveto
3584 0 lineto
2944 0 lineto
2944 576 lineto
2732 216 2416 44 conicto
2101 -128 1644 -128 conicto
1066 -128 725 199 conicto
384 527 384 1076 conicto
384 1717 811 2042 conicto
1239 2368 2087 2368 conicto
2944 2368 lineto
2944 2434 lineto
2944 2892 2661 3142 conicto
2378 3392 1867 3392 conicto
1542 3392 1233 3311 conicto
924 3231 640 3072 conicto
640 3648 lineto
984 3776 1307 3840 conicto
1631 3904 1938 3904 conicto
2766 3904 3175 3463 conicto
3584 3023 3584 2127 conicto
end_ol grestore 
gsave 22.729667 3.650000 translate 0.035278 -0.035278 scale
start_ol
1280 4864 moveto
1280 3776 lineto
2560 3776 lineto
2560 3264 lineto
1280 3264 lineto
1280 1230 lineto
1280 772 1406 642 conicto
1533 512 1922 512 conicto
2560 512 lineto
2560 0 lineto
1922 0 lineto
1194 0 917 265 conicto
640 531 640 1230 conicto
640 3264 lineto
192 3264 lineto
192 3776 lineto
640 3776 lineto
640 4864 lineto
1280 4864 lineto
end_ol grestore 
gsave 23.085267 3.650000 translate 0.035278 -0.035278 scale
start_ol
2336 1856 moveto
1596 1856 1310 1684 conicto
1024 1513 1024 1100 conicto
1024 770 1238 577 conicto
1453 384 1821 384 conicto
2330 384 2637 749 conicto
2944 1115 2944 1723 conicto
2944 1856 lineto
2336 1856 lineto
3584 2127 moveto
3584 0 lineto
2944 0 lineto
2944 576 lineto
2732 216 2416 44 conicto
2101 -128 1644 -128 conicto
1066 -128 725 199 conicto
384 527 384 1076 conicto
384 1717 811 2042 conicto
1239 2368 2087 2368 conicto
2944 2368 lineto
2944 2434 lineto
2944 2892 2661 3142 conicto
2378 3392 1867 3392 conicto
1542 3392 1233 3311 conicto
924 3231 640 3072 conicto
640 3648 lineto
984 3776 1307 3840 conicto
1631 3904 1938 3904 conicto
2766 3904 3175 3463 conicto
3584 3023 3584 2127 conicto
end_ol grestore 
1.000000 1.000000 1.000000 srgb
n 30.075100 2.395000 m 30.075100 4.295000 l 36.675100 4.295000 l 36.675100 2.395000 l f
0.100000 slw
[] 0 sd
[] 0 sd
0 slj
0.000000 0.000000 0.000000 srgb
n 30.075100 2.395000 m 30.075100 4.295000 l 36.675100 4.295000 l 36.675100 2.395000 l cp s
gsave 30.875100 3.645000 translate 0.035278 -0.035278 scale
start_ol
2368 4380 moveto
1445 1856 lineto
3295 1856 lineto
2368 4380 lineto
1984 5056 moveto
2756 5056 lineto
4672 0 lineto
3964 0 lineto
3506 1280 lineto
1240 1280 lineto
782 0 lineto
64 0 lineto
1984 5056 lineto
end_ol grestore 
gsave 31.501633 3.645000 translate 0.035278 -0.035278 scale
start_ol
3648 4928 moveto
3648 4288 lineto
3269 4449 2933 4528 conicto
2597 4608 2285 4608 conicto
1741 4608 1446 4393 conicto
1152 4178 1152 3781 conicto
1152 3448 1349 3278 conicto
1546 3109 2097 3005 conicto
2501 2917 lineto
3253 2769 3610 2395 conicto
3968 2021 3968 1393 conicto
3968 644 3478 258 conicto
2988 -128 2041 -128 conicto
1685 -128 1282 -47 conicto
879 33 448 192 conicto
448 896 lineto
863 673 1261 560 conicto
1660 448 2045 448 conicto
2629 448 2946 680 conicto
3264 913 3264 1343 conicto
3264 1719 3040 1931 conicto
2816 2143 2305 2248 conicto
1898 2332 lineto
1132 2486 790 2814 conicto
448 3143 448 3727 conicto
448 4405 912 4794 conicto
1377 5184 2193 5184 conicto
2543 5184 2905 5120 conicto
3268 5056 3648 4928 conicto
end_ol grestore 
gsave 32.085833 3.645000 translate 0.035278 -0.035278 scale
start_ol
1280 4864 moveto
1280 3776 lineto
2560 3776 lineto
2560 3264 lineto
1280 3264 lineto
1280 1230 lineto
1280 772 1406 642 conicto
1533 512 1922 512 conicto
2560 512 lineto
2560 0 lineto
1922 0 lineto
1194 0 917 265 conicto
640 531 640 1230 conicto
640 3264 lineto
192 3264 lineto
192 3776 lineto
640 3776 lineto
640 4864 lineto
1280 4864 lineto
end_ol grestore 
gsave 32.441433 3.645000 translate 0.035278 -0.035278 scale
start_ol
2336 1856 moveto
1596 1856 1310 1684 conicto
1024 1513 1024 1100 conicto
1024 770 1238 577 conicto
1453 384 1821 384 conicto
2330 384 2637 749 conicto
2944 1115 2944 1723 conicto
2944 1856 lineto
2336 1856 lineto
3584 2127 moveto
3584 0 lineto
2944 0 lineto
2944 576 lineto
2732 216 2416 44 conicto
2101 -128 1644 -128 conicto
1066 -128 725 199 conicto
384 527 384 1076 conicto
384 1717 811 2042 conicto
1239 2368 2087 2368 conicto
2944 2368 lineto
2944 2434 lineto
2944 2892 2661 3142 conicto
2378 3392 1867 3392 conicto
1542 3392 1233 3311 conicto
924 3231 640 3072 conicto
640 3648 lineto
984 3776 1307 3840 conicto
1631 3904 1938 3904 conicto
2766 3904 3175 3463 conicto
3584 3023 3584 2127 conicto
end_ol grestore 
gsave 33.000233 3.645000 translate 0.035278 -0.035278 scale
start_ol
1280 4864 moveto
1280 3776 lineto
2560 3776 lineto
2560 3264 lineto
1280 3264 lineto
1280 1230 lineto
1280 772 1406 642 conicto
1533 512 1922 512 conicto
2560 512 lineto
2560 0 lineto
1922 0 lineto
1194 0 917 265 conicto
640 531 640 1230 conicto
640 3264 lineto
192 3264 lineto
192 3776 lineto
640 3776 lineto
640 4864 lineto
1280 4864 lineto
end_ol grestore 
gsave 33.355833 3.645000 translate 0.035278 -0.035278 scale
start_ol
3904 2111 moveto
3904 1792 lineto
1024 1792 lineto
1066 1104 1417 744 conicto
1768 384 2394 384 conicto
2758 384 3099 464 conicto
3440 544 3776 704 conicto
3776 128 lineto
3438 4 3083 -62 conicto
2729 -128 2364 -128 conicto
1451 -128 917 407 conicto
384 942 384 1854 conicto
384 2797 888 3350 conicto
1392 3904 2245 3904 conicto
3012 3904 3458 3422 conicto
3904 2940 3904 2111 conicto
3264 2304 moveto
3257 2800 2978 3096 conicto
2699 3392 2239 3392 conicto
1718 3392 1405 3105 conicto
1092 2819 1045 2300 conicto
3264 2304 lineto
end_ol grestore 
gsave 33.914633 3.645000 translate 0.035278 -0.035278 scale
start_ol
end_ol grestore 
gsave 34.202500 3.645000 translate 0.035278 -0.035278 scale
start_ol
3136 3264 moveto
3136 5248 lineto
3776 5248 lineto
3776 0 lineto
3136 0 lineto
3136 512 lineto
2940 188 2642 30 conicto
2345 -128 1927 -128 conicto
1243 -128 813 427 conicto
384 983 384 1889 conicto
384 2794 813 3349 conicto
1243 3904 1927 3904 conicto
2345 3904 2642 3746 conicto
2940 3589 3136 3264 conicto
1024 1889 moveto
1024 1185 1305 784 conicto
1586 384 2078 384 conicto
2570 384 2853 784 conicto
3136 1185 3136 1889 conicto
3136 2592 2853 2992 conicto
2570 3392 2078 3392 conicto
1586 3392 1305 2992 conicto
1024 2592 1024 1889 conicto
end_ol grestore 
gsave 34.786700 3.645000 translate 0.035278 -0.035278 scale
start_ol
2336 1856 moveto
1596 1856 1310 1684 conicto
1024 1513 1024 1100 conicto
1024 770 1238 577 conicto
1453 384 1821 384 conicto
2330 384 2637 749 conicto
2944 1115 2944 1723 conicto
2944 1856 lineto
2336 1856 lineto
3584 2127 moveto
3584 0 lineto
2944 0 lineto
2944 576 lineto
2732 216 2416 44 conicto
2101 -128 1644 -128 conicto
1066 -128 725 199 conicto
384 527 384 1076 conicto
384 1717 811 2042 conicto
1239 2368 2087 2368 conicto
2944 2368 lineto
2944 2434 lineto
2944 2892 2661 3142 conicto
2378 3392 1867 3392 conicto
1542 3392 1233 3311 conicto
924 3231 640 3072 conicto
640 3648 lineto
984 3776 1307 3840 conicto
1631 3904 1938 3904 conicto
2766 3904 3175 3463 conicto
3584 3023 3584 2127 conicto
end_ol grestore 
gsave 35.345500 3.645000 translate 0.035278 -0.035278 scale
start_ol
1280 4864 moveto
1280 3776 lineto
2560 3776 lineto
2560 3264 lineto
1280 3264 lineto
1280 1230 lineto
1280 772 1406 642 conicto
1533 512 1922 512 conicto
2560 512 lineto
2560 0 lineto
1922 0 lineto
1194 0 917 265 conicto
640 531 640 1230 conicto
640 3264 lineto
192 3264 lineto
192 3776 lineto
640 3776 lineto
640 4864 lineto
1280 4864 lineto
end_ol grestore 
gsave 35.701100 3.645000 translate 0.035278 -0.035278 scale
start_ol
2336 1856 moveto
1596 1856 1310 1684 conicto
1024 1513 1024 1100 conicto
1024 770 1238 577 conicto
1453 384 1821 384 conicto
2330 384 2637 749 conicto
2944 1115 2944 1723 conicto
2944 1856 lineto
2336 1856 lineto
3584 2127 moveto
3584 0 lineto
2944 0 lineto
2944 576 lineto
2732 216 2416 44 conicto
2101 -128 1644 -128 conicto
1066 -128 725 199 conicto
384 527 384 1076 conicto
384 1717 811 2042 conicto
1239 2368 2087 2368 conicto
2944 2368 lineto
2944 2434 lineto
2944 2892 2661 3142 conicto
2378 3392 1867 3392 conicto
1542 3392 1233 3311 conicto
924 3231 640 3072 conicto
640 3648 lineto
984 3776 1307 3840 conicto
1631 3904 1938 3904 conicto
2766 3904 3175 3463 conicto
3584 3023 3584 2127 conicto
end_ol grestore 
showpage
