1,34.0885860,-117.4989740,10,10
2,34.0886520,-117.4990460,10,10
3,34.0886710,-117.4991000,10,10
4,34.0886550,-117.4991730,10,10
5,34.0885500,-117.4993200,10,10
6,34.0884500,-117.4994550,10,10
7,34.0884360,-117.4995410,10,10
8,34.0884750,-117.4996370,10,10
9,34.0885550,-117.4997080,10,10
10,34.0886160,-117.4997070,10,10
11,34.0886670,-117.4996690,10,10
12,34.0886960,-117.4996100,10,10
13,34.0886920,-117.4995420,10,10
14,34.0886530,-117.4994730,10,10
15,34.0885500,-117.4993200,10,10
16,34.0884470,-117.4991840,5,10
17,34.0884130,-117.4990480,5,10
18,34.0884310,-117.4989540,5,10
19,34.0884710,-117.4989140,5,10
20,34.0885170,-117.4989120,5,10
21,34.0885360,-117.4989250,5,0
