1,34.0885680,-117.4978870,10,10
2,34.0886510,-117.4979590,10,10
3,34.0886780,-117.4980280,10,10
4,34.0886540,-117.4981090,10,10
5,34.0885500,-117.4982400,10,10
6,34.0884450,-117.4983800,10,10
7,34.0884280,-117.4984630,10,10
8,34.0884520,-117.4985600,10,10
9,34.0885050,-117.4986400,10,10
10,34.0885760,-117.4986740,10,10
11,34.0886120,-117.4986650,10,10
12,34.0886690,-117.4986110,10,10
13,34.0886990,-117.4985340,10,10
14,34.0887010,-117.4984900,10,10
15,34.0886790,-117.4984060,10,10
16,34.0885500,-117.4982400,10,10
17,34.0884310,-117.4980810,5,10
18,34.0884080,-117.4979540,5,10
19,34.0884160,-117.4978900,5,10
20,34.0884470,-117.4978390,5,10
21,34.0884710,-117.4978270,5,10
22,34.0885230,-117.4978550,5,0
