1,35.6168900,-115.3808970,10,10
2,35.6168030,-115.3811970,10,10
3,35.6167730,-115.3813120,10,10
4,35.6167780,-115.3816000,10,10
5,35.6168030,-115.3817230,10,10
6,35.6168640,-115.3818300,10,10
7,35.6169640,-115.3819330,10,10
8,35.6170930,-115.3820170,10,10
9,35.6171970,-115.3820560,10,10
10,35.6173170,-115.3820670,10,10
11,35.6175760,-115.3820320,10,10
12,35.6178090,-115.3819900,10,10
13,35.6179010,-115.3819650,7,10
14,35.6181550,-115.3818930,7,10
15,35.6182970,-115.3818300,7,10
16,35.6183760,-115.3817480,7,10
17,35.6184150,-115.3816450,7,10
18,35.6184280,-115.3813430,7,10
19,35.6184290,-115.3810330,7,10
20,35.6184280,-115.3807160,7,10
21,35.6184130,-115.3805590,7,10
22,35.6183690,-115.3804610,7,10
23,35.6181990,-115.3802910,7,10
24,35.6179800,-115.3800990,7,10
25,35.6178200,-115.3799660,7,10
26,35.6177130,-115.3799240,7,10
27,35.6175860,-115.3799130,10,20
28,35.6173270,-115.3799120,10,20
29,35.6170740,-115.3799180,10,20
30,35.6168080,-115.3799240,10,20
31,35.6165390,-115.3799290,10,20
32,35.6162960,-115.3799340,10,20
33,35.6160290,-115.3799380,10,20
34,35.6157630,-115.3799460,10,20
35,35.6155380,-115.3799510,10,20
36,35.6153120,-115.3799580,10,20
37,35.6150430,-115.3799660,10,20
38,35.6148950,-115.3799700,10,20
39,35.6147600,-115.3799740,10,13
40,35.6146330,-115.3799780,10,6
41,35.6145100,-115.3799800,10,0
