!K
DMTR 1863
DMTIC 9.37
DMTICD 38.30
DMTKE 40.8
DMTRES 0.49
DMTJ 90.380
DPOLE 4
DMTW 50.0
DMTIP 28.11
DMTLMN 6.8
DMTLMX 7.8
DMTD 0.000135
DMTRWC 0.17
DMTTCM 33.3
DMTTCW 1.20
DMTAMB 40.00
DMTMAX 125.00
DHALL  1
MXPLUS  0
DMTLQS  0
DMTLDS  0
DTHERM  0
DMODE 12
DPWM 0
SFB 1
ERES 8000
ORES 8000
DMEPIT 0.00
SHALL 0
DMTLIM 13.4
DMTSCL 13.4
DMVLIM 50.000000
LJRAT 0.0
LDAMP 0.0000
FLTDSB 1
KDRIVE 0
SMPER 8000
SMVER 0.000000
DIFOLD 0
INFNC 1-R
INFNC 2-S
INFNC 3-T
INFNC 4-H
INFNC 5-A
INFNC 6-A
INFNC 7-A
INFNC 8-A
INLVL 11000000
INDEB 50
INUFD 0
LH 3
LHAD 100.0000
LHADA 100.0000
OUTBD 0
OUTFNC 1-A
OUTFNC 2-F
OUTFNC 3-D
OUTFNC 4-G
OUTFNC 5-B
OUTFNC 6-A
OUTFNC 7-F
OUTLVL 0000000
DMONAV 0
DMONAS 100
DMONBV 0
DMONBS 100
DIBW 500
DVBW 50
DPBW 20.00
SGPSIG 1.000
SGIRAT 1.500
SGVRAT 1.000
SGPRAT 1.000
DNOTAF 0
DNOTAQ 1.0
DNOTAD 0.0000
DNOTBF 0
DNOTBQ 1.0
DNOTBD 0.0000
DNOTLG 0
DNOTLD 0
SGINTE 0
SGVF 100
SGAF 100
ASCII 1
ECHO 0
