1	0.000000	3781293.949282899	398965.622002452	-118.096163650	34.167690291	4.470400	2.245640	2.245640	
2	0.000000	3781293.370093220	398966.654032324	-118.096152387	34.167685169	4.470400	1.998294	1.998294	

