test #0
pos: (0, 0)
way: (1, 1)
hea: (1, 1.001)
angle: -0.000345267
test #1
pos: (0, 0)
way: (1, 1.001)
hea: (1, 1)
angle: 0.000345267
test #2
pos: (0, 0)
way: (1, 1)
hea: (1, 1.0001)
angle: 0
test #3
pos: (0, 0)
way: (1, 1.0001)
hea: (1, 1)
angle: 0
test #4
pos: (0, 0)
way: (1, 1)
hea: (1, 1.00001)
angle: 0
test #5
pos: (0, 0)
way: (1, 1.00001)
hea: (1, 1)
angle: 0
test #6
pos: (0, 0)
way: (1, 1)
hea: (1, 0.999)
angle: 0.000488281
test #7
pos: (0, 0)
way: (1, 0.999)
hea: (1, 1)
angle: -0.000488281
test #8
pos: (0, 0)
way: (1, 1)
hea: (1, 0.9999)
angle: 0
test #9
pos: (0, 0)
way: (1, 0.9999)
hea: (1, 1)
angle: 0
