RNDF_name	Sample_RNDF_Rev_1.2	
num_segments	1
num_zones	0
format_version	1.0	
creation_date	5/18/2006	
segment	1	
num_lanes	1	
segment_name	Michigan_Ave	
lane	1.1
num_waypoints	3
lane_width	15	
left_boundary	double_yellow	
right_boundary	road_edge
exit	1.1.3
checkpoint	1.1.3	1
1.1.1	34.139033 	-118.123527
1.1.2	34.139033	-118.123416
1.1.3	34.139033	-118.123305
end_lane		
end_segment		
end_file		

