1,34.6531619085583,-117.6271793195306,12.3031,4.47386,####,####,####
2,34.6521717883839,-117.6268226619456,8.20208,2.23693,####,####,####
3,34.6518477783443,-117.6267001859078,24.6062,11.1847,####,####,####
4,34.6504058885209,-117.6265147381063,41.0104,11.1847,####,####,####
5,34.6495040343216,-117.6265297773848,41.0104,11.1847,####,####,####
6,34.6497878885262,-117.6256916748317,41.0104,11.1847,####,####,####
7,34.6499517694825,-117.6253873644016,41.0104,11.1847,####,####,####
8,34.6501511599667,-117.6251924416382,41.0104,11.1847,####,####,####
9,34.6507263722172,-117.6255677786207,16.4042,11.1847,####,####,####
10,34.6509683307402,-117.6258642294390,16.4042,4.47386,####,####,####
11,34.6509398779899,-117.6261368239595,16.4042,4.47386,####,####,####
12,34.6514989579978,-117.6261410278430,32.8083,4.47386,####,####,####
13,34.6528783988061,-117.6261950511071,32.8083,11.1847,####,####,####
14,34.6535543687735,-117.6262656108396,16.4042,4.47386,####,####,####
