<kml>
<Folder>
<name>santaanita_northlot.rndf</name>
<Folder>
<name>1</name>
<description>Fast_Lane</description>
	<Placemark>
		<name>1.1</name>
		<DrawOrder>0</DrawOrder>
		<Style>
			<LineStyle>
				<color>ffff1111</color>
				<width>4</width>
			</LineStyle>
		</Style>
		<LineString>
		   <coordinates>
-118.041830,34.144500,0.0
-118.041731,34.144349,0.0
-118.041602,34.144158,0.0
-118.041423,34.143895,0.0
-118.041356,34.143795,0.0
-118.041147,34.143484,0.0
-118.041055,34.143369,0.0
-118.040341,34.142270,0.0
-118.040438,34.142053,0.0
-118.040515,34.141970,0.0
-118.040594,34.141908,0.0
-118.041270,34.141551,0.0
		  </coordinates>
		</LineString> 
	</Placemark>
	<Placemark>
		<name>1.2</name>
		<DrawOrder>0</DrawOrder>
		<Style>
			<LineStyle>
				<color>ffff1111</color>
				<width>4</width>
			</LineStyle>
		</Style>
		<LineString>
		   <coordinates>
-118.041242,34.141503,0.0
-118.040485,34.141916,0.0
-118.040384,34.142012,0.0
-118.040267,34.142283,0.0
-118.040646,34.142865,0.0
-118.041014,34.143400,0.0
-118.041099,34.143518,0.0
-118.041318,34.143820,0.0
-118.041385,34.143921,0.0
-118.041486,34.144062,0.0
-118.041695,34.144355,0.0
-118.041806,34.144520,0.0
		  </coordinates>
		</LineString> 
	</Placemark>
</Folder>
<Folder>
<name>2</name>
<description>Murray_Road</description>
	<Placemark>
		<name>2.1</name>
		<DrawOrder>0</DrawOrder>
		<Style>
			<LineStyle>
				<color>ffff1111</color>
				<width>4</width>
			</LineStyle>
		</Style>
		<LineString>
		   <coordinates>
-118.042508,34.142961,0.0
-118.042287,34.142642,0.0
-118.042212,34.142540,0.0
-118.041373,34.141523,0.0
		  </coordinates>
		</LineString> 
	</Placemark>
	<Placemark>
		<name>2.2</name>
		<DrawOrder>0</DrawOrder>
		<Style>
			<LineStyle>
				<color>ffff1111</color>
				<width>4</width>
			</LineStyle>
		</Style>
		<LineString>
		   <coordinates>
-118.041321,34.141557,0.0
-118.042165,34.142576,0.0
-118.042242,34.142672,0.0
-118.042463,34.142994,0.0
		  </coordinates>
		</LineString> 
	</Placemark>
</Folder>
<Folder>
<name>3</name>
<description>St_Luke_Lane</description>
	<Placemark>
		<name>3.1</name>
		<DrawOrder>0</DrawOrder>
		<Style>
			<LineStyle>
				<color>ffff1111</color>
				<width>4</width>
			</LineStyle>
		</Style>
		<LineString>
		   <coordinates>
-118.042449,34.143037,0.0
-118.041675,34.143580,0.0
-118.041578,34.143662,0.0
-118.041407,34.143808,0.0
		  </coordinates>
		</LineString> 
	</Placemark>
	<Placemark>
		<name>3.2</name>
		<DrawOrder>0</DrawOrder>
		<Style>
			<LineStyle>
				<color>ffff1111</color>
				<width>4</width>
			</LineStyle>
		</Style>
		<LineString>
		   <coordinates>
-118.041425,34.143840,0.0
-118.041599,34.143692,0.0
-118.041699,34.143613,0.0
-118.042471,34.143078,0.0
		  </coordinates>
		</LineString> 
	</Placemark>
</Folder>
<Folder>
<name>4</name>
<description>Dont_panic</description>
	<Placemark>
		<name>4.1</name>
		<DrawOrder>0</DrawOrder>
		<Style>
			<LineStyle>
				<color>ffff1111</color>
				<width>4</width>
			</LineStyle>
		</Style>
		<LineString>
		   <coordinates>
-118.042562,34.142975,0.0
-118.043007,34.142734,0.0
-118.043419,34.142552,0.0
-118.043778,34.142549,0.0
-118.043863,34.142652,0.0
-118.043910,34.142789,0.0
-118.043804,34.143089,0.0
-118.043660,34.143215,0.0
-118.043488,34.143351,0.0
-118.043308,34.143478,0.0
		  </coordinates>
		</LineString> 
	</Placemark>
</Folder>
<Folder>
<name>5</name>
<description>Winding_Way</description>
	<Placemark>
		<name>5.1</name>
		<DrawOrder>0</DrawOrder>
		<Style>
			<LineStyle>
				<color>ffff1111</color>
				<width>4</width>
			</LineStyle>
		</Style>
		<LineString>
		   <coordinates>
-118.043243,34.143481,0.0
-118.041903,34.144484,0.0
-118.041864,34.144508,0.0
		  </coordinates>
		</LineString> 
	</Placemark>
	<Placemark>
		<name>5.2</name>
		<DrawOrder>0</DrawOrder>
		<Style>
			<LineStyle>
				<color>ffff1111</color>
				<width>4</width>
			</LineStyle>
		</Style>
		<LineString>
		   <coordinates>
-118.041897,34.144557,0.0
-118.041938,34.144531,0.0
-118.043269,34.143554,0.0
		  </coordinates>
		</LineString> 
	</Placemark>
</Folder>
<Folder>
<name>6</name>
<description>Segment6</description>
	<Placemark>
		<name>6.1</name>
		<DrawOrder>0</DrawOrder>
		<Style>
			<LineStyle>
				<color>ffff1111</color>
				<width>4</width>
			</LineStyle>
		</Style>
		<LineString>
		   <coordinates>
-118.041147,34.143423,0.0
-118.041316,34.143284,0.0
-118.041409,34.143204,0.0
-118.042175,34.142659,0.0
-118.042285,34.142586,0.0
-118.042470,34.142469,0.0
		  </coordinates>
		</LineString> 
	</Placemark>
	<Placemark>
		<name>6.2</name>
		<DrawOrder>0</DrawOrder>
		<Style>
			<LineStyle>
				<color>ffff1111</color>
				<width>4</width>
			</LineStyle>
		</Style>
		<LineString>
		   <coordinates>
-118.042446,34.142429,0.0
-118.042266,34.142551,0.0
-118.042151,34.142624,0.0
-118.041389,34.143179,0.0
-118.041294,34.143258,0.0
-118.041129,34.143391,0.0
		  </coordinates>
		</LineString> 
	</Placemark>
</Folder>
<Folder>
<name>7</name>
<description>Segment7</description>
	<Placemark>
		<name>7.1</name>
		<DrawOrder>0</DrawOrder>
		<Style>
			<LineStyle>
				<color>ffff1111</color>
				<width>4</width>
			</LineStyle>
		</Style>
		<LineString>
		   <coordinates>
-118.041627,34.143578,0.0
-118.041398,34.143260,0.0
-118.041330,34.143153,0.0
-118.040608,34.141977,0.0
		  </coordinates>
		</LineString> 
	</Placemark>
	<Placemark>
		<name>7.2</name>
		<DrawOrder>0</DrawOrder>
		<Style>
			<LineStyle>
				<color>ffff1111</color>
				<width>4</width>
			</LineStyle>
		</Style>
		<LineString>
		   <coordinates>
-118.041598,34.143600,0.0
-118.041375,34.143288,0.0
-118.041307,34.143182,0.0
-118.040571,34.142009,0.0
		  </coordinates>
		</LineString> 
	</Placemark>
</Folder>
<Folder>
<name>8</name>
<description>Segment8</description>
	<Placemark>
		<name>8.1</name>
		<DrawOrder>0</DrawOrder>
		<Style>
			<LineStyle>
				<color>ffff1111</color>
				<width>4</width>
			</LineStyle>
		</Style>
		<LineString>
		   <coordinates>
-118.043627,34.142648,0.0
-118.042799,34.143208,0.0
-118.042154,34.143689,0.0
-118.041991,34.143832,0.0
		  </coordinates>
		</LineString> 
	</Placemark>
	<Placemark>
		<name>8.2</name>
		<DrawOrder>0</DrawOrder>
		<Style>
			<LineStyle>
				<color>ffff1111</color>
				<width>4</width>
			</LineStyle>
		</Style>
		<LineString>
		   <coordinates>
-118.043760,34.142623,0.0
-118.043053,34.143103,0.0
-118.042206,34.143708,0.0
-118.041980,34.143903,0.0
-118.041790,34.143803,0.0
-118.041704,34.143678,0.0
		  </coordinates>
		</LineString> 
	</Placemark>
	<Placemark>
		<name>8.3</name>
		<DrawOrder>0</DrawOrder>
		<Style>
			<LineStyle>
				<color>ffff1111</color>
				<width>4</width>
			</LineStyle>
		</Style>
		<LineString>
		   <coordinates>
-118.041672,34.143705,0.0
-118.041776,34.143851,0.0
-118.041984,34.143958,0.0
-118.042239,34.143746,0.0
-118.043798,34.142661,0.0
		  </coordinates>
		</LineString> 
	</Placemark>
	<Placemark>
		<name>8.4</name>
		<DrawOrder>0</DrawOrder>
		<Style>
			<LineStyle>
				<color>ffff1111</color>
				<width>4</width>
			</LineStyle>
		</Style>
		<LineString>
		   <coordinates>
-118.041812,34.143935,0.0
-118.041978,34.144021,0.0
-118.042278,34.143799,0.0
-118.042925,34.143342,0.0
-118.043740,34.142790,0.0
		  </coordinates>
		</LineString> 
	</Placemark>
</Folder>
</Folder>
</kml>
