%!PS-Adobe-3.0 EPSF-3.0
%%Creator: MATLAB, The Mathworks, Inc.
%%Title: /home/jleibs/dgc/modules/astate/statesmooth.eps
%%CreationDate: 12/11/2005  16:01:13
%%DocumentNeededFonts: Helvetica
%%DocumentProcessColors: Cyan Magenta Yellow Black
%%LanguageLevel: 2
%%Pages: 1
%%BoundingBox:    81   228   529   563
%%EndComments

%%BeginProlog
% MathWorks dictionary
/MathWorks 160 dict begin
% definition operators
/bdef {bind def} bind def
/ldef {load def} bind def
/xdef {exch def} bdef
/xstore {exch store} bdef
% operator abbreviations
/c  /clip ldef
/cc /concat ldef
/cp /closepath ldef
/gr /grestore ldef
/gs /gsave ldef
/mt /moveto ldef
/np /newpath ldef
/cm /currentmatrix ldef
/sm /setmatrix ldef
/rm /rmoveto ldef
/rl /rlineto ldef
/s {show newpath} bdef
/sc {setcmykcolor} bdef
/sr /setrgbcolor ldef
/sg /setgray ldef
/w /setlinewidth ldef
/j /setlinejoin ldef
/cap /setlinecap ldef
/rc {rectclip} bdef
/rf {rectfill} bdef
% page state control
/pgsv () def
/bpage {/pgsv save def} bdef
/epage {pgsv restore} bdef
/bplot /gsave ldef
/eplot {stroke grestore} bdef
% orientation switch
/portraitMode 0 def /landscapeMode 1 def /rotateMode 2 def
% coordinate system mappings
/dpi2point 0 def
% font control
/FontSize 0 def
/FMS {/FontSize xstore findfont [FontSize 0 0 FontSize neg 0 0]
  makefont setfont} bdef
/reencode {exch dup where {pop load} {pop StandardEncoding} ifelse
  exch dup 3 1 roll findfont dup length dict begin
  { 1 index /FID ne {def}{pop pop} ifelse } forall
  /Encoding exch def currentdict end definefont pop} bdef
/isroman {findfont /CharStrings get /Agrave known} bdef
/FMSR {3 1 roll 1 index dup isroman {reencode} {pop pop} ifelse
  exch FMS} bdef
/csm {1 dpi2point div -1 dpi2point div scale neg translate
 dup landscapeMode eq {pop -90 rotate}
  {rotateMode eq {90 rotate} if} ifelse} bdef
% line types: solid, dotted, dashed, dotdash
/SO { [] 0 setdash } bdef
/DO { [.5 dpi2point mul 4 dpi2point mul] 0 setdash } bdef
/DA { [6 dpi2point mul] 0 setdash } bdef
/DD { [.5 dpi2point mul 4 dpi2point mul 6 dpi2point mul 4
  dpi2point mul] 0 setdash } bdef
% macros for lines and objects
/L {lineto stroke} bdef
/MP {3 1 roll moveto 1 sub {rlineto} repeat} bdef
/AP {{rlineto} repeat} bdef
/PDlw -1 def
/W {/PDlw currentlinewidth def setlinewidth} def
/PP {closepath eofill} bdef
/DP {closepath stroke} bdef
/MR {4 -2 roll moveto dup  0 exch rlineto exch 0 rlineto
  neg 0 exch rlineto closepath} bdef
/FR {MR stroke} bdef
/PR {MR fill} bdef
/L1i {{currentfile picstr readhexstring pop} image} bdef
/tMatrix matrix def
/MakeOval {newpath tMatrix currentmatrix pop translate scale
0 0 1 0 360 arc tMatrix setmatrix} bdef
/FO {MakeOval stroke} bdef
/PO {MakeOval fill} bdef
/PD {currentlinewidth 2 div 0 360 arc fill
   PDlw -1 eq not {PDlw w /PDlw -1 def} if} def
/FA {newpath tMatrix currentmatrix pop translate scale
  0 0 1 5 -2 roll arc tMatrix setmatrix stroke} bdef
/PA {newpath tMatrix currentmatrix pop	translate 0 0 moveto scale
  0 0 1 5 -2 roll arc closepath tMatrix setmatrix fill} bdef
/FAn {newpath tMatrix currentmatrix pop translate scale
  0 0 1 5 -2 roll arcn tMatrix setmatrix stroke} bdef
/PAn {newpath tMatrix currentmatrix pop translate 0 0 moveto scale
  0 0 1 5 -2 roll arcn closepath tMatrix setmatrix fill} bdef
/vradius 0 def /hradius 0 def /lry 0 def
/lrx 0 def /uly 0 def /ulx 0 def /rad 0 def
/MRR {/vradius xdef /hradius xdef /lry xdef /lrx xdef /uly xdef
  /ulx xdef newpath tMatrix currentmatrix pop ulx hradius add uly
  vradius add translate hradius vradius scale 0 0 1 180 270 arc 
  tMatrix setmatrix lrx hradius sub uly vradius add translate
  hradius vradius scale 0 0 1 270 360 arc tMatrix setmatrix
  lrx hradius sub lry vradius sub translate hradius vradius scale
  0 0 1 0 90 arc tMatrix setmatrix ulx hradius add lry vradius sub
  translate hradius vradius scale 0 0 1 90 180 arc tMatrix setmatrix
  closepath} bdef
/FRR {MRR stroke } bdef
/PRR {MRR fill } bdef
/MlrRR {/lry xdef /lrx xdef /uly xdef /ulx xdef /rad lry uly sub 2 div def
  newpath tMatrix currentmatrix pop ulx rad add uly rad add translate
  rad rad scale 0 0 1 90 270 arc tMatrix setmatrix lrx rad sub lry rad
  sub translate rad rad scale 0 0 1 270 90 arc tMatrix setmatrix
  closepath} bdef
/FlrRR {MlrRR stroke } bdef
/PlrRR {MlrRR fill } bdef
/MtbRR {/lry xdef /lrx xdef /uly xdef /ulx xdef /rad lrx ulx sub 2 div def
  newpath tMatrix currentmatrix pop ulx rad add uly rad add translate
  rad rad scale 0 0 1 180 360 arc tMatrix setmatrix lrx rad sub lry rad
  sub translate rad rad scale 0 0 1 0 180 arc tMatrix setmatrix
  closepath} bdef
/FtbRR {MtbRR stroke } bdef
/PtbRR {MtbRR fill } bdef
/stri 6 array def /dtri 6 array def
/smat 6 array def /dmat 6 array def
/tmat1 6 array def /tmat2 6 array def /dif 3 array def
/asub {/ind2 exch def /ind1 exch def dup dup
  ind1 get exch ind2 get sub exch } bdef
/tri_to_matrix {
  2 0 asub 3 1 asub 4 0 asub 5 1 asub
  dup 0 get exch 1 get 7 -1 roll astore } bdef
/compute_transform {
  dmat dtri tri_to_matrix tmat1 invertmatrix 
  smat stri tri_to_matrix tmat2 concatmatrix } bdef
/ds {stri astore pop} bdef
/dt {dtri astore pop} bdef
/db {2 copy /cols xdef /rows xdef mul dup 3 mul string
  currentfile 
  3 index 0 eq {/ASCIIHexDecode filter}
  {/ASCII85Decode filter 3 index 2 eq {/RunLengthDecode filter} if }
  ifelse exch readstring pop
  dup 0 3 index getinterval /rbmap xdef
  dup 2 index dup getinterval /gbmap xdef
  1 index dup 2 mul exch getinterval /bbmap xdef pop pop}bdef
/it {gs np dtri aload pop moveto lineto lineto cp c
  cols rows 8 compute_transform 
  rbmap gbmap bbmap true 3 colorimage gr}bdef
/il {newpath moveto lineto stroke}bdef
currentdict end def
%%EndProlog

%%BeginSetup
MathWorks begin

0 cap

end
%%EndSetup

%%Page: 1 1
%%BeginPageSetup
%%PageBoundingBox:    81   228   529   563
MathWorks begin
bpage
%%EndPageSetup

%%BeginObject: obj1
bplot

/dpi2point 12 def
portraitMode 0972 6756 csm

    0     0  5376  4013 rc
85 dict begin %Colortable dictionary
/c0 { 0.000000 0.000000 0.000000 sr} bdef
/c1 { 1.000000 1.000000 1.000000 sr} bdef
/c2 { 0.900000 0.000000 0.000000 sr} bdef
/c3 { 0.000000 0.820000 0.000000 sr} bdef
/c4 { 0.000000 0.000000 0.800000 sr} bdef
/c5 { 0.910000 0.820000 0.320000 sr} bdef
/c6 { 1.000000 0.260000 0.820000 sr} bdef
/c7 { 0.000000 0.820000 0.820000 sr} bdef
c0
1 j
1 sg
   0    0 5377 4014 rf
6 w
0 3270 4167 0 0 -3270 698 3571 4 MP
PP
-4167 0 0 3270 4167 0 0 -3270 698 3571 5 MP stroke
4 w
DO
SO
6 w
0 sg
 698 3571 mt 4865 3571 L
 698  301 mt 4865  301 L
 698 3571 mt  698  301 L
4865 3571 mt 4865  301 L
 698 3571 mt 4865 3571 L
 698 3571 mt  698  301 L
 763 3571 mt  763 3529 L
 763  301 mt  763  343 L
%%IncludeResource: font Helvetica
/Helvetica /ISOLatin1Encoding 120 FMSR

 697 3717 mt 
(40) s
1410 3571 mt 1410 3529 L
1410  301 mt 1410  343 L
1344 3717 mt 
(41) s
2056 3571 mt 2056 3529 L
2056  301 mt 2056  343 L
1990 3717 mt 
(42) s
2702 3571 mt 2702 3529 L
2702  301 mt 2702  343 L
2636 3717 mt 
(43) s
3348 3571 mt 3348 3529 L
3348  301 mt 3348  343 L
3282 3717 mt 
(44) s
3994 3571 mt 3994 3529 L
3994  301 mt 3994  343 L
3928 3717 mt 
(45) s
4640 3571 mt 4640 3529 L
4640  301 mt 4640  343 L
4574 3717 mt 
(46) s
 698 3365 mt  740 3365 L
4865 3365 mt 4823 3365 L
 431 3409 mt 
(22.5) s
 698 3042 mt  740 3042 L
4865 3042 mt 4823 3042 L
 531 3086 mt 
(23) s
 698 2719 mt  740 2719 L
4865 2719 mt 4823 2719 L
 431 2763 mt 
(23.5) s
 698 2396 mt  740 2396 L
4865 2396 mt 4823 2396 L
 531 2440 mt 
(24) s
 698 2073 mt  740 2073 L
4865 2073 mt 4823 2073 L
 431 2117 mt 
(24.5) s
 698 1750 mt  740 1750 L
4865 1750 mt 4823 1750 L
 531 1794 mt 
(25) s
 698 1426 mt  740 1426 L
4865 1426 mt 4823 1426 L
 431 1470 mt 
(25.5) s
 698 1103 mt  740 1103 L
4865 1103 mt 4823 1103 L
 531 1147 mt 
(26) s
 698  780 mt  740  780 L
4865  780 mt 4823  780 L
 431  824 mt 
(26.5) s
 698  457 mt  740  457 L
4865  457 mt 4823  457 L
 531  501 mt 
(27) s
 698 3571 mt 4865 3571 L
 698  301 mt 4865  301 L
 698 3571 mt  698  301 L
4865 3571 mt 4865  301 L
gs 698 301 4168 3271 rc
/c8 { 1.000000 0.000000 0.000000 sr} bdef
c8
-2 -16 -3 -21 -2 -16 -2 -16 -1 -13 -2 -13 -2 -22 -2 -13 
-1 -14 -2 -13 -1 -16 -2 -13 -1 -23 -2 -22 -1 -23 -1 -20 
-1 -13 -1 -14 0 -13 -1 -17 0 -23 -1 -23 0 -23 -1 -17 
0 -11 -1 -17 0 -14 -1 -14 0 -81 1 -18 0 -42 1 -20 
1 -24 1 -24 1 -21 1 -14 1 -14 1 -18 1 -14 2 -18 
2 -18 1 -14 2 -21 3 -25 1 -14 2 -15 2 -18 2 -18 
3 -22 3 -22 4 -28 2 -15 1 -15 2 -15 3 -19 2 -15 
4 -22 2 -16 3 -15 3 -19 5 -25 3 -16 5 -22 4 -23 
3 -16 3 -12 4 -19 4 -16 4 -19 8 -30 7 -27 7 -27 
4 -16 5 -20 4 -16 6 -21 6 -24 8 -28 8 -28 9 -28 
6 -21 8 -28 9 -29 8 -25 8 -25 6 -17 7 -21 9 -25 
11 -29 10 -25 6 -18 7 -17 8 -22 6 -18 12 -30 7 -18 
9 -22 7 -18 9 -22 7 -19 9 -22 6 -14 9 -18 10 -22 
12 -27 15 -31 15 -30 9 -19 9 -18 9 -19 12 -22 9 -19 
12 -23 15 -27 17 -32 12 -22 11 -19 11 -18 11 -18 13 -23 
11 -19 19 -31 11 -19 12 -18 11 -19 17 -28 15 -23 12 -19 
12 -19 13 -19 12 -19 22 -33 22 -33 25 -36 14 -19 14 -19 
14 -19 17 -23 15 -20 14 -19 18 -23 25 -33 19 -23 19 -24 
15 -19 26 -33 24 -27 16 -19 27 -32 24 -27 2318 3487 151 MP stroke
gr

c8
gs 2106 338 1249 3307 rc
/c9 { 0.000000 0.000000 1.000000 sr} bdef
c9
  36   36 2179 3571 FO
  36   36 2489 3180 FO
  36   36 2725 2814 FO
  36   36 2911 2445 FO
  36   36 3045 2093 FO
  36   36 3135 1765 FO
  36   36 3196 1449 FO
  36   36 3272 1177 FO
  36   36 3281  910 FO
  36   36 3276  657 FO
  36   36 3251  411 FO
gr

c9
gs 698 301 4168 3271 rc
gr

0 sg
2477 3860 mt 
(Easting \(m\)) s
 349 2266 mt  -90 rotate
(Northing \(m\)) s
90 rotate
1988  206 mt 
(State estimate with smoothing) s
1 sg
0 334 1280 0 0 -334 3496 702 4 MP
PP
-1280 0 0 334 1280 0 0 -334 3496 702 5 MP stroke
4 w
DO
SO
6 w
0 sg
3496  702 mt 4776  702 L
3496  368 mt 4776  368 L
3496  702 mt 3496  368 L
4776  702 mt 4776  368 L
3496  702 mt 4776  702 L
3496  702 mt 3496  368 L
3496  702 mt 4776  702 L
3496  368 mt 4776  368 L
3496  702 mt 3496  368 L
4776  702 mt 4776  368 L
3967  503 mt 
(State Estimate) s
gs 3496 368 1281 335 rc
c8
362 0 3568 460 2 MP stroke
gr

c8
0 sg
3967  652 mt 
(GPS trace) s
gs 3496 368 1281 335 rc
gs 3676 536 147 147 rc
c9
  36   36 3749  609 FO
gr

c9
gr

c9

end %%Color Dict

eplot
%%EndObject

epage
end

showpage

%%Trailer
%%EOF



