%!PS-Adobe-2.0 EPSF-2.0
%%Title: /home/lindzey/reports/finalPaper/CarRepresentation.dia
%%Creator: Dia v0.95-1
%%CreationDate: Thu Aug 17 00:27:38 2006
%%For: lindzey
%%Orientation: Portrait
%%Magnification: 1.0000
%%BoundingBox: 0 0 551 570
%%BeginSetup
%%EndSetup
%%EndComments
%%BeginProlog
[ /.notdef /.notdef /.notdef /.notdef /.notdef /.notdef /.notdef /.notdef /.notdef /.notdef
/.notdef /.notdef /.notdef /.notdef /.notdef /.notdef /.notdef /.notdef /.notdef /.notdef
/.notdef /.notdef /.notdef /.notdef /.notdef /.notdef /.notdef /.notdef /.notdef /.notdef
/.notdef /.notdef /space /exclam /quotedbl /numbersign /dollar /percent /ampersand /quoteright
/parenleft /parenright /asterisk /plus /comma /hyphen /period /slash /zero /one
/two /three /four /five /six /seven /eight /nine /colon /semicolon
/less /equal /greater /question /at /A /B /C /D /E
/F /G /H /I /J /K /L /M /N /O
/P /Q /R /S /T /U /V /W /X /Y
/Z /bracketleft /backslash /bracketright /asciicircum /underscore /quoteleft /a /b /c
/d /e /f /g /h /i /j /k /l /m
/n /o /p /q /r /s /t /u /v /w
/x /y /z /braceleft /bar /braceright /asciitilde /.notdef /.notdef /.notdef
/.notdef /.notdef /.notdef /.notdef /.notdef /.notdef /.notdef /.notdef /.notdef /.notdef
/.notdef /.notdef /.notdef /.notdef /.notdef /.notdef /.notdef /.notdef /.notdef /.notdef
/.notdef /.notdef /.notdef /.notdef /.notdef /.notdef /.notdef /.notdef /.notdef /.notdef
/space /exclamdown /cent /sterling /currency /yen /brokenbar /section /dieresis /copyright
/ordfeminine /guillemotleft /logicalnot /hyphen /registered /macron /degree /plusminus /twosuperior /threesuperior
/acute /mu /paragraph /periodcentered /cedilla /onesuperior /ordmasculine /guillemotright /onequarter /onehalf
/threequarters /questiondown /Agrave /Aacute /Acircumflex /Atilde /Adieresis /Aring /AE /Ccedilla
/Egrave /Eacute /Ecircumflex /Edieresis /Igrave /Iacute /Icircumflex /Idieresis /Eth /Ntilde
/Ograve /Oacute /Ocircumflex /Otilde /Odieresis /multiply /Oslash /Ugrave /Uacute /Ucircumflex
/Udieresis /Yacute /Thorn /germandbls /agrave /aacute /acircumflex /atilde /adieresis /aring
/ae /ccedilla /egrave /eacute /ecircumflex /edieresis /igrave /iacute /icircumflex /idieresis
/eth /ntilde /ograve /oacute /ocircumflex /otilde /odieresis /divide /oslash /ugrave
/uacute /ucircumflex /udieresis /yacute /thorn /ydieresis] /isolatin1encoding exch def
/cp {closepath} bind def
/c {curveto} bind def
/f {fill} bind def
/a {arc} bind def
/ef {eofill} bind def
/ex {exch} bind def
/gr {grestore} bind def
/gs {gsave} bind def
/sa {save} bind def
/rs {restore} bind def
/l {lineto} bind def
/m {moveto} bind def
/rm {rmoveto} bind def
/n {newpath} bind def
/s {stroke} bind def
/sh {show} bind def
/slc {setlinecap} bind def
/slj {setlinejoin} bind def
/slw {setlinewidth} bind def
/srgb {setrgbcolor} bind def
/rot {rotate} bind def
/sc {scale} bind def
/sd {setdash} bind def
/ff {findfont} bind def
/sf {setfont} bind def
/scf {scalefont} bind def
/sw {stringwidth pop} bind def
/tr {translate} bind def

/ellipsedict 8 dict def
ellipsedict /mtrx matrix put
/ellipse
{ ellipsedict begin
   /endangle exch def
   /startangle exch def
   /yrad exch def
   /xrad exch def
   /y exch def
   /x exch def   /savematrix mtrx currentmatrix def
   x y tr xrad yrad sc
   0 0 1 startangle endangle arc
   savematrix setmatrix
   end
} def

/mergeprocs {
dup length
3 -1 roll
dup
length
dup
5 1 roll
3 -1 roll
add
array cvx
dup
3 -1 roll
0 exch
putinterval
dup
4 2 roll
putinterval
} bind def
/dpi_x 300 def
/dpi_y 300 def
/conicto {
    /to_y exch def
    /to_x exch def
    /conic_cntrl_y exch def
    /conic_cntrl_x exch def
    currentpoint
    /p0_y exch def
    /p0_x exch def
    /p1_x p0_x conic_cntrl_x p0_x sub 2 3 div mul add def
    /p1_y p0_y conic_cntrl_y p0_y sub 2 3 div mul add def
    /p2_x p1_x to_x p0_x sub 1 3 div mul add def
    /p2_y p1_y to_y p0_y sub 1 3 div mul add def
    p1_x p1_y p2_x p2_y to_x to_y curveto
} bind def
/start_ol { gsave 1.1 dpi_x div dup scale} bind def
/end_ol { closepath fill grestore } bind def
28.346000 -28.346000 scale
1.199900 -20.054727 translate
%%EndProlog


0.100000 slw
[1.000000] 0 sd
[1.000000] 0 sd
0 slc
0.749020 0.749020 0.749020 srgb
n 14.450000 19.150000 m 6.654910 2.797410 l s
0.200000 slw
[0.200000] 0 sd
[0.320000] 0 sd
0 slc
0.000000 0.000000 0.000000 srgb
n 13.069100 8.396540 m 14.369100 8.596540 l s
0.200000 slw
[0.320000] 0 sd
[0.320000] 0 sd
0 slc
n 11.415100 9.187500 m 12.715100 9.387500 l s
0.200000 slw
[0.320000] 0 sd
[0.320000] 0 sd
0 slc
n 10.181600 9.908990 m 15.015100 7.937500 l s
0.200000 slw
[0.320000] 0 sd
[0.320000] 0 sd
0 slc
n 10.081600 10.159000 m 15.165100 8.037500 l s
0.200000 slw
[0.320000] 0 sd
[0.320000] 0 sd
0 slc
n 8.815060 6.737500 m 9.915060 10.037500 l s
0.200000 slw
[0.320000] 0 sd
[0.320000] 0 sd
0 slc
n 8.631550 6.908990 m 10.465100 10.387500 l s
0.100000 slw
[1.600000] 0 sd
[1.000000] 0 sd
0 slc
0.498039 0.498039 0.498039 srgb
n -1.134940 14.437500 m 18.150000 6.750000 l s
0.100000 slw
[] 0 sd
[] 0 sd
0 slj
0 slc
0.000000 0.000000 0.000000 srgb
n 5.050000 0.000000 m 5.050000 20.000000 l 18.050000 20.000000 l 18.050000 20.000000 l s
0.200000 slw
[] 0 sd
[] 0 sd
0 slc
1.000000 0.000000 0.000000 srgb
n 10.000000 10.050000 m 15.100000 8.050000 l s
0.200000 slw
[] 0 sd
[] 0 sd
0 slc
n 10.050000 10.000000 m 8.700000 7.000000 l s
0.100000 slw
[0.200000] 0 sd
[0.200000] 0 sd
0 slc
0.498039 0.498039 0.498039 srgb
n 1.915060 13.250000 m 5.015060 19.937500 l s
0.050000 slw
[] 0 sd
[] 0 sd
0 slj
0 slc
0.000000 0.000000 0.000000 srgb
n 9.465060 19.987500 m 8.865060 16.187500 6.065060 15.787500 3.465060 16.593800 c s
gsave 6.365060 16.037500 translate 0.035278 -0.035278 scale
start_ol
0 2496 moveto
2112 2496 lineto
2112 2240 lineto
1216 2240 lineto
1216 0 lineto
896 0 lineto
896 2240 lineto
0 2240 lineto
0 2496 lineto
end_ol grestore 
gsave 6.644460 16.037500 translate 0.035278 -0.035278 scale
start_ol
1920 1190 moveto
1920 0 lineto
1600 0 lineto
1600 1179 lineto
1600 1454 1495 1591 conicto
1391 1728 1182 1728 conicto
930 1728 785 1563 conicto
640 1398 640 1114 conicto
640 0 lineto
320 0 lineto
320 2624 lineto
640 2624 lineto
640 1664 lineto
752 1825 904 1904 conicto
1057 1984 1255 1984 conicto
1584 1984 1752 1782 conicto
1920 1581 1920 1190 conicto
end_ol grestore 
gsave 6.932327 16.037500 translate 0.035278 -0.035278 scale
start_ol
1920 1056 moveto
1920 896 lineto
512 896 lineto
532 552 703 372 conicto
875 192 1182 192 conicto
1359 192 1525 240 conicto
1691 288 1856 384 conicto
1856 64 lineto
1690 1 1516 -31 conicto
1343 -64 1163 -64 conicto
715 -64 453 208 conicto
192 480 192 942 conicto
192 1422 439 1703 conicto
686 1984 1106 1984 conicto
1483 1984 1701 1734 conicto
1920 1485 1920 1056 conicto
1600 1152 moveto
1596 1415 1460 1571 conicto
1325 1728 1102 1728 conicto
849 1728 696 1577 conicto
544 1426 522 1150 conicto
1600 1152 lineto
end_ol grestore 
gsave 7.211727 16.037500 translate 0.035278 -0.035278 scale
start_ol
640 2432 moveto
640 1920 lineto
1280 1920 lineto
1280 1664 lineto
640 1664 lineto
640 624 lineto
640 390 703 323 conicto
766 256 961 256 conicto
1280 256 lineto
1280 0 lineto
961 0 lineto
597 0 458 134 conicto
320 268 320 624 conicto
320 1664 lineto
64 1664 lineto
64 1920 lineto
320 1920 lineto
320 2432 lineto
640 2432 lineto
end_ol grestore 
gsave 7.389527 16.037500 translate 0.035278 -0.035278 scale
start_ol
1169 960 moveto
798 960 655 870 conicto
512 781 512 565 conicto
512 394 619 293 conicto
727 192 911 192 conicto
1165 192 1318 382 conicto
1472 572 1472 887 conicto
1472 960 lineto
1169 960 lineto
1792 1095 moveto
1792 0 lineto
1472 0 lineto
1472 256 lineto
1366 92 1208 14 conicto
1051 -64 822 -64 conicto
533 -64 362 104 conicto
192 272 192 553 conicto
192 882 406 1049 conicto
620 1216 1044 1216 conicto
1472 1216 lineto
1472 1252 lineto
1472 1480 1331 1604 conicto
1190 1728 934 1728 conicto
771 1728 617 1696 conicto
463 1664 320 1600 conicto
320 1856 lineto
492 1920 654 1952 conicto
816 1984 969 1984 conicto
1383 1984 1587 1763 conicto
1792 1543 1792 1095 conicto
end_ol grestore 
gsave 7.668927 16.037500 translate 0.035278 -0.035278 scale
start_ol
384 256 moveto
960 256 lineto
960 2240 lineto
384 2112 lineto
384 2368 lineto
956 2496 lineto
1280 2496 lineto
1280 256 lineto
1856 256 lineto
1856 0 lineto
384 0 lineto
384 256 lineto
end_ol grestore 
gsave 1.665060 16.437500 translate 0.035278 -0.035278 scale
start_ol
1524 1130 moveto
1625 1095 1720 979 conicto
1815 864 1911 662 conicto
2240 0 lineto
1883 0 lineto
1574 621 lineto
1455 864 1338 944 conicto
1221 1024 1015 1024 conicto
640 1024 lineto
640 0 lineto
320 0 lineto
320 2496 lineto
1084 2496 lineto
1505 2496 1712 2311 conicto
1920 2127 1920 1756 conicto
1920 1513 1818 1352 conicto
1717 1192 1524 1130 conicto
640 2240 moveto
640 1280 lineto
1084 1280 lineto
1339 1280 1469 1402 conicto
1600 1525 1600 1762 conicto
1600 1999 1469 2119 conicto
1339 2240 1084 2240 conicto
640 2240 lineto
end_ol grestore 
gsave 1.986793 16.437500 translate 0.035278 -0.035278 scale
start_ol
1920 1190 moveto
1920 0 lineto
1600 0 lineto
1600 1179 lineto
1600 1454 1495 1591 conicto
1391 1728 1182 1728 conicto
930 1728 785 1563 conicto
640 1398 640 1114 conicto
640 0 lineto
320 0 lineto
320 2624 lineto
640 2624 lineto
640 1664 lineto
752 1825 904 1904 conicto
1057 1984 1255 1984 conicto
1584 1984 1752 1782 conicto
1920 1581 1920 1190 conicto
end_ol grestore 
gsave 2.274660 16.437500 translate 0.035278 -0.035278 scale
start_ol
1057 1728 moveto
805 1728 658 1523 conicto
512 1318 512 960 conicto
512 603 658 397 conicto
804 192 1057 192 conicto
1307 192 1453 398 conicto
1600 605 1600 960 conicto
1600 1314 1453 1521 conicto
1307 1728 1057 1728 conicto
1056 1984 moveto
1460 1984 1690 1712 conicto
1920 1440 1920 959 conicto
1920 481 1690 208 conicto
1460 -64 1056 -64 conicto
650 -64 421 208 conicto
192 481 192 959 conicto
192 1440 421 1712 conicto
650 1984 1056 1984 conicto
end_ol grestore 
gsave 2.554060 16.437500 translate 0.035278 -0.035278 scale
start_ol
384 256 moveto
960 256 lineto
960 2240 lineto
384 2112 lineto
384 2368 lineto
956 2496 lineto
1280 2496 lineto
1280 256 lineto
1856 256 lineto
1856 0 lineto
384 0 lineto
384 256 lineto
end_ol grestore 
0.100000 slw
[] 0 sd
[] 0 sd
0 slc
0.647059 0.164706 0.164706 srgb
n 2.269970 13.934900 m 10.265100 10.637500 l s
0.100000 slw
[] 0 sd
[] 0 sd
0 slc
n 2.620350 14.745200 m 15.815100 9.187500 l s
0.000000 0.000000 0.000000 srgb
gsave 10.515100 10.837500 translate 0.035278 -0.035278 scale
start_ol
1169 960 moveto
798 960 655 870 conicto
512 781 512 565 conicto
512 394 619 293 conicto
727 192 911 192 conicto
1165 192 1318 382 conicto
1472 572 1472 887 conicto
1472 960 lineto
1169 960 lineto
1792 1095 moveto
1792 0 lineto
1472 0 lineto
1472 256 lineto
1366 92 1208 14 conicto
1051 -64 822 -64 conicto
533 -64 362 104 conicto
192 272 192 553 conicto
192 882 406 1049 conicto
620 1216 1044 1216 conicto
1472 1216 lineto
1472 1252 lineto
1472 1480 1331 1604 conicto
1190 1728 934 1728 conicto
771 1728 617 1696 conicto
463 1664 320 1600 conicto
320 1856 lineto
492 1920 654 1952 conicto
816 1984 969 1984 conicto
1383 1984 1587 1763 conicto
1792 1543 1792 1095 conicto
end_ol grestore 
gsave 10.794500 10.837500 translate 0.035278 -0.035278 scale
start_ol
384 256 moveto
960 256 lineto
960 2240 lineto
384 2112 lineto
384 2368 lineto
956 2496 lineto
1280 2496 lineto
1280 256 lineto
1856 256 lineto
1856 0 lineto
384 0 lineto
384 256 lineto
end_ol grestore 
gsave 16.215100 9.337500 translate 0.035278 -0.035278 scale
start_ol
1169 960 moveto
798 960 655 870 conicto
512 781 512 565 conicto
512 394 619 293 conicto
727 192 911 192 conicto
1165 192 1318 382 conicto
1472 572 1472 887 conicto
1472 960 lineto
1169 960 lineto
1792 1095 moveto
1792 0 lineto
1472 0 lineto
1472 256 lineto
1366 92 1208 14 conicto
1051 -64 822 -64 conicto
533 -64 362 104 conicto
192 272 192 553 conicto
192 882 406 1049 conicto
620 1216 1044 1216 conicto
1472 1216 lineto
1472 1252 lineto
1472 1480 1331 1604 conicto
1190 1728 934 1728 conicto
771 1728 617 1696 conicto
463 1664 320 1600 conicto
320 1856 lineto
492 1920 654 1952 conicto
816 1984 969 1984 conicto
1383 1984 1587 1763 conicto
1792 1543 1792 1095 conicto
end_ol grestore 
gsave 16.494500 9.337500 translate 0.035278 -0.035278 scale
start_ol
701 256 moveto
1870 256 lineto
1870 0 lineto
256 0 lineto
256 256 lineto
456 463 800 810 conicto
1145 1158 1233 1259 conicto
1402 1448 1469 1579 conicto
1536 1710 1536 1837 conicto
1536 2044 1389 2174 conicto
1242 2304 1006 2304 conicto
839 2304 653 2224 conicto
468 2145 256 1984 conicto
256 2368 lineto
466 2463 648 2511 conicto
831 2560 982 2560 conicto
1382 2560 1619 2362 conicto
1856 2165 1856 1833 conicto
1856 1676 1809 1535 conicto
1763 1394 1611 1203 conicto
1569 1154 1340 917 conicto
1112 681 701 256 conicto
end_ol grestore 
0.100000 slw
[0.200000] 0 sd
[0.200000] 0 sd
0 slc
0.498039 0.498039 0.498039 srgb
n 4.971450 19.898900 m 13.050000 16.250000 l s
0.000000 0.000000 0.000000 srgb
gsave 7.405060 19.482500 translate 0.035278 -0.035278 scale
start_ol
0 2496 moveto
2112 2496 lineto
2112 2240 lineto
1216 2240 lineto
1216 0 lineto
896 0 lineto
896 2240 lineto
0 2240 lineto
0 2496 lineto
end_ol grestore 
gsave 7.684460 19.482500 translate 0.035278 -0.035278 scale
start_ol
1920 1190 moveto
1920 0 lineto
1600 0 lineto
1600 1179 lineto
1600 1454 1495 1591 conicto
1391 1728 1182 1728 conicto
930 1728 785 1563 conicto
640 1398 640 1114 conicto
640 0 lineto
320 0 lineto
320 2624 lineto
640 2624 lineto
640 1664 lineto
752 1825 904 1904 conicto
1057 1984 1255 1984 conicto
1584 1984 1752 1782 conicto
1920 1581 1920 1190 conicto
end_ol grestore 
gsave 7.972327 19.482500 translate 0.035278 -0.035278 scale
start_ol
1920 1056 moveto
1920 896 lineto
512 896 lineto
532 552 703 372 conicto
875 192 1182 192 conicto
1359 192 1525 240 conicto
1691 288 1856 384 conicto
1856 64 lineto
1690 1 1516 -31 conicto
1343 -64 1163 -64 conicto
715 -64 453 208 conicto
192 480 192 942 conicto
192 1422 439 1703 conicto
686 1984 1106 1984 conicto
1483 1984 1701 1734 conicto
1920 1485 1920 1056 conicto
1600 1152 moveto
1596 1415 1460 1571 conicto
1325 1728 1102 1728 conicto
849 1728 696 1577 conicto
544 1426 522 1150 conicto
1600 1152 lineto
end_ol grestore 
gsave 8.251727 19.482500 translate 0.035278 -0.035278 scale
start_ol
640 2432 moveto
640 1920 lineto
1280 1920 lineto
1280 1664 lineto
640 1664 lineto
640 624 lineto
640 390 703 323 conicto
766 256 961 256 conicto
1280 256 lineto
1280 0 lineto
961 0 lineto
597 0 458 134 conicto
320 268 320 624 conicto
320 1664 lineto
64 1664 lineto
64 1920 lineto
320 1920 lineto
320 2432 lineto
640 2432 lineto
end_ol grestore 
gsave 8.429527 19.482500 translate 0.035278 -0.035278 scale
start_ol
1169 960 moveto
798 960 655 870 conicto
512 781 512 565 conicto
512 394 619 293 conicto
727 192 911 192 conicto
1165 192 1318 382 conicto
1472 572 1472 887 conicto
1472 960 lineto
1169 960 lineto
1792 1095 moveto
1792 0 lineto
1472 0 lineto
1472 256 lineto
1366 92 1208 14 conicto
1051 -64 822 -64 conicto
533 -64 362 104 conicto
192 272 192 553 conicto
192 882 406 1049 conicto
620 1216 1044 1216 conicto
1472 1216 lineto
1472 1252 lineto
1472 1480 1331 1604 conicto
1190 1728 934 1728 conicto
771 1728 617 1696 conicto
463 1664 320 1600 conicto
320 1856 lineto
492 1920 654 1952 conicto
816 1984 969 1984 conicto
1383 1984 1587 1763 conicto
1792 1543 1792 1095 conicto
end_ol grestore 
gsave 8.708927 19.482500 translate 0.035278 -0.035278 scale
start_ol
701 256 moveto
1870 256 lineto
1870 0 lineto
256 0 lineto
256 256 lineto
456 463 800 810 conicto
1145 1158 1233 1259 conicto
1402 1448 1469 1579 conicto
1536 1710 1536 1837 conicto
1536 2044 1389 2174 conicto
1242 2304 1006 2304 conicto
839 2304 653 2224 conicto
468 2145 256 1984 conicto
256 2368 lineto
466 2463 648 2511 conicto
831 2560 982 2560 conicto
1382 2560 1619 2362 conicto
1856 2165 1856 1833 conicto
1856 1676 1809 1535 conicto
1763 1394 1611 1203 conicto
1569 1154 1340 917 conicto
1112 681 701 256 conicto
end_ol grestore 
gsave 9.155100 16.882500 translate 0.035278 -0.035278 scale
start_ol
1524 1130 moveto
1625 1095 1720 979 conicto
1815 864 1911 662 conicto
2240 0 lineto
1883 0 lineto
1574 621 lineto
1455 864 1338 944 conicto
1221 1024 1015 1024 conicto
640 1024 lineto
640 0 lineto
320 0 lineto
320 2496 lineto
1084 2496 lineto
1505 2496 1712 2311 conicto
1920 2127 1920 1756 conicto
1920 1513 1818 1352 conicto
1717 1192 1524 1130 conicto
640 2240 moveto
640 1280 lineto
1084 1280 lineto
1339 1280 1469 1402 conicto
1600 1525 1600 1762 conicto
1600 1999 1469 2119 conicto
1339 2240 1084 2240 conicto
640 2240 lineto
end_ol grestore 
gsave 9.476833 16.882500 translate 0.035278 -0.035278 scale
start_ol
1920 1190 moveto
1920 0 lineto
1600 0 lineto
1600 1179 lineto
1600 1454 1495 1591 conicto
1391 1728 1182 1728 conicto
930 1728 785 1563 conicto
640 1398 640 1114 conicto
640 0 lineto
320 0 lineto
320 2624 lineto
640 2624 lineto
640 1664 lineto
752 1825 904 1904 conicto
1057 1984 1255 1984 conicto
1584 1984 1752 1782 conicto
1920 1581 1920 1190 conicto
end_ol grestore 
gsave 9.764700 16.882500 translate 0.035278 -0.035278 scale
start_ol
1057 1728 moveto
805 1728 658 1523 conicto
512 1318 512 960 conicto
512 603 658 397 conicto
804 192 1057 192 conicto
1307 192 1453 398 conicto
1600 605 1600 960 conicto
1600 1314 1453 1521 conicto
1307 1728 1057 1728 conicto
1056 1984 moveto
1460 1984 1690 1712 conicto
1920 1440 1920 959 conicto
1920 481 1690 208 conicto
1460 -64 1056 -64 conicto
650 -64 421 208 conicto
192 481 192 959 conicto
192 1440 421 1712 conicto
650 1984 1056 1984 conicto
end_ol grestore 
gsave 10.044100 16.882500 translate 0.035278 -0.035278 scale
start_ol
701 256 moveto
1870 256 lineto
1870 0 lineto
256 0 lineto
256 256 lineto
456 463 800 810 conicto
1145 1158 1233 1259 conicto
1402 1448 1469 1579 conicto
1536 1710 1536 1837 conicto
1536 2044 1389 2174 conicto
1242 2304 1006 2304 conicto
839 2304 653 2224 conicto
468 2145 256 1984 conicto
256 2368 lineto
466 2463 648 2511 conicto
831 2560 982 2560 conicto
1382 2560 1619 2362 conicto
1856 2165 1856 1833 conicto
1856 1676 1809 1535 conicto
1763 1394 1611 1203 conicto
1569 1154 1340 917 conicto
1112 681 701 256 conicto
end_ol grestore 
0.100000 slw
[] 0 sd
[] 0 sd
0 slj
0 slc
n 7.100000 20.000000 m 7.150000 19.500000 7.265060 19.387500 6.515060 19.087500 c s
0.100000 slw
[] 0 sd
[] 0 sd
0 slc
0.545098 0.411765 0.078431 srgb
n 11.800000 16.900000 m 7.316771 7.651771 l s
0.100000 slw
[] 0 sd
[] 0 sd
0 slc
n 12.350000 16.650000 m 9.316771 10.251771 l s
0.000000 0.000000 0.000000 srgb
gsave 8.700000 9.635000 translate 0.035278 -0.035278 scale
start_ol
1664 959 moveto
1664 1319 1528 1523 conicto
1392 1728 1152 1728 conicto
913 1728 776 1523 conicto
640 1319 640 959 conicto
640 601 776 396 conicto
913 192 1152 192 conicto
1392 192 1528 396 conicto
1664 601 1664 959 conicto
640 1664 moveto
736 1826 881 1905 conicto
1027 1984 1229 1984 conicto
1564 1984 1774 1702 conicto
1984 1420 1984 959 conicto
1984 500 1774 218 conicto
1564 -64 1229 -64 conicto
1027 -64 881 15 conicto
736 94 640 256 conicto
640 0 lineto
320 0 lineto
320 2624 lineto
640 2624 lineto
640 1664 lineto
end_ol grestore 
gsave 8.987867 9.635000 translate 0.035278 -0.035278 scale
start_ol
384 256 moveto
960 256 lineto
960 2240 lineto
384 2112 lineto
384 2368 lineto
956 2496 lineto
1280 2496 lineto
1280 256 lineto
1856 256 lineto
1856 0 lineto
384 0 lineto
384 256 lineto
end_ol grestore 
gsave 6.800000 7.235000 translate 0.035278 -0.035278 scale
start_ol
1664 959 moveto
1664 1319 1528 1523 conicto
1392 1728 1152 1728 conicto
913 1728 776 1523 conicto
640 1319 640 959 conicto
640 601 776 396 conicto
913 192 1152 192 conicto
1392 192 1528 396 conicto
1664 601 1664 959 conicto
640 1664 moveto
736 1826 881 1905 conicto
1027 1984 1229 1984 conicto
1564 1984 1774 1702 conicto
1984 1420 1984 959 conicto
1984 500 1774 218 conicto
1564 -64 1229 -64 conicto
1027 -64 881 15 conicto
736 94 640 256 conicto
640 0 lineto
320 0 lineto
320 2624 lineto
640 2624 lineto
640 1664 lineto
end_ol grestore 
gsave 7.087867 7.235000 translate 0.035278 -0.035278 scale
start_ol
701 256 moveto
1870 256 lineto
1870 0 lineto
256 0 lineto
256 256 lineto
456 463 800 810 conicto
1145 1158 1233 1259 conicto
1402 1448 1469 1579 conicto
1536 1710 1536 1837 conicto
1536 2044 1389 2174 conicto
1242 2304 1006 2304 conicto
839 2304 653 2224 conicto
468 2145 256 1984 conicto
256 2368 lineto
466 2463 648 2511 conicto
831 2560 982 2560 conicto
1382 2560 1619 2362 conicto
1856 2165 1856 1833 conicto
1856 1676 1809 1535 conicto
1763 1394 1611 1203 conicto
1569 1154 1340 917 conicto
1112 681 701 256 conicto
end_ol grestore 
showpage
