RNDF_name	St_Lukes_RNDF_Full_Map	
num_segments	4		
num_zones	0	
format_version	1.0	
creation_date	11/27/2006
segment	1	
num_lanes	2	
segment_name	Waypoint_Road	
lane	1.1	
num_waypoints	10	
lane_width	12	
left_boundary	double_yellow	
checkpoint	1.2.4	1	
stop	1.1.10	
exit	1.1.10	3.1.3
exit	1.1.10	3.2.3
1.1.1	34.167533279246242728	-118.09616127590074086
1.1.2	34.167531381529599344	-118.09625562871984528
1.1.3	34.167528865806161775	-118.09633906983357576
1.1.4	34.167527600240845231	-118.09644893448891878
1.1.5	34.167527595640493132	-118.09652852403092993
1.1.6	34.16752577858986939	-118.09660479577327408
1.1.7	34.167524110675863369	-118.0966902702390513
1.1.8	34.167522903308153559	-118.09677113105158242
1.1.9	34.167521025129794054	-118.09683030025486516
1.1.10	34.167519746706091155	-118.09687833475487651
end_lane		
lane	1.2	
num_waypoints	10	
lane_width	12	
left_boundary	double_yellow
checkpoint	1.2.3	2
checkpoint	1.2.4	3
checkpoint	1.2.5	4
checkpoint	1.2.6	5
checkpoint	1.2.7	6
checkpoint	1.2.8	7
checkpoint	1.2.9	8
stop	1.2.10	
exit	1.2.10	4.1.11
exit	1.2.10	4.2.3
1.2.1	34.167503	-118.096871
1.2.2	34.167505	-118.096824
1.2.3	34.167509	-118.096762
1.2.4	34.167509	-118.096693
1.2.5	34.167509	-118.096597
1.2.6	34.167513	-118.096501
1.2.7	34.167516	-118.096411
1.2.8	34.167518	-118.096324
1.2.9	34.167520	-118.096238
1.2.10	34.167523	-118.096183
end_lane		
end_segment		

segment	2	
num_lanes	2	
segment_name	Murray_Road	
lane	2.1	
num_waypoints	4	
lane_width	12	
left_boundary	double_yellow
exit	2.1.2	3.1.1
exit	2.1.4	2.2.1
2.1.1	34.167735	-118.096182
2.1.2	34.167723	-118.096882
2.1.3	34.167724	-118.097020
2.1.4	34.167724	-118.097081
end_lane		
lane	2.2	
num_waypoints	4	
lane_width	12	
left_boundary	double_yellow	
checkpoint	2.2.3	9
stop	2.2.4	
exit	2.2.2	3.1.1
exit	2.2.4	4.1.9
exit	2.2.4	4.2.5
2.2.1	34.167688	-118.097086
2.2.2	34.167688	-118.097023
2.2.3	34.167693794644961258	-118.09689490147940205
2.2.4	34.167693985259447231	-118.09614854518233074
end_lane		
end_segment	

segment	3	
num_lanes	2	
segment_name	North_Street	
lane	3.1	
num_waypoints	4	
lane_width	12	
left_boundary	double_yellow	
stop	3.1.4	
exit	3.1.2	1.2.1
3.1.1	34.167657	-118.096984
3.1.2	34.167569	-118.096983
3.1.3	34.167481	-118.096983
3.1.4	34.167453	-118.096983
end_lane		
lane	3.2	
num_waypoints	4	
lane_width	12	
left_boundary	double_yellow
checkpoint	3.2.3	10	
exit	3.2.2	1.2.1
exit	3.2.4	2.1.3
exit	3.2.4	2.2.3
3.2.1	34.167453	-118.096928
3.2.2	34.167480	-118.096925
3.2.3	34.167568	-118.096929
3.2.4	34.167658	-118.096927
end_lane		
end_segment	
   
segment	4	
num_lanes	2	
segment_name	St_Luke_Lane	
lane	4.1	
num_waypoints	12	
lane_width	12
left_boundary	double_yellow	
checkpoint	4.1.9	11	
stop	4.1.10	
stop	4.1.12	
exit	4.1.8	2.1.1
exit	4.1.10	1.1.1
4.1.1	34.168000		-118.095329
4.1.2	34.167996		-118.095642
4.1.3	34.167996		-118.095742
4.1.4	34.167979		-118.096027
4.1.5	34.167924		-118.096100
4.1.6	34.167896		-118.096115
4.1.7	34.167818		-118.096135
4.1.8	34.167766		-118.096135
4.1.9	34.167641290314492153	-118.09610673874583142
4.1.10	34.167559121450700843	-118.09610562159831204
4.1.11	34.167498		-118.096126
4.1.12	34.167479		-118.096126
end_lane		
lane	4.2	
num_waypoints	12	
lane_width	12
left_boundary	double_yellow	
stop	4.2.2
exit	4.2.2	1.1.1
exit	4.2.4	2.1.1
4.2.1	34.167480	-118.096069
4.2.2	34.167497	-118.096069
4.2.3	34.167581	-118.096072
4.2.4	34.167671	-118.096073
4.2.5	34.167765	-118.096077
4.2.6	34.167822	-118.096078
4.2.7	34.167892	-118.096064
4.2.8	34.167920	-118.096041
4.2.9	34.167962	-118.095956
4.2.10	34.167976	-118.095753
4.2.11	34.167977	-118.095634
4.2.12	34.167981	-118.095346
end_lane		
end_segment

end_file