25.70450	403429.84525	3777538.81484	-0.86802	-1.03446	1.35039	220.00000	-0.64279	-0.76604
26.25448	403429.07853	3777538.67793	-0.81747	-0.99876	1.29065	219.30000	-0.63338	-0.77384
26.82448	403428.37002	3777538.42479	-0.77703	-0.96299	1.23738	218.89999	-0.62796	-0.77824
27.32448	403427.83673	3777538.18208	-0.74766	-0.91022	1.17792	219.39999	-0.63473	-0.77273
27.90448	403427.21244	3777537.90833	-0.69902	-0.85709	1.10600	219.20000	-0.63203	-0.77494
28.43447	403426.70902	3777537.68223	-0.64426	-0.83357	1.05352	217.70000	-0.61153	-0.79122
29.18448	403426.11536	3777537.42227	-0.68569	-0.82299	1.07120	219.80000	-0.64011	-0.76828
29.73450	403425.55308	3777537.17327	-0.64162	-0.79233	1.01954	219.00000	-0.62932	-0.77715
30.22448	403425.09602	3777536.97020	-0.64045	-0.78247	1.01116	219.30000	-0.63338	-0.77384
30.83447	403424.64131	3777536.76710	-0.61437	-0.79204	1.00238	217.80000	-0.61291	-0.79015
31.36482	403424.10411	3777536.52442	-0.55973	-0.81138	0.98571	214.60001	-0.56784	-0.82314
31.88448	403423.56719	3777536.30901	-0.50463	-0.80758	0.95228	212.00000	-0.52992	-0.84805
32.38447	403423.21487	3777536.18007	-0.44646	-0.83966	0.95098	208.00000	-0.46947	-0.88295
32.95448	403422.70511	3777535.94463	-0.38675	-0.86864	0.95085	204.00000	-0.40674	-0.91355
33.44447	403422.29481	3777535.72792	-0.27987	-0.92697	0.96830	196.80000	-0.28903	-0.95732
34.02448	403421.67308	3777535.32253	-0.21930	-1.41659	1.43347	188.80000	-0.15299	-0.98823
34.57447	403421.03905	3777534.78566	-0.01912	-1.82558	1.82568	180.60001	-0.01047	-0.99995
35.32447	403420.22074	3777533.81164	0.37166	-2.32034	2.34992	170.89999	0.15816	-0.98741
35.91447	403418.89123	3777530.70978	0.85458	-3.08152	3.19783	164.50000	0.26724	-0.96363
36.42447	403418.51060	3777528.65956	0.96812	-3.51475	3.64565	164.60001	0.26556	-0.96410
37.02448	403418.32732	3777527.17796	0.99595	-3.66571	3.79860	164.80000	0.26219	-0.96502
37.84448	403418.11274	3777523.94057	1.19395	-4.10959	4.27951	163.80000	0.27899	-0.96029
38.40448	403417.98659	3777521.32180	1.33009	-4.27042	4.47276	162.70000	0.29737	-0.95476
38.96447	403417.90906	3777519.02216	1.47072	-4.49968	4.73394	161.89999	0.31068	-0.95052
39.48448	403417.83887	3777515.60937	1.46991	-4.77803	4.99902	162.89999	0.29404	-0.95579
40.08447	403417.83610	3777513.58724	1.77144	-4.84068	5.15463	159.89999	0.34366	-0.93909
40.57447	403417.86604	3777509.95249	1.74200	-4.97437	5.27057	160.70000	0.33051	-0.94380
41.06447	403417.89347	3777508.35968	1.84007	-5.02822	5.35433	159.89999	0.34366	-0.93909
41.59448	403418.01102	3777504.57738	1.89620	-5.18160	5.51765	159.89999	0.34366	-0.93909
42.11448	403418.10403	3777502.36624	2.05709	-5.14308	5.53921	158.20000	0.37137	-0.92849
42.60448	403418.28281	3777498.99038	2.28156	-5.17300	5.65380	156.20000	0.40355	-0.91496
43.11448	403418.43053	3777496.70159	2.26083	-5.27490	5.73899	156.80000	0.39394	-0.91914
43.60448	403418.68211	3777493.25918	2.24074	-5.25335	5.71127	156.89999	0.39234	-0.91982
44.12448	403418.86115	3777490.97477	2.23228	-5.23350	5.68970	156.89999	0.39234	-0.91982
44.61448	403419.16956	3777487.58536	2.21479	-5.21771	5.66831	157.00000	0.39073	-0.92050
45.20448	403419.33525	3777485.90557	2.28131	-5.17241	5.65316	156.20000	0.40355	-0.91496
45.76447	403419.75255	3777482.00457	2.34509	-5.00623	5.52827	154.89999	0.42420	-0.90557
46.32447	403420.07834	3777479.24202	2.39012	-4.98857	5.53159	154.39999	0.43209	-0.90183
47.05448	403420.51131	3777475.95380	2.47869	-4.90698	5.49748	153.20000	0.45088	-0.89259
47.59448	403420.95811	3777472.71903	2.38612	-4.87067	5.42375	153.89999	0.43994	-0.89803
48.09448	403421.35735	3777470.02906	2.48130	-4.84888	5.44688	152.89999	0.45554	-0.89021
48.59448	403421.77650	3777467.37555	2.42566	-4.69963	5.28870	152.70000	0.45865	-0.88862
49.10448	403422.20532	3777464.75014	2.42628	-4.78246	5.36272	153.10001	0.45243	-0.89180
49.60448	403422.65308	3777462.14146	2.45274	-4.69165	5.29410	152.39999	0.46330	-0.88620
50.11448	403423.12771	3777459.56165	2.43235	-4.61337	5.21532	152.20000	0.46639	-0.88458
50.65448	403423.61824	3777457.00706	2.53462	-4.53516	5.19538	150.80000	0.48786	-0.87292
51.23447	403424.13225	3777454.45505	2.52824	-4.54235	5.19855	150.89999	0.48634	-0.87377
51.74448	403424.64591	3777451.94629	2.52293	-4.44115	5.10774	150.39999	0.49394	-0.86949
52.24447	403425.18706	3777449.44853	2.50410	-4.42598	5.08526	150.50000	0.49242	-0.87036
52.75448	403425.74246	3777446.96942	2.51475	-4.40883	5.07561	150.30000	0.49546	-0.86863
53.24448	403426.31441	3777444.50236	2.63773	-4.32129	5.06273	148.60001	0.52101	-0.85355
53.82447	403426.89988	3777442.05867	2.58174	-4.29674	5.01272	149.00000	0.51504	-0.85717
54.35447	403427.63541	3777439.15373	2.62484	-4.28334	5.02362	148.50000	0.52250	-0.85264
54.90451	403428.39905	3777436.24474	2.73362	-4.19336	5.00569	146.89999	0.54610	-0.83772
55.40448	403429.04094	3777433.81363	2.62217	-4.26228	5.00428	148.39999	0.52399	-0.85173
55.95447	403429.69940	3777431.39739	2.55668	-4.34038	5.03741	149.50000	0.50754	-0.86163
56.53448	403430.52680	3777428.53193	2.70403	-4.16385	4.96482	147.00000	0.54464	-0.83867
57.33448	403431.36662	3777425.65694	2.79649	-4.14597	5.00094	146.00000	0.55919	-0.82904
57.82482	403432.22779	3777422.80618	2.70885	-4.13955	4.94710	146.80000	0.54756	-0.83676
58.32447	403432.97422	3777420.43040	2.89003	-4.05167	4.97677	144.50000	0.58070	-0.81412
58.89447	403433.74340	3777418.06192	2.90394	-4.04126	4.97641	144.30000	0.58354	-0.81208
59.41447	403434.69000	3777415.23284	2.80413	-4.06482	4.93820	145.39999	0.56784	-0.82314
59.91447	403435.65624	3777412.41202	2.78637	-4.13097	4.98285	146.00000	0.55919	-0.82904
60.43447	403436.30376	3777410.52988	2.79733	-4.08539	4.95131	145.60001	0.56497	-0.82511
61.02447	403437.30547	3777407.73784	2.94523	-3.98025	4.95144	143.50000	0.59482	-0.80386
61.61448	403438.33859	3777404.95958	2.98360	-3.93075	4.93484	142.80000	0.60460	-0.79653
62.34448	403440.45639	3777399.39971	3.05757	-3.88547	4.94425	141.80000	0.61841	-0.78586
62.85448	403441.36685	3777397.08524	2.84341	-4.07594	4.96973	145.10001	0.57215	-0.82015
63.36448	403442.28224	3777394.79517	3.01918	-3.87830	4.91494	142.10001	0.61429	-0.78908
63.87448	403443.21356	3777392.53313	2.87072	-3.96575	4.89573	144.10001	0.58637	-0.81004
64.37448	403444.14574	3777390.27860	3.04687	-3.81675	4.88375	141.39999	0.62388	-0.78152
64.86448	403445.10927	3777388.03222	3.02927	-3.80832	4.86618	141.50000	0.62251	-0.78261
65.41447	403446.10209	3777385.82125	3.13960	-3.68902	4.84416	139.60001	0.64812	-0.76154
65.99447	403447.12480	3777383.62879	3.06213	-3.75454	4.84491	140.80000	0.63203	-0.77494
66.49448	403448.14995	3777381.44476	3.24077	-3.57407	4.82458	137.80000	0.67172	-0.74080
67.00448	403449.20448	3777379.30461	3.11678	-3.62359	4.77962	139.30000	0.65210	-0.75813
67.50448	403450.27330	3777377.18688	3.06218	-3.62360	4.74420	139.80000	0.64546	-0.76380
68.00448	403451.34453	3777375.07476	3.20597	-3.46213	4.71853	137.20000	0.67944	-0.73373
68.57447	403452.43940	3777372.98121	3.16816	-3.51859	4.73473	138.00000	0.66913	-0.74314
69.11447	403453.79401	3777370.52493	3.00324	-3.49159	4.60550	139.30000	0.65210	-0.75813
69.61447	403455.19352	3777368.10297	3.32136	-3.26389	4.65666	134.50000	0.71325	-0.70091
70.13447	403456.12297	3777366.49621	3.21007	-3.32413	4.62108	136.00000	0.69466	-0.71934
70.65448	403457.59122	3777364.14500	3.38255	-3.09954	4.58789	132.50000	0.73728	-0.67559
71.17447	403458.56589	3777362.60263	3.61348	-2.81302	4.57934	127.90000	0.78908	-0.61429
71.76447	403460.39177	3777359.98171	3.53735	-2.76368	4.48896	128.00000	0.78801	-0.61566
72.31482	403461.73660	3777358.17326	3.62747	-2.74343	4.54807	127.10000	0.79758	-0.60321
73.04448	403463.39222	3777356.02507	3.52693	-2.83572	4.52554	128.80000	0.77934	-0.62660
73.64447	403465.05363	3777353.90785	3.61951	-2.59131	4.45148	125.60000	0.81310	-0.58212
74.17516	403466.74260	3777351.81008	3.68499	-2.58986	4.50406	125.10000	0.81815	-0.57501
74.67447	403468.46078	3777349.74022	3.74435	-2.45958	4.47993	123.30000	0.83581	-0.54902
75.19447	403469.63943	3777348.42139	3.71226	-2.31968	4.37741	122.00000	0.84805	-0.52992
75.72448	403471.36951	3777346.52063	3.64732	-2.13987	4.22871	120.40000	0.86251	-0.50603
76.23448	403472.51572	3777345.31588	3.56233	-2.03192	4.10108	119.70000	0.86863	-0.49546
76.72482	403474.20271	3777343.63461	3.39113	-1.86429	3.86980	118.80000	0.87631	-0.48175
77.24447	403475.30831	3777342.58728	3.36728	-1.67886	3.76260	116.50000	0.89493	-0.44620
77.73448	403476.93592	3777341.13787	3.22070	-1.50184	3.55365	115.00000	0.90631	-0.42262
78.24447	403477.99535	3777340.23768	3.16245	-1.21395	3.38744	111.00000	0.93358	-0.35837
78.74447	403479.53821	3777339.06177	2.95288	-0.94807	3.10134	107.80000	0.95213	-0.30570
79.25447	403480.52234	3777338.36541	2.87839	-0.76588	2.97854	104.90000	0.96638	-0.25713
79.73448	403481.97879	3777337.45456	2.75848	-0.51125	2.80545	100.50000	0.98325	-0.18224
80.32447	403482.94570	3777336.90879	2.75847	-0.34848	2.78039	97.20000	0.99211	-0.12533
80.85448	403484.41653	3777336.18017	2.69076	-0.12689	2.69375	92.70000	0.99889	-0.04711
81.38447	403485.41290	3777335.76289	2.68121	-0.01404	2.68124	90.30000	0.99999	-0.00524
81.95448	403486.88088	3777335.21386	2.59093	0.20846	2.59931	85.40000	0.99678	0.08020
82.53448	403488.36447	3777334.73800	2.53347	0.43305	2.57022	80.30000	0.98570	0.16849
83.25448	403489.84520	3777334.36558	2.47165	0.71808	2.57384	73.80000	0.96029	0.27899
83.80447	403491.36559	3777334.12437	2.37076	1.00145	2.57359	67.10000	0.92119	0.38912
84.29448	403492.64643	3777334.00313	2.24875	1.29309	2.59403	60.10000	0.86690	0.49849
84.84448	403494.19195	3777334.00233	2.01838	1.59402	2.57192	51.70000	0.78478	0.61978
85.45448	403495.47747	3777334.10855	1.63399	1.94731	2.54204	40.00000	0.64279	0.76604
86.02447	403497.19610	3777334.52243	1.19290	2.21546	2.51620	28.30000	0.47409	0.88048
86.56447	403498.32384	3777335.02323	0.70125	2.38263	2.48369	16.40000	0.28234	0.95931
87.31447	403499.51523	3777335.86181	0.08383	2.40067	2.40213	2.00000	0.03490	0.99939
87.88447	403500.46637	3777336.90404	-0.34129	2.28364	2.30900	351.50000	-0.14781	0.98902
88.51447	403501.17445	3777338.10575	-0.81485	2.13388	2.28417	339.10001	-0.35674	0.93420
89.00455	403501.65149	3777339.57212	-0.99292	1.92374	2.16487	332.70001	-0.45865	0.88862
89.50448	403501.75783	3777340.41242	-1.30101	1.68331	2.12747	322.29999	-0.61153	0.79122
90.00448	403501.72043	3777341.64528	-1.42451	1.40967	2.00409	314.70001	-0.71080	0.70339
90.50447	403501.58395	3777342.44012	-1.60768	1.12153	1.96022	304.89999	-0.82015	0.57215
91.05450	403500.68701	3777344.47242	-1.60021	0.78394	1.78192	296.10001	-0.89803	0.43994
91.80448	403500.16581	3777345.18190	-1.68490	0.37045	1.72514	282.39999	-0.97667	0.21474
92.35448	403499.45223	3777345.88395	-1.63440	0.10856	1.63800	273.79999	-0.99780	0.06627
92.86448	403498.80208	3777346.36818	-1.60803	-0.13220	1.61345	265.29999	-0.99664	-0.08194
93.37447	403498.11972	3777346.76062	-1.55250	-0.31022	1.58319	258.70001	-0.98061	-0.19595
93.87447	403497.38739	3777347.08212	-1.51151	-0.51162	1.59575	251.30000	-0.94721	-0.32061
94.38447	403496.60640	3777347.30917	-1.48188	-0.75832	1.66463	242.89999	-0.89021	-0.45554
94.87448	403495.76115	3777347.44475	-1.43402	-0.99296	1.74425	235.30000	-0.82214	-0.56928
95.42448	403494.87094	3777347.46609	-1.26236	-1.32099	1.82717	223.70000	-0.69088	-0.72297
96.07447	403493.93879	3777347.36002	-1.06813	-1.59555	1.92007	213.80000	-0.55630	-0.83098
96.63447	403492.59393	3777346.95546	-0.83643	-1.91451	2.08924	203.60001	-0.40035	-0.91636
97.14448	403491.64919	3777346.46125	-0.51768	-2.12361	2.18580	193.70000	-0.23684	-0.97155
97.63448	403490.58464	3777345.64111	-0.23249	-2.24980	2.26178	185.89999	-0.10279	-0.99470
98.15449	403489.97921	3777344.99771	0.00391	-2.23914	2.23915	179.89999	0.00175	-1.00000
98.70448	403489.26210	3777343.90608	0.39341	-2.12266	2.15881	169.50000	0.18224	-0.98325
99.32448	403488.86423	3777342.91929	0.68132	-2.02451	2.13608	161.39999	0.31896	-0.94777
99.99448	403488.57620	3777341.66533	1.01234	-1.84908	2.10806	151.30000	0.48022	-0.87715
100.56447	403488.53675	3777340.40975	1.31562	-1.62466	2.09054	141.00000	0.62932	-0.77715
101.14447	403488.69344	3777339.37591	1.55399	-1.40907	2.09771	132.20000	0.74080	-0.67172
101.66447	403489.17645	3777337.99183	1.72762	-1.09638	2.04615	122.40000	0.84433	-0.53583
102.18447	403489.57859	3777337.26007	1.95765	-0.80289	2.11590	112.30000	0.92521	-0.37946
102.67447	403490.36254	3777336.25365	2.05609	-0.47847	2.11102	103.10000	0.97398	-0.22665
103.17447	403491.02047	3777335.69036	2.18138	-0.09906	2.18363	92.60000	0.99897	-0.04536
103.66447	403492.11467	3777334.97877	2.19111	0.28458	2.20951	82.60000	0.99167	0.12880
104.18447	403492.92007	3777334.61609	2.07983	0.69590	2.19317	71.50000	0.94832	0.31730
104.67447	403494.20982	3777334.29640	1.96368	1.05292	2.22815	61.80000	0.88130	0.47255
105.26447	403495.08306	3777334.22164	1.69984	1.43140	2.22224	49.90000	0.76492	0.64412
105.83448	403496.63721	3777334.37587	1.39057	1.74194	2.22891	38.60000	0.62388	0.78152
106.38447	403497.69889	3777334.68650	1.03985	1.96394	2.22224	27.90000	0.46793	0.88377
107.12448	403498.88987	3777335.33236	0.55582	2.14919	2.21990	14.50000	0.25038	0.96815
107.65448	403499.88981	3777336.17855	0.15537	2.16759	2.17315	4.10000	0.07150	0.99744
108.15448	403500.59070	3777336.98361	-0.20924	2.13397	2.14420	354.39999	-0.09758	0.99523
108.66447	403501.14979	3777337.91234	-0.51112	2.14545	2.20550	346.60001	-0.23175	0.97278
109.21448	403501.56468	3777338.95818	-0.92578	2.13934	2.33106	336.60001	-0.39715	0.91775
109.72448	403501.81406	3777340.17870	-1.52795	2.11856	2.61207	324.20001	-0.58496	0.81106
110.22448	403501.83652	3777341.53034	-2.13437	1.72838	2.74642	309.00000	-0.77715	0.62932
110.83448	403501.57891	3777342.86322	-2.37791	1.20638	2.66642	296.89999	-0.89180	0.45243
111.34450	403501.06053	3777344.07563	-2.48686	0.58329	2.55435	283.20001	-0.97358	0.22835
111.86448	403500.36903	3777345.10178	-2.42378	0.00846	2.42379	270.20001	-0.99999	0.00349
112.43447	403499.38727	3777346.10554	-2.24719	-0.47356	2.29655	258.10001	-0.97851	-0.20620
112.94447	403498.26504	3777346.82776	-2.02968	-0.78726	2.17701	248.80000	-0.93232	-0.36162
113.44447	403497.47351	3777347.17149	-1.83048	-1.09552	2.13327	239.10001	-0.85806	-0.51354
113.94447	403496.25321	3777347.47825	-1.57042	-1.36034	2.07768	229.10001	-0.75585	-0.65474
114.44447	403495.42468	3777347.56665	-1.32323	-1.54383	2.03331	220.60001	-0.65077	-0.75927
115.01516	403494.22158	3777347.49249	-1.07206	-1.68930	2.00076	212.39999	-0.53583	-0.84433
115.50448	403493.25222	3777347.26552	-0.85075	-1.82443	2.01304	205.00000	-0.42262	-0.90631
116.05447	403491.13396	3777346.15066	-0.59792	-1.89637	1.98840	197.50000	-0.30071	-0.95372
116.80452	403490.36037	3777345.49863	-0.19740	-2.01323	2.02288	185.60001	-0.09758	-0.99523
117.36448	403489.55133	3777344.59033	0.12422	-2.03091	2.03471	176.50000	0.06105	-0.99813
117.86450	403488.99453	3777343.73302	0.25479	-2.04561	2.06142	172.89999	0.12360	-0.99233
118.37448	403488.58145	3777342.78775	0.60595	-1.99442	2.08443	163.10001	0.29070	-0.95681
118.87448	403488.32157	3777341.76289	0.83775	-1.91754	2.09256	156.39999	0.40035	-0.91636
119.38448	403488.21683	3777340.69694	1.14026	-1.86074	2.18233	148.50000	0.52250	-0.85264
119.87447	403488.28312	3777339.61421	1.42845	-1.65488	2.18611	139.20000	0.65342	-0.75699
120.40483	403488.54711	3777338.52286	1.79022	-1.44969	2.30358	129.00000	0.77715	-0.62932
120.92447	403488.99530	3777337.47851	2.05100	-1.12289	2.33827	118.70000	0.87715	-0.48022
121.42447	403489.63256	3777336.49992	2.23486	-0.78702	2.36939	109.40000	0.94322	-0.33216
121.92448	403490.44999	3777335.63322	2.37586	-0.31279	2.39636	97.50000	0.99144	-0.13053
122.43447	403491.43930	3777334.90860	2.48249	0.16924	2.48825	86.10000	0.99768	0.06802
122.94447	403492.56023	3777334.36407	2.43807	0.67156	2.52886	74.60000	0.96410	0.26556
123.51447	403493.79369	3777334.04496	2.24884	1.26716	2.58128	60.60000	0.87121	0.49090
124.05447	403495.33435	3777333.95019	1.93093	1.75701	2.61067	47.70000	0.73963	0.67301
124.64448	403497.12126	3777334.31356	1.47371	2.14426	2.60185	34.50000	0.56641	0.82413
125.18447	403498.31197	3777334.85695	0.96026	2.47569	2.65539	21.20000	0.36162	0.93232
125.67447	403499.36755	3777335.63958	0.62228	2.53348	2.60878	13.80000	0.23853	0.97113
126.17447	403499.90967	3777336.20937	-0.03627	2.59748	2.59773	359.20001	-0.01396	0.99990
126.66447	403500.79050	3777337.48546	-0.50825	2.56685	2.61669	348.79999	-0.19423	0.98096
127.18447	403501.21146	3777338.43723	-0.91675	2.41335	2.58161	339.20001	-0.35511	0.93483
127.67447	403501.54336	3777339.92859	-1.34112	2.18851	2.56674	328.50000	-0.52250	0.85264
128.19447	403501.56627	3777340.94366	-1.67892	1.97273	2.59046	319.60001	-0.64812	0.76154
128.68447	403501.31996	3777342.46351	-2.07011	1.50402	2.55880	306.00000	-0.80902	0.58779
129.19447	403500.94439	3777343.42344	-2.33926	1.04640	2.56263	294.10001	-0.91283	0.40833
129.69447	403500.15090	3777344.71858	-2.51396	0.40717	2.54672	279.20001	-0.98714	0.15988
130.21448	403499.49480	3777345.46140	-2.43551	-0.09782	2.43747	267.70001	-0.99919	-0.04013
130.74447	403498.37769	3777346.30202	-2.19474	-0.52286	2.25616	256.60001	-0.97278	-0.23175
131.24447	403497.59870	3777346.72366	-2.00141	-0.93327	2.20831	245.00000	-0.90631	-0.42262
131.73447	403496.37382	3777347.11789	-1.78674	-1.19161	2.14765	236.30000	-0.83195	-0.55484
132.25447	403495.55101	3777347.23162	-1.52106	-1.36477	2.04358	228.10001	-0.74431	-0.66783
132.74447	403494.34870	3777347.23454	-1.21001	-1.52666	1.94803	218.39999	-0.62115	-0.78369
133.32447	403493.55715	3777347.11762	-0.92209	-1.74890	1.97709	207.80000	-0.46639	-0.88458
134.13450	403492.10039	3777346.62584	-0.58366	-1.81790	1.90930	197.80000	-0.30570	-0.95213
134.67447	403491.12987	3777346.05669	-0.33697	-1.81815	1.84912	190.50000	-0.18224	-0.98325
135.18447	403490.42258	3777345.46603	-0.12454	-1.82689	1.83113	183.89999	-0.06802	-0.99768
135.71448	403489.79028	3777344.79376	0.12096	-1.82116	1.82518	176.20000	0.06627	-0.99780
136.23448	403489.24637	3777344.04914	0.35119	-1.80669	1.84051	169.00000	0.19081	-0.98163
136.73448	403488.82837	3777343.23365	0.52116	-1.75940	1.83496	163.50000	0.28402	-0.95882
137.22448	403488.53556	3777342.35296	0.71414	-1.69059	1.83524	157.10001	0.38912	-0.92119
137.74448	403488.35740	3777341.44570	0.88428	-1.63544	1.85920	151.60001	0.47562	-0.87965
138.23447	403488.28766	3777340.51478	1.11656	-1.49799	1.86834	143.30000	0.59763	-0.80178
138.74448	403488.35787	3777339.58524	1.27434	-1.39070	1.88626	137.50000	0.67559	-0.73728
139.24447	403488.58628	3777338.68322	1.41073	-1.18795	1.84429	130.10001	0.76492	-0.64412
139.75448	403488.90297	3777337.85174	1.47527	-0.92185	1.73960	122.00000	0.84805	-0.52992
140.25448	403489.28552	3777337.11642	1.47290	-0.71203	1.63597	115.80000	0.90032	-0.43523
140.83447	403489.73777	3777336.46781	1.48698	-0.50621	1.57078	108.80000	0.94665	-0.32227
