[61063832448.151744] TPE	66955
[201063832448.2317719] TAS	00001100000000001000000100000000
[201063832448.3217469] TASX	00000000000000000000000000010000
[201063832448.391727] TDTEMP	44.7
[201063832448.461727] TMTEMP	40.4
[201063832448.521727] TDHRS	411.5
