1,34.0885820,-117.4975100,10,10
2,34.0886580,-117.4974310,10,10
3,34.0886770,-117.4973710,10,10
4,34.0886630,-117.4973120,10,10
5,34.0885500,-117.4971800,10,10
6,34.0884330,-117.4970290,10,10
7,34.0884170,-117.4969620,10,10
8,34.0884320,-117.4968830,10,10
9,34.0884980,-117.4967850,10,10
10,34.0885850,-117.4967710,10,10
11,34.0886300,-117.4968080,10,10
12,34.0886660,-117.4968660,10,10
13,34.0886830,-117.4969380,10,10
14,34.0886500,-117.4970440,10,10
15,34.0885500,-117.4971800,10,10
16,34.0884170,-117.4973690,5,10
17,34.0884050,-117.4974690,5,10
18,34.0884180,-117.4975260,5,10
19,34.0884480,-117.4975710,5,10
20,34.0884900,-117.4975820,5,10
21,34.0885130,-117.4975770,5,0
