%!PS-Adobe-3.0 EPSF-3.0
%%Creator: MATLAB, The Mathworks, Inc.
%%Title: /home/lindzey/8_16/projects/lindzey/tracking/trackMO/segmentation.eps
%%CreationDate: 09/03/2006  19:45:04
%%DocumentNeededFonts: Helvetica
%%DocumentProcessColors: Cyan Magenta Yellow Black
%%LanguageLevel: 2
%%Pages: 1
%%BoundingBox:    68   218   542   574
%%EndComments

%%BeginProlog
% MathWorks dictionary
/MathWorks 160 dict begin
% definition operators
/bdef {bind def} bind def
/ldef {load def} bind def
/xdef {exch def} bdef
/xstore {exch store} bdef
% operator abbreviations
/c  /clip ldef
/cc /concat ldef
/cp /closepath ldef
/gr /grestore ldef
/gs /gsave ldef
/mt /moveto ldef
/np /newpath ldef
/cm /currentmatrix ldef
/sm /setmatrix ldef
/rm /rmoveto ldef
/rl /rlineto ldef
/s {show newpath} bdef
/sc {setcmykcolor} bdef
/sr /setrgbcolor ldef
/sg /setgray ldef
/w /setlinewidth ldef
/j /setlinejoin ldef
/cap /setlinecap ldef
/rc {rectclip} bdef
/rf {rectfill} bdef
% page state control
/pgsv () def
/bpage {/pgsv save def} bdef
/epage {pgsv restore} bdef
/bplot /gsave ldef
/eplot {stroke grestore} bdef
% orientation switch
/portraitMode 0 def /landscapeMode 1 def /rotateMode 2 def
% coordinate system mappings
/dpi2point 0 def
% font control
/FontSize 0 def
/FMS {/FontSize xstore findfont [FontSize 0 0 FontSize neg 0 0]
  makefont setfont} bdef
/reencode {exch dup where {pop load} {pop StandardEncoding} ifelse
  exch dup 3 1 roll findfont dup length dict begin
  { 1 index /FID ne {def}{pop pop} ifelse } forall
  /Encoding exch def currentdict end definefont pop} bdef
/isroman {findfont /CharStrings get /Agrave known} bdef
/FMSR {3 1 roll 1 index dup isroman {reencode} {pop pop} ifelse
  exch FMS} bdef
/csm {1 dpi2point div -1 dpi2point div scale neg translate
 dup landscapeMode eq {pop -90 rotate}
  {rotateMode eq {90 rotate} if} ifelse} bdef
% line types: solid, dotted, dashed, dotdash
/SO { [] 0 setdash } bdef
/DO { [.5 dpi2point mul 4 dpi2point mul] 0 setdash } bdef
/DA { [6 dpi2point mul] 0 setdash } bdef
/DD { [.5 dpi2point mul 4 dpi2point mul 6 dpi2point mul 4
  dpi2point mul] 0 setdash } bdef
% macros for lines and objects
/L {lineto stroke} bdef
/MP {3 1 roll moveto 1 sub {rlineto} repeat} bdef
/AP {{rlineto} repeat} bdef
/PDlw -1 def
/W {/PDlw currentlinewidth def setlinewidth} def
/PP {closepath eofill} bdef
/DP {closepath stroke} bdef
/MR {4 -2 roll moveto dup  0 exch rlineto exch 0 rlineto
  neg 0 exch rlineto closepath} bdef
/FR {MR stroke} bdef
/PR {MR fill} bdef
/L1i {{currentfile picstr readhexstring pop} image} bdef
/tMatrix matrix def
/MakeOval {newpath tMatrix currentmatrix pop translate scale
0 0 1 0 360 arc tMatrix setmatrix} bdef
/FO {MakeOval stroke} bdef
/PO {MakeOval fill} bdef
/PD {currentlinewidth 2 div 0 360 arc fill
   PDlw -1 eq not {PDlw w /PDlw -1 def} if} def
/FA {newpath tMatrix currentmatrix pop translate scale
  0 0 1 5 -2 roll arc tMatrix setmatrix stroke} bdef
/PA {newpath tMatrix currentmatrix pop	translate 0 0 moveto scale
  0 0 1 5 -2 roll arc closepath tMatrix setmatrix fill} bdef
/FAn {newpath tMatrix currentmatrix pop translate scale
  0 0 1 5 -2 roll arcn tMatrix setmatrix stroke} bdef
/PAn {newpath tMatrix currentmatrix pop translate 0 0 moveto scale
  0 0 1 5 -2 roll arcn closepath tMatrix setmatrix fill} bdef
/vradius 0 def /hradius 0 def /lry 0 def
/lrx 0 def /uly 0 def /ulx 0 def /rad 0 def
/MRR {/vradius xdef /hradius xdef /lry xdef /lrx xdef /uly xdef
  /ulx xdef newpath tMatrix currentmatrix pop ulx hradius add uly
  vradius add translate hradius vradius scale 0 0 1 180 270 arc 
  tMatrix setmatrix lrx hradius sub uly vradius add translate
  hradius vradius scale 0 0 1 270 360 arc tMatrix setmatrix
  lrx hradius sub lry vradius sub translate hradius vradius scale
  0 0 1 0 90 arc tMatrix setmatrix ulx hradius add lry vradius sub
  translate hradius vradius scale 0 0 1 90 180 arc tMatrix setmatrix
  closepath} bdef
/FRR {MRR stroke } bdef
/PRR {MRR fill } bdef
/MlrRR {/lry xdef /lrx xdef /uly xdef /ulx xdef /rad lry uly sub 2 div def
  newpath tMatrix currentmatrix pop ulx rad add uly rad add translate
  rad rad scale 0 0 1 90 270 arc tMatrix setmatrix lrx rad sub lry rad
  sub translate rad rad scale 0 0 1 270 90 arc tMatrix setmatrix
  closepath} bdef
/FlrRR {MlrRR stroke } bdef
/PlrRR {MlrRR fill } bdef
/MtbRR {/lry xdef /lrx xdef /uly xdef /ulx xdef /rad lrx ulx sub 2 div def
  newpath tMatrix currentmatrix pop ulx rad add uly rad add translate
  rad rad scale 0 0 1 180 360 arc tMatrix setmatrix lrx rad sub lry rad
  sub translate rad rad scale 0 0 1 0 180 arc tMatrix setmatrix
  closepath} bdef
/FtbRR {MtbRR stroke } bdef
/PtbRR {MtbRR fill } bdef
/stri 6 array def /dtri 6 array def
/smat 6 array def /dmat 6 array def
/tmat1 6 array def /tmat2 6 array def /dif 3 array def
/asub {/ind2 exch def /ind1 exch def dup dup
  ind1 get exch ind2 get sub exch } bdef
/tri_to_matrix {
  2 0 asub 3 1 asub 4 0 asub 5 1 asub
  dup 0 get exch 1 get 7 -1 roll astore } bdef
/compute_transform {
  dmat dtri tri_to_matrix tmat1 invertmatrix 
  smat stri tri_to_matrix tmat2 concatmatrix } bdef
/ds {stri astore pop} bdef
/dt {dtri astore pop} bdef
/db {2 copy /cols xdef /rows xdef mul dup 3 mul string
  currentfile 
  3 index 0 eq {/ASCIIHexDecode filter}
  {/ASCII85Decode filter 3 index 2 eq {/RunLengthDecode filter} if }
  ifelse exch readstring pop
  dup 0 3 index getinterval /rbmap xdef
  dup 2 index dup getinterval /gbmap xdef
  1 index dup 2 mul exch getinterval /bbmap xdef pop pop}bdef
/it {gs np dtri aload pop moveto lineto lineto cp c
  cols rows 8 compute_transform 
  rbmap gbmap bbmap true 3 colorimage gr}bdef
/il {newpath moveto lineto stroke}bdef
currentdict end def
%%EndProlog

%%BeginSetup
MathWorks begin

0 cap

end
%%EndSetup

%%Page: 1 1
%%BeginPageSetup
%%PageBoundingBox:    68   218   542   574
MathWorks begin
bpage
%%EndPageSetup

%%BeginObject: obj1
bplot

/dpi2point 12 def
portraitMode 0816 6888 csm

    0     0  5697  4269 rc
95 dict begin %Colortable dictionary
/c0 { 0.000000 0.000000 0.000000 sr} bdef
/c1 { 1.000000 1.000000 1.000000 sr} bdef
/c2 { 0.900000 0.000000 0.000000 sr} bdef
/c3 { 0.000000 0.820000 0.000000 sr} bdef
/c4 { 0.000000 0.000000 0.800000 sr} bdef
/c5 { 0.910000 0.820000 0.320000 sr} bdef
/c6 { 1.000000 0.260000 0.820000 sr} bdef
/c7 { 0.000000 0.820000 0.820000 sr} bdef
c0
1 j
1 sg
   0    0 5698 4270 rf
6 w
0 3479 4415 0 0 -3479 741 3799 4 MP
PP
-4415 0 0 3479 4415 0 0 -3479 741 3799 5 MP stroke
4 w
DO
SO
6 w
0 sg
 741 3799 mt 5156 3799 L
 741 3799 mt  741  320 L
1011 3799 mt 1011 3754 L
%%IncludeResource: font Helvetica
/Helvetica /ISOLatin1Encoding 120 FMSR

 828 3944 mt 
(3.9898) s
1443 3799 mt 1443 3754 L
1260 3944 mt 
(3.9899) s
1876 3799 mt 1876 3754 L
1693 3944 mt 
(3.9899) s
2308 3799 mt 2308 3754 L
2125 3944 mt 
(3.9899) s
2740 3799 mt 2740 3754 L
2624 3944 mt 
(3.99) s
3173 3799 mt 3173 3754 L
2990 3944 mt 
(3.9901) s
3605 3799 mt 3605 3754 L
3422 3944 mt 
(3.9901) s
4038 3799 mt 4038 3754 L
3855 3944 mt 
(3.9901) s
4470 3799 mt 4470 3754 L
4287 3944 mt 
(3.9902) s
4902 3799 mt 4902 3754 L
4719 3944 mt 
(3.9903) s
4886 4146 mt 
(x 10) s
%%IncludeResource: font Helvetica
/Helvetica /ISOLatin1Encoding 80 FMSR

5112 4072 mt 
(5) s
 741 3263 mt  785 3263 L
%%IncludeResource: font Helvetica
/Helvetica /ISOLatin1Encoding 120 FMSR

 340 3307 mt 
(3.7813) s
 741 2688 mt  785 2688 L
 340 2732 mt 
(3.7813) s
 741 2113 mt  785 2113 L
 340 2157 mt 
(3.7813) s
 741 1538 mt  785 1538 L
 340 1582 mt 
(3.7813) s
 741  963 mt  785  963 L
 340 1007 mt 
(3.7813) s
 741  388 mt  785  388 L
 340  432 mt 
(3.7813) s
 741  266 mt 
(x 10) s
%%IncludeResource: font Helvetica
/Helvetica /ISOLatin1Encoding 80 FMSR

 967  192 mt 
(6) s
gs 741 320 4416 3480 rc
gr

24 W
5017 3675 PD
24 W
5015 3636 PD
24 W
5010 3597 PD
24 W
5007 3558 PD
24 W
5000 3520 PD
24 W
4999 3481 PD
24 W
4995 3443 PD
24 W
5002 3402 PD
24 W
5001 3363 PD
24 W
4994 3325 PD
24 W
4979 3289 PD
24 W
4976 3250 PD
24 W
4972 3212 PD
24 W
4969 3173 PD
24 W
4964 3134 PD
24 W
4960 3095 PD
24 W
4956 3056 PD
24 W
4952 3017 PD
24 W
4553 3147 PD
24 W
4534 3124 PD
24 W
4540 3090 PD
24 W
4936 2857 PD
24 W
4932 2816 PD
24 W
4928 2775 PD
24 W
4925 2733 PD
24 W
4919 2691 PD
24 W
4916 2649 PD
24 W
4911 2606 PD
24 W
4908 2562 PD
24 W
4904 2517 PD
24 W
4899 2473 PD
24 W
4572 2684 PD
24 W
4561 2654 PD
24 W
4886 2335 PD
24 W
4881 2287 PD
24 W
4876 2239 PD
24 W
4871 2190 PD
24 W
4866 2140 PD
24 W
4862 2088 PD
24 W
4858 2035 PD
24 W
4853 1982 PD
24 W
4847 1927 PD
24 W
4842 1871 PD
24 W
4838 1812 PD
24 W
4832 1754 PD
24 W
4827 1693 PD
24 W
4821 1631 PD
24 W
4814 1568 PD
24 W
4808 1503 PD
24 W
4802 1433 PD
24 W
4794 1366 PD
24 W
4788 1293 PD
24 W
4781 1218 PD
24 W
4775 1139 PD
24 W
4767 1061 PD
24 W
4759 979 PD
24 W
4750 894 PD
24 W
4743 803 PD
24 W
4734 709 PD
24 W
4725 611 PD
24 W
3845 2489 PD
24 W
3828 2482 PD
24 W
3812 2469 PD
24 W
3796 2459 PD
24 W
3771 2472 PD
24 W
3752 2471 PD
24 W
3735 2466 PD
24 W
3717 2462 PD
24 W
3701 2456 PD
24 W
3684 2451 PD
24 W
3667 2445 PD
24 W
3650 2440 PD
24 W
3634 2433 PD
24 W
3617 2430 PD
24 W
3605 2402 PD
24 W
3587 2403 PD
24 W
3569 2403 PD
24 W
3552 2402 PD
24 W
3536 2393 PD
24 W
3572 2039 PD
24 W
3551 2029 PD
24 W
3531 2019 PD
24 W
3510 2007 PD
24 W
3490 1986 PD
24 W
3467 1985 PD
24 W
3446 1970 PD
gs 741 320 4416 3480 rc
gr

24 W
2845 1761 PD
24 W
2865 1942 PD
24 W
2875 2071 PD
24 W
2863 2112 PD
24 W
2844 2128 PD
24 W
2823 2137 PD
24 W
2802 2143 PD
24 W
2777 2141 PD
24 W
2748 2131 PD
gs 741 320 4416 3480 rc
gr

24 W
2426 2108 PD
24 W
2401 2121 PD
gs 741 320 4416 3480 rc
gr

24 W
1246 1609 PD
24 W
1206 1644 PD
24 W
1175 1689 PD
24 W
1127 1719 PD
gs 741 320 4416 3480 rc
gr

24 W
1262 1974 PD
24 W
1222 2007 PD
gs 741 320 4416 3480 rc
gr

24 W
1308 2199 PD
24 W
1350 2288 PD
24 W
1323 2328 PD
24 W
1287 2363 PD
24 W
1253 2399 PD
24 W
1220 2437 PD
24 W
1303 2542 PD
24 W
1346 2619 PD
24 W
1343 2670 PD
24 W
1315 2709 PD
24 W
1276 2743 PD
24 W
1240 2780 PD
24 W
1203 2818 PD
24 W
1164 2856 PD
24 W
1128 2897 PD
24 W
1080 2936 PD
24 W
935 2946 PD
gs 741 320 4416 3480 rc
gr

24 W
1451 3194 PD
24 W
1474 3244 PD
gs 741 320 4416 3480 rc
gr

24 W
1492 3335 PD
24 W
1457 3372 PD
24 W
1403 3408 PD
24 W
1386 3451 PD
24 W
1347 3492 PD
24 W
1212 3529 PD
24 W
1264 3580 PD
24 W
1345 3629 PD
gs 741 320 4416 3480 rc
gr

24 W
/c8 { 0.964825 0.104123 0.460415 sr} bdef
c8
5017 3675 PD
24 W
5015 3636 PD
24 W
5010 3597 PD
24 W
5007 3558 PD
24 W
5000 3520 PD
24 W
4999 3481 PD
24 W
4995 3443 PD
24 W
5002 3402 PD
24 W
5001 3363 PD
24 W
4994 3325 PD
24 W
4979 3289 PD
24 W
4976 3250 PD
24 W
4972 3212 PD
24 W
4969 3173 PD
24 W
4964 3134 PD
24 W
4960 3095 PD
24 W
4956 3056 PD
24 W
4952 3017 PD
gs 741 320 4416 3480 rc
gr

24 W
/c9 { 0.629426 0.823445 0.152295 sr} bdef
c9
4553 3147 PD
24 W
4534 3124 PD
24 W
4540 3090 PD
gs 741 320 4416 3480 rc
gr

24 W
/c10 { 0.856910 0.098846 0.916927 sr} bdef
c10
4936 2857 PD
24 W
4932 2816 PD
24 W
4928 2775 PD
24 W
4925 2733 PD
24 W
4919 2691 PD
24 W
4916 2649 PD
24 W
4911 2606 PD
24 W
4908 2562 PD
24 W
4904 2517 PD
24 W
4899 2473 PD
gs 741 320 4416 3480 rc
gr

24 W
/c11 { 0.051888 0.415146 0.098763 sr} bdef
c11
4886 2335 PD
24 W
4881 2287 PD
24 W
4876 2239 PD
24 W
4871 2190 PD
24 W
4866 2140 PD
24 W
4862 2088 PD
24 W
4858 2035 PD
24 W
4853 1982 PD
24 W
4847 1927 PD
24 W
4842 1871 PD
24 W
4838 1812 PD
24 W
4832 1754 PD
24 W
4827 1693 PD
24 W
4821 1631 PD
24 W
4814 1568 PD
24 W
4808 1503 PD
24 W
4802 1433 PD
24 W
4794 1366 PD
24 W
4788 1293 PD
24 W
4781 1218 PD
24 W
4775 1139 PD
24 W
4767 1061 PD
24 W
4759 979 PD
24 W
4750 894 PD
24 W
4743 803 PD
24 W
4734 709 PD
24 W
4725 611 PD
gs 741 320 4416 3480 rc
gr

24 W
/c12 { 0.452555 0.468038 0.303275 sr} bdef
c12
3845 2489 PD
24 W
3828 2482 PD
24 W
3812 2469 PD
24 W
3796 2459 PD
24 W
3771 2472 PD
24 W
3752 2471 PD
24 W
3735 2466 PD
24 W
3717 2462 PD
24 W
3701 2456 PD
24 W
3684 2451 PD
24 W
3667 2445 PD
24 W
3650 2440 PD
24 W
3634 2433 PD
24 W
3617 2430 PD
24 W
3605 2402 PD
24 W
3587 2403 PD
24 W
3569 2403 PD
24 W
3552 2402 PD
24 W
3536 2393 PD
gs 741 320 4416 3480 rc
gr

24 W
/c13 { 0.070752 0.856710 0.871211 sr} bdef
c13
3572 2039 PD
24 W
3551 2029 PD
24 W
3531 2019 PD
24 W
3510 2007 PD
24 W
3490 1986 PD
24 W
3467 1985 PD
24 W
3446 1970 PD
gs 741 320 4416 3480 rc
gr

24 W
/c14 { 0.615314 0.779628 0.467008 sr} bdef
c14
2865 1942 PD
24 W
2875 2071 PD
24 W
2863 2112 PD
24 W
2844 2128 PD
24 W
2823 2137 PD
24 W
2802 2143 PD
24 W
2777 2141 PD
24 W
2748 2131 PD
gs 741 320 4416 3480 rc
gr

24 W
/c15 { 0.608925 0.452325 0.730759 sr} bdef
c15
1246 1609 PD
24 W
1206 1644 PD
24 W
1175 1689 PD
24 W
1127 1719 PD
gs 741 320 4416 3480 rc
gr

24 W
/c16 { 0.879618 0.280774 0.996696 sr} bdef
c16
1308 2199 PD
24 W
1350 2288 PD
24 W
1323 2328 PD
24 W
1287 2363 PD
24 W
1253 2399 PD
24 W
1220 2437 PD
24 W
1303 2542 PD
24 W
1346 2619 PD
24 W
1343 2670 PD
24 W
1315 2709 PD
24 W
1276 2743 PD
24 W
1240 2780 PD
24 W
1203 2818 PD
24 W
1164 2856 PD
24 W
1128 2897 PD
24 W
1080 2936 PD
24 W
935 2946 PD
gs 741 320 4416 3480 rc
gr

24 W
/c17 { 0.421813 0.473085 0.698996 sr} bdef
c17
1492 3335 PD
24 W
1457 3372 PD
24 W
1403 3408 PD
24 W
1386 3451 PD
24 W
1347 3492 PD
24 W
1212 3529 PD
24 W
1264 3580 PD
24 W
1345 3629 PD
gs 741 320 4416 3480 rc
gr

0 sg
%%IncludeResource: font Helvetica
/Helvetica /ISOLatin1Encoding 120 FMSR

2643 4087 mt 
(Easting \(m\)) s
 258 2389 mt  -90 rotate
(Northing \(m\)) s
90 rotate

end %%Color Dict

eplot
%%EndObject

epage
end

showpage

%%Trailer
%%EOF
