%!PS-Adobe-3.0 EPSF-3.0
%%Creator: MATLAB, The Mathworks, Inc.
%%Title: /home/lindzey/reports/finalPaper/trackedCar.eps
%%CreationDate: 08/17/2006  00:13:40
%%DocumentNeededFonts: Helvetica
%%DocumentProcessColors: Cyan Magenta Yellow Black
%%LanguageLevel: 2
%%Pages: 1
%%BoundingBox:    68   218   542   574
%%EndComments

%%BeginProlog
% MathWorks dictionary
/MathWorks 160 dict begin
% definition operators
/bdef {bind def} bind def
/ldef {load def} bind def
/xdef {exch def} bdef
/xstore {exch store} bdef
% operator abbreviations
/c  /clip ldef
/cc /concat ldef
/cp /closepath ldef
/gr /grestore ldef
/gs /gsave ldef
/mt /moveto ldef
/np /newpath ldef
/cm /currentmatrix ldef
/sm /setmatrix ldef
/rm /rmoveto ldef
/rl /rlineto ldef
/s {show newpath} bdef
/sc {setcmykcolor} bdef
/sr /setrgbcolor ldef
/sg /setgray ldef
/w /setlinewidth ldef
/j /setlinejoin ldef
/cap /setlinecap ldef
/rc {rectclip} bdef
/rf {rectfill} bdef
% page state control
/pgsv () def
/bpage {/pgsv save def} bdef
/epage {pgsv restore} bdef
/bplot /gsave ldef
/eplot {stroke grestore} bdef
% orientation switch
/portraitMode 0 def /landscapeMode 1 def /rotateMode 2 def
% coordinate system mappings
/dpi2point 0 def
% font control
/FontSize 0 def
/FMS {/FontSize xstore findfont [FontSize 0 0 FontSize neg 0 0]
  makefont setfont} bdef
/reencode {exch dup where {pop load} {pop StandardEncoding} ifelse
  exch dup 3 1 roll findfont dup length dict begin
  { 1 index /FID ne {def}{pop pop} ifelse } forall
  /Encoding exch def currentdict end definefont pop} bdef
/isroman {findfont /CharStrings get /Agrave known} bdef
/FMSR {3 1 roll 1 index dup isroman {reencode} {pop pop} ifelse
  exch FMS} bdef
/csm {1 dpi2point div -1 dpi2point div scale neg translate
 dup landscapeMode eq {pop -90 rotate}
  {rotateMode eq {90 rotate} if} ifelse} bdef
% line types: solid, dotted, dashed, dotdash
/SO { [] 0 setdash } bdef
/DO { [.5 dpi2point mul 4 dpi2point mul] 0 setdash } bdef
/DA { [6 dpi2point mul] 0 setdash } bdef
/DD { [.5 dpi2point mul 4 dpi2point mul 6 dpi2point mul 4
  dpi2point mul] 0 setdash } bdef
% macros for lines and objects
/L {lineto stroke} bdef
/MP {3 1 roll moveto 1 sub {rlineto} repeat} bdef
/AP {{rlineto} repeat} bdef
/PDlw -1 def
/W {/PDlw currentlinewidth def setlinewidth} def
/PP {closepath eofill} bdef
/DP {closepath stroke} bdef
/MR {4 -2 roll moveto dup  0 exch rlineto exch 0 rlineto
  neg 0 exch rlineto closepath} bdef
/FR {MR stroke} bdef
/PR {MR fill} bdef
/L1i {{currentfile picstr readhexstring pop} image} bdef
/tMatrix matrix def
/MakeOval {newpath tMatrix currentmatrix pop translate scale
0 0 1 0 360 arc tMatrix setmatrix} bdef
/FO {MakeOval stroke} bdef
/PO {MakeOval fill} bdef
/PD {currentlinewidth 2 div 0 360 arc fill
   PDlw -1 eq not {PDlw w /PDlw -1 def} if} def
/FA {newpath tMatrix currentmatrix pop translate scale
  0 0 1 5 -2 roll arc tMatrix setmatrix stroke} bdef
/PA {newpath tMatrix currentmatrix pop	translate 0 0 moveto scale
  0 0 1 5 -2 roll arc closepath tMatrix setmatrix fill} bdef
/FAn {newpath tMatrix currentmatrix pop translate scale
  0 0 1 5 -2 roll arcn tMatrix setmatrix stroke} bdef
/PAn {newpath tMatrix currentmatrix pop translate 0 0 moveto scale
  0 0 1 5 -2 roll arcn closepath tMatrix setmatrix fill} bdef
/vradius 0 def /hradius 0 def /lry 0 def
/lrx 0 def /uly 0 def /ulx 0 def /rad 0 def
/MRR {/vradius xdef /hradius xdef /lry xdef /lrx xdef /uly xdef
  /ulx xdef newpath tMatrix currentmatrix pop ulx hradius add uly
  vradius add translate hradius vradius scale 0 0 1 180 270 arc 
  tMatrix setmatrix lrx hradius sub uly vradius add translate
  hradius vradius scale 0 0 1 270 360 arc tMatrix setmatrix
  lrx hradius sub lry vradius sub translate hradius vradius scale
  0 0 1 0 90 arc tMatrix setmatrix ulx hradius add lry vradius sub
  translate hradius vradius scale 0 0 1 90 180 arc tMatrix setmatrix
  closepath} bdef
/FRR {MRR stroke } bdef
/PRR {MRR fill } bdef
/MlrRR {/lry xdef /lrx xdef /uly xdef /ulx xdef /rad lry uly sub 2 div def
  newpath tMatrix currentmatrix pop ulx rad add uly rad add translate
  rad rad scale 0 0 1 90 270 arc tMatrix setmatrix lrx rad sub lry rad
  sub translate rad rad scale 0 0 1 270 90 arc tMatrix setmatrix
  closepath} bdef
/FlrRR {MlrRR stroke } bdef
/PlrRR {MlrRR fill } bdef
/MtbRR {/lry xdef /lrx xdef /uly xdef /ulx xdef /rad lrx ulx sub 2 div def
  newpath tMatrix currentmatrix pop ulx rad add uly rad add translate
  rad rad scale 0 0 1 180 360 arc tMatrix setmatrix lrx rad sub lry rad
  sub translate rad rad scale 0 0 1 0 180 arc tMatrix setmatrix
  closepath} bdef
/FtbRR {MtbRR stroke } bdef
/PtbRR {MtbRR fill } bdef
/stri 6 array def /dtri 6 array def
/smat 6 array def /dmat 6 array def
/tmat1 6 array def /tmat2 6 array def /dif 3 array def
/asub {/ind2 exch def /ind1 exch def dup dup
  ind1 get exch ind2 get sub exch } bdef
/tri_to_matrix {
  2 0 asub 3 1 asub 4 0 asub 5 1 asub
  dup 0 get exch 1 get 7 -1 roll astore } bdef
/compute_transform {
  dmat dtri tri_to_matrix tmat1 invertmatrix 
  smat stri tri_to_matrix tmat2 concatmatrix } bdef
/ds {stri astore pop} bdef
/dt {dtri astore pop} bdef
/db {2 copy /cols xdef /rows xdef mul dup 3 mul string
  currentfile 
  3 index 0 eq {/ASCIIHexDecode filter}
  {/ASCII85Decode filter 3 index 2 eq {/RunLengthDecode filter} if }
  ifelse exch readstring pop
  dup 0 3 index getinterval /rbmap xdef
  dup 2 index dup getinterval /gbmap xdef
  1 index dup 2 mul exch getinterval /bbmap xdef pop pop}bdef
/it {gs np dtri aload pop moveto lineto lineto cp c
  cols rows 8 compute_transform 
  rbmap gbmap bbmap true 3 colorimage gr}bdef
/il {newpath moveto lineto stroke}bdef
currentdict end def
%%EndProlog

%%BeginSetup
MathWorks begin

0 cap

end
%%EndSetup

%%Page: 1 1
%%BeginPageSetup
%%PageBoundingBox:    68   218   542   574
MathWorks begin
bpage
%%EndPageSetup

%%BeginObject: obj1
bplot

/dpi2point 12 def
portraitMode 0816 6888 csm

    0     0  5697  4269 rc
89 dict begin %Colortable dictionary
/c0 { 0.000000 0.000000 0.000000 sr} bdef
/c1 { 1.000000 1.000000 1.000000 sr} bdef
/c2 { 0.900000 0.000000 0.000000 sr} bdef
/c3 { 0.000000 0.820000 0.000000 sr} bdef
/c4 { 0.000000 0.000000 0.800000 sr} bdef
/c5 { 0.910000 0.820000 0.320000 sr} bdef
/c6 { 1.000000 0.260000 0.820000 sr} bdef
/c7 { 0.000000 0.820000 0.820000 sr} bdef
c0
1 j
1 sg
   0    0 5698 4270 rf
6 w
0 3480 4415 0 0 -3480 740 3799 4 MP
PP
-4415 0 0 3480 4415 0 0 -3480 740 3799 5 MP stroke
4 w
DO
SO
6 w
0 sg
 740 3799 mt 5155 3799 L
 740  319 mt 5155  319 L
 740 3799 mt  740  319 L
5155 3799 mt 5155  319 L
 740 3799 mt 5155 3799 L
 740 3799 mt  740  319 L
1298 3799 mt 1298 3754 L
1298  320 mt 1298  364 L
%%IncludeResource: font Helvetica
/Helvetica /ISOLatin1Encoding 120 FMSR

1115 3944 mt 
(3.9898) s
1952 3799 mt 1952 3754 L
1952  320 mt 1952  364 L
1769 3944 mt 
(3.9899) s
2605 3799 mt 2605 3754 L
2605  320 mt 2605  364 L
2489 3944 mt 
(3.99) s
3259 3799 mt 3259 3754 L
3259  320 mt 3259  364 L
3076 3944 mt 
(3.9901) s
3913 3799 mt 3913 3754 L
3913  320 mt 3913  364 L
3730 3944 mt 
(3.9902) s
4566 3799 mt 4566 3754 L
4566  320 mt 4566  364 L
4383 3944 mt 
(3.9903) s
4885 4146 mt 
(x 10) s
%%IncludeResource: font Helvetica
/Helvetica /ISOLatin1Encoding 80 FMSR

5111 4072 mt 
(5) s
 740 3268 mt  785 3268 L
5155 3268 mt 5111 3268 L
%%IncludeResource: font Helvetica
/Helvetica /ISOLatin1Encoding 120 FMSR

 340 3312 mt 
(3.7813) s
 740 2659 mt  785 2659 L
5155 2659 mt 5111 2659 L
 340 2703 mt 
(3.7813) s
 740 2050 mt  785 2050 L
5155 2050 mt 5111 2050 L
 340 2094 mt 
(3.7813) s
 740 1442 mt  785 1442 L
5155 1442 mt 5111 1442 L
 340 1486 mt 
(3.7813) s
 740  833 mt  785  833 L
5155  833 mt 5111  833 L
 340  877 mt 
(3.7813) s
 740  266 mt 
(x 10) s
%%IncludeResource: font Helvetica
/Helvetica /ISOLatin1Encoding 80 FMSR

 966  192 mt 
(6) s
 740 3799 mt 5155 3799 L
 740  319 mt 5155  319 L
 740 3799 mt  740  319 L
5155 3799 mt 5155  319 L
gs 740 320 4416 3480 rc
gr

24 W
4331 3695 PD
24 W
4329 3654 PD
24 W
4325 3613 PD
24 W
4322 3572 PD
24 W
4319 3531 PD
24 W
4317 3490 PD
24 W
4314 3449 PD
24 W
4319 3407 PD
24 W
4317 3366 PD
24 W
4313 3325 PD
24 W
4302 3287 PD
24 W
4299 3246 PD
24 W
4295 3205 PD
24 W
4293 3164 PD
24 W
4290 3123 PD
24 W
4287 3082 PD
24 W
4285 3040 PD
24 W
4282 2998 PD
24 W
3981 3135 PD
24 W
3965 3112 PD
24 W
3970 3075 PD
24 W
4269 2829 PD
24 W
4266 2786 PD
24 W
4263 2742 PD
24 W
4261 2698 PD
24 W
4257 2654 PD
24 W
4254 2608 PD
24 W
4251 2563 PD
24 W
4247 2518 PD
24 W
4245 2470 PD
24 W
4241 2423 PD
24 W
3995 2645 PD
24 W
3985 2615 PD
24 W
4231 2277 PD
24 W
4228 2226 PD
24 W
4225 2174 PD
24 W
4220 2124 PD
24 W
4218 2069 PD
24 W
4213 2016 PD
24 W
4211 1959 PD
24 W
4206 1903 PD
24 W
4203 1844 PD
24 W
4198 1786 PD
24 W
4194 1725 PD
24 W
4190 1662 PD
24 W
4186 1598 PD
24 W
4182 1533 PD
24 W
4177 1465 PD
24 W
4173 1395 PD
24 W
4168 1324 PD
24 W
4163 1250 PD
24 W
4158 1174 PD
24 W
4152 1096 PD
24 W
4147 1012 PD
24 W
4142 927 PD
24 W
4135 842 PD
24 W
4128 753 PD
24 W
4123 656 PD
24 W
4116 558 PD
24 W
4110 452 PD
24 W
3444 2441 PD
24 W
3431 2432 PD
24 W
3420 2419 PD
24 W
3408 2406 PD
24 W
3389 2422 PD
24 W
3375 2420 PD
24 W
3362 2415 PD
24 W
3348 2411 PD
24 W
3336 2404 PD
24 W
3323 2400 PD
24 W
3310 2393 PD
24 W
3297 2388 PD
24 W
3285 2381 PD
24 W
3272 2376 PD
24 W
3263 2348 PD
24 W
3250 2349 PD
24 W
3236 2351 PD
24 W
3223 2347 PD
24 W
3211 2340 PD
24 W
3238 1964 PD
24 W
3223 1954 PD
24 W
3207 1942 PD
24 W
3191 1929 PD
24 W
3176 1908 PD
24 W
3159 1905 PD
24 W
3143 1891 PD
24 W
3050 3695 PD
24 W
2614 748 PD
24 W
2588 772 PD
24 W
2561 785 PD
24 W
2528 770 PD
24 W
3050 3695 PD
gs 740 320 4416 3480 rc
gr

24 W
3050 3695 PD
24 W
2372 2037 PD
24 W
2352 2049 PD
24 W
3050 3695 PD
gs 740 320 4416 3480 rc
gr

24 W
3050 3695 PD
24 W
1480 1508 PD
24 W
1452 1549 PD
24 W
1427 1593 PD
24 W
1391 1626 PD
24 W
3050 3695 PD
24 W
1492 1894 PD
24 W
1461 1929 PD
24 W
3050 3695 PD
24 W
1528 2134 PD
24 W
1559 2228 PD
24 W
1537 2268 PD
24 W
1512 2306 PD
24 W
1487 2346 PD
24 W
1460 2385 PD
24 W
1525 2497 PD
24 W
1556 2578 PD
24 W
1554 2632 PD
24 W
1531 2671 PD
24 W
1504 2709 PD
24 W
1477 2749 PD
24 W
1449 2789 PD
24 W
1418 2829 PD
24 W
1389 2871 PD
24 W
1356 2913 PD
24 W
1246 2924 PD
24 W
3050 3695 PD
24 W
1636 3186 PD
24 W
1652 3239 PD
24 W
3050 3695 PD
24 W
1668 3335 PD
24 W
1642 3375 PD
24 W
1601 3413 PD
24 W
1586 3458 PD
24 W
1556 3502 PD
24 W
1454 3540 PD
24 W
1494 3595 PD
24 W
1556 3647 PD
gs 740 320 4416 3480 rc
gr

24 W
/c8 { 0.932747 0.704574 0.571546 sr} bdef
c8
4268 2833 PD
gs 740 320 4416 3480 rc
gr

24 W
4268 2833 PD
gs 740 320 4416 3480 rc
gr

24 W
/c9 { 0.983513 0.341858 0.163004 sr} bdef
c9
2630 879 PD
gs 740 320 4416 3480 rc
gr

24 W
c8
4268 2833 PD
gs 740 320 4416 3480 rc
gr

24 W
c9
2554 936 PD
gs 740 320 4416 3480 rc
gr

24 W
c8
4268 2833 PD
gs 740 320 4416 3480 rc
gr

24 W
c9
3196 2336 PD
gs 740 320 4416 3480 rc
gr

24 W
/c10 { 0.751209 0.402026 0.388731 sr} bdef
c10
3220 1957 PD
gs 740 320 4416 3480 rc
gr

24 W
/c11 { 0.619691 0.538904 0.234028 sr} bdef
c11
2557 951 PD
gs 740 320 4416 3480 rc
gr

24 W
c8
4269 2832 PD
gs 740 320 4416 3480 rc
gr

24 W
c9
2561 964 PD
gs 740 320 4416 3480 rc
gr

24 W
c8
4269 2832 PD
gs 740 320 4416 3480 rc
gr

24 W
c9
2563 977 PD
gs 740 320 4416 3480 rc
gr

24 W
c8
2567 993 PD
gs 740 320 4416 3480 rc
gr

24 W
2538 1001 PD
gs 740 320 4416 3480 rc
gr

24 W
2616 1020 PD
gs 740 320 4416 3480 rc
gr

24 W
2617 1031 PD
gs 740 320 4416 3480 rc
gr

24 W
4269 2831 PD
gs 740 320 4416 3480 rc
gr

24 W
c9
2622 1042 PD
gs 740 320 4416 3480 rc
gr

24 W
0 sg
4331 3697 PD
24 W
4327 3655 PD
24 W
4324 3614 PD
24 W
4321 3573 PD
24 W
4318 3532 PD
24 W
4315 3492 PD
24 W
4313 3451 PD
24 W
4318 3408 PD
24 W
4316 3367 PD
24 W
4312 3327 PD
24 W
4302 3288 PD
24 W
4298 3247 PD
24 W
4295 3206 PD
24 W
4291 3166 PD
24 W
4289 3124 PD
24 W
4286 3083 PD
24 W
4283 3042 PD
24 W
4280 3000 PD
24 W
3979 3138 PD
24 W
3964 3114 PD
24 W
3968 3078 PD
24 W
4268 2831 PD
24 W
4266 2787 PD
24 W
4262 2744 PD
24 W
4260 2699 PD
24 W
4256 2655 PD
24 W
4252 2611 PD
24 W
4250 2565 PD
24 W
4246 2519 PD
24 W
4244 2472 PD
24 W
4240 2426 PD
24 W
3994 2647 PD
24 W
3985 2616 PD
24 W
4231 2278 PD
24 W
4227 2228 PD
24 W
4224 2176 PD
24 W
4220 2125 PD
24 W
4216 2071 PD
24 W
4212 2018 PD
24 W
4209 1961 PD
24 W
4205 1905 PD
24 W
4201 1848 PD
24 W
4198 1786 PD
24 W
4193 1727 PD
24 W
4190 1663 PD
24 W
4186 1599 PD
24 W
4181 1533 PD
24 W
4176 1468 PD
24 W
4171 1399 PD
24 W
4167 1326 PD
24 W
4162 1252 PD
24 W
4157 1176 PD
24 W
4151 1098 PD
24 W
4146 1015 PD
24 W
4140 931 PD
24 W
4134 843 PD
24 W
4128 753 PD
24 W
4122 659 PD
24 W
4115 560 PD
24 W
4109 454 PD
24 W
3444 2442 PD
24 W
3431 2433 PD
24 W
3418 2425 PD
24 W
3408 2407 PD
24 W
3388 2425 PD
24 W
3374 2423 PD
24 W
3361 2417 PD
24 W
3347 2414 PD
24 W
3334 2408 PD
24 W
3322 2401 PD
24 W
3309 2396 PD
24 W
3297 2389 PD
24 W
3284 2383 PD
24 W
3272 2377 PD
24 W
3263 2347 PD
24 W
3249 2348 PD
24 W
3235 2351 PD
24 W
3222 2348 PD
24 W
3210 2339 PD
24 W
3238 1965 PD
24 W
3222 1955 PD
24 W
3206 1943 PD
24 W
3190 1930 PD
24 W
3175 1910 PD
24 W
3158 1908 PD
24 W
3142 1891 PD
24 W
3049 3697 PD
24 W
2639 924 PD
24 W
2627 1022 PD
24 W
2603 1041 PD
24 W
2577 1051 PD
24 W
2547 1041 PD
24 W
3049 3697 PD
gs 740 320 4416 3480 rc
gr

24 W
3049 3697 PD
24 W
2371 2038 PD
24 W
2353 2054 PD
24 W
3049 3697 PD
gs 740 320 4416 3480 rc
gr

24 W
3049 3697 PD
24 W
1480 1510 PD
24 W
1452 1550 PD
24 W
1427 1596 PD
24 W
1391 1628 PD
24 W
3049 3697 PD
24 W
1490 1894 PD
24 W
1462 1932 PD
24 W
3049 3697 PD
24 W
1528 2136 PD
24 W
1557 2228 PD
24 W
1538 2272 PD
24 W
1510 2307 PD
24 W
1485 2347 PD
24 W
1459 2387 PD
24 W
1523 2498 PD
24 W
1555 2579 PD
24 W
1553 2634 PD
24 W
1532 2674 PD
24 W
1503 2711 PD
24 W
1475 2750 PD
24 W
1448 2790 PD
24 W
1418 2830 PD
24 W
1391 2874 PD
24 W
1357 2915 PD
24 W
1245 2925 PD
24 W
3049 3697 PD
24 W
1633 3187 PD
24 W
1652 3240 PD
24 W
3049 3697 PD
24 W
1667 3337 PD
24 W
1639 3376 PD
24 W
1600 3415 PD
24 W
1585 3459 PD
24 W
1556 3503 PD
24 W
1453 3542 PD
24 W
1492 3596 PD
24 W
1554 3648 PD
gs 740 320 4416 3480 rc
gr

24 W
c8
4269 2830 PD
gs 740 320 4416 3480 rc
gr

24 W
c9
2623 1054 PD
gs 740 320 4416 3480 rc
gr

24 W
c8
4269 2830 PD
gs 740 320 4416 3480 rc
gr

24 W
c9
2626 1064 PD
gs 740 320 4416 3480 rc
gr

24 W
c8
4270 2830 PD
gs 740 320 4416 3480 rc
gr

24 W
c9
2627 1077 PD
gs 740 320 4416 3480 rc
gr

24 W
c8
4270 2829 PD
gs 740 320 4416 3480 rc
gr

24 W
c9
2631 1085 PD
gs 740 320 4416 3480 rc
gr

24 W
c8
4270 2829 PD
gs 740 320 4416 3480 rc
gr

24 W
c9
2632 1100 PD
gs 740 320 4416 3480 rc
gr

24 W
c8
4270 2829 PD
gs 740 320 4416 3480 rc
gr

24 W
c9
2636 1085 PD
gs 740 320 4416 3480 rc
gr

24 W
c8
4270 2829 PD
gs 740 320 4416 3480 rc
gr

24 W
c9
2638 1097 PD
gs 740 320 4416 3480 rc
gr

24 W
c8
4270 2829 PD
gs 740 320 4416 3480 rc
gr

24 W
c9
2641 1108 PD
gs 740 320 4416 3480 rc
gr

24 W
c8
4264 2840 PD
gs 740 320 4416 3480 rc
gr

24 W
c9
2636 1131 PD
gs 740 320 4416 3480 rc
gr

24 W
c8
4264 2840 PD
gs 740 320 4416 3480 rc
gr

24 W
c9
2638 1145 PD
gs 740 320 4416 3480 rc
gr

24 W
c8
4265 2839 PD
gs 740 320 4416 3480 rc
gr

24 W
c9
2641 1155 PD
gs 740 320 4416 3480 rc
gr

24 W
c8
4264 2840 PD
gs 740 320 4416 3480 rc
gr

24 W
c9
2643 1167 PD
gs 740 320 4416 3480 rc
gr

24 W
c8
4264 2839 PD
gs 740 320 4416 3480 rc
gr

24 W
c9
2644 1182 PD
gs 740 320 4416 3480 rc
gr

24 W
c8
4264 2839 PD
gs 740 320 4416 3480 rc
gr

24 W
c9
2646 1193 PD
gs 740 320 4416 3480 rc
gr

24 W
c8
4265 2839 PD
gs 740 320 4416 3480 rc
gr

24 W
c9
2648 1198 PD
gs 740 320 4416 3480 rc
gr

24 W
c8
4265 2839 PD
gs 740 320 4416 3480 rc
gr

24 W
c9
2650 1214 PD
gs 740 320 4416 3480 rc
gr

24 W
c8
4265 2838 PD
gs 740 320 4416 3480 rc
gr

24 W
c9
2652 1222 PD
gs 740 320 4416 3480 rc
gr

24 W
c8
4266 2838 PD
gs 740 320 4416 3480 rc
gr

24 W
c9
2654 1232 PD
gs 740 320 4416 3480 rc
gr

24 W
c8
4265 2838 PD
gs 740 320 4416 3480 rc
gr

24 W
c9
2654 1232 PD
gs 740 320 4416 3480 rc
gr

24 W
c8
4267 2835 PD
gs 740 320 4416 3480 rc
gr

24 W
c9
2634 1311 PD
gs 740 320 4416 3480 rc
gr

24 W
0 sg
4330 3699 PD
24 W
4325 3657 PD
24 W
4324 3616 PD
24 W
4320 3575 PD
24 W
4317 3534 PD
24 W
4314 3494 PD
24 W
4312 3453 PD
24 W
4318 3410 PD
24 W
4313 3370 PD
24 W
4312 3328 PD
24 W
4301 3290 PD
24 W
4297 3249 PD
24 W
4293 3209 PD
24 W
4291 3167 PD
24 W
4288 3127 PD
24 W
4286 3085 PD
24 W
4282 3044 PD
24 W
4279 3002 PD
24 W
3978 3140 PD
24 W
3964 3115 PD
24 W
3967 3080 PD
24 W
4268 2832 PD
24 W
4265 2789 PD
24 W
4262 2745 PD
24 W
4258 2702 PD
24 W
4256 2657 PD
24 W
4251 2613 PD
24 W
4249 2567 PD
24 W
4245 2521 PD
24 W
4243 2473 PD
24 W
4240 2426 PD
24 W
3992 2650 PD
24 W
3983 2618 PD
24 W
4229 2281 PD
24 W
4226 2230 PD
24 W
4222 2180 PD
24 W
4219 2126 PD
24 W
4215 2073 PD
24 W
4212 2019 PD
24 W
4208 1964 PD
24 W
4204 1907 PD
24 W
4200 1849 PD
24 W
4198 1787 PD
24 W
4193 1728 PD
24 W
4189 1665 PD
24 W
4184 1601 PD
24 W
4180 1535 PD
24 W
4175 1469 PD
24 W
4170 1400 PD
24 W
4165 1329 PD
24 W
4161 1254 PD
24 W
4156 1177 PD
24 W
4150 1099 PD
24 W
4145 1017 PD
24 W
4140 932 PD
24 W
4133 846 PD
24 W
4128 753 PD
24 W
4121 659 PD
24 W
4114 561 PD
24 W
4109 453 PD
24 W
3443 2444 PD
24 W
3430 2434 PD
24 W
3418 2422 PD
24 W
3406 2412 PD
24 W
3387 2427 PD
24 W
3373 2425 PD
24 W
3360 2419 PD
24 W
3347 2414 PD
24 W
3333 2410 PD
24 W
3321 2403 PD
24 W
3308 2398 PD
24 W
3296 2391 PD
24 W
3283 2384 PD
24 W
3270 2381 PD
24 W
3261 2352 PD
24 W
3248 2354 PD
24 W
3234 2353 PD
24 W
3221 2350 PD
24 W
3209 2342 PD
24 W
3236 1967 PD
24 W
3221 1957 PD
24 W
3205 1945 PD
24 W
3189 1933 PD
24 W
3174 1912 PD
24 W
3157 1910 PD
24 W
3141 1896 PD
24 W
3048 3699 PD
24 W
2631 882 PD
24 W
2656 1215 PD
24 W
2643 1289 PD
24 W
2621 1303 PD
24 W
2598 1315 PD
24 W
2571 1306 PD
gs 740 320 4416 3480 rc
gr

24 W
3048 3699 PD
24 W
2370 2040 PD
24 W
2351 2054 PD
24 W
3048 3699 PD
gs 740 320 4416 3480 rc
gr

24 W
3048 3699 PD
24 W
1479 1512 PD
24 W
1448 1549 PD
24 W
1424 1596 PD
24 W
1387 1626 PD
24 W
3048 3699 PD
24 W
1490 1897 PD
24 W
1460 1933 PD
24 W
3048 3699 PD
24 W
1527 2138 PD
24 W
1556 2231 PD
24 W
1537 2274 PD
24 W
1509 2309 PD
24 W
1484 2349 PD
24 W
1460 2389 PD
24 W
1523 2500 PD
24 W
1556 2582 PD
24 W
1552 2635 PD
24 W
1531 2676 PD
24 W
1501 2712 PD
24 W
1474 2752 PD
24 W
1447 2792 PD
24 W
1417 2832 PD
24 W
1387 2875 PD
24 W
1353 2916 PD
24 W
1244 2927 PD
gs 740 320 4416 3480 rc
gr

24 W
1634 3190 PD
24 W
1651 3243 PD
24 W
3048 3699 PD
24 W
1665 3339 PD
24 W
1638 3378 PD
24 W
1599 3417 PD
24 W
1583 3461 PD
24 W
1555 3505 PD
24 W
1454 3544 PD
24 W
1498 3599 PD
24 W
1554 3650 PD
gs 740 320 4416 3480 rc
gr

24 W
c8
4269 2832 PD
gs 740 320 4416 3480 rc
gr

24 W
c9
2638 1321 PD
gs 740 320 4416 3480 rc
gr

24 W
c8
4268 2832 PD
gs 740 320 4416 3480 rc
gr

24 W
c9
2642 1329 PD
gs 740 320 4416 3480 rc
gr

24 W
c8
4269 2832 PD
gs 740 320 4416 3480 rc
gr

24 W
c9
2645 1340 PD
gs 740 320 4416 3480 rc
gr

24 W
c8
4269 2832 PD
gs 740 320 4416 3480 rc
gr

24 W
c9
2646 1351 PD
gs 740 320 4416 3480 rc
gr

24 W
c8
4268 2832 PD
gs 740 320 4416 3480 rc
gr

24 W
c9
2649 1362 PD
gs 740 320 4416 3480 rc
gr

24 W
c8
4269 2831 PD
gs 740 320 4416 3480 rc
gr

24 W
c9
2651 1376 PD
gs 740 320 4416 3480 rc
gr

24 W
c8
4268 2832 PD
gs 740 320 4416 3480 rc
gr

24 W
c9
2654 1384 PD
gs 740 320 4416 3480 rc
gr

24 W
c8
4269 2831 PD
gs 740 320 4416 3480 rc
gr

24 W
c9
2654 1404 PD
gs 740 320 4416 3480 rc
gr

24 W
c8
4269 2832 PD
gs 740 320 4416 3480 rc
gr

24 W
c9
2660 1408 PD
gs 740 320 4416 3480 rc
gr

24 W
c8
4269 2831 PD
gs 740 320 4416 3480 rc
gr

24 W
c9
2661 1401 PD
gs 740 320 4416 3480 rc
gr

24 W
c8
4269 2830 PD
gs 740 320 4416 3480 rc
gr

24 W
c9
2663 1411 PD
gs 740 320 4416 3480 rc
gr

24 W
c8
4269 2831 PD
gs 740 320 4416 3480 rc
gr

24 W
c9
2665 1424 PD
gs 740 320 4416 3480 rc
gr

24 W
c8
4269 2831 PD
gs 740 320 4416 3480 rc
gr

24 W
c9
2667 1435 PD
gs 740 320 4416 3480 rc
gr

24 W
c8
4269 2830 PD
gs 740 320 4416 3480 rc
gr

24 W
c9
2669 1444 PD
gs 740 320 4416 3480 rc
gr

24 W
c8
4270 2830 PD
gs 740 320 4416 3480 rc
gr

24 W
c9
2671 1456 PD
gs 740 320 4416 3480 rc
gr

24 W
c8
4265 2839 PD
gs 740 320 4416 3480 rc
gr

24 W
c9
2668 1468 PD
gs 740 320 4416 3480 rc
gr

24 W
c8
4265 2839 PD
gs 740 320 4416 3480 rc
gr

24 W
c9
2588 1536 PD
gs 740 320 4416 3480 rc
gr

24 W
c8
4265 2839 PD
gs 740 320 4416 3480 rc
gr

24 W
c9
2591 1550 PD
gs 740 320 4416 3480 rc
gr

24 W
c8
4265 2839 PD
gs 740 320 4416 3480 rc
gr

24 W
c9
2595 1564 PD
gs 740 320 4416 3480 rc
gr

24 W
c8
4265 2839 PD
gs 740 320 4416 3480 rc
gr

24 W
c9
2655 1570 PD
gs 740 320 4416 3480 rc
gr

24 W
0 sg
4325 3705 PD
24 W
4323 3664 PD
24 W
4320 3623 PD
24 W
4316 3582 PD
24 W
4314 3541 PD
24 W
4311 3500 PD
24 W
4308 3459 PD
24 W
4314 3417 PD
24 W
4314 3375 PD
24 W
4307 3335 PD
24 W
4297 3296 PD
24 W
4294 3256 PD
24 W
4291 3215 PD
24 W
4288 3174 PD
24 W
4285 3133 PD
24 W
4282 3091 PD
24 W
4279 3050 PD
24 W
4275 3009 PD
24 W
3974 3146 PD
24 W
3960 3122 PD
24 W
3964 3086 PD
24 W
4265 2838 PD
24 W
4261 2796 PD
24 W
4259 2752 PD
24 W
4254 2709 PD
24 W
4252 2664 PD
24 W
4248 2619 PD
24 W
4246 2573 PD
24 W
4243 2527 PD
24 W
4241 2479 PD
24 W
4236 2433 PD
24 W
3990 2655 PD
24 W
3980 2625 PD
24 W
4225 2287 PD
24 W
4222 2237 PD
24 W
4220 2184 PD
24 W
4215 2134 PD
24 W
4212 2080 PD
24 W
4208 2025 PD
24 W
4204 1970 PD
24 W
4201 1912 PD
24 W
4196 1856 PD
24 W
4193 1795 PD
24 W
4189 1735 PD
24 W
4185 1672 PD
24 W
4181 1608 PD
24 W
4177 1541 PD
24 W
4172 1475 PD
24 W
4168 1404 PD
24 W
4163 1334 PD
24 W
4158 1260 PD
24 W
4152 1185 PD
24 W
4147 1105 PD
24 W
4141 1024 PD
24 W
4136 938 PD
24 W
4130 852 PD
24 W
4124 761 PD
24 W
4117 666 PD
24 W
4111 567 PD
24 W
4104 464 PD
24 W
3439 2452 PD
24 W
3426 2441 PD
24 W
3414 2431 PD
24 W
3404 2414 PD
24 W
3383 2433 PD
24 W
3369 2431 PD
24 W
3356 2427 PD
24 W
3343 2420 PD
24 W
3330 2414 PD
24 W
3318 2408 PD
24 W
3305 2404 PD
24 W
3292 2397 PD
24 W
3280 2392 PD
24 W
3267 2384 PD
24 W
3259 2354 PD
24 W
3245 2356 PD
24 W
3231 2359 PD
24 W
3218 2356 PD
24 W
3205 2350 PD
24 W
3233 1975 PD
24 W
3217 1963 PD
24 W
3202 1953 PD
24 W
3186 1939 PD
24 W
3171 1917 PD
24 W
3154 1916 PD
24 W
3138 1902 PD
24 W
3045 3705 PD
24 W
2669 1470 PD
24 W
2660 1550 PD
24 W
2641 1568 PD
24 W
2620 1576 PD
24 W
2597 1576 PD
24 W
2573 1569 PD
24 W
3045 3705 PD
24 W
2366 2045 PD
24 W
2347 2059 PD
24 W
3045 3705 PD
gs 740 320 4416 3480 rc
gr

24 W
3045 3705 PD
24 W
1475 1518 PD
24 W
1449 1561 PD
24 W
1422 1604 PD
24 W
1386 1636 PD
24 W
3045 3705 PD
24 W
1485 1902 PD
24 W
1457 1940 PD
24 W
3045 3705 PD
24 W
1522 2144 PD
24 W
1553 2237 PD
24 W
1533 2279 PD
24 W
1506 2316 PD
24 W
1482 2357 PD
24 W
1456 2395 PD
24 W
1518 2506 PD
24 W
1551 2588 PD
24 W
1548 2642 PD
24 W
1527 2683 PD
24 W
1499 2720 PD
24 W
1469 2757 PD
24 W
1444 2799 PD
24 W
1413 2839 PD
24 W
1384 2881 PD
24 W
1350 2923 PD
24 W
1241 2934 PD
24 W
3045 3705 PD
24 W
1630 3196 PD
24 W
1647 3249 PD
24 W
3045 3705 PD
24 W
1662 3345 PD
24 W
1633 3384 PD
24 W
1598 3424 PD
24 W
1580 3468 PD
24 W
1551 3512 PD
24 W
1450 3550 PD
24 W
1490 3605 PD
24 W
1550 3657 PD
gs 740 320 4416 3480 rc
gr

24 W
c8
4265 2838 PD
gs 740 320 4416 3480 rc
gr

24 W
c9
2657 1583 PD
gs 740 320 4416 3480 rc
gr

24 W
c8
4265 2838 PD
gs 740 320 4416 3480 rc
gr

24 W
c9
2660 1594 PD
gs 740 320 4416 3480 rc
gr

24 W
c8
4265 2838 PD
gs 740 320 4416 3480 rc
gr

24 W
c9
2662 1605 PD
gs 740 320 4416 3480 rc
gr

24 W
c8
4265 2839 PD
gs 740 320 4416 3480 rc
gr

24 W
c9
2665 1614 PD
gs 740 320 4416 3480 rc
gr

24 W
c8
4267 2835 PD
gs 740 320 4416 3480 rc
gr

24 W
c9
2668 1626 PD
gs 740 320 4416 3480 rc
gr

24 W
c8
4267 2835 PD
gs 740 320 4416 3480 rc
gr

24 W
c9
2673 1633 PD
gs 740 320 4416 3480 rc
gr

24 W
c8
4267 2835 PD
gs 740 320 4416 3480 rc
gr

24 W
c9
2675 1647 PD
gs 740 320 4416 3480 rc
gr

24 W
c8
4267 2835 PD
gs 740 320 4416 3480 rc
gr

24 W
c9
2668 1653 PD
gs 740 320 4416 3480 rc
gr

24 W
c8
4267 2835 PD
gs 740 320 4416 3480 rc
gr

24 W
c9
2677 1664 PD
gs 740 320 4416 3480 rc
gr

24 W
c8
4267 2835 PD
gs 740 320 4416 3480 rc
gr

24 W
c9
2680 1674 PD
gs 740 320 4416 3480 rc
gr

24 W
c8
4267 2835 PD
gs 740 320 4416 3480 rc
gr

24 W
c9
2683 1669 PD
gs 740 320 4416 3480 rc
gr

24 W
c8
4267 2835 PD
gs 740 320 4416 3480 rc
gr

24 W
c9
2685 1683 PD
gs 740 320 4416 3480 rc
gr

24 W
c8
4266 2835 PD
gs 740 320 4416 3480 rc
gr

24 W
c9
2686 1691 PD
gs 740 320 4416 3480 rc
gr

24 W
c8
4267 2834 PD
gs 740 320 4416 3480 rc
gr

24 W
c9
2689 1699 PD
gs 740 320 4416 3480 rc
gr

24 W
c8
4267 2834 PD
gs 740 320 4416 3480 rc
gr

24 W
c9
2691 1706 PD
gs 740 320 4416 3480 rc
gr

24 W
c8
4267 2834 PD
gs 740 320 4416 3480 rc
gr

24 W
c9
2673 1775 PD
gs 740 320 4416 3480 rc
gr

24 W
c8
4267 2834 PD
gs 740 320 4416 3480 rc
gr

24 W
c9
2677 1783 PD
gs 740 320 4416 3480 rc
gr

24 W
c8
4267 2834 PD
gs 740 320 4416 3480 rc
gr

24 W
c9
2680 1793 PD
gs 740 320 4416 3480 rc
gr

24 W
c8
4268 2834 PD
gs 740 320 4416 3480 rc
gr

24 W
c9
2682 1803 PD
gs 740 320 4416 3480 rc
gr

24 W
c8
4267 2834 PD
gs 740 320 4416 3480 rc
gr

24 W
c9
2686 1815 PD
gs 740 320 4416 3480 rc
gr

24 W
0 sg
4329 3699 PD
24 W
4326 3658 PD
24 W
4322 3617 PD
24 W
4320 3576 PD
24 W
4316 3535 PD
24 W
4314 3494 PD
24 W
4311 3454 PD
24 W
4317 3411 PD
24 W
4957 3202 PD
24 W
4310 3329 PD
24 W
4300 3291 PD
24 W
4296 3250 PD
24 W
4294 3209 PD
24 W
4290 3168 PD
24 W
4288 3127 PD
24 W
4285 3086 PD
24 W
4282 3044 PD
24 W
4279 3003 PD
24 W
3978 3140 PD
24 W
3963 3116 PD
24 W
3968 3080 PD
24 W
4267 2833 PD
24 W
4264 2790 PD
24 W
4260 2747 PD
24 W
4259 2702 PD
24 W
4254 2658 PD
24 W
4252 2613 PD
24 W
4248 2568 PD
24 W
4245 2522 PD
24 W
4243 2474 PD
24 W
4239 2428 PD
24 W
3992 2650 PD
24 W
3983 2619 PD
24 W
4229 2281 PD
24 W
4226 2231 PD
24 W
4222 2180 PD
24 W
4218 2128 PD
24 W
4215 2073 PD
24 W
4211 2020 PD
24 W
4207 1965 PD
24 W
4203 1908 PD
24 W
4200 1849 PD
24 W
4196 1790 PD
24 W
4192 1729 PD
24 W
4188 1667 PD
24 W
4184 1601 PD
24 W
4180 1536 PD
24 W
4175 1469 PD
24 W
4170 1401 PD
24 W
4166 1327 PD
24 W
4160 1255 PD
24 W
4156 1178 PD
24 W
4150 1099 PD
24 W
4145 1018 PD
24 W
4139 933 PD
24 W
4133 846 PD
24 W
4127 756 PD
24 W
4121 659 PD
24 W
4114 561 PD
24 W
4107 458 PD
24 W
3442 2446 PD
24 W
3429 2436 PD
24 W
3418 2422 PD
24 W
3406 2410 PD
24 W
3386 2427 PD
24 W
3372 2425 PD
24 W
3360 2417 PD
24 W
3346 2416 PD
24 W
3334 2408 PD
24 W
3320 2404 PD
24 W
3308 2397 PD
24 W
3295 2391 PD
24 W
3283 2385 PD
24 W
3270 2381 PD
24 W
3261 2352 PD
24 W
3247 2356 PD
24 W
3234 2353 PD
24 W
3221 2351 PD
24 W
3209 2343 PD
24 W
3236 1968 PD
24 W
3220 1957 PD
24 W
3205 1945 PD
24 W
3189 1933 PD
24 W
3174 1913 PD
24 W
3157 1912 PD
24 W
3141 1894 PD
24 W
3048 3699 PD
24 W
2666 1428 PD
24 W
2691 1697 PD
24 W
2688 1795 PD
24 W
2672 1816 PD
24 W
2654 1826 PD
24 W
2636 1834 PD
24 W
2615 1831 PD
24 W
3048 3699 PD
24 W
2370 2041 PD
24 W
2350 2052 PD
24 W
3048 3699 PD
gs 740 320 4416 3480 rc
gr

24 W
3048 3699 PD
24 W
1478 1513 PD
24 W
1451 1554 PD
24 W
1425 1597 PD
24 W
1389 1630 PD
24 W
3048 3699 PD
24 W
1487 1895 PD
24 W
1460 1934 PD
24 W
3048 3699 PD
24 W
1526 2138 PD
24 W
1556 2232 PD
24 W
1535 2273 PD
24 W
1509 2310 PD
24 W
1483 2349 PD
24 W
1457 2389 PD
24 W
1522 2500 PD
24 W
1554 2582 PD
24 W
1551 2636 PD
24 W
1529 2676 PD
24 W
1501 2713 PD
24 W
1473 2752 PD
24 W
1446 2793 PD
24 W
1416 2833 PD
24 W
1388 2875 PD
24 W
1353 2917 PD
24 W
1243 2927 PD
24 W
3048 3699 PD
24 W
1634 3190 PD
24 W
1650 3243 PD
24 W
3048 3699 PD
24 W
1665 3339 PD
24 W
1638 3379 PD
24 W
1596 3417 PD
24 W
1582 3462 PD
24 W
1554 3506 PD
24 W
1453 3545 PD
24 W
1493 3599 PD
24 W
1554 3651 PD
gs 740 320 4416 3480 rc
gr

24 W
c8
4268 2833 PD
gs 740 320 4416 3480 rc
gr

24 W
c9
2690 1823 PD
gs 740 320 4416 3480 rc
gr

24 W
c8
4264 2840 PD
gs 740 320 4416 3480 rc
gr

24 W
c9
2686 1847 PD
gs 740 320 4416 3480 rc
gr

24 W
c8
4264 2840 PD
gs 740 320 4416 3480 rc
gr

24 W
c9
2687 1850 PD
gs 740 320 4416 3480 rc
gr

24 W
c8
4264 2840 PD
gs 740 320 4416 3480 rc
gr

24 W
c9
2690 1860 PD
gs 740 320 4416 3480 rc
gr

24 W
c8
4265 2839 PD
gs 740 320 4416 3480 rc
gr

24 W
c9
2693 1870 PD
gs 740 320 4416 3480 rc
gr

24 W
c8
4265 2839 PD
gs 740 320 4416 3480 rc
gr

24 W
c9
2694 1880 PD
gs 740 320 4416 3480 rc
gr

24 W
c8
4265 2839 PD
gs 740 320 4416 3480 rc
gr

24 W
c9
2696 1891 PD
gs 740 320 4416 3480 rc
gr

24 W
c8
4265 2839 PD
gs 740 320 4416 3480 rc
gr

24 W
c9
2696 1902 PD
gs 740 320 4416 3480 rc
gr

24 W
c8
4265 2839 PD
gs 740 320 4416 3480 rc
gr

24 W
c9
2696 1902 PD
gs 740 320 4416 3480 rc
gr

24 W
c8
4266 2838 PD
gs 740 320 4416 3480 rc
gr

24 W
c9
2689 1953 PD
gs 740 320 4416 3480 rc
gr

24 W
c8
4265 2838 PD
gs 740 320 4416 3480 rc
gr

24 W
c9
2692 1964 PD
gs 740 320 4416 3480 rc
gr

24 W
c8
4266 2837 PD
gs 740 320 4416 3480 rc
gr

24 W
c9
2695 1972 PD
gs 740 320 4416 3480 rc
gr

24 W
c8
4265 2838 PD
gs 740 320 4416 3480 rc
gr

24 W
c9
2697 1984 PD
gs 740 320 4416 3480 rc
gr

24 W
c8
4266 2837 PD
gs 740 320 4416 3480 rc
gr

24 W
c9
2702 1992 PD
gs 740 320 4416 3480 rc
gr

24 W
c8
4266 2837 PD
gs 740 320 4416 3480 rc
gr

24 W
c9
2707 2004 PD
gs 740 320 4416 3480 rc
gr

24 W
c8
4265 2837 PD
gs 740 320 4416 3480 rc
gr

24 W
c9
2702 2013 PD
gs 740 320 4416 3480 rc
gr

24 W
c8
4266 2837 PD
gs 740 320 4416 3480 rc
gr

24 W
c9
2705 2022 PD
gs 740 320 4416 3480 rc
gr

24 W
c8
4266 2837 PD
gs 740 320 4416 3480 rc
gr

24 W
c9
2707 2033 PD
gs 740 320 4416 3480 rc
gr

24 W
c8
4266 2837 PD
gs 740 320 4416 3480 rc
gr

24 W
c9
2706 2043 PD
gs 740 320 4416 3480 rc
gr

24 W
c8
4266 2836 PD
gs 740 320 4416 3480 rc
gr

24 W
c9
2710 2051 PD
gs 740 320 4416 3480 rc
gr

24 W
0 sg
4328 3703 PD
24 W
4323 3661 PD
24 W
4321 3620 PD
24 W
4319 3579 PD
24 W
4315 3538 PD
24 W
4312 3498 PD
24 W
4309 3457 PD
24 W
4315 3414 PD
24 W
4311 3374 PD
24 W
4311 3332 PD
24 W
4298 3294 PD
24 W
4295 3253 PD
24 W
4291 3213 PD
24 W
4289 3171 PD
24 W
4286 3130 PD
24 W
4284 3089 PD
24 W
4281 3047 PD
24 W
4278 3006 PD
24 W
3976 3143 PD
24 W
3962 3119 PD
24 W
3965 3084 PD
24 W
4266 2836 PD
24 W
4262 2793 PD
24 W
4260 2749 PD
24 W
4256 2706 PD
24 W
4253 2661 PD
24 W
4249 2617 PD
24 W
4248 2570 PD
24 W
4243 2526 PD
24 W
4241 2477 PD
24 W
4236 2432 PD
24 W
3991 2653 PD
24 W
3981 2622 PD
24 W
4227 2284 PD
24 W
4224 2234 PD
24 W
4221 2182 PD
24 W
4216 2131 PD
24 W
4213 2077 PD
24 W
4210 2023 PD
24 W
4205 1968 PD
24 W
4202 1911 PD
24 W
4198 1853 PD
24 W
4194 1793 PD
24 W
4191 1731 PD
24 W
4187 1669 PD
24 W
4182 1606 PD
24 W
4178 1539 PD
24 W
4173 1472 PD
24 W
4168 1404 PD
24 W
4164 1331 PD
24 W
4159 1257 PD
24 W
4153 1182 PD
24 W
4148 1103 PD
24 W
4143 1021 PD
24 W
4138 935 PD
24 W
4132 847 PD
24 W
4125 759 PD
24 W
4119 663 PD
24 W
4113 563 PD
24 W
4106 460 PD
24 W
3440 2448 PD
24 W
3427 2440 PD
24 W
3416 2428 PD
24 W
3404 2414 PD
24 W
3385 2431 PD
24 W
3370 2429 PD
24 W
3357 2423 PD
24 W
3344 2418 PD
24 W
3331 2413 PD
24 W
3319 2406 PD
24 W
3306 2402 PD
24 W
3294 2394 PD
24 W
3281 2389 PD
24 W
3269 2382 PD
24 W
3259 2356 PD
24 W
3246 2355 PD
24 W
3232 2356 PD
24 W
3219 2355 PD
24 W
3207 2345 PD
24 W
3234 1970 PD
24 W
3219 1961 PD
24 W
3203 1951 PD
24 W
3187 1935 PD
24 W
3172 1916 PD
24 W
3155 1914 PD
24 W
3139 1898 PD
24 W
3046 3703 PD
24 W
2683 1667 PD
24 W
2700 1871 PD
24 W
2706 1999 PD
24 W
2701 2061 PD
24 W
2687 2078 PD
24 W
2671 2087 PD
24 W
2654 2090 PD
24 W
2637 2093 PD
24 W
2616 2085 PD
24 W
3046 3703 PD
24 W
2368 2044 PD
24 W
2350 2059 PD
24 W
3046 3703 PD
gs 740 320 4416 3480 rc
gr

24 W
3046 3703 PD
gs 740 320 4416 3480 rc
gr

24 W
3046 3703 PD
24 W
1478 1517 PD
24 W
1451 1559 PD
24 W
1423 1601 PD
24 W
1387 1632 PD
24 W
3046 3703 PD
24 W
1486 1899 PD
24 W
1459 1938 PD
24 W
3046 3703 PD
24 W
1524 2142 PD
24 W
1554 2235 PD
24 W
1535 2278 PD
24 W
1508 2314 PD
24 W
1483 2354 PD
24 W
1456 2392 PD
24 W
1520 2504 PD
24 W
1551 2585 PD
24 W
1550 2640 PD
24 W
1528 2680 PD
24 W
1500 2717 PD
24 W
1472 2756 PD
24 W
1445 2796 PD
24 W
1415 2837 PD
24 W
1386 2879 PD
24 W
1351 2920 PD
24 W
1243 2932 PD
24 W
3046 3703 PD
24 W
1632 3194 PD
24 W
1649 3246 PD
24 W
3046 3703 PD
24 W
1664 3343 PD
24 W
1635 3382 PD
24 W
1599 3421 PD
24 W
1582 3465 PD
24 W
1554 3509 PD
24 W
1452 3548 PD
24 W
1491 3602 PD
24 W
1552 3654 PD
gs 740 320 4416 3480 rc
gr

24 W
c8
4267 2836 PD
gs 740 320 4416 3480 rc
gr

24 W
c9
2711 2066 PD
gs 740 320 4416 3480 rc
gr

24 W
c8
4266 2836 PD
gs 740 320 4416 3480 rc
gr

24 W
c9
2710 2083 PD
gs 740 320 4416 3480 rc
gr

24 W
c8
4266 2836 PD
gs 740 320 4416 3480 rc
gr

24 W
c9
2709 2101 PD
gs 740 320 4416 3480 rc
gr

24 W
c8
4267 2836 PD
gs 740 320 4416 3480 rc
gr

24 W
c9
2710 2121 PD
gs 740 320 4416 3480 rc
gr

24 W
c8
4267 2836 PD
gs 740 320 4416 3480 rc
gr

24 W
c9
2711 2128 PD
gs 740 320 4416 3480 rc
gr

24 W
c8
4266 2835 PD
gs 740 320 4416 3480 rc
gr

24 W
c9
2712 2138 PD
gs 740 320 4416 3480 rc
gr

24 W
c8
4268 2833 PD
gs 740 320 4416 3480 rc
gr

24 W
c9
2715 2145 PD
gs 740 320 4416 3480 rc
gr

24 W
c8
4268 2832 PD
gs 740 320 4416 3480 rc
gr

24 W
c9
2717 2156 PD
gs 740 320 4416 3480 rc
gr

24 W
c8
4268 2832 PD
gs 740 320 4416 3480 rc
gr

24 W
c9
2718 2167 PD
gs 740 320 4416 3480 rc
gr

24 W
c8
4268 2832 PD
gs 740 320 4416 3480 rc
gr

24 W
c9
2720 2177 PD
gs 740 320 4416 3480 rc
gr

24 W
c8
4268 2832 PD
gs 740 320 4416 3480 rc
gr

24 W
c9
2723 2187 PD
gs 740 320 4416 3480 rc
gr

24 W
c8
4269 2831 PD
gs 740 320 4416 3480 rc
gr

24 W
c9
2720 2211 PD
gs 740 320 4416 3480 rc
gr

24 W
c8
4269 2831 PD
gs 740 320 4416 3480 rc
gr

24 W
c9
2719 2222 PD
gs 740 320 4416 3480 rc
gr

24 W
c8
4269 2831 PD
gs 740 320 4416 3480 rc
gr

24 W
c9
2723 2232 PD
gs 740 320 4416 3480 rc
gr

24 W
c8
4269 2831 PD
gs 740 320 4416 3480 rc
gr

24 W
c9
2724 2244 PD
gs 740 320 4416 3480 rc
gr

24 W
c8
4269 2831 PD
gs 740 320 4416 3480 rc
gr

24 W
c9
2725 2257 PD
gs 740 320 4416 3480 rc
gr

24 W
c8
4269 2831 PD
gs 740 320 4416 3480 rc
gr

24 W
c9
2727 2268 PD
gs 740 320 4416 3480 rc
gr

24 W
c8
4268 2832 PD
gs 740 320 4416 3480 rc
gr

24 W
c9
2728 2279 PD
gs 740 320 4416 3480 rc
gr

24 W
c8
4269 2831 PD
gs 740 320 4416 3480 rc
gr

24 W
c9
2728 2295 PD
gs 740 320 4416 3480 rc
gr

24 W
c8
4269 2831 PD
gs 740 320 4416 3480 rc
gr

24 W
c9
2729 2308 PD
gs 740 320 4416 3480 rc
gr

24 W
0 sg
4330 3697 PD
24 W
4328 3656 PD
24 W
4324 3614 PD
24 W
4322 3573 PD
24 W
4318 3532 PD
24 W
4316 3492 PD
24 W
4312 3451 PD
24 W
4319 3408 PD
24 W
4959 3200 PD
24 W
4312 3327 PD
24 W
4301 3288 PD
24 W
4298 3247 PD
24 W
4295 3206 PD
24 W
4292 3165 PD
24 W
4289 3124 PD
24 W
4287 3083 PD
24 W
4283 3042 PD
24 W
4280 3000 PD
24 W
3979 3138 PD
24 W
3965 3113 PD
24 W
3969 3077 PD
24 W
4268 2831 PD
24 W
4266 2787 PD
24 W
4262 2744 PD
24 W
4260 2699 PD
24 W
4256 2655 PD
24 W
4253 2611 PD
24 W
4250 2565 PD
24 W
4247 2519 PD
24 W
4244 2472 PD
24 W
4241 2424 PD
24 W
3993 2648 PD
24 W
3985 2616 PD
24 W
4231 2278 PD
24 W
4227 2227 PD
24 W
4224 2176 PD
24 W
4219 2125 PD
24 W
4217 2071 PD
24 W
4212 2018 PD
24 W
4209 1961 PD
24 W
4205 1905 PD
24 W
4201 1847 PD
24 W
4198 1787 PD
24 W
4194 1725 PD
24 W
4189 1665 PD
24 W
4185 1600 PD
24 W
4180 1535 PD
24 W
4177 1466 PD
24 W
4171 1398 PD
24 W
4167 1326 PD
24 W
4161 1254 PD
24 W
4157 1176 PD
24 W
4152 1096 PD
24 W
4146 1016 PD
24 W
4140 931 PD
24 W
4135 842 PD
24 W
4129 751 PD
24 W
4122 658 PD
24 W
4115 561 PD
24 W
4110 452 PD
24 W
3444 2442 PD
24 W
3431 2433 PD
24 W
3419 2421 PD
24 W
3407 2409 PD
24 W
3388 2424 PD
24 W
3373 2424 PD
24 W
3361 2416 PD
24 W
3347 2413 PD
24 W
3335 2407 PD
24 W
3322 2401 PD
24 W
3309 2395 PD
24 W
3297 2389 PD
24 W
3284 2383 PD
24 W
3271 2378 PD
24 W
3263 2347 PD
24 W
3249 2352 PD
24 W
3236 2349 PD
24 W
3222 2348 PD
24 W
3210 2340 PD
24 W
3238 1964 PD
24 W
3222 1956 PD
24 W
3206 1945 PD
24 W
3190 1933 PD
24 W
3175 1912 PD
24 W
3158 1908 PD
24 W
3142 1891 PD
24 W
3049 3697 PD
24 W
2704 1866 PD
24 W
2712 2007 PD
24 W
2721 2135 PD
24 W
2727 2240 PD
24 W
2725 2300 PD
24 W
2714 2316 PD
24 W
2701 2326 PD
24 W
2688 2339 PD
24 W
2673 2342 PD
24 W
2657 2343 PD
24 W
2638 2332 PD
24 W
3049 3697 PD
24 W
2372 2040 PD
24 W
2352 2051 PD
24 W
3049 3697 PD
gs 740 320 4416 3480 rc
gr

24 W
3049 3697 PD
24 W
1480 1511 PD
24 W
1452 1551 PD
24 W
1426 1595 PD
24 W
1391 1628 PD
24 W
3049 3697 PD
24 W
1490 1894 PD
24 W
1462 1932 PD
24 W
3049 3697 PD
24 W
1528 2137 PD
24 W
1558 2229 PD
24 W
1536 2270 PD
24 W
1512 2309 PD
24 W
1484 2346 PD
24 W
1459 2387 PD
24 W
1523 2498 PD
24 W
1555 2579 PD
24 W
1553 2633 PD
24 W
1532 2674 PD
24 W
1501 2710 PD
24 W
1476 2751 PD
24 W
1448 2791 PD
24 W
1418 2831 PD
24 W
1388 2873 PD
24 W
1355 2915 PD
24 W
1244 2925 PD
24 W
3049 3697 PD
24 W
1636 3188 PD
24 W
1652 3240 PD
24 W
3049 3697 PD
24 W
1665 3336 PD
24 W
1639 3376 PD
24 W
1600 3415 PD
24 W
1586 3460 PD
24 W
1556 3503 PD
24 W
1453 3542 PD
24 W
1493 3596 PD
24 W
1555 3649 PD
gs 740 320 4416 3480 rc
gr

24 W
c8
4269 2830 PD
gs 740 320 4416 3480 rc
gr

24 W
c9
2730 2320 PD
gs 740 320 4416 3480 rc
gr

24 W
c8
4269 2830 PD
gs 740 320 4416 3480 rc
gr

24 W
c9
2729 2335 PD
gs 740 320 4416 3480 rc
gr

24 W
c8
4270 2830 PD
gs 740 320 4416 3480 rc
gr

24 W
c9
2732 2344 PD
gs 740 320 4416 3480 rc
gr

24 W
c8
4269 2830 PD
gs 740 320 4416 3480 rc
gr

24 W
c9
2732 2354 PD
gs 740 320 4416 3480 rc
gr

24 W
c8
4270 2830 PD
gs 740 320 4416 3480 rc
gr

24 W
c9
2735 2365 PD
gs 740 320 4416 3480 rc
gr

24 W
c8
4269 2830 PD
gs 740 320 4416 3480 rc
gr

24 W
c9
2735 2381 PD
gs 740 320 4416 3480 rc
gr

24 W
c8
4270 2829 PD
gs 740 320 4416 3480 rc
gr

24 W
c9
2736 2392 PD
gs 740 320 4416 3480 rc
gr

24 W
c8
4270 2829 PD
gs 740 320 4416 3480 rc
gr

24 W
c9
2738 2404 PD
gs 740 320 4416 3480 rc
gr

24 W
c8
4270 2829 PD
gs 740 320 4416 3480 rc
gr

24 W
c9
2736 2420 PD
gs 740 320 4416 3480 rc
gr

24 W
c8
4269 2829 PD
gs 740 320 4416 3480 rc
gr

24 W
c9
2739 2428 PD
gs 740 320 4416 3480 rc
gr

24 W
c8
4270 2829 PD
gs 740 320 4416 3480 rc
gr

24 W
c9
2738 2444 PD
gs 740 320 4416 3480 rc
gr

24 W
c8
4267 2834 PD
gs 740 320 4416 3480 rc
gr

24 W
c9
2736 2462 PD
gs 740 320 4416 3480 rc
gr

24 W
c8
4267 2835 PD
gs 740 320 4416 3480 rc
gr

24 W
c9
2737 2476 PD
gs 740 320 4416 3480 rc
gr

24 W
c8
4266 2835 PD
gs 740 320 4416 3480 rc
gr

24 W
c9
2739 2484 PD
gs 740 320 4416 3480 rc
gr

24 W
c8
4267 2835 PD
gs 740 320 4416 3480 rc
gr

24 W
c9
2741 2494 PD
gs 740 320 4416 3480 rc
gr

24 W
c8
4267 2835 PD
gs 740 320 4416 3480 rc
gr

24 W
c9
2742 2505 PD
gs 740 320 4416 3480 rc
gr

24 W
c8
4268 2832 PD
gs 740 320 4416 3480 rc
gr

24 W
c9
2742 2520 PD
gs 740 320 4416 3480 rc
gr

24 W
c8
4269 2832 PD
gs 740 320 4416 3480 rc
gr

24 W
c9
2742 2532 PD
gs 740 320 4416 3480 rc
gr

24 W
c8
4268 2832 PD
gs 740 320 4416 3480 rc
gr

24 W
c9
2744 2543 PD
gs 740 320 4416 3480 rc
gr

24 W
c8
4269 2831 PD
gs 740 320 4416 3480 rc
gr

24 W
c9
2746 2554 PD
gs 740 320 4416 3480 rc
gr

24 W
0 sg
4328 3697 PD
24 W
4326 3656 PD
24 W
4323 3615 PD
24 W
4320 3574 PD
24 W
4317 3533 PD
24 W
4314 3492 PD
24 W
4311 3452 PD
24 W
4318 3409 PD
24 W
4959 3200 PD
24 W
4313 3327 PD
24 W
4299 3289 PD
24 W
4297 3248 PD
24 W
4294 3207 PD
24 W
4291 3167 PD
24 W
4288 3125 PD
24 W
4285 3084 PD
24 W
4283 3042 PD
24 W
4280 3001 PD
24 W
3978 3138 PD
24 W
3964 3114 PD
24 W
3969 3077 PD
24 W
4268 2831 PD
24 W
4265 2788 PD
24 W
4261 2745 PD
24 W
4259 2700 PD
24 W
4255 2656 PD
24 W
4253 2611 PD
24 W
4249 2566 PD
24 W
4247 2519 PD
24 W
4243 2473 PD
24 W
4240 2426 PD
24 W
3992 2649 PD
24 W
3983 2618 PD
24 W
4230 2279 PD
24 W
4227 2229 PD
24 W
4223 2177 PD
24 W
4219 2126 PD
24 W
4216 2072 PD
24 W
4212 2017 PD
24 W
4209 1961 PD
24 W
4205 1906 PD
24 W
4201 1847 PD
24 W
4197 1789 PD
24 W
4193 1727 PD
24 W
4189 1665 PD
24 W
4185 1600 PD
24 W
4180 1536 PD
24 W
4176 1468 PD
24 W
4171 1398 PD
24 W
4167 1326 PD
24 W
4161 1253 PD
24 W
4156 1177 PD
24 W
4151 1098 PD
24 W
4146 1016 PD
24 W
4140 932 PD
24 W
4134 844 PD
24 W
4127 756 PD
24 W
4122 659 PD
24 W
4115 560 PD
24 W
4108 456 PD
24 W
3443 2445 PD
24 W
3430 2435 PD
24 W
3418 2422 PD
24 W
3406 2412 PD
24 W
3388 2424 PD
24 W
3373 2424 PD
24 W
3360 2419 PD
24 W
3347 2415 PD
24 W
3334 2407 PD
24 W
3321 2404 PD
24 W
3309 2395 PD
24 W
3296 2391 PD
24 W
3284 2384 PD
24 W
3271 2379 PD
24 W
3262 2350 PD
24 W
3248 2353 PD
24 W
3235 2352 PD
24 W
3222 2351 PD
24 W
3210 2341 PD
24 W
3237 1966 PD
24 W
3222 1955 PD
24 W
3206 1944 PD
24 W
3190 1932 PD
24 W
3175 1911 PD
24 W
3158 1910 PD
24 W
3142 1893 PD
24 W
3049 3697 PD
24 W
2720 2131 PD
24 W
2727 2242 PD
24 W
2734 2337 PD
24 W
2740 2427 PD
24 W
2747 2509 PD
24 W
2742 2542 PD
24 W
2732 2556 PD
24 W
2722 2568 PD
24 W
2713 2583 PD
24 W
2700 2586 PD
24 W
2687 2588 PD
24 W
2673 2592 PD
24 W
2655 2581 PD
24 W
3049 3697 PD
24 W
2372 2040 PD
24 W
2352 2053 PD
24 W
3049 3697 PD
gs 740 320 4416 3480 rc
gr

24 W
3049 3697 PD
24 W
1480 1511 PD
24 W
1452 1552 PD
24 W
1425 1595 PD
24 W
1389 1626 PD
24 W
3049 3697 PD
24 W
1491 1896 PD
24 W
1461 1932 PD
24 W
3049 3697 PD
24 W
1527 2137 PD
24 W
1559 2231 PD
24 W
1536 2271 PD
24 W
1512 2310 PD
24 W
1483 2346 PD
24 W
1459 2387 PD
24 W
1522 2498 PD
24 W
1556 2581 PD
24 W
1553 2634 PD
24 W
1533 2676 PD
24 W
1503 2712 PD
24 W
1475 2751 PD
24 W
1447 2791 PD
24 W
1418 2831 PD
24 W
1389 2874 PD
24 W
1354 2915 PD
24 W
1244 2926 PD
24 W
3049 3697 PD
24 W
1637 3189 PD
24 W
1651 3241 PD
24 W
3049 3697 PD
24 W
1666 3337 PD
24 W
1639 3377 PD
24 W
1601 3416 PD
24 W
1585 3460 PD
24 W
1555 3504 PD
24 W
1454 3543 PD
24 W
1496 3597 PD
24 W
1556 3649 PD
gs 740 320 4416 3480 rc
gr

24 W
c8
4269 2831 PD
gs 740 320 4416 3480 rc
gr

24 W
c9
2748 2564 PD
gs 740 320 4416 3480 rc
gr

24 W
c8
4269 2831 PD
gs 740 320 4416 3480 rc
gr

24 W
c9
2746 2581 PD
gs 740 320 4416 3480 rc
gr

24 W
c8
4269 2831 PD
gs 740 320 4416 3480 rc
gr

24 W
c9
2747 2590 PD
gs 740 320 4416 3480 rc
gr

24 W
c8
4269 2831 PD
gs 740 320 4416 3480 rc
gr

24 W
c9
2748 2603 PD
gs 740 320 4416 3480 rc
gr

24 W
c8
4269 2830 PD
gs 740 320 4416 3480 rc
gr

24 W
c9
2750 2615 PD
gs 740 320 4416 3480 rc
gr

24 W
c8
4269 2831 PD
gs 740 320 4416 3480 rc
gr

24 W
c9
2752 2624 PD
gs 740 320 4416 3480 rc
gr

24 W
c8
4270 2830 PD
gs 740 320 4416 3480 rc
gr

24 W
c9
2752 2638 PD
gs 740 320 4416 3480 rc
gr

24 W
c8
4269 2830 PD
gs 740 320 4416 3480 rc
gr

24 W
c9
2752 2653 PD
gs 740 320 4416 3480 rc
gr

24 W
c8
4269 2830 PD
gs 740 320 4416 3480 rc
gr

24 W
c9
2753 2664 PD
gs 740 320 4416 3480 rc
gr

24 W
c8
4269 2830 PD
gs 740 320 4416 3480 rc
gr

24 W
c9
2755 2675 PD
gs 740 320 4416 3480 rc
gr

24 W
c8
4269 2830 PD
gs 740 320 4416 3480 rc
gr

24 W
c9
2756 2686 PD
gs 740 320 4416 3480 rc
gr

24 W
c8
4270 2829 PD
gs 740 320 4416 3480 rc
gr

24 W
c9
2756 2702 PD
gs 740 320 4416 3480 rc
gr

24 W
c8
4269 2830 PD
gs 740 320 4416 3480 rc
gr

24 W
c9
2757 2713 PD
gs 740 320 4416 3480 rc
gr

24 W
c8
4270 2829 PD
gs 740 320 4416 3480 rc
gr

24 W
c9
2759 2723 PD
gs 740 320 4416 3480 rc
gr

24 W
c8
4270 2828 PD
gs 740 320 4416 3480 rc
gr

24 W
c9
2760 2734 PD
gs 740 320 4416 3480 rc
gr

24 W
c8
4270 2829 PD
gs 740 320 4416 3480 rc
gr

24 W
c9
2761 2749 PD
gs 740 320 4416 3480 rc
gr

24 W
c8
4265 2838 PD
gs 740 320 4416 3480 rc
gr

24 W
c9
2755 2772 PD
gs 740 320 4416 3480 rc
gr

24 W
c8
4265 2838 PD
gs 740 320 4416 3480 rc
gr

24 W
c9
2756 2779 PD
gs 740 320 4416 3480 rc
gr

24 W
c8
4265 2838 PD
gs 740 320 4416 3480 rc
gr

24 W
c9
2758 2794 PD
gs 740 320 4416 3480 rc
gr

24 W
c8
4265 2838 PD
gs 740 320 4416 3480 rc
gr

24 W
c9
2759 2809 PD
gs 740 320 4416 3480 rc
gr

24 W
0 sg
4325 3705 PD
24 W
4322 3663 PD
24 W
4320 3622 PD
24 W
4316 3581 PD
24 W
4313 3540 PD
24 W
4311 3499 PD
24 W
4308 3459 PD
24 W
4314 3416 PD
24 W
4314 3374 PD
24 W
4308 3334 PD
24 W
4296 3296 PD
24 W
4294 3255 PD
24 W
4290 3215 PD
24 W
4288 3173 PD
24 W
4284 3132 PD
24 W
4282 3091 PD
24 W
4279 3050 PD
24 W
4276 3008 PD
24 W
3975 3146 PD
24 W
3961 3121 PD
24 W
3965 3085 PD
24 W
4264 2838 PD
24 W
4262 2795 PD
24 W
4258 2752 PD
24 W
4255 2708 PD
24 W
4252 2663 PD
24 W
4249 2618 PD
24 W
4246 2573 PD
24 W
4243 2526 PD
24 W
4239 2480 PD
24 W
4237 2432 PD
24 W
3989 2656 PD
24 W
3980 2624 PD
24 W
4226 2286 PD
24 W
4222 2237 PD
24 W
4220 2184 PD
24 W
4215 2133 PD
24 W
4212 2079 PD
24 W
4208 2025 PD
24 W
4205 1970 PD
24 W
4200 1914 PD
24 W
4197 1854 PD
24 W
4193 1796 PD
24 W
4189 1735 PD
24 W
4185 1673 PD
24 W
4181 1607 PD
24 W
4176 1543 PD
24 W
4172 1474 PD
24 W
4167 1406 PD
24 W
4162 1334 PD
24 W
4157 1261 PD
24 W
4152 1184 PD
24 W
4147 1106 PD
24 W
4142 1023 PD
24 W
4136 939 PD
24 W
4129 853 PD
24 W
4123 762 PD
24 W
4118 666 PD
24 W
4111 568 PD
24 W
4104 464 PD
24 W
3439 2451 PD
24 W
3427 2441 PD
24 W
3414 2432 PD
24 W
3403 2417 PD
24 W
3384 2433 PD
24 W
3370 2431 PD
24 W
3356 2426 PD
24 W
3343 2423 PD
24 W
3330 2416 PD
24 W
3317 2410 PD
24 W
3305 2402 PD
24 W
3292 2399 PD
24 W
3280 2391 PD
24 W
3267 2387 PD
24 W
3259 2353 PD
24 W
3245 2357 PD
24 W
3231 2358 PD
24 W
3218 2358 PD
24 W
3206 2348 PD
24 W
3233 1974 PD
24 W
3218 1963 PD
24 W
3202 1954 PD
24 W
3186 1939 PD
24 W
3171 1917 PD
24 W
3154 1917 PD
24 W
3138 1901 PD
24 W
3045 3705 PD
gs 740 320 4416 3480 rc
gr

24 W
3045 3705 PD
24 W
2733 2421 PD
24 W
2741 2509 PD
24 W
2746 2581 PD
24 W
2750 2642 PD
24 W
2754 2698 PD
24 W
2753 2735 PD
24 W
2756 2785 PD
24 W
2751 2805 PD
24 W
2741 2807 PD
24 W
2729 2809 PD
gs 740 320 4416 3480 rc
gr

24 W
2693 2843 PD
24 W
2682 2846 PD
24 W
2664 2836 PD
24 W
3045 3705 PD
gs 740 320 4416 3480 rc
gr

24 W
3045 3705 PD
24 W
1477 1519 PD
24 W
1448 1559 PD
24 W
1422 1603 PD
24 W
1388 1638 PD
24 W
3045 3705 PD
24 W
1487 1904 PD
24 W
1458 1940 PD
24 W
3045 3705 PD
24 W
1524 2144 PD
24 W
1555 2238 PD
24 W
1533 2279 PD
24 W
1507 2316 PD
24 W
1477 2351 PD
24 W
3045 3705 PD
24 W
1518 2505 PD
24 W
1551 2587 PD
24 W
1548 2641 PD
24 W
1528 2682 PD
24 W
1498 2718 PD
24 W
1473 2759 PD
24 W
1443 2798 PD
24 W
1414 2838 PD
24 W
1384 2880 PD
24 W
1351 2922 PD
24 W
1240 2933 PD
24 W
3045 3705 PD
24 W
1633 3196 PD
24 W
1648 3248 PD
24 W
3045 3705 PD
24 W
1661 3344 PD
24 W
1635 3384 PD
24 W
1595 3422 PD
24 W
1582 3467 PD
24 W
1552 3511 PD
24 W
1450 3550 PD
24 W
1489 3604 PD
24 W
1552 3656 PD
gs 740 320 4416 3480 rc
gr

24 W
c8
4265 2838 PD
gs 740 320 4416 3480 rc
gr

24 W
c9
2759 2799 PD
gs 740 320 4416 3480 rc
gr

24 W
c8
4267 2834 PD
gs 740 320 4416 3480 rc
gr

24 W
c9
2762 2825 PD
gs 740 320 4416 3480 rc
gr

24 W
c8
4267 2833 PD
gs 740 320 4416 3480 rc
gr

24 W
c9
2763 2843 PD
gs 740 320 4416 3480 rc
gr

24 W
c8
4268 2834 PD
gs 740 320 4416 3480 rc
gr

24 W
c9
2764 2853 PD
gs 740 320 4416 3480 rc
gr

24 W
c8
4267 2834 PD
gs 740 320 4416 3480 rc
gr

24 W
c9
2764 2866 PD
gs 740 320 4416 3480 rc
gr

24 W
c8
4267 2834 PD
gs 740 320 4416 3480 rc
gr

24 W
c9
2766 2881 PD
gs 740 320 4416 3480 rc
gr

24 W
c8
4267 2833 PD
gs 740 320 4416 3480 rc
gr

24 W
c9
2767 2889 PD
gs 740 320 4416 3480 rc
gr

24 W
c8
4267 2833 PD
gs 740 320 4416 3480 rc
gr

24 W
c9
2768 2903 PD
gs 740 320 4416 3480 rc
gr

24 W
c8
4267 2833 PD
gs 740 320 4416 3480 rc
gr

24 W
c9
2716 2944 PD
gs 740 320 4416 3480 rc
gr

24 W
c8
4267 2833 PD
gs 740 320 4416 3480 rc
gr

24 W
c9
2770 2928 PD
gs 740 320 4416 3480 rc
gr

24 W
c8
4268 2833 PD
gs 740 320 4416 3480 rc
gr

24 W
c9
2770 2944 PD
gs 740 320 4416 3480 rc
gr

24 W
c8
4268 2833 PD
gs 740 320 4416 3480 rc
gr

24 W
c9
2772 2954 PD
gs 740 320 4416 3480 rc
gr

24 W
c8
4268 2833 PD
gs 740 320 4416 3480 rc
gr

24 W
c9
2773 2965 PD
gs 740 320 4416 3480 rc
gr

24 W
c8
4268 2832 PD
gs 740 320 4416 3480 rc
gr

24 W
c9
2722 3009 PD
gs 740 320 4416 3480 rc
gr

24 W
c8
4268 2832 PD
gs 740 320 4416 3480 rc
gr

24 W
c9
2774 2993 PD
gs 740 320 4416 3480 rc
gr

24 W
c8
4268 2832 PD
gs 740 320 4416 3480 rc
gr

24 W
c9
2775 3004 PD
gs 740 320 4416 3480 rc
gr

24 W
c8
4268 2831 PD
gs 740 320 4416 3480 rc
gr

24 W
c9
2776 3017 PD
gs 740 320 4416 3480 rc
gr

24 W
c8
4268 2831 PD
gs 740 320 4416 3480 rc
gr

24 W
c9
2778 3028 PD
gs 740 320 4416 3480 rc
gr

24 W
c8
4268 2831 PD
gs 740 320 4416 3480 rc
gr

24 W
c9
2779 3042 PD
gs 740 320 4416 3480 rc
gr

24 W
c8
4268 2832 PD
gs 740 320 4416 3480 rc
gr

24 W
c9
2779 3055 PD
gs 740 320 4416 3480 rc
gr

24 W
0 sg
4330 3697 PD
24 W
4326 3656 PD
24 W
4324 3615 PD
24 W
4320 3574 PD
24 W
4318 3533 PD
24 W
4315 3492 PD
24 W
4312 3451 PD
24 W
4318 3409 PD
24 W
4960 3200 PD
24 W
4310 3327 PD
24 W
4302 3288 PD
24 W
4297 3248 PD
24 W
4295 3207 PD
24 W
4292 3166 PD
24 W
4289 3125 PD
24 W
4285 3084 PD
24 W
4283 3042 PD
24 W
4280 3000 PD
24 W
3979 3138 PD
24 W
3964 3114 PD
24 W
3969 3078 PD
24 W
4268 2831 PD
24 W
4264 2788 PD
24 W
4262 2744 PD
24 W
4259 2701 PD
24 W
4256 2656 PD
24 W
4253 2611 PD
24 W
4250 2565 PD
24 W
4246 2520 PD
24 W
4244 2472 PD
24 W
4240 2426 PD
24 W
3993 2648 PD
24 W
3984 2617 PD
24 W
4230 2279 PD
24 W
4226 2230 PD
24 W
4223 2177 PD
24 W
4219 2126 PD
24 W
4216 2072 PD
24 W
4212 2019 PD
24 W
4209 1962 PD
24 W
4204 1906 PD
24 W
4201 1848 PD
24 W
4196 1789 PD
24 W
4192 1728 PD
24 W
4190 1664 PD
24 W
4184 1602 PD
24 W
4181 1535 PD
24 W
4176 1467 PD
24 W
4170 1400 PD
24 W
4166 1328 PD
24 W
4162 1252 PD
24 W
4156 1177 PD
24 W
4151 1099 PD
24 W
4146 1016 PD
24 W
4140 931 PD
24 W
4134 845 PD
24 W
4127 756 PD
24 W
4122 657 PD
24 W
4114 562 PD
24 W
4109 456 PD
24 W
3443 2442 PD
24 W
3430 2435 PD
24 W
3419 2421 PD
24 W
3407 2408 PD
24 W
3388 2424 PD
24 W
3373 2424 PD
24 W
3360 2418 PD
24 W
3347 2413 PD
24 W
3334 2408 PD
24 W
3321 2403 PD
24 W
3309 2396 PD
24 W
3297 2389 PD
24 W
3284 2385 PD
24 W
3271 2377 PD
24 W
3262 2351 PD
24 W
3249 2351 PD
24 W
3235 2352 PD
24 W
3222 2350 PD
24 W
3210 2342 PD
24 W
3237 1966 PD
24 W
3221 1958 PD
24 W
3206 1945 PD
24 W
3190 1932 PD
24 W
3175 1911 PD
24 W
3158 1908 PD
24 W
3142 1893 PD
24 W
3049 3697 PD
gs 740 320 4416 3480 rc
gr

24 W
3049 3697 PD
24 W
2754 2632 PD
24 W
2756 2686 PD
24 W
2761 2741 PD
24 W
2764 2790 PD
24 W
2767 2834 PD
24 W
2770 2876 PD
24 W
2772 2912 PD
24 W
2775 2948 PD
24 W
2772 2969 PD
24 W
2779 3012 PD
24 W
2777 3031 PD
24 W
2771 3042 PD
24 W
2764 3047 PD
24 W
2755 3050 PD
24 W
2755 3072 PD
24 W
2751 3085 PD
24 W
2741 3086 PD
24 W
2734 3094 PD
24 W
2722 3092 PD
24 W
2713 3098 PD
24 W
2688 3076 PD
24 W
3049 3697 PD
24 W
1481 1512 PD
24 W
1452 1551 PD
24 W
1427 1597 PD
24 W
1390 1627 PD
24 W
3049 3697 PD
24 W
1490 1895 PD
24 W
1462 1933 PD
24 W
3049 3697 PD
24 W
1527 2136 PD
24 W
1559 2231 PD
24 W
1537 2271 PD
24 W
1512 2310 PD
24 W
1482 2345 PD
24 W
1459 2386 PD
24 W
1524 2499 PD
24 W
1556 2580 PD
24 W
1553 2634 PD
24 W
1532 2675 PD
24 W
1504 2712 PD
24 W
1476 2751 PD
24 W
1449 2791 PD
24 W
1418 2831 PD
24 W
1390 2874 PD
24 W
1356 2915 PD
24 W
1246 2926 PD
24 W
3049 3697 PD
24 W
1638 3189 PD
24 W
1653 3241 PD
24 W
3049 3697 PD
24 W
1667 3337 PD
24 W
1638 3376 PD
24 W
1599 3415 PD
24 W
1584 3460 PD
24 W
1557 3504 PD
24 W
1454 3542 PD
24 W
1500 3597 PD
24 W
1553 3649 PD
gs 740 320 4416 3480 rc
gr

24 W
c8
4269 2831 PD
gs 740 320 4416 3480 rc
gr

24 W
c9
2780 3065 PD
gs 740 320 4416 3480 rc
gr

24 W
c8
4265 2839 PD
gs 740 320 4416 3480 rc
gr

24 W
c9
2778 3088 PD
gs 740 320 4416 3480 rc
gr

24 W
c8
4265 2838 PD
gs 740 320 4416 3480 rc
gr

24 W
c9
2779 3101 PD
gs 740 320 4416 3480 rc
gr

24 W
c8
4265 2838 PD
gs 740 320 4416 3480 rc
gr

24 W
c9
2780 3114 PD
gs 740 320 4416 3480 rc
gr

24 W
c8
4265 2838 PD
gs 740 320 4416 3480 rc
gr

24 W
c9
2779 3126 PD
gs 740 320 4416 3480 rc
gr

24 W
c8
4265 2837 PD
gs 740 320 4416 3480 rc
gr

24 W
c9
2782 3137 PD
gs 740 320 4416 3480 rc
gr

24 W
c8
4265 2837 PD
gs 740 320 4416 3480 rc
gr

24 W
c9
2739 3176 PD
gs 740 320 4416 3480 rc
gr

24 W
c8
4265 2837 PD
gs 740 320 4416 3480 rc
gr

24 W
c9
2782 3132 PD
gs 740 320 4416 3480 rc
gr

24 W
c8
4265 2837 PD
gs 740 320 4416 3480 rc
gr

24 W
c9
2783 3136 PD
gs 740 320 4416 3480 rc
gr

24 W
c8
4265 2837 PD
gs 740 320 4416 3480 rc
gr

24 W
c9
2745 3211 PD
gs 740 320 4416 3480 rc
gr

24 W
c8
4266 2836 PD
gs 740 320 4416 3480 rc
gr

24 W
c9
2785 3161 PD
gs 740 320 4416 3480 rc
gr

24 W
c8
4266 2837 PD
gs 740 320 4416 3480 rc
gr

24 W
c9
2751 3232 PD
gs 740 320 4416 3480 rc
gr

24 W
c8
4266 2836 PD
gs 740 320 4416 3480 rc
gr

24 W
c9
2749 3246 PD
gs 740 320 4416 3480 rc
gr

24 W
c8
4266 2836 PD
gs 740 320 4416 3480 rc
gr

24 W
c9
2788 3206 PD
gs 740 320 4416 3480 rc
gr

24 W
c8
4266 2836 PD
gs 740 320 4416 3480 rc
gr

24 W
c9
2789 3250 PD
gs 740 320 4416 3480 rc
gr

24 W
c10
1451 1563 PD
gs 740 320 4416 3480 rc
gr

24 W
c8
4266 2835 PD
gs 740 320 4416 3480 rc
gr

24 W
c9
2791 3260 PD
gs 740 320 4416 3480 rc
gr

24 W
c10
1451 1563 PD
gs 740 320 4416 3480 rc
gr

24 W
c8
4266 2835 PD
gs 740 320 4416 3480 rc
gr

24 W
c9
2792 3272 PD
gs 740 320 4416 3480 rc
gr

24 W
c10
1451 1563 PD
gs 740 320 4416 3480 rc
gr

24 W
c8
4266 2835 PD
gs 740 320 4416 3480 rc
gr

24 W
c9
2760 3304 PD
gs 740 320 4416 3480 rc
gr

24 W
c10
1451 1563 PD
gs 740 320 4416 3480 rc
gr

24 W
c8
4267 2834 PD
gs 740 320 4416 3480 rc
gr

24 W
c9
2793 3298 PD
gs 740 320 4416 3480 rc
gr

24 W
c10
1451 1563 PD
gs 740 320 4416 3480 rc
gr

0 sg
%%IncludeResource: font Helvetica
/Helvetica /ISOLatin1Encoding 120 FMSR

2643 4087 mt 
(Easting \(m\)) s
 258 2389 mt  -90 rotate
(Northing \(m\)) s
90 rotate
1965  225 mt 
(Performance of trackMO on 8-16-06) s

end %%Color Dict

eplot
%%EndObject

epage
end

showpage

%%Trailer
%%EOF
