<kml>
<Folder>
<name>santa.rndf</name>
<Folder>
<name>1</name>
<description>Fast_Lane</description>
	<Placemark>
		<name>1.1</name>
		<DrawOrder>0</DrawOrder>
		<Style>
			<LineStyle>
				<color>ffff1111</color>
				<width>4</width>
			</LineStyle>
		</Style>
		<LineString>
		   <coordinates>
-118.048296,34.132254,0.0
-118.048259,34.132431,0.0
-118.048215,34.132657,0.0
-118.048156,34.132970,0.0
-118.048133,34.133088,0.0
-118.048056,34.133452,0.0
-118.048030,34.133588,0.0
-118.047893,34.134238,0.0
-118.047841,34.134348,0.0
-118.047739,34.134360,0.0
-118.047480,34.134323,0.0
-118.047224,34.134276,0.0
		  </coordinates>
		</LineString> 
	</Placemark>
	<Placemark>
		<name>1.2</name>
		<DrawOrder>0</DrawOrder>
		<Style>
			<LineStyle>
				<color>ffff1111</color>
				<width>4</width>
			</LineStyle>
		</Style>
		<LineString>
		   <coordinates>
-118.047215,34.134324,0.0
-118.047576,34.134385,0.0
-118.047726,34.134405,0.0
-118.047863,34.134382,0.0
-118.047931,34.134241,0.0
-118.048062,34.133594,0.0
-118.048090,34.133455,0.0
-118.048165,34.133094,0.0
-118.048188,34.132977,0.0
-118.048221,34.132808,0.0
-118.048289,34.132452,0.0
-118.048328,34.132257,0.0
		  </coordinates>
		</LineString> 
	</Placemark>
</Folder>
<Folder>
<name>2</name>
<description>Murray_Road</description>
	<Placemark>
		<name>2.1</name>
		<DrawOrder>0</DrawOrder>
		<Style>
			<LineStyle>
				<color>ffff1111</color>
				<width>4</width>
			</LineStyle>
		</Style>
		<LineString>
		   <coordinates>
-118.047156,34.133005,0.0
-118.047087,34.133352,0.0
-118.047064,34.133470,0.0
-118.047004,34.133765,0.0
		  </coordinates>
		</LineString> 
	</Placemark>
	<Placemark>
		<name>2.2</name>
		<DrawOrder>0</DrawOrder>
		<Style>
			<LineStyle>
				<color>ffff1111</color>
				<width>4</width>
			</LineStyle>
		</Style>
		<LineString>
		   <coordinates>
-118.047059,34.133773,0.0
-118.047120,34.133476,0.0
-118.047142,34.133355,0.0
-118.047213,34.133008,0.0
		  </coordinates>
		</LineString> 
	</Placemark>
</Folder>
<Folder>
<name>3</name>
<description>St_Luke_Lane</description>
	<Placemark>
		<name>3.1</name>
		<DrawOrder>0</DrawOrder>
		<Style>
			<LineStyle>
				<color>ffff1111</color>
				<width>4</width>
			</LineStyle>
		</Style>
		<LineString>
		   <coordinates>
-118.047269,34.132986,0.0
-118.047755,34.133014,0.0
-118.047881,34.133025,0.0
-118.048106,34.133042,0.0
		  </coordinates>
		</LineString> 
	</Placemark>
	<Placemark>
		<name>3.2</name>
		<DrawOrder>0</DrawOrder>
		<Style>
			<LineStyle>
				<color>ffff1111</color>
				<width>4</width>
			</LineStyle>
		</Style>
		<LineString>
		   <coordinates>
-118.048116,34.133007,0.0
-118.047888,34.132989,0.0
-118.047761,34.132974,0.0
-118.047272,34.132945,0.0
		  </coordinates>
		</LineString> 
	</Placemark>
</Folder>
<Folder>
<name>4</name>
<description>Dont_panic</description>
	<Placemark>
		<name>4.1</name>
		<DrawOrder>0</DrawOrder>
		<Style>
			<LineStyle>
				<color>ffff1111</color>
				<width>4</width>
			</LineStyle>
		</Style>
		<LineString>
		   <coordinates>
-118.047146,34.132955,0.0
-118.046859,34.132873,0.0
-118.046711,34.132705,0.0
-118.046742,34.132557,0.0
-118.046771,34.132434,0.0
-118.046796,34.132314,0.0
-118.046834,34.132185,0.0
-118.047029,34.132094,0.0
-118.047168,34.132109,0.0
-118.047288,34.132128,0.0
		  </coordinates>
		</LineString> 
	</Placemark>
</Folder>
<Folder>
<name>5</name>
<description>Winding_Way</description>
	<Placemark>
		<name>5.1</name>
		<DrawOrder>0</DrawOrder>
		<Style>
			<LineStyle>
				<color>ffff1111</color>
				<width>4</width>
			</LineStyle>
		</Style>
		<LineString>
		   <coordinates>
-118.047335,34.132150,0.0
-118.048233,34.132214,0.0
-118.048278,34.132224,0.0
		  </coordinates>
		</LineString> 
	</Placemark>
	<Placemark>
		<name>5.2</name>
		<DrawOrder>0</DrawOrder>
		<Style>
			<LineStyle>
				<color>ffff1111</color>
				<width>4</width>
			</LineStyle>
		</Style>
		<LineString>
		   <coordinates>
-118.048289,34.132166,0.0
-118.048241,34.132156,0.0
-118.047345,34.132106,0.0
		  </coordinates>
		</LineString> 
	</Placemark>
</Folder>
<Folder>
<name>6</name>
<description>Segment6</description>
	<Placemark>
		<name>6.1</name>
		<DrawOrder>0</DrawOrder>
		<Style>
			<LineStyle>
				<color>ffff1111</color>
				<width>4</width>
			</LineStyle>
		</Style>
		<LineString>
		   <coordinates>
-118.048018,34.133499,0.0
-118.047800,34.133477,0.0
-118.047677,34.133468,0.0
-118.047193,34.133413,0.0
-118.047049,34.133386,0.0
-118.046746,34.133329,0.0
		  </coordinates>
		</LineString> 
	</Placemark>
	<Placemark>
		<name>6.2</name>
		<DrawOrder>0</DrawOrder>
		<Style>
			<LineStyle>
				<color>ffff1111</color>
				<width>4</width>
			</LineStyle>
		</Style>
		<LineString>
		   <coordinates>
-118.046742,34.133363,0.0
-118.047046,34.133420,0.0
-118.047193,34.133446,0.0
-118.047674,34.133500,0.0
-118.047797,34.133512,0.0
-118.048008,34.133534,0.0
		  </coordinates>
		</LineString> 
	</Placemark>
</Folder>
<Folder>
<name>7</name>
<description>Segment7</description>
	<Placemark>
		<name>7.1</name>
		<DrawOrder>0</DrawOrder>
		<Style>
			<LineStyle>
				<color>ffff1111</color>
				<width>4</width>
			</LineStyle>
		</Style>
		<LineString>
		   <coordinates>
-118.047788,34.133049,0.0
-118.047724,34.133436,0.0
-118.047698,34.133560,0.0
-118.047533,34.134276,0.0
		  </coordinates>
		</LineString> 
	</Placemark>
	<Placemark>
		<name>7.2</name>
		<DrawOrder>0</DrawOrder>
		<Style>
			<LineStyle>
				<color>ffff1111</color>
				<width>4</width>
			</LineStyle>
		</Style>
		<LineString>
		   <coordinates>
-118.047824,34.133055,0.0
-118.047761,34.133433,0.0
-118.047734,34.133556,0.0
-118.047573,34.134276,0.0
		  </coordinates>
		</LineString> 
	</Placemark>
</Folder>
<Folder>
<name>8</name>
<description>Segment8</description>
	<Placemark>
		<name>8.1</name>
		<DrawOrder>0</DrawOrder>
		<Style>
			<LineStyle>
				<color>ffff1111</color>
				<width>4</width>
			</LineStyle>
		</Style>
		<LineString>
		   <coordinates>
-118.046877,34.132577,0.0
-118.047243,34.132587,0.0
-118.047494,34.132599,0.0
-118.047710,34.132612,0.0
		  </coordinates>
		</LineString> 
	</Placemark>
	<Placemark>
		<name>8.2</name>
		<DrawOrder>0</DrawOrder>
		<Style>
			<LineStyle>
				<color>ffff1111</color>
				<width>4</width>
			</LineStyle>
		</Style>
		<LineString>
		   <coordinates>
-118.046806,34.132524,0.0
-118.047096,34.132538,0.0
-118.047470,34.132548,0.0
-118.047768,34.132571,0.0
-118.047831,34.132775,0.0
-118.047804,34.132925,0.0
		  </coordinates>
		</LineString> 
	</Placemark>
	<Placemark>
		<name>8.3</name>
		<DrawOrder>0</DrawOrder>
		<Style>
			<LineStyle>
				<color>ffff1111</color>
				<width>4</width>
			</LineStyle>
		</Style>
		<LineString>
		   <coordinates>
-118.047845,34.132928,0.0
-118.047875,34.132751,0.0
-118.047804,34.132528,0.0
-118.047474,34.132498,0.0
-118.046822,34.132478,0.0
		  </coordinates>
		</LineString> 
	</Placemark>
	<Placemark>
		<name>8.4</name>
		<DrawOrder>0</DrawOrder>
		<Style>
			<LineStyle>
				<color>ffff1111</color>
				<width>4</width>
			</LineStyle>
		</Style>
		<LineString>
		   <coordinates>
-118.047910,34.132666,0.0
-118.047853,34.132488,0.0
-118.047484,34.132450,0.0
-118.047185,34.132441,0.0
-118.046893,34.132434,0.0
		  </coordinates>
		</LineString> 
	</Placemark>
</Folder>
<Folder>
<name>9</name>
-118.046893,34.132434,0.0
-118.046893,34.132434,0.0
	<Placemark>
		<name>9.0</name>
		<DrawOrder>0</DrawOrder>
		<Style>
			<LineStyle>
				<color>ff00ffff</color>
				<width>4</width>
			</LineStyle>
		</Style>
		<LineString>
		   <coordinates>
-118.046480,34.134540,0.0
-118.046650,34.133860,0.0
-118.046997,34.133812,0.0
-118.047053,34.133818,0.0
-118.047290,34.133900,0.0
-118.047179,34.134270,0.0
-118.047169,34.134324,0.0
-118.047128,34.134502,0.0
		  </coordinates>
		</LineString> 
	</Placemark>
	<Placemark>
		<name>9.1</name>
		<DrawOrder>0</DrawOrder>
		<Style>
			<LineStyle>
				<color>ffffffff</color>
				<width>4</width>
			</LineStyle>
		</Style>
		<LineString>
		   <coordinates>
-118.046870,34.134300,0.0
-118.046870,34.134340,0.0
		  </coordinates>
		</LineString> 
	</Placemark>
	<Placemark>
		<name>9.2</name>
		<DrawOrder>0</DrawOrder>
		<Style>
			<LineStyle>
				<color>ffffffff</color>
				<width>4</width>
			</LineStyle>
		</Style>
		<LineString>
		   <coordinates>
-118.046810,34.134290,0.0
-118.046810,34.134340,0.0
		  </coordinates>
		</LineString> 
	</Placemark>
	<Placemark>
		<name>9.3</name>
		<DrawOrder>0</DrawOrder>
		<Style>
			<LineStyle>
				<color>ffffffff</color>
				<width>4</width>
			</LineStyle>
		</Style>
		<LineString>
		   <coordinates>
-118.046751,34.134290,0.0
-118.046750,34.134330,0.0
		  </coordinates>
		</LineString> 
	</Placemark>
	<Placemark>
		<name>9.4</name>
		<DrawOrder>0</DrawOrder>
		<Style>
			<LineStyle>
				<color>ffffffff</color>
				<width>4</width>
			</LineStyle>
		</Style>
		<LineString>
		   <coordinates>
-118.046940,34.134170,0.0
-118.046940,34.134210,0.0
		  </coordinates>
		</LineString> 
	</Placemark>
	<Placemark>
		<name>9.5</name>
		<DrawOrder>0</DrawOrder>
		<Style>
			<LineStyle>
				<color>ffffffff</color>
				<width>4</width>
			</LineStyle>
		</Style>
		<LineString>
		   <coordinates>
-118.046880,34.134170,0.0
-118.046880,34.134200,0.0
		  </coordinates>
		</LineString> 
	</Placemark>
	<Placemark>
		<name>9.6</name>
		<DrawOrder>0</DrawOrder>
		<Style>
			<LineStyle>
				<color>ffffffff</color>
				<width>4</width>
			</LineStyle>
		</Style>
		<LineString>
		   <coordinates>
-118.046820,34.134160,0.0
-118.046819,34.134201,0.0
		  </coordinates>
		</LineString> 
	</Placemark>
</Folder>
</Folder>
</kml>
