1,34.0885680,-117.4978870,10,10
2,34.0886920,-117.4980280,10,10
3,34.0887090,-117.4981040,10,10
4,34.0887110,-117.4984290,10,10
5,34.0886750,-117.4985840,10,10
6,34.0886050,-117.4986610,10,10
7,34.0885490,-117.4986690,10,10
8,34.0884790,-117.4986100,10,10
9,34.0884490,-117.4985390,10,10
10,34.0884340,-117.4984570,10,10
11,34.0884200,-117.4981600,5,10
12,34.0884120,-117.4979220,5,10
13,34.0884520,-117.4978440,5,10
14,34.0884940,-117.4978370,5,10
15,34.0885230,-117.4978550,5,0
