%!PS-Adobe-3.0 EPSF-3.0
%%Creator: MATLAB, The Mathworks, Inc.
%%Title: /home/lindzey/8_16/projects/lindzey/tracking/trackMO/scan2.eps
%%CreationDate: 09/03/2006  19:21:15
%%DocumentNeededFonts: Helvetica
%%DocumentProcessColors: Cyan Magenta Yellow Black
%%LanguageLevel: 2
%%Pages: 1
%%BoundingBox:    68   218   542   574
%%EndComments

%%BeginProlog
% MathWorks dictionary
/MathWorks 160 dict begin
% definition operators
/bdef {bind def} bind def
/ldef {load def} bind def
/xdef {exch def} bdef
/xstore {exch store} bdef
% operator abbreviations
/c  /clip ldef
/cc /concat ldef
/cp /closepath ldef
/gr /grestore ldef
/gs /gsave ldef
/mt /moveto ldef
/np /newpath ldef
/cm /currentmatrix ldef
/sm /setmatrix ldef
/rm /rmoveto ldef
/rl /rlineto ldef
/s {show newpath} bdef
/sc {setcmykcolor} bdef
/sr /setrgbcolor ldef
/sg /setgray ldef
/w /setlinewidth ldef
/j /setlinejoin ldef
/cap /setlinecap ldef
/rc {rectclip} bdef
/rf {rectfill} bdef
% page state control
/pgsv () def
/bpage {/pgsv save def} bdef
/epage {pgsv restore} bdef
/bplot /gsave ldef
/eplot {stroke grestore} bdef
% orientation switch
/portraitMode 0 def /landscapeMode 1 def /rotateMode 2 def
% coordinate system mappings
/dpi2point 0 def
% font control
/FontSize 0 def
/FMS {/FontSize xstore findfont [FontSize 0 0 FontSize neg 0 0]
  makefont setfont} bdef
/reencode {exch dup where {pop load} {pop StandardEncoding} ifelse
  exch dup 3 1 roll findfont dup length dict begin
  { 1 index /FID ne {def}{pop pop} ifelse } forall
  /Encoding exch def currentdict end definefont pop} bdef
/isroman {findfont /CharStrings get /Agrave known} bdef
/FMSR {3 1 roll 1 index dup isroman {reencode} {pop pop} ifelse
  exch FMS} bdef
/csm {1 dpi2point div -1 dpi2point div scale neg translate
 dup landscapeMode eq {pop -90 rotate}
  {rotateMode eq {90 rotate} if} ifelse} bdef
% line types: solid, dotted, dashed, dotdash
/SO { [] 0 setdash } bdef
/DO { [.5 dpi2point mul 4 dpi2point mul] 0 setdash } bdef
/DA { [6 dpi2point mul] 0 setdash } bdef
/DD { [.5 dpi2point mul 4 dpi2point mul 6 dpi2point mul 4
  dpi2point mul] 0 setdash } bdef
% macros for lines and objects
/L {lineto stroke} bdef
/MP {3 1 roll moveto 1 sub {rlineto} repeat} bdef
/AP {{rlineto} repeat} bdef
/PDlw -1 def
/W {/PDlw currentlinewidth def setlinewidth} def
/PP {closepath eofill} bdef
/DP {closepath stroke} bdef
/MR {4 -2 roll moveto dup  0 exch rlineto exch 0 rlineto
  neg 0 exch rlineto closepath} bdef
/FR {MR stroke} bdef
/PR {MR fill} bdef
/L1i {{currentfile picstr readhexstring pop} image} bdef
/tMatrix matrix def
/MakeOval {newpath tMatrix currentmatrix pop translate scale
0 0 1 0 360 arc tMatrix setmatrix} bdef
/FO {MakeOval stroke} bdef
/PO {MakeOval fill} bdef
/PD {currentlinewidth 2 div 0 360 arc fill
   PDlw -1 eq not {PDlw w /PDlw -1 def} if} def
/FA {newpath tMatrix currentmatrix pop translate scale
  0 0 1 5 -2 roll arc tMatrix setmatrix stroke} bdef
/PA {newpath tMatrix currentmatrix pop	translate 0 0 moveto scale
  0 0 1 5 -2 roll arc closepath tMatrix setmatrix fill} bdef
/FAn {newpath tMatrix currentmatrix pop translate scale
  0 0 1 5 -2 roll arcn tMatrix setmatrix stroke} bdef
/PAn {newpath tMatrix currentmatrix pop translate 0 0 moveto scale
  0 0 1 5 -2 roll arcn closepath tMatrix setmatrix fill} bdef
/vradius 0 def /hradius 0 def /lry 0 def
/lrx 0 def /uly 0 def /ulx 0 def /rad 0 def
/MRR {/vradius xdef /hradius xdef /lry xdef /lrx xdef /uly xdef
  /ulx xdef newpath tMatrix currentmatrix pop ulx hradius add uly
  vradius add translate hradius vradius scale 0 0 1 180 270 arc 
  tMatrix setmatrix lrx hradius sub uly vradius add translate
  hradius vradius scale 0 0 1 270 360 arc tMatrix setmatrix
  lrx hradius sub lry vradius sub translate hradius vradius scale
  0 0 1 0 90 arc tMatrix setmatrix ulx hradius add lry vradius sub
  translate hradius vradius scale 0 0 1 90 180 arc tMatrix setmatrix
  closepath} bdef
/FRR {MRR stroke } bdef
/PRR {MRR fill } bdef
/MlrRR {/lry xdef /lrx xdef /uly xdef /ulx xdef /rad lry uly sub 2 div def
  newpath tMatrix currentmatrix pop ulx rad add uly rad add translate
  rad rad scale 0 0 1 90 270 arc tMatrix setmatrix lrx rad sub lry rad
  sub translate rad rad scale 0 0 1 270 90 arc tMatrix setmatrix
  closepath} bdef
/FlrRR {MlrRR stroke } bdef
/PlrRR {MlrRR fill } bdef
/MtbRR {/lry xdef /lrx xdef /uly xdef /ulx xdef /rad lrx ulx sub 2 div def
  newpath tMatrix currentmatrix pop ulx rad add uly rad add translate
  rad rad scale 0 0 1 180 360 arc tMatrix setmatrix lrx rad sub lry rad
  sub translate rad rad scale 0 0 1 0 180 arc tMatrix setmatrix
  closepath} bdef
/FtbRR {MtbRR stroke } bdef
/PtbRR {MtbRR fill } bdef
/stri 6 array def /dtri 6 array def
/smat 6 array def /dmat 6 array def
/tmat1 6 array def /tmat2 6 array def /dif 3 array def
/asub {/ind2 exch def /ind1 exch def dup dup
  ind1 get exch ind2 get sub exch } bdef
/tri_to_matrix {
  2 0 asub 3 1 asub 4 0 asub 5 1 asub
  dup 0 get exch 1 get 7 -1 roll astore } bdef
/compute_transform {
  dmat dtri tri_to_matrix tmat1 invertmatrix 
  smat stri tri_to_matrix tmat2 concatmatrix } bdef
/ds {stri astore pop} bdef
/dt {dtri astore pop} bdef
/db {2 copy /cols xdef /rows xdef mul dup 3 mul string
  currentfile 
  3 index 0 eq {/ASCIIHexDecode filter}
  {/ASCII85Decode filter 3 index 2 eq {/RunLengthDecode filter} if }
  ifelse exch readstring pop
  dup 0 3 index getinterval /rbmap xdef
  dup 2 index dup getinterval /gbmap xdef
  1 index dup 2 mul exch getinterval /bbmap xdef pop pop}bdef
/it {gs np dtri aload pop moveto lineto lineto cp c
  cols rows 8 compute_transform 
  rbmap gbmap bbmap true 3 colorimage gr}bdef
/il {newpath moveto lineto stroke}bdef
currentdict end def
%%EndProlog

%%BeginSetup
MathWorks begin

0 cap

end
%%EndSetup

%%Page: 1 1
%%BeginPageSetup
%%PageBoundingBox:    68   218   542   574
MathWorks begin
bpage
%%EndPageSetup

%%BeginObject: obj1
bplot

/dpi2point 12 def
portraitMode 0816 6888 csm

    0     0  5697  4269 rc
87 dict begin %Colortable dictionary
/c0 { 0.000000 0.000000 0.000000 sr} bdef
/c1 { 1.000000 1.000000 1.000000 sr} bdef
/c2 { 0.900000 0.000000 0.000000 sr} bdef
/c3 { 0.000000 0.820000 0.000000 sr} bdef
/c4 { 0.000000 0.000000 0.800000 sr} bdef
/c5 { 0.910000 0.820000 0.320000 sr} bdef
/c6 { 1.000000 0.260000 0.820000 sr} bdef
/c7 { 0.000000 0.820000 0.820000 sr} bdef
c0
1 j
1 sg
   0    0 5698 4270 rf
6 w
0 3479 4415 0 0 -3479 741 3799 4 MP
PP
-4415 0 0 3479 4415 0 0 -3479 741 3799 5 MP stroke
4 w
DO
SO
6 w
0 sg
 741 3799 mt 5156 3799 L
 741  320 mt 5156  320 L
 741 3799 mt  741  320 L
5156 3799 mt 5156  320 L
 741 3799 mt 5156 3799 L
 741 3799 mt  741  320 L
 741 3799 mt  741 3754 L
 741  320 mt  741  364 L
%%IncludeResource: font Helvetica
/Helvetica /ISOLatin1Encoding 120 FMSR

 558 3944 mt 
(3.9897) s
1371 3799 mt 1371 3754 L
1371  320 mt 1371  364 L
1188 3944 mt 
(3.9898) s
2002 3799 mt 2002 3754 L
2002  320 mt 2002  364 L
1819 3944 mt 
(3.9899) s
2633 3799 mt 2633 3754 L
2633  320 mt 2633  364 L
2517 3944 mt 
(3.99) s
3263 3799 mt 3263 3754 L
3263  320 mt 3263  364 L
3080 3944 mt 
(3.9901) s
3894 3799 mt 3894 3754 L
3894  320 mt 3894  364 L
3711 3944 mt 
(3.9902) s
4525 3799 mt 4525 3754 L
4525  320 mt 4525  364 L
4342 3944 mt 
(3.9903) s
5156 3799 mt 5156 3754 L
5156  320 mt 5156  364 L
4973 3944 mt 
(3.9904) s
4886 4146 mt 
(x 10) s
%%IncludeResource: font Helvetica
/Helvetica /ISOLatin1Encoding 80 FMSR

5112 4072 mt 
(5) s
 741 3442 mt  785 3442 L
5156 3442 mt 5111 3442 L
%%IncludeResource: font Helvetica
/Helvetica /ISOLatin1Encoding 120 FMSR

 340 3486 mt 
(3.7813) s
 741 2996 mt  785 2996 L
5156 2996 mt 5111 2996 L
 340 3040 mt 
(3.7813) s
 741 2550 mt  785 2550 L
5156 2550 mt 5111 2550 L
 340 2594 mt 
(3.7813) s
 741 2104 mt  785 2104 L
5156 2104 mt 5111 2104 L
 340 2148 mt 
(3.7813) s
 741 1658 mt  785 1658 L
5156 1658 mt 5111 1658 L
 340 1702 mt 
(3.7813) s
 741 1212 mt  785 1212 L
5156 1212 mt 5111 1212 L
 340 1256 mt 
(3.7813) s
 741  766 mt  785  766 L
5156  766 mt 5111  766 L
 340  810 mt 
(3.7813) s
 741  320 mt  785  320 L
5156  320 mt 5111  320 L
 340  364 mt 
(3.7813) s
 741  266 mt 
(x 10) s
%%IncludeResource: font Helvetica
/Helvetica /ISOLatin1Encoding 80 FMSR

 967  192 mt 
(6) s
 741 3799 mt 5156 3799 L
 741  320 mt 5156  320 L
 741 3799 mt  741  320 L
5156 3799 mt 5156  320 L
gs 741 320 4416 3480 rc
gr

24 W
3846 2798 PD
gs 741 320 4416 3480 rc
gr

24 W
5048 321 PD
gs 741 320 4416 3480 rc
gr

24 W
4621 754 PD
gs 741 320 4416 3480 rc
gr

24 W
3378 3075 PD
24 W
3364 3080 PD
24 W
3360 3062 PD
24 W
3341 3080 PD
24 W
3331 3078 PD
24 W
3320 3079 PD
24 W
3309 3080 PD
24 W
3299 3079 PD
24 W
3289 3079 PD
24 W
3278 3080 PD
24 W
3268 3080 PD
24 W
3259 3079 PD
24 W
3249 3079 PD
24 W
3240 3079 PD
24 W
3231 3078 PD
24 W
3221 3078 PD
24 W
3212 3078 PD
24 W
3203 3077 PD
24 W
3194 3076 PD
24 W
3187 3069 PD
24 W
3177 3073 PD
24 W
3169 3072 PD
24 W
3160 3071 PD
24 W
3151 3072 PD
24 W
3143 3071 PD
24 W
3134 3068 PD
24 W
3126 3065 PD
24 W
3119 3047 PD
24 W
3252 957 PD
gs 741 320 4416 3480 rc
gr

24 W
3149 930 PD
24 W
3114 940 PD
24 W
3077 1307 PD
24 W
3045 1001 PD
24 W
3013 1088 PD
24 W
2977 987 PD
24 W
2948 1105 PD
24 W
2927 1320 PD
24 W
2897 1321 PD
24 W
2867 1323 PD
24 W
2837 1318 PD
24 W
2800 1264 PD
24 W
2770 1270 PD
24 W
2738 1268 PD
24 W
2706 1267 PD
24 W
2682 1316 PD
24 W
2651 1318 PD
24 W
2619 1318 PD
24 W
2584 1300 PD
24 W
2575 1413 PD
gs 741 320 4416 3480 rc
gr

24 W
2585 2729 PD
24 W
2580 2756 PD
24 W
2563 2757 PD
gs 741 320 4416 3480 rc
gr

/c8 { 1.000000 0.000000 0.000000 sr} bdef
c8
  36   36 3385 3049 FO
  36   36 3199 1299 FO
  36   36 3452 2628 FO
gs 741 320 4416 3480 rc
gr

  36   36 2975 1310 FO
gs 741 320 4416 3480 rc
gr

24 W
3378 3081 PD
24 W
2926 1294 PD
gs 741 320 4416 3480 rc
gr

/c9 { 0.000000 1.000000 0.000000 sr} bdef
c9
  36   36 3117 3070 FO
  36   36 3070 1250 FO
  36   36 3205 2581 FO
gs 741 320 4416 3480 rc
gr

  36   36 2623 1283 FO
gs 741 320 4416 3480 rc
gr

24 W
3118 3069 PD
24 W
2571 1323 PD
gs 741 320 4416 3480 rc
gr

/c10 { 0.000000 0.000000 1.000000 sr} bdef
c10
  36   36 3392 2871 FO
  36   36 3166 1127 FO
  36   36 3435 2451 FO
gs 741 320 4416 3480 rc
gr

  36   36 2968 1132 FO
gs 741 320 4416 3480 rc
gr

24 W
3504 2903 PD
24 W
3052 1116 PD
gs 741 320 4416 3480 rc
gr

/c11 { 0.000000 1.000000 1.000000 sr} bdef
c11
  36   36 3124 2891 FO
  36   36 3037 1078 FO
  36   36 3189 2404 FO
gs 741 320 4416 3480 rc
gr

  36   36 2616 1104 FO
gs 741 320 4416 3480 rc
gr

0 sg
%%IncludeResource: font Helvetica
/Helvetica /ISOLatin1Encoding 120 FMSR

2643 4087 mt 
(Easting \(m\)) s
 258 2389 mt  -90 rotate
(Northing \(m\)) s
90 rotate

end %%Color Dict

eplot
%%EndObject

epage
end

showpage

%%Trailer
%%EOF
