0.278124	576	0
0.368026	574	0
0.49803	567	0
0.668052	557	0
0.738024	561	0
0.888021	549	0
0.968021	505	0
1.0581	616	0
1.16802	1043	0
1.35802	1456	0
1.46802	1507	0
1.63802	1535	1.06452
1.71802	1588	1.06452
1.79802	1606	1.06452
1.89802	1627	2.12903
1.98803	1649	2.12903
2.07803	1663	2.12903
2.16803	1668	2.12903
2.34802	1680	3.19355
2.43802	1721	3.19355
2.53802	1749	3.19355
2.62808	1771	3.19355
2.71802	1783	3.19355
2.79803	1810	4.25806
2.87802	1813	4.25806
3.01802	1840	4.25806
3.16803	1875	4.25806
3.24803	1897	4.25806
3.32804	1916	5.32258
3.45802	1950	5.32258
3.57803	1977	5.32258
3.73802	1981	5.32258
3.91802	1993	5.32258
4.00802	2078	6.3871
4.14802	2104	6.3871
4.22802	2136	6.3871
4.39803	2174	6.3871
4.47809	2239	6.3871
4.56802	2244	6.3871
4.64802	2265	6.3871
4.72803	2286	6.3871
4.81803	2329	7.45161
4.89803	2368	7.45161
5.03809	2391	7.45161
5.13802	2439	7.45161
5.21802	2463	7.45161
5.29802	2488	7.45161
5.47809	2546	8.51613
5.5981	2580	8.51613
5.67803	2600	8.51613
5.83803	2621	8.51613
5.92803	2671	8.51613
6.01803	2693	8.51613
6.11803	2723	8.51613
6.29802	2745	8.51613
6.49807	2824	9.58065
6.57805	2857	9.58065
6.72802	2882	9.58065
6.81802	2925	9.58065
7.00803	2951	9.58065
7.09802	3024	9.58065
7.17802	3024	9.58065
7.31802	3043	10.6452
7.49803	3100	10.6452
7.57804	3140	10.6452
7.66802	3160	10.6452
7.75803	3201	10.6452
7.84802	3233	10.6452
7.99808	3255	10.6452
8.14803	3298	10.6452
8.24805	3309	10.6452
8.34802	3355	10.6452
8.44802	3389	11.7097
8.61802	3389	11.7097
8.70803	3437	11.7097
8.86808	3449	11.7097
8.95802	3485	11.7097
9.04803	3510	11.7097
9.16804	3523	11.7097
9.25802	3548	11.7097
9.34803	3561	11.7097
9.47802	3587	11.7097
9.64803	3627	11.7097
9.74803	3640	11.7097
9.84803	3654	11.7097
10.0081	3681	12.7742
10.158	3751	12.7742
10.3181	3766	12.7742
10.458	3795	12.7742
10.578	3810	12.7742
10.658	3839	12.7742
10.838	3870	12.7742
10.928	3870	12.7742
11.128	3548	12.7742
11.208	3510	12.7742
11.308	3574	12.7742
11.4781	3561	12.7742
11.558	3535	12.7742
11.7281	3498	12.7742
11.808	3473	12.7742
11.888	3449	12.7742
11.978	3425	12.7742
12.058	3425	11.7097
12.148	3389	11.7097
12.248	3389	11.7097
12.4281	3355	11.7097
12.518	3320	11.7097
12.608	3298	11.7097
12.708	3276	11.7097
12.9181	3255	11.7097
13.008	3212	11.7097
13.238	3181	11.7097
13.328	3171	11.7097
13.458	3120	11.7097
13.578	3100	11.7097
13.658	3071	10.6452
13.738	3071	10.6452
13.918	3043	10.6452
14.0081	2997	10.6452
14.138	2960	10.6452
14.228	2934	10.6452
14.388	2925	10.6452
14.488	2882	10.6452
14.6581	2849	10.6452
14.738	2800	10.6452
14.8281	2784	10.6452
14.908	2768	10.6452
14.988	2753	10.6452
15.128	2730	9.58065
15.2781	2708	9.58065
15.358	2671	9.58065
15.528	2656	9.58065
15.628	2621	9.58065
15.798	2600	9.58065
15.9681	2553	9.58065
16.128	2507	8.51613
16.248	2494	8.51613
16.328	2463	8.51613
16.408	2451	8.51613
16.528	2421	8.51613
16.608	2403	8.51613
16.688	2385	8.51613
16.8681	2362	8.51613
16.958	2312	8.51613
17.1081	2302	8.51613
17.188	2280	8.51613
17.338	2259	8.51613
17.458	2224	8.51613
17.5381	2204	8.51613
17.618	2189	8.51613
17.708	2169	7.45161
17.8581	2150	7.45161
17.958	2118	7.45161
18.038	2100	7.45161
18.168	2073	7.45161
18.258	2052	7.45161
18.3381	2031	7.45161
18.5381	2014	7.45161
18.618	1985	7.45161
18.768	1966	7.45161
18.858	1934	7.45161
18.958	1912	6.3871
19.038	1890	6.3871
19.158	1868	6.3871
19.318	1851	6.3871
19.458	1803	6.3871
19.568	1780	6.3871
19.658	1758	6.3871
19.758	1739	6.3871
19.838	1715	6.3871
20.0081	1700	6.3871
