0.234496	560	0
0.334366	559	0
0.494377	565	0
0.67436	559	0
0.764352	563	0
1.04445	562	0
1.16436	560	0
1.25436	568	0
1.38436	570	0
1.46436	568	0
1.56436	562	0
1.74436	567	0
1.89435	555	0
1.97435	560	0
2.05435	556	0
2.14436	549	0
2.22435	550	0
2.42435	557	0
2.52436	558	0
2.60443	562	0
2.69435	560	0
2.78435	550	0
2.87435	558	0
2.95435	554	0
3.14435	564	0
3.22436	563	0
3.34436	561	0
3.42436	554	0
3.50442	558	0
3.62442	557	0
3.70436	555	0
3.88435	564	0
3.97435	559	0
4.05435	563	0
4.13435	561	0
4.22436	564	0
4.30443	559	0
4.38436	555	0
4.53435	559	0
4.62442	564	0
4.71435	559	0
4.79435	558	0
4.88436	556	0
4.97435	561	0
5.05435	562	0
5.25435	568	0
5.43435	561	0
5.57435	547	0
5.71435	565	0
5.79436	562	0
5.94435	558	0
6.02435	554	0
6.10435	555	0
6.18435	554	0
6.32435	553	0
6.40435	550	0
6.48435	553	0
6.67435	558	0
6.75435	556	0
6.95441	555	0
7.04436	564	0
7.18436	566	0
7.3244	563	0
7.40435	567	0
7.47442	561	0
7.55436	555	0
7.63436	559	0
7.72435	555	0
7.87436	559	0
8.0344	552	0
8.17435	559	0
8.28435	564	0
8.46435	559	0
8.54436	563	0
8.62436	565	0
8.78441	556	0
8.89435	555	0
8.97435	556	0
9.06436	564	0
9.16436	568	0
9.31435	564	0
9.50436	564	0
9.58443	565	0
9.66436	566	0
9.74436	559	0
9.93435	546	0
10.0143	555	0
