<kml>
<Folder>
<name>eltoro_field_demo_zone.rndf</name>
<Folder>
<name>1</name>
<description>Fast_Lane</description>
	<Placemark>
		<name>1.1</name>
		<DrawOrder>0</DrawOrder>
		<Style>
			<LineStyle>
				<color>ffff1111</color>
				<width>4</width>
			</LineStyle>
		</Style>
		<LineString>
		   <coordinates>
-117.751410,33.672322,0.0
-117.751483,33.672156,0.0
-117.751566,33.671888,0.0
-117.751610,33.671685,0.0
-117.751607,33.671589,0.0
-117.751581,33.671285,0.0
-117.751517,33.671037,0.0
-117.751392,33.670766,0.0
-117.751268,33.670592,0.0
-117.751151,33.670440,0.0
-117.750881,33.670194,0.0
-117.750568,33.669968,0.0
-117.750317,33.669792,0.0
-117.748428,33.668470,0.0
-117.748056,33.668238,0.0
-117.747836,33.668148,0.0
		  </coordinates>
		</LineString> 
	</Placemark>
	<Placemark>
		<name>1.2</name>
		<DrawOrder>0</DrawOrder>
		<Style>
			<LineStyle>
				<color>ffff1111</color>
				<width>4</width>
			</LineStyle>
		</Style>
		<LineString>
		   <coordinates>
-117.747816,33.668186,0.0
-117.747949,33.668238,0.0
-117.748024,33.668276,0.0
-117.748188,33.668372,0.0
-117.748459,33.668553,0.0
-117.750653,33.670099,0.0
-117.750820,33.670211,0.0
-117.750948,33.670309,0.0
-117.751068,33.670420,0.0
-117.751157,33.670529,0.0
-117.751252,33.670648,0.0
-117.751342,33.670776,0.0
-117.751403,33.670908,0.0
-117.751478,33.671086,0.0
-117.751522,33.671265,0.0
-117.751544,33.671404,0.0
-117.751553,33.671556,0.0
-117.751556,33.671695,0.0
-117.751516,33.671842,0.0
-117.751448,33.672047,0.0
-117.751410,33.672163,0.0
-117.751329,33.672339,0.0
		  </coordinates>
		</LineString> 
	</Placemark>
</Folder>
<Folder>
<name>2</name>
<description>Fast_Lane</description>
	<Placemark>
		<name>2.1</name>
		<DrawOrder>0</DrawOrder>
		<Style>
			<LineStyle>
				<color>ffff1111</color>
				<width>4</width>
			</LineStyle>
		</Style>
		<LineString>
		   <coordinates>
-117.736203,33.662030,0.0
-117.734451,33.660813,0.0
-117.734295,33.660705,0.0
-117.733624,33.660257,0.0
		  </coordinates>
		</LineString> 
	</Placemark>
	<Placemark>
		<name>2.2</name>
		<DrawOrder>0</DrawOrder>
		<Style>
			<LineStyle>
				<color>ffff1111</color>
				<width>4</width>
			</LineStyle>
		</Style>
		<LineString>
		   <coordinates>
-117.733601,33.660294,0.0
-117.734234,33.660715,0.0
-117.734419,33.660850,0.0
-117.736173,33.662057,0.0
		  </coordinates>
		</LineString> 
	</Placemark>
</Folder>
<Folder>
<name>3</name>
<description>Fast_Lane</description>
	<Placemark>
		<name>3.1</name>
		<DrawOrder>0</DrawOrder>
		<Style>
			<LineStyle>
				<color>ffff1111</color>
				<width>4</width>
			</LineStyle>
		</Style>
		<LineString>
		   <coordinates>
-117.738090,33.663348,0.0
-117.736395,33.662164,0.0
		  </coordinates>
		</LineString> 
	</Placemark>
	<Placemark>
		<name>3.2</name>
		<DrawOrder>0</DrawOrder>
		<Style>
			<LineStyle>
				<color>ffff1111</color>
				<width>4</width>
			</LineStyle>
		</Style>
		<LineString>
		   <coordinates>
-117.736356,33.662199,0.0
-117.738040,33.663368,0.0
		  </coordinates>
		</LineString> 
	</Placemark>
</Folder>
<Folder>
<name>4</name>
<description>Fast_Lane</description>
	<Placemark>
		<name>4.1</name>
		<DrawOrder>0</DrawOrder>
		<Style>
			<LineStyle>
				<color>ffff1111</color>
				<width>4</width>
			</LineStyle>
		</Style>
		<LineString>
		   <coordinates>
-117.738358,33.663213,0.0
-117.738269,33.663301,0.0
		  </coordinates>
		</LineString> 
	</Placemark>
	<Placemark>
		<name>4.2</name>
		<DrawOrder>0</DrawOrder>
		<Style>
			<LineStyle>
				<color>ffff1111</color>
				<width>4</width>
			</LineStyle>
		</Style>
		<LineString>
		   <coordinates>
-117.738299,33.663331,0.0
-117.738395,33.663239,0.0
		  </coordinates>
		</LineString> 
	</Placemark>
</Folder>
<Folder>
<name>5</name>
<description>Fast_Lane</description>
	<Placemark>
		<name>5.1</name>
		<DrawOrder>0</DrawOrder>
		<Style>
			<LineStyle>
				<color>ffff1111</color>
				<width>4</width>
			</LineStyle>
		</Style>
		<LineString>
		   <coordinates>
-117.742308,33.665729,0.0
-117.743093,33.664914,0.0
-117.742913,33.664568,0.0
-117.741294,33.663458,0.0
-117.741095,33.663324,0.0
-117.740478,33.662888,0.0
-117.739719,33.662355,0.0
		  </coordinates>
		</LineString> 
	</Placemark>
	<Placemark>
		<name>5.2</name>
		<DrawOrder>0</DrawOrder>
		<Style>
			<LineStyle>
				<color>ffff1111</color>
				<width>4</width>
			</LineStyle>
		</Style>
		<LineString>
		   <coordinates>
-117.739662,33.662356,0.0
-117.741080,33.663352,0.0
-117.741528,33.663653,0.0
-117.742876,33.664590,0.0
-117.743023,33.664900,0.0
-117.742614,33.665367,0.0
-117.742283,33.665697,0.0
		  </coordinates>
		</LineString> 
	</Placemark>
</Folder>
<Folder>
<name>6</name>
	<Placemark>
		<name>6.1</name>
		<DrawOrder>0</DrawOrder>
		<Style>
			<LineStyle>
				<color>ffff1111</color>
				<width>4</width>
			</LineStyle>
		</Style>
		<LineString>
		   <coordinates>
-117.741633,33.666390,0.0
-117.742115,33.665908,0.0
		  </coordinates>
		</LineString> 
	</Placemark>
	<Placemark>
		<name>6.2</name>
		<DrawOrder>0</DrawOrder>
		<Style>
			<LineStyle>
				<color>ffff1111</color>
				<width>4</width>
			</LineStyle>
		</Style>
		<LineString>
		   <coordinates>
-117.742117,33.665867,0.0
-117.741595,33.666386,0.0
		  </coordinates>
		</LineString> 
	</Placemark>
</Folder>
<Folder>
<name>7</name>
	<Placemark>
		<name>7.1</name>
		<DrawOrder>0</DrawOrder>
		<Style>
			<LineStyle>
				<color>ffff1111</color>
				<width>4</width>
			</LineStyle>
		</Style>
		<LineString>
		   <coordinates>
-117.741101,33.663509,0.0
-117.741029,33.663735,0.0
-117.740366,33.664391,0.0
-117.740219,33.664544,0.0
-117.739699,33.665055,0.0
		  </coordinates>
		</LineString> 
	</Placemark>
	<Placemark>
		<name>7.2</name>
		<DrawOrder>0</DrawOrder>
		<Style>
			<LineStyle>
				<color>ffff1111</color>
				<width>4</width>
			</LineStyle>
		</Style>
		<LineString>
		   <coordinates>
-117.739722,33.665081,0.0
-117.740243,33.664578,0.0
-117.740403,33.664414,0.0
-117.741063,33.663763,0.0
-117.741302,33.663673,0.0
		  </coordinates>
		</LineString> 
	</Placemark>
</Folder>
<Folder>
<name>8</name>
	<Placemark>
		<name>8.1</name>
		<DrawOrder>0</DrawOrder>
		<Style>
			<LineStyle>
				<color>ffff1111</color>
				<width>4</width>
			</LineStyle>
		</Style>
		<LineString>
		   <coordinates>
-117.742126,33.665743,0.0
-117.741743,33.665472,0.0
-117.741487,33.665293,0.0
-117.741187,33.665086,0.0
-117.740684,33.664734,0.0
-117.740387,33.664518,0.0
		  </coordinates>
		</LineString> 
	</Placemark>
	<Placemark>
		<name>8.2</name>
		<DrawOrder>0</DrawOrder>
		<Style>
			<LineStyle>
				<color>ffff1111</color>
				<width>4</width>
			</LineStyle>
		</Style>
		<LineString>
		   <coordinates>
-117.740366,33.664550,0.0
-117.740717,33.664796,0.0
-117.741073,33.665046,0.0
-117.741403,33.665275,0.0
-117.741709,33.665487,0.0
-117.742113,33.665771,0.0
		  </coordinates>
		</LineString> 
	</Placemark>
</Folder>
<Folder>
<name>9</name>
	<Placemark>
		<name>9.1</name>
		<DrawOrder>0</DrawOrder>
		<Style>
			<LineStyle>
				<color>ffff1111</color>
				<width>4</width>
			</LineStyle>
		</Style>
		<LineString>
		   <coordinates>
-117.738031,33.663506,0.0
-117.737854,33.663627,0.0
-117.736901,33.663333,0.0
-117.735817,33.662996,0.0
-117.735675,33.662882,0.0
-117.735792,33.662641,0.0
-117.735978,33.662418,0.0
-117.736203,33.662202,0.0
		  </coordinates>
		</LineString> 
	</Placemark>
	<Placemark>
		<name>9.2</name>
		<DrawOrder>0</DrawOrder>
		<Style>
			<LineStyle>
				<color>ffff1111</color>
				<width>4</width>
			</LineStyle>
		</Style>
		<LineString>
		   <coordinates>
-117.736180,33.662149,0.0
-117.735812,33.662531,0.0
-117.735718,33.662666,0.0
-117.735619,33.662890,0.0
-117.735797,33.663026,0.0
-117.737598,33.663588,0.0
-117.737886,33.663671,0.0
-117.738065,33.663530,0.0
		  </coordinates>
		</LineString> 
	</Placemark>
</Folder>
<Folder>
<name>10</name>
<description>Fast_Lane</description>
	<Placemark>
		<name>10.1</name>
		<DrawOrder>0</DrawOrder>
		<Style>
			<LineStyle>
				<color>ffff1111</color>
				<width>4</width>
			</LineStyle>
		</Style>
		<LineString>
		   <coordinates>
-117.743794,33.667830,0.0
-117.743745,33.667711,0.0
-117.743713,33.667483,0.0
-117.743681,33.667207,0.0
-117.743665,33.667072,0.0
-117.743640,33.666957,0.0
-117.743614,33.666882,0.0
-117.743560,33.666790,0.0
-117.743470,33.666690,0.0
-117.743374,33.666618,0.0
-117.743002,33.666356,0.0
-117.742581,33.666062,0.0
-117.742311,33.665871,0.0
		  </coordinates>
		</LineString> 
	</Placemark>
	<Placemark>
		<name>10.2</name>
		<DrawOrder>0</DrawOrder>
		<Style>
			<LineStyle>
				<color>ffff1111</color>
				<width>4</width>
			</LineStyle>
		</Style>
		<LineString>
		   <coordinates>
-117.742265,33.665885,0.0
-117.742584,33.666100,0.0
-117.743230,33.666552,0.0
-117.743300,33.666601,0.0
-117.743398,33.666677,0.0
-117.743474,33.666752,0.0
-117.743547,33.666844,0.0
-117.743605,33.666969,0.0
-117.743636,33.667119,0.0
-117.743733,33.667806,0.0
		  </coordinates>
		</LineString> 
	</Placemark>
</Folder>
<Folder>
<name>11</name>
	<Placemark>
		<name>11.1</name>
		<DrawOrder>0</DrawOrder>
		<Style>
			<LineStyle>
				<color>ffff1111</color>
				<width>4</width>
			</LineStyle>
		</Style>
		<LineString>
		   <coordinates>
-117.740240,33.664436,0.0
-117.740062,33.664313,0.0
-117.739829,33.664152,0.0
-117.739261,33.663752,0.0
-117.738880,33.663481,0.0
-117.738536,33.663246,0.0
		  </coordinates>
		</LineString> 
	</Placemark>
	<Placemark>
		<name>11.2</name>
		<DrawOrder>0</DrawOrder>
		<Style>
			<LineStyle>
				<color>ffff1111</color>
				<width>4</width>
			</LineStyle>
		</Style>
		<LineString>
		   <coordinates>
-117.738514,33.663260,0.0
-117.738805,33.663470,0.0
-117.739211,33.663751,0.0
-117.739731,33.664113,0.0
-117.740051,33.664335,0.0
-117.740227,33.664451,0.0
		  </coordinates>
		</LineString> 
	</Placemark>
</Folder>
<Folder>
<name>12</name>
<description>Fast_Lane</description>
	<Placemark>
		<name>12.1</name>
		<DrawOrder>0</DrawOrder>
		<Style>
			<LineStyle>
				<color>ffff1111</color>
				<width>4</width>
			</LineStyle>
		</Style>
		<LineString>
		   <coordinates>
-117.747664,33.668098,0.0
-117.747519,33.668064,0.0
-117.747280,33.668027,0.0
-117.747060,33.668013,0.0
-117.746561,33.668007,0.0
-117.745026,33.668027,0.0
-117.744442,33.668032,0.0
-117.744072,33.667995,0.0
-117.743979,33.667974,0.0
-117.743626,33.667855,0.0
-117.743409,33.667757,0.0
-117.741968,33.666778,0.0
-117.741816,33.666673,0.0
-117.741627,33.666540,0.0
-117.741470,33.666425,0.0
-117.739732,33.665204,0.0
-117.739563,33.665076,0.0
-117.739159,33.664728,0.0
-117.738976,33.664530,0.0
-117.738530,33.663908,0.0
-117.738394,33.663716,0.0
-117.738242,33.663502,0.0
		  </coordinates>
		</LineString> 
	</Placemark>
	<Placemark>
		<name>12.2</name>
		<DrawOrder>0</DrawOrder>
		<Style>
			<LineStyle>
				<color>ffff1111</color>
				<width>4</width>
			</LineStyle>
		</Style>
		<LineString>
		   <coordinates>
-117.738199,33.663531,0.0
-117.738326,33.663709,0.0
-117.738482,33.663928,0.0
-117.738921,33.664538,0.0
-117.739119,33.664755,0.0
-117.739535,33.665108,0.0
-117.739701,33.665238,0.0
-117.741445,33.666460,0.0
-117.741603,33.666584,0.0
-117.741780,33.666706,0.0
-117.741922,33.666815,0.0
-117.742704,33.667338,0.0
-117.742958,33.667518,0.0
-117.743145,33.667643,0.0
-117.743324,33.667762,0.0
-117.743493,33.667858,0.0
-117.743664,33.667929,0.0
-117.743970,33.668011,0.0
-117.744160,33.668047,0.0
-117.744324,33.668065,0.0
-117.744460,33.668070,0.0
-117.744569,33.668070,0.0
-117.744786,33.668072,0.0
-117.746968,33.668052,0.0
-117.747189,33.668053,0.0
-117.747360,33.668075,0.0
-117.747519,33.668105,0.0
-117.747697,33.668143,0.0
		  </coordinates>
		</LineString> 
	</Placemark>
</Folder>
<Folder>
<name>13</name>
	<Placemark>
		<name>13.1</name>
		<DrawOrder>0</DrawOrder>
		<Style>
			<LineStyle>
				<color>ffff1111</color>
				<width>4</width>
			</LineStyle>
		</Style>
		<LineString>
		   <coordinates>
-117.733609,33.660103,0.0
-117.733977,33.659845,0.0
-117.734230,33.659645,0.0
-117.733936,33.658806,0.0
-117.733842,33.658626,0.0
-117.733717,33.658559,0.0
-117.733551,33.658574,0.0
-117.733462,33.658629,0.0
-117.733374,33.658710,0.0
-117.733247,33.658774,0.0
-117.733158,33.658784,0.0
-117.733019,33.658810,0.0
-117.732903,33.658874,0.0
-117.732812,33.658973,0.0
-117.732791,33.659013,0.0
-117.732767,33.659093,0.0
-117.732766,33.659161,0.0
-117.732811,33.659274,0.0
-117.732947,33.659382,0.0
-117.733060,33.659418,0.0
-117.733298,33.659458,0.0
-117.733491,33.659526,0.0
-117.733672,33.659793,0.0
-117.733662,33.659931,0.0
-117.733582,33.660130,0.0
		  </coordinates>
		</LineString> 
	</Placemark>
</Folder>
<Folder>
<name>14</name>
	<Placemark>
		<name>14.1</name>
		<DrawOrder>0</DrawOrder>
		<Style>
			<LineStyle>
				<color>ffff1111</color>
				<width>4</width>
			</LineStyle>
		</Style>
		<LineString>
		   <coordinates>
-117.740636,33.667719,0.0
-117.740773,33.667707,0.0
-117.740838,33.667650,0.0
-117.740943,33.667552,0.0
-117.741129,33.667386,0.0
-117.741229,33.667395,0.0
-117.741436,33.667194,0.0
-117.741540,33.667090,0.0
-117.741829,33.666810,0.0
		  </coordinates>
		</LineString> 
	</Placemark>
	<Placemark>
		<name>14.2</name>
		<DrawOrder>0</DrawOrder>
		<Style>
			<LineStyle>
				<color>ffff1111</color>
				<width>4</width>
			</LineStyle>
		</Style>
		<LineString>
		   <coordinates>
-117.741776,33.666775,0.0
-117.741502,33.667043,0.0
-117.741395,33.667150,0.0
-117.741206,33.667336,0.0
-117.741114,33.667326,0.0
-117.740899,33.667514,0.0
-117.740786,33.667621,0.0
-117.740638,33.667686,0.0
		  </coordinates>
		</LineString> 
	</Placemark>
</Folder>
<Folder>
<name>15</name>
	<Placemark>
		<name>15.1</name>
		<DrawOrder>0</DrawOrder>
		<Style>
			<LineStyle>
				<color>ffff1111</color>
				<width>4</width>
			</LineStyle>
		</Style>
		<LineString>
		   <coordinates>
-117.740800,33.667500,0.0
-117.740369,33.667202,0.0
-117.740255,33.667229,0.0
-117.740141,33.667366,0.0
		  </coordinates>
		</LineString> 
	</Placemark>
	<Placemark>
		<name>15.2</name>
		<DrawOrder>0</DrawOrder>
		<Style>
			<LineStyle>
				<color>ffff1111</color>
				<width>4</width>
			</LineStyle>
		</Style>
		<LineString>
		   <coordinates>
-117.740186,33.667381,0.0
-117.740289,33.667267,0.0
-117.740341,33.667263,0.0
-117.740774,33.667549,0.0
		  </coordinates>
		</LineString> 
	</Placemark>
</Folder>
<Folder>
<name>16</name>
	<Placemark>
		<name>16.1</name>
		<DrawOrder>0</DrawOrder>
		<Style>
			<LineStyle>
				<color>ffff1111</color>
				<width>4</width>
			</LineStyle>
		</Style>
		<LineString>
		   <coordinates>
-117.740560,33.667696,0.0
-117.740177,33.667440,0.0
-117.740125,33.667414,0.0
-117.740095,33.667477,0.0
-117.739706,33.667896,0.0
-117.740127,33.668203,0.0
-117.740360,33.668004,0.0
-117.740592,33.667749,0.0
		  </coordinates>
		</LineString> 
	</Placemark>
</Folder>
<Folder>
<name>17</name>
	<Placemark>
		<name>17.1</name>
		<DrawOrder>0</DrawOrder>
		<Style>
			<LineStyle>
				<color>ffff1111</color>
				<width>4</width>
			</LineStyle>
		</Style>
		<LineString>
		   <coordinates>
-117.741320,33.667050,0.0
-117.741391,33.667088,0.0
		  </coordinates>
		</LineString> 
	</Placemark>
	<Placemark>
		<name>17.2</name>
		<DrawOrder>0</DrawOrder>
		<Style>
			<LineStyle>
				<color>ffff1111</color>
				<width>4</width>
			</LineStyle>
		</Style>
		<LineString>
		   <coordinates>
-117.741434,33.667050,0.0
-117.741361,33.667003,0.0
		  </coordinates>
		</LineString> 
	</Placemark>
</Folder>
<Folder>
<name>18</name>
-117.741361,33.667003,0.0
-117.741361,33.667003,0.0
	<Placemark>
		<name>18.0</name>
		<DrawOrder>0</DrawOrder>
		<Style>
			<LineStyle>
				<color>ff00ffff</color>
				<width>4</width>
			</LineStyle>
		</Style>
		<LineString>
		   <coordinates>
-117.741050,33.667260,0.0
-117.740750,33.667080,0.0
-117.741280,33.666560,0.0
-117.741630,33.666720,0.0
-117.741440,33.666900,0.0
-117.741327,33.666982,0.0
-117.741287,33.667031,0.0
-117.741217,33.667188,0.0
		  </coordinates>
		</LineString> 
	</Placemark>
	<Placemark>
		<name>18.1</name>
		<DrawOrder>0</DrawOrder>
		<Style>
			<LineStyle>
				<color>ffffffff</color>
				<width>4</width>
			</LineStyle>
		</Style>
		<LineString>
		   <coordinates>
-117.741108,33.666971,0.0
-117.741087,33.666937,0.0
		  </coordinates>
		</LineString> 
	</Placemark>
	<Placemark>
		<name>18.2</name>
		<DrawOrder>0</DrawOrder>
		<Style>
			<LineStyle>
				<color>ffffffff</color>
				<width>4</width>
			</LineStyle>
		</Style>
		<LineString>
		   <coordinates>
-117.741086,33.666987,0.0
-117.741069,33.666956,0.0
		  </coordinates>
		</LineString> 
	</Placemark>
	<Placemark>
		<name>18.3</name>
		<DrawOrder>0</DrawOrder>
		<Style>
			<LineStyle>
				<color>ffffffff</color>
				<width>4</width>
			</LineStyle>
		</Style>
		<LineString>
		   <coordinates>
-117.741066,33.667013,0.0
-117.741049,33.666977,0.0
		  </coordinates>
		</LineString> 
	</Placemark>
	<Placemark>
		<name>18.4</name>
		<DrawOrder>0</DrawOrder>
		<Style>
			<LineStyle>
				<color>ffffffff</color>
				<width>4</width>
			</LineStyle>
		</Style>
		<LineString>
		   <coordinates>
-117.741046,33.667038,0.0
-117.741028,33.666997,0.0
		  </coordinates>
		</LineString> 
	</Placemark>
	<Placemark>
		<name>18.5</name>
		<DrawOrder>0</DrawOrder>
		<Style>
			<LineStyle>
				<color>ffffffff</color>
				<width>4</width>
			</LineStyle>
		</Style>
		<LineString>
		   <coordinates>
-117.741024,33.667056,0.0
-117.741009,33.667018,0.0
		  </coordinates>
		</LineString> 
	</Placemark>
</Folder>
</Folder>
</kml>
