0.308762 564 0
0.39873 559 0
0.568723 561 0
0.748724 563 0
1.34872 943 0
2.34872 991 1.06452
3.34872 1066 1.06452
4.34872 1113 2.12903
5.34872 1181 3.19355
6.34872 1237 3.19355
7.34872 1323 3.19355
8.34872 1398 4.25806
9.35873 1161 4.25806
10.3487 1133 5.32258
11.3487 1140 5.32258
12.3487 1155 5.32258
13.3487 1171 5.32258
14.3487 1160 5.32258
15.3487 1184 5.32258
16.3487 1207 6.3871
17.3588 1188 6.3871
18.3487 1213 6.3871
19.3587 1225 6.3871
20.3588 1224 6.3871
21.3587 1227 6.3871
22.3587 1237 6.3871
23.3487 1250 6.3871
24.3487 1263 6.3871
25.3387 1283 7.45161
