%!PS-Adobe-3.0 EPSF-3.0
%%Creator: MATLAB, The Mathworks, Inc.
%%Title: C:\Jeremy\Temp\new6b.eps
%%CreationDate: 06/01/2006  23:52:48
%%DocumentNeededFonts: Helvetica
%%DocumentProcessColors: Cyan Magenta Yellow Black
%%LanguageLevel: 2
%%Pages: 1
%%BoundingBox:    96   238   515   553
%%EndComments

%%BeginProlog
% MathWorks dictionary
/MathWorks 160 dict begin
% definition operators
/bdef {bind def} bind def
/ldef {load def} bind def
/xdef {exch def} bdef
/xstore {exch store} bdef
% operator abbreviations
/c  /clip ldef
/cc /concat ldef
/cp /closepath ldef
/gr /grestore ldef
/gs /gsave ldef
/mt /moveto ldef
/np /newpath ldef
/cm /currentmatrix ldef
/sm /setmatrix ldef
/rm /rmoveto ldef
/rl /rlineto ldef
/s {show newpath} bdef
/sc {setcmykcolor} bdef
/sr /setrgbcolor ldef
/sg /setgray ldef
/w /setlinewidth ldef
/j /setlinejoin ldef
/cap /setlinecap ldef
/rc {rectclip} bdef
/rf {rectfill} bdef
% page state control
/pgsv () def
/bpage {/pgsv save def} bdef
/epage {pgsv restore} bdef
/bplot /gsave ldef
/eplot {stroke grestore} bdef
% orientation switch
/portraitMode 0 def /landscapeMode 1 def /rotateMode 2 def
% coordinate system mappings
/dpi2point 0 def
% font control
/FontSize 0 def
/FMS {/FontSize xstore findfont [FontSize 0 0 FontSize neg 0 0]
  makefont setfont} bdef
/ISOLatin1Encoding where {pop /WindowsLatin1Encoding 256 array bdef
ISOLatin1Encoding WindowsLatin1Encoding copy pop
/.notdef/.notdef/quotesinglbase/florin/quotedblbase/ellipsis/dagger
/daggerdbl/circumflex/perthousand/Scaron/guilsinglleft/OE/.notdef/.notdef
/.notdef/.notdef/quoteleft/quoteright/quotedblleft/quotedblright/bullet
/endash/emdash/tilde/trademark/scaron/guilsinglright/oe/.notdef/.notdef
/Ydieresis WindowsLatin1Encoding 128 32 getinterval astore pop}
{/WindowsLatin1Encoding StandardEncoding bdef} ifelse
/reencode {exch dup where {pop load} {pop StandardEncoding} ifelse
  exch dup 3 1 roll findfont dup length dict begin
  { 1 index /FID ne {def}{pop pop} ifelse } forall
  /Encoding exch def currentdict end definefont pop} bdef
/isroman {findfont /CharStrings get /Agrave known} bdef
/FMSR {3 1 roll 1 index dup isroman {reencode} {pop pop} ifelse
  exch FMS} bdef
/csm {1 dpi2point div -1 dpi2point div scale neg translate
 dup landscapeMode eq {pop -90 rotate}
  {rotateMode eq {90 rotate} if} ifelse} bdef
% line types: solid, dotted, dashed, dotdash
/SO { [] 0 setdash } bdef
/DO { [.5 dpi2point mul 4 dpi2point mul] 0 setdash } bdef
/DA { [6 dpi2point mul] 0 setdash } bdef
/DD { [.5 dpi2point mul 4 dpi2point mul 6 dpi2point mul 4
  dpi2point mul] 0 setdash } bdef
% macros for lines and objects
/L {lineto stroke} bdef
/MP {3 1 roll moveto 1 sub {rlineto} repeat} bdef
/AP {{rlineto} repeat} bdef
/PDlw -1 def
/W {/PDlw currentlinewidth def setlinewidth} def
/PP {closepath eofill} bdef
/DP {closepath stroke} bdef
/MR {4 -2 roll moveto dup  0 exch rlineto exch 0 rlineto
  neg 0 exch rlineto closepath} bdef
/FR {MR stroke} bdef
/PR {MR fill} bdef
/L1i {{currentfile picstr readhexstring pop} image} bdef
/tMatrix matrix def
/MakeOval {newpath tMatrix currentmatrix pop translate scale
0 0 1 0 360 arc tMatrix setmatrix} bdef
/FO {MakeOval stroke} bdef
/PO {MakeOval fill} bdef
/PD {currentlinewidth 2 div 0 360 arc fill
   PDlw -1 eq not {PDlw w /PDlw -1 def} if} def
/FA {newpath tMatrix currentmatrix pop translate scale
  0 0 1 5 -2 roll arc tMatrix setmatrix stroke} bdef
/PA {newpath tMatrix currentmatrix pop	translate 0 0 moveto scale
  0 0 1 5 -2 roll arc closepath tMatrix setmatrix fill} bdef
/FAn {newpath tMatrix currentmatrix pop translate scale
  0 0 1 5 -2 roll arcn tMatrix setmatrix stroke} bdef
/PAn {newpath tMatrix currentmatrix pop translate 0 0 moveto scale
  0 0 1 5 -2 roll arcn closepath tMatrix setmatrix fill} bdef
/vradius 0 def /hradius 0 def /lry 0 def
/lrx 0 def /uly 0 def /ulx 0 def /rad 0 def
/MRR {/vradius xdef /hradius xdef /lry xdef /lrx xdef /uly xdef
  /ulx xdef newpath tMatrix currentmatrix pop ulx hradius add uly
  vradius add translate hradius vradius scale 0 0 1 180 270 arc 
  tMatrix setmatrix lrx hradius sub uly vradius add translate
  hradius vradius scale 0 0 1 270 360 arc tMatrix setmatrix
  lrx hradius sub lry vradius sub translate hradius vradius scale
  0 0 1 0 90 arc tMatrix setmatrix ulx hradius add lry vradius sub
  translate hradius vradius scale 0 0 1 90 180 arc tMatrix setmatrix
  closepath} bdef
/FRR {MRR stroke } bdef
/PRR {MRR fill } bdef
/MlrRR {/lry xdef /lrx xdef /uly xdef /ulx xdef /rad lry uly sub 2 div def
  newpath tMatrix currentmatrix pop ulx rad add uly rad add translate
  rad rad scale 0 0 1 90 270 arc tMatrix setmatrix lrx rad sub lry rad
  sub translate rad rad scale 0 0 1 270 90 arc tMatrix setmatrix
  closepath} bdef
/FlrRR {MlrRR stroke } bdef
/PlrRR {MlrRR fill } bdef
/MtbRR {/lry xdef /lrx xdef /uly xdef /ulx xdef /rad lrx ulx sub 2 div def
  newpath tMatrix currentmatrix pop ulx rad add uly rad add translate
  rad rad scale 0 0 1 180 360 arc tMatrix setmatrix lrx rad sub lry rad
  sub translate rad rad scale 0 0 1 0 180 arc tMatrix setmatrix
  closepath} bdef
/FtbRR {MtbRR stroke } bdef
/PtbRR {MtbRR fill } bdef
/stri 6 array def /dtri 6 array def
/smat 6 array def /dmat 6 array def
/tmat1 6 array def /tmat2 6 array def /dif 3 array def
/asub {/ind2 exch def /ind1 exch def dup dup
  ind1 get exch ind2 get sub exch } bdef
/tri_to_matrix {
  2 0 asub 3 1 asub 4 0 asub 5 1 asub
  dup 0 get exch 1 get 7 -1 roll astore } bdef
/compute_transform {
  dmat dtri tri_to_matrix tmat1 invertmatrix 
  smat stri tri_to_matrix tmat2 concatmatrix } bdef
/ds {stri astore pop} bdef
/dt {dtri astore pop} bdef
/db {2 copy /cols xdef /rows xdef mul dup 3 mul string
  currentfile 
  3 index 0 eq {/ASCIIHexDecode filter}
  {/ASCII85Decode filter 3 index 2 eq {/RunLengthDecode filter} if }
  ifelse exch readstring pop
  dup 0 3 index getinterval /rbmap xdef
  dup 2 index dup getinterval /gbmap xdef
  1 index dup 2 mul exch getinterval /bbmap xdef pop pop}bdef
/it {gs np dtri aload pop moveto lineto lineto cp c
  cols rows 8 compute_transform 
  rbmap gbmap bbmap true 3 colorimage gr}bdef
/il {newpath moveto lineto stroke}bdef
currentdict end def
%%EndProlog

%%BeginSetup
MathWorks begin

0 cap

end
%%EndSetup

%%Page: 1 1
%%BeginPageSetup
%%PageBoundingBox:    96   238   515   553
MathWorks begin
bpage
%%EndPageSetup

%%BeginObject: obj1
bplot

/dpi2point 12 def
portraitMode 1152 6636 csm

    0     0  5039  3780 rc
85 dict begin %Colortable dictionary
/c0 { 0.000000 0.000000 0.000000 sr} bdef
/c1 { 1.000000 1.000000 1.000000 sr} bdef
/c2 { 0.900000 0.000000 0.000000 sr} bdef
/c3 { 0.000000 0.820000 0.000000 sr} bdef
/c4 { 0.000000 0.000000 0.800000 sr} bdef
/c5 { 0.910000 0.820000 0.320000 sr} bdef
/c6 { 1.000000 0.260000 0.820000 sr} bdef
/c7 { 0.000000 0.820000 0.820000 sr} bdef
c0
1 j
1 sg
   0    0 5040 3781 rf
6 w
0 3081 3905 0 0 -3081 655 3364 4 MP
PP
-3905 0 0 3081 3905 0 0 -3081 655 3364 5 MP stroke
4 w
DO
SO
6 w
0 sg
 655  283 mt 4560  283 L
 655 3364 mt 4560 3364 L
4560 3364 mt 4560  283 L
 655 3364 mt  655  283 L
 655 3364 mt 4560 3364 L
 655 3364 mt  655  283 L
 655 3364 mt  655 3324 L
 655  283 mt  655  322 L
%%IncludeResource: font Helvetica
/Helvetica /WindowsLatin1Encoding 120 FMSR

 622 3509 mt 
(0) s
1522 3364 mt 1522 3324 L
1522  283 mt 1522  322 L
1456 3509 mt 
(50) s
2390 3364 mt 2390 3324 L
2390  283 mt 2390  322 L
2290 3509 mt 
(100) s
3258 3364 mt 3258 3324 L
3258  283 mt 3258  322 L
3158 3509 mt 
(150) s
4126 3364 mt 4126 3324 L
4126  283 mt 4126  322 L
4026 3509 mt 
(200) s
 655 3364 mt  694 3364 L
4560 3364 mt 4520 3364 L
 384 3408 mt 
(-0.5) s
 655 3021 mt  694 3021 L
4560 3021 mt 4520 3021 L
 384 3065 mt 
(-0.4) s
 655 2679 mt  694 2679 L
4560 2679 mt 4520 2679 L
 384 2723 mt 
(-0.3) s
 655 2337 mt  694 2337 L
4560 2337 mt 4520 2337 L
 384 2381 mt 
(-0.2) s
 655 1994 mt  694 1994 L
4560 1994 mt 4520 1994 L
 384 2038 mt 
(-0.1) s
 655 1652 mt  694 1652 L
4560 1652 mt 4520 1652 L
 554 1696 mt 
(0) s
 655 1309 mt  694 1309 L
4560 1309 mt 4520 1309 L
 454 1353 mt 
(0.1) s
 655  967 mt  694  967 L
4560  967 mt 4520  967 L
 454 1011 mt 
(0.2) s
 655  625 mt  694  625 L
4560  625 mt 4520  625 L
 454  669 mt 
(0.3) s
 655  283 mt  694  283 L
4560  283 mt 4520  283 L
 454  327 mt 
(0.4) s
 655  283 mt 4560  283 L
 655 3364 mt 4560 3364 L
4560 3364 mt 4560  283 L
 655 3364 mt  655  283 L
gs 655 283 3906 3082 rc
-1 0 2 2 1 0 1 1 1 -1 1 0 1 1 1 0 
1 1 1 1 1 1 1 1 0 -4 1 0 1 1 -1 0 
2 0 0 -8 1 0 1 1 0 1 0 -1 1 1 1 0 
1 0 1 1 1 0 1 1 0 2 1 -1 0 2 0 -1 
1 1 1 0 1 0 -1 0 2 2 1 0 1 1 1 0 
1 0 0 1 1 1 0 -1 1 1 0 1 0 -1 1 1 
0 -1 1 1 0 1 0 -1 1 1 0 -1 1 1 0 1 
0 -1 1 1 1 -1 0 -1 0 1 1 -1 1 1 -1 0 
2 0 1 -1 0 1 0 -1 1 1 0 0 0 -1 0 1 
1 -1 1 1 1 0 1 0 -1 0 2 0 1 0 0 -1 
1 1 0 -1 0 1 1 -1 1 0 1 0 1 -1 1 0 
-1 0 2 0 0 1 0 -1 1 -1 0 -1 0 1 1 -1 
1 0 1 0 1 0 1 0 -1 0 2 0 1 1 1 0 
1 1 0 -1 0 1 1 -4 0 1 0 -1 1 1 1 -1 
1 1 1 1 1 0 1 1 -1 0 2 0 0 1 1 -1 
0 1 0 -1 1 1 1 0 0 1 0 -1 1 1 0 3 
1 1 1 -1 1 1 1 -1 0 1 1 -1 0 0 2 0 
1 0 1 0 1 0 1 1 1 1 1 0 1 0 1 -1 
0 -1 2 0 1 0 -1 0 2 0 1 -1 1 1 1 -1 
0 1 0 -1 1 3 0 1 0 -1 1 -1 1 0 -1 0 
2 0 1 -1 0 3 1 1 1 -1 1 -1 1 -1 1 -1 
1 8 1 -1 0 -1 2 -2 0 15 1 -1 0 -1 2 -2 
0 -1 0 1 1 -1 0 -1 1 -1 0 1 1 -1 0 -2 
0 1 1 -1 1 -1 0 5 0 -1 1 1 0 -1 1 -1 
0 -1 1 -1 1 -1 1 -1 0 -1 2 -2 1 0 0 -2 
2 -2 0 5 1 -1 1 -1 0 -2 1 1 1 -1 1 0 
1 -1 0 3 1 -1 1 -1 1 -1 1 0 1 -1 1 0 
1 -1 0 3 1 0 1 -1 1 -1 1 0 0 5 1 0 
1 0 1 -1 1 0 1 0 1 -1 1 0 1 -1 1 3 
1 -1 1 0 1 -1 1 -1 1 -1 1 0 0 -1 0 1 
1 -1 1 0 -1 0 2 0 1 -1 0 3 1 -1 1 0 
1 -1 0 1 1 -1 1 -1 1 0 0 -1 0 1 1 2 
1 -1 1 0 0 -1 0 1 1 1 1 -1 1 0 1 -1 
0 1 0 -1 0 1 1 -1 1 0 1 3 -1 0 2 0 
1 -1 1 0 1 0 0 -1 0 4 1 -1 1 -1 1 0 
1 -1 0 -1 0 1 1 -1 0 3 1 0 1 -1 1 0 
-1 0 2 -2 0 -1 0 1 1 3 0 -1 0 1 1 -1 
0 1 0 -1 2 -2 4358 1648 300 MP stroke
0 0 0 5 1 -1 1 0 -1 0 2 -2 1 4 0 -1 
0 1 1 -1 0 -1 0 1 1 -1 1 -1 1 -1 1 7 
-1 -8 0 8 2 -2 0 -1 0 1 1 -1 0 -1 2 6 
1 0 1 -1 0 -1 2 -2 1 -1 1 -1 0 7 1 -1 
0 -1 1 1 0 -1 1 -1 0 -1 1 -1 1 -1 1 -1 
0 5 0 -6 0 6 1 -1 1 -1 0 -1 2 -2 0 -1 
2 -2 0 10 0 -1 1 -1 0 1 0 -1 1 -1 1 -1 
1 -1 1 9 -1 0 2 -2 0 -1 1 -1 0 -1 1 -1 
0 -1 2 -2 0 8 0 -1 2 -2 0 -2 2 -2 1 -1 
0 -2 1 10 1 -1 0 -2 2 -2 0 -1 1 -1 0 -1 
1 20 0 1 0 -1 1 -1 0 -1 2 -2 0 -1 1 -1 
0 -1 1 -1 0 -1 1 -1 0 -1 1 5 0 -1 1 -1 
1 -1 0 -2 2 -2 0 -2 1 -1 1 -1 0 -1 2 -2 
0 -1 2 -2 0 -2 7 5 0 -2 2 -2 1 -1 0 13 
1 0 0 -1 2 -2 0 -3 1 -1488 0 -3 1 -1 0 -2 
1 -1 1 -1 1 -1 0 -1 2 -2 1 -1 0 -1 2 -2 
1 -1 0 -1 2 -2 1 -1 0 -1 2 -2 1 -1 1 -1 
0 -1 2 -2 1 -1 0 -1 1 -1 1 -1 1 -1 1 -1 
0 -1 0 1 1 -1 1 -1 1 -1 0 -2 0 1 1 -1 
1 -1 1 -1 0 -1 2 -2 1 -1 1 -1 1 -1 1 -1 
1 -1 1 -1 0 -1 0 1 1 -1 1 -1 1 0 0 -2 
0 1 1 -1 0 1 0 -1 1 -1 1 0 1 -1 0 -1 
2 -2 0 1 1 -1 1 -1 1 -1 1 -1 1 -1 1 0 
0 -1 0 1 1 -1 1 -1 1 -1 1 -1 1 -1 1 -1 
1 -1 0 -1 2 0 1 -1 1 0 1 -1 1 0 0 -1 
0 1 1 -1 1 0 1 0 1 -1 1 -1 1 -1 1 -1 
1 0 0 -1 0 1 1 -1 0 1 1 -1 1 0 1 0 
1 0 1 0 1 -1 1 0 1 -1 1 0 0 -1 0 1 
1 -1 1 0 1 0 1 1 0 2 1 1 0 2 1 1 
0 1 1 1 1 0 1 0 1 0 1 1 0 2 1 1 
0 1 1 1 1 1 0 1 0 -1 0 0 1 1 0 -1 
2 0 0 1 1 1 0 4 1 1 0 3 1 1 0 2 
1 1 0 2 1 1 0 3 1 2 0 8 1 2 0 10 
1 4 0 8 1 4 0 7 1 1 0 7 1 2 0 7 
1 1 0 3 1 1 1 0 0 -3 1 -2 0 -5 1 -2 
0 -4 1 -2 0 -5 1 -2 0 -4 1 -1 0 -2 1 -1 
0 -3 1 -1 0 -3 1 -1 0 -4 1 -1 0 -8 1 -2 
0 -8 1 -2 0 -4 4149 3177 300 MP stroke
1 -6 0 -1 1 -1 1 -1 0 -1 0 1 1 1 0 2 
2 2 0 1 0 -1 1 -1 0 -2 1 -1 0 -3 1 -1 
1 -2 -1 0 2 3 0 5 1 2 0 8 1 2 0 8 
1 4 0 9 1 2 0 6 1 1 0 4 1 1 0 1 
1 1 0 2 1 1 0 4 1 2 0 8 1 3 0 14 
1 4 0 20 1 5 0 29 1 7 0 37 1 7 0 43 
1 7 0 29 1 6 0 28 1 15 0 13 1 4 0 26 
1 5 0 24 1 6 0 33 1 7 0 35 1 7 0 37 
1 7 0 35 1 8 0 28 1 4 0 18 1 25 0 -1 
0 19 1 11 0 20 1 5 0 22 1 5 0 22 1 7 
0 14 1 7 0 11 1 6 0 10 1 3 0 15 1 3 
0 17 1 8 0 18 1 4 0 17 1 3 0 17 1 3 
0 18 1 2 0 11 1 4 0 9 1 3 0 10 1 1 
0 17 1 3 0 16 1 6 0 23 1 5 0 24 1 4 
0 24 1 4 0 13 1 3 0 5 1 1 0 4 1 1 
0 5 1 1 0 9 1 3 0 13 1 2 0 12 1 5 
0 12 1 4 0 7 1 1 0 5 1 2 0 1 1 2 
0 4 1 1 0 1 1 3 1 2 -1 0 2 -2 0 -2 
1 -1 0 -2 1 -2 0 2 2 2 1 1 -1 0 2 -2 
1 0 1 -1 -1 0 2 0 1 -1 1 -1 0 -1 0 2 
1 1 0 3 1 1 0 5 1 1 0 5 1 2 0 11 
1 4 0 15 1 17 1 7 0 13 1 5 0 9 1 2 
0 6 1 2 0 8 1 1 0 5 1 3 0 8 1 2 
0 5 1 2 0 6 1 1 0 3 1 1 0 6 1 2 
0 4 1 1 0 2 1 2 0 -1 1 -1 0 -2 1 -2 
0 -1 1 -1 0 -3 1 1 0 -2 1 -8 0 -5 1 -2 
0 -8 1 -2 0 -11 1 -2 0 -7 1 -1 0 -1 1 -1 
0 3 1 1 0 8 1 3 0 7 1 2 0 11 1 14 
0 8 1 3 0 17 1 4 0 15 1 4 0 7 1 3 
0 6 1 2 0 9 1 2 0 14 1 3 0 10 1 3 
0 6 1 7 0 3 1 1 0 3 1 3 0 5 1 2 
0 6 1 1 0 1 1 1 0 2 1 -1 0 1 1 1 
1 1 1 0 1 -1 0 -1 0 1 1 -1 1 -1 1 0 
0 -3 1 -1 0 -5 1 -1 0 -9 1 -2 0 -9 1 -4 
0 -12 1 -7 0 -3 1 -1 0 -2 1 1 0 3 1 3 
0 8 1 5 0 7 1 2 0 6 1 2 0 6 1 3 
0 5 1 3 0 13 1 12 1 8 0 15 1 2 0 7 
1 1 0 5 1 1 3992 1608 300 MP stroke
0 8 1 2 0 17 1 7 0 21 1 6 0 24 1 4 
0 10 1 3 0 6 1 1 0 5 1 2 0 5 1 2 
0 5 1 1 0 4 1 3 0 1 1 1 0 -2 1 1 
0 -2 1 1 0 4 1 9 0 4 1 6 0 12 1 4 
0 9 1 2 0 7 1 1 0 2 0 -1 1 -1 0 -7 
1 -1 0 -7 1 -2 0 -1 1 1 0 -1 0 1 1 2 
0 1 1 1 0 1 0 -1 1 4 0 4 1 3 0 12 
1 3 0 21 1 5 0 22 1 9 0 8 1 1 0 -7 
1 -9 0 -13 1 -10 0 -23 1 -4 0 -10 1 -2 0 -7 
1 -1 0 -13 1 -4 0 -21 1 -5 0 -22 1 -5 0 -22 
1 -4 0 -16 1 -4 0 -7 1 -19 0 -13 1 -2 0 -16 
1 -4 0 -11 1 -5 0 -13 1 -5 0 -7 1 -5 0 -15 
1 -3 0 -12 1 -3 0 -14 1 -4 0 -15 1 -2 0 -10 
1 -2 0 -7 1 1 0 -2 2 0 0 2 0 -1 1 1 
0 7 1 2 0 7 1 2 0 6 1 3 0 5 1 3 
0 1 0 -1 1 1 0 2 1 1 0 6 1 2 0 10 
1 5 0 14 1 4 0 13 1 4 0 10 1 1 0 9 
1 1 0 6 1 4 0 2 1 3 0 9 1 1 0 9 
1 1 0 11 1 1 0 9 1 3 0 4 1 3 0 11 
1 2 0 3 2 12 0 1 1 1 0 4 2 2 0 2 
2 2 1 1 0 -4 1 -1 0 -6 1 -1 0 -7 1 -7 
0 -2 1 -1 0 -6 1 -2 0 -4 1 -1 0 1 1 1 
0 10 1 5 0 8 1 2 0 11 1 1 0 4 0 -1 
1 1 0 1 0 -5 1 -1 0 -8 1 -5 0 -7 1 -3 
0 -8 1 -2 1 -2 -1 0 2 2 0 3 1 1 1 0 
0 -2 1 -1 0 -6 1 -3 0 -3 1 -2 0 -4 1 -1 
1 -1 -1 0 2 2 0 3 1 1 0 3 1 1 0 1 
1 3 0 1 0 -1 1 1 1 -1 1 -1 0 -1 1 -3 
0 -5 1 -2 0 -5 1 -1 0 -5 1 -1 0 -2 1 -2 
0 -4 1 -1 0 -4 1 -2 0 -3 1 -1 0 -4 1 -1 
0 -4 1 -1 0 -3 1 -1 0 -2 1 1 1 1 0 1 
0 -1 1 -1 0 -7 1 -2 0 -12 1 -3 0 -12 1 -9 
0 -7 1 -2 0 -12 1 -3 0 -9 1 -3 0 -5 1 -2 
0 -3 1 -2 0 -4 1 -1 0 -5 1 -2 0 -4 1 -1 
0 -6 1 -2 0 -5 1 -3 0 -5 1 -2 0 -5 1 -2 
0 -9 1 -2 0 -13 1 -2 0 -14 1 -7 0 -12 1 -10 
0 -15 1 -3 0 -10 1 -5 0 -4 1 -2 0 -4 1 -2 
0 -4 1 -1 0 -12 3840 1876 300 MP stroke
1 -2 0 -12 1 -2 0 -13 1 -2 0 -11 1 -4 0 -5 
1 -1 0 -2 1 -1 0 -2 1 -1 0 -5 1 -5 0 -11 
1 -1 0 -14 1 -4 0 -15 1 -2 0 -15 1 -2 0 -13 
1 -4 0 -6 1 -1 0 -4 1 -3 0 -8 1 -2 0 -10 
1 -4 0 -13 1 -5 0 -16 1 -3 0 -11 1 -2 0 -7 
1 -1 0 -3 1 -3 0 -6 1 -5 0 -2 1 -8 0 -9 
1 -1 0 -12 1 -3 0 -10 1 -3 0 -10 1 -2 0 -9 
1 -1 0 -10 1 -2 0 -11 1 -3 0 -14 1 -3 0 -12 
1 -5 0 -8 1 -4 0 -10 1 -2 0 -12 1 -2 0 -10 
1 -3 0 -16 1 -4 0 -10 1 -2 0 -14 1 -2 0 -11 
1 -2 0 -12 1 -5 0 -8 1 -3 0 -13 1 -5 0 -6 
1 -4 0 -9 1 -2 0 -9 1 -1 0 -8 1 -1 0 -8 
1 -2 0 -9 1 -4 0 -11 1 -2 0 -9 1 -2 0 -9 
1 -3 0 -7 1 -5 0 -16 1 -4 0 -17 1 -4 0 -16 
1 -7 0 -8 1 -2 0 -3 1 -1 1 1 1 -1 0 -4 
1 -1 0 -5 1 -1 0 -5 1 -1 0 -8 1 -3 0 -7 
1 -1 0 -5 2 -2 1 -1 0 -3 1 -1 0 -5 1 -2 
0 -11 1 -2 0 -12 1 -2 0 -10 1 0 0 -6 2 -2 
0 1 0 -1 1 -1 0 -1 0 1 1 -1 0 -1 1 -3 
0 -1 1 -3 0 -1 1 -1 0 2 0 -1 1 -1 0 -2 
1 1 0 1 0 -2 1 -1 0 2 1 -2 0 1 1 -1 
0 1 0 -1 1 3 0 4 1 1 0 10 1 5 0 10 
1 4 0 25 1 12 0 24 1 14 0 34 1 8 0 42 
1 10 0 30 1 6 0 28 1 10 0 15 1 9 0 17 
1 4 0 20 1 3 0 12 1 3 0 8 1 2 0 3 
0 -1 1 1 0 -2 1 -1 0 -6 1 -2 0 -18 1 -4 
0 -24 1 -4 0 -32 1 -4 0 -36 1 -8 0 -31 1 -10 
0 -33 1 -16 0 -27 1 -16 0 -37 1 -7 0 -41 1 -8 
0 -32 1 -14 0 -40 1 -5 0 -33 1 -7 0 -31 1 -5 
0 -24 1 -4 0 -15 1 -4 0 -16 1 -4 0 -9 1 -5 
0 -8 1 -2 0 -4 2 0 0 9 1 2 0 13 1 8 
0 24 1 7 0 39 1 16 0 42 1 10 0 58 1 12 
0 65 1 13 0 67 1 13 0 69 1 11 0 71 1 14 
0 53 1 18 0 72 1 25 0 45 1 13 0 68 1 13 
0 57 1 12 0 52 1 21 0 48 1 25 0 39 1 21 
0 56 1 18 0 39 1 11 0 51 1 9 0 43 1 10 
0 48 1 8 0 35 1 7 0 36 1 7 0 26 1 12 
0 22 1 4 0 19 3689 1377 300 MP stroke
14 -89 0 -23 1 -5 0 -32 1 -16 0 -24 1 -36 0 -15 
1 -7 0 -31 1 -6 0 -34 1 -6 0 -32 1 -6 0 -27 
1 -10 0 -23 1 -5 0 -23 1 -4 0 -19 1 -9 0 -9 
1 -17 0 -7 1 -5 0 -7 1 -1 0 -4 1 -1 0 -1 
0 1 1 -1 0 4 1 1 0 9 1 5 0 10 1 3 
0 15 1 2 0 15 1 11 0 15 1 4 0 14 1 6 
0 11 1 6 0 14 1 2 0 14 1 2 0 11 1 2 
0 13 1 3 0 14 1 5 0 7 1 11 0 8 1 6 
0 9 1 3 0 8 1 1 0 2 1 1 0 3 1 1 
0 4 1 1 0 2 1 3 0 3 1 1 0 6 1 3 
0 3 1 1 0 -2 1 -1 0 -1 1 -2 0 -5 1 -1 
0 -6 1 -3 0 -6 1 -3 0 -6 1 -2 0 -5 1 -2 
0 -6 1 -2 0 -9 1 -2 0 -6 1 -2 0 -8 1 -1 
0 -11 1 -2 0 -12 1 -4 0 -10 1 -2 0 -15 1 -2 
0 -11 1 -4 0 -14 1 -8 0 -15 1 -8 0 -16 1 -7 
0 -22 1 -3 0 -23 1 -5 0 -22 1 -11 0 -12 1 -5 
0 -20 1 -2 0 -14 1 -3 0 -3 1 -2 1 0 0 7 
1 1 0 7 1 2 0 5 1 3 0 6 1 1 0 10 
1 2 0 12 1 3 0 14 1 7 0 16 1 9 0 23 
1 5 0 22 1 11 0 21 1 6 0 26 1 4 0 18 
1 4 0 16 1 6 0 11 1 4 0 14 1 3 0 16 
1 4 0 17 1 3 0 17 1 3 0 12 1 2 0 8 
1 2 0 4 1 1 0 4 1 2 0 3 1 1 0 6 
1 2 0 6 1 2 0 10 1 2 0 6 1 2 0 4 
1 1 1 1 0 3 1 1 0 2 2 2 1 1 1 6 
1 1 0 4 1 1 0 2 1 1 0 2 1 1 0 -1 
0 1 1 1 0 1 1 1 0 -1 2 -2 1 -2 1 0 
1 0 0 3 1 1 0 1 1 2 0 4 1 1 1 0 
1 1 1 -1 1 1 0 1 0 -1 1 1 0 3 1 1 
0 4 1 1 0 6 1 1 0 3 2 2 0 -2 1 -1 
0 -1 1 -1 1 -1 0 -1 1 -1 0 -2 1 0 0 -2 
1 -1 0 -1 1 -1 0 -6 1 -1 0 -9 1 -2 0 -10 
1 -2 0 -10 1 -2 0 -8 1 -2 0 -10 1 -3 0 -12 
1 -8 0 -15 1 -3 0 -15 1 -5 0 -23 1 -4 0 -20 
1 -4 0 -18 1 -8 0 -19 1 -8 0 -15 1 -4 0 -23 
1 -4 0 -24 1 -5 0 -19 1 -4 0 -23 1 -3 0 -15 
1 -8 0 -15 1 -10 0 -19 1 -8 0 -18 1 -7 0 -21 
1 -4 0 -23 1 -6 3518 2002 300 MP stroke
0 -10 1 -9 0 -20 1 -2 0 -15 1 -5 0 -8 1 -2 
0 -8 1 -2 0 -8 1 -2 0 -7 1 -2 0 -7 1 -1 
0 -3 1 -2 0 -4 1 -3 0 3 1 -2 0 3 1 1 
0 9 1 2 0 4 1 4 0 4 1 1 0 6 1 1 
0 9 1 -1 0 1 1 1 1 -1 0 3 0 -2 1 -1 
0 4 1 3 0 7 1 4 0 10 1 6 0 13 1 7 
0 13 1 3 0 16 1 3 0 8 1 2 0 10 1 2 
0 4 1 1 0 4 1 2 0 7 1 3 0 12 1 2 
0 11 1 6 0 12 1 7 0 12 1 3 0 21 1 3 
0 7 1 8 0 16 1 3 0 10 1 2 0 11 1 5 
0 9 1 2 0 10 1 5 0 13 1 4 0 8 1 3 
0 8 1 0 0 5 1 1 0 3 1 -1 0 -5 1 -2 
0 -5 1 -6 0 -5 1 -2 0 -10 1 0 1 -7 -1 0 
2 2 0 3 1 1 0 2 1 1 0 5 1 1 0 8 
1 3 0 13 1 4 0 6 1 1 0 11 1 -1 0 9 
1 3 0 8 1 10 0 5 1 2 0 12 1 3 0 15 
1 3 0 17 1 5 0 18 1 4 0 18 1 3 0 9 
1 5 0 8 1 1 0 1 1 4 0 -1 1 1 0 2 
1 1 0 3 1 1 1 0 0 -5 1 -1 0 -5 1 -2 
0 -8 1 -2 0 -12 1 -2 0 -10 1 -8 0 -10 1 -2 
0 -6 1 -3 0 -12 1 -4 0 -10 1 -6 0 -8 1 -3 
0 -15 1 -5 0 -8 1 -5 0 -13 1 -7 0 -13 1 -4 
0 -14 1 -6 0 -14 1 -4 0 -17 1 -3 0 -17 1 -4 
0 -15 1 -3 0 -10 1 -10 0 -19 1 -4 0 -19 1 -4 
0 -15 1 -3 0 -19 1 -3 0 -20 1 -4 0 -16 1 -5 
0 -20 1 -3 0 -24 1 -4 0 -18 1 -4 0 -21 1 -4 
0 -22 1 -5 0 -22 1 -4 0 -20 1 -9 0 -13 1 -5 
0 -17 1 -6 0 -19 1 -5 0 -18 1 -4 0 -20 1 -2 
0 -23 1 -7 0 -20 1 -3 0 -21 1 -5 0 -24 1 -4 
0 -14 1 -8 0 -16 1 -4 0 -8 1 -3 0 -9 1 -1 
0 -8 1 -3 0 -7 1 -2 0 -6 1 -6 0 -7 1 -2 
0 -2 1 -13 0 -8 1 -5 0 -14 1 -3 0 -12 1 -6 
0 -9 1 -2 0 -8 1 -1 0 -4 1 -1 0 -1 0 1 
1 -3 0 -1 0 2 1 -1 1 -1 0 -1 1 -1 0 -4 
1 1 1 -1 0 2 1 2 0 4 1 2 0 1 2 2 
0 2 1 1 0 2 1 2 0 9 1 1 0 8 1 2 
0 8 1 1 0 7 1 4 0 10 1 1 0 12 1 2 
0 9 1 2 0 10 3367 2465 300 MP stroke
1 6 0 5 1 7 0 4 1 4 0 2 1 3 0 2 
1 1 0 0 0 -1 1 1 0 -2 1 1 0 -1 0 2 
1 1 0 4 1 2 0 4 1 4 0 8 1 6 0 7 
1 2 0 10 1 2 0 7 1 1 0 4 1 1 0 -1 
1 1 0 -2 1 -1 0 4 1 1 0 5 1 3 0 8 
1 3 0 12 1 3 0 17 1 4 0 16 1 4 0 20 
1 9 0 14 1 3 0 15 1 5 0 7 1 2 0 14 
1 3 0 12 1 2 0 13 1 4 0 12 1 1 0 3 
1 -1 0 -4 1 -3 0 -4 1 -1 0 -2 1 -4 0 -3 
1 -1 0 -2 0 1 1 -1 0 2 1 2 0 2 1 -1 
0 -3 1 -1 0 -10 1 -5 0 -13 1 -5 0 -10 1 -7 
0 -15 1 -6 0 -12 1 -4 0 -18 1 -9 0 -10 1 -15 
0 -21 1 -9 0 -13 1 -8 0 -20 1 -3 0 -17 1 -3 
0 -14 1 -8 0 -15 1 -5 0 -25 1 -7 0 -27 1 -4 
0 -16 1 -33 0 -22 1 -7 0 -39 1 -7 0 -32 1 -7 
0 -30 1 -6 0 -30 1 -3 0 -22 1 -2 0 -17 1 -3 
0 -19 1 -4 0 -7 1 -22 0 -10 1 -1 0 -13 1 -2 
0 -5 1 0 0 -2 1 1 0 2 1 1 0 4 1 1 
0 9 1 1 0 9 1 6 0 5 1 18 0 7 1 4 
0 21 1 4 0 18 1 3 0 13 1 2 0 15 1 4 
0 18 1 2 0 14 1 3 0 13 1 5 0 8 1 14 
0 9 1 3 0 17 1 2 0 14 1 7 0 12 1 4 
0 2 0 -1 1 1 0 1 1 -2 0 -1 1 1 0 -2 
0 1 1 1 0 1 1 2 0 6 1 2 0 8 1 2 
0 11 1 2 0 10 1 1 0 7 1 1 1 3 -1 0 
2 -2 0 -2 1 1 0 2 1 1 0 6 1 2 0 11 
1 2 0 10 1 4 0 17 1 3 0 19 1 4 0 15 
1 4 0 7 1 2 0 9 1 7 1 0 0 2 1 1 
0 6 1 1 0 6 1 3 0 5 1 4 0 15 1 2 
0 20 1 5 0 15 1 5 0 18 1 4 1 11 0 5 
2 0 0 2 1 1 0 4 1 -1 0 5 1 1 0 3 
1 4 0 5 1 4 0 10 1 4 0 9 1 3 0 8 
1 3 0 6 1 1 0 -3 2 -2 0 -3 0 1 1 1 
0 5 1 1 0 7 1 5 0 7 1 5 0 9 1 5 
0 12 1 2 0 21 1 3 0 10 1 2 0 11 1 0 
1 1 0 2 1 0 0 3 1 2 0 10 1 3 0 13 
1 8 0 17 1 4 0 18 1 10 0 17 1 3 0 17 
1 4 0 10 1 5 3216 1957 300 MP stroke
0 5 1 1 0 4 1 1 0 -1 1 1 0 2 1 1 
0 2 1 1 0 7 1 2 0 11 1 4 0 14 1 6 
0 18 1 8 0 17 1 3 0 19 1 5 0 20 1 4 
0 17 1 3 0 12 1 2 0 4 1 -1 0 -7 1 -1 
0 -11 1 -4 0 -7 1 -3 0 -1 0 2 1 -1 0 8 
1 1 0 9 1 2 0 14 1 8 0 6 1 3 0 10 
1 2 0 7 1 1 0 4 1 1 0 -4 1 -1 0 -5 
1 -4 0 -12 1 -3 0 -9 1 -9 1 0 0 -2 1 -5 
0 -3 1 1 0 1 0 -4 1 -2 0 2 0 -1 1 1 
0 -4 1 -1 0 2 0 -3 1 -2 0 2 1 -5 -1 0 
2 0 1 -1 0 -1 1 -1 0 -7 1 0 0 -1 1 -3 
0 4 1 1 0 7 1 2 0 16 1 2 0 9 1 5 
0 5 1 1 1 -5 -1 0 2 -3 0 -16 1 -3 0 -4 
1 -2 0 -7 1 1 0 4 1 2 0 3 0 -1 1 1 
0 15 1 2 0 11 1 3 0 10 1 0 0 1 0 -4 
1 -1 0 -7 1 -4 0 -19 1 -4 0 -23 1 -8 0 -25 
1 0 0 -19 1 -4 0 -4 0 3 1 2 0 3 0 -3 
1 14 0 2 1 4 0 16 1 2 0 8 1 3 0 12 
1 2 0 4 1 4 0 14 1 -2 0 9 1 2 0 7 
1 3 0 21 1 10 0 11 1 10 0 25 1 4 0 9 
1 5 0 9 1 3 0 6 1 3 0 11 1 3 0 6 
1 6 0 7 1 3 0 9 1 2 0 9 1 0 0 7 
1 1 0 4 1 2 0 1 0 -1 1 1 0 2 0 -1 
1 1 1 1 0 2 1 -2 1 0 1 -1 0 1 1 1 
0 -1 0 1 1 2 0 10 1 2 0 9 1 6 0 9 
1 2 0 11 1 2 0 8 1 1 0 5 1 1 0 1 
0 -1 1 1 0 2 1 -1 0 -1 1 -1 0 3 1 3 
0 6 1 2 0 11 1 3 0 14 1 6 0 10 1 2 
0 7 1 1 0 1 1 -1 0 -3 1 -1 0 1 0 -1 
1 -1 0 -1 2 -2 0 -2 1 -1 0 -5 1 -1 0 -3 
1 -1 0 -6 1 -3 0 -7 1 -1 0 -2 1 -14 0 -14 
1 -6 0 -15 1 -4 0 -27 1 -10 0 -20 1 -7 0 -31 
1 -6 0 -33 1 -5 0 -27 1 -14 0 -32 1 -7 0 -30 
1 -12 0 -31 1 -6 0 -34 1 -7 0 -39 1 -10 0 -35 
1 -8 0 -29 1 -7 0 -34 1 -7 0 -24 1 -13 0 -24 
1 -8 0 -23 1 -3 0 -26 9 -150 1 0 0 -3 1 -1 
0 -2 1 -3 0 -1 2 0 0 1 1 1 0 4 1 1 
0 4 1 1 0 5 3060 2293 300 MP stroke
1 3 0 8 1 0 0 5 1 2 0 4 1 2 0 5 
1 1 0 7 1 3 0 7 1 1 0 2 1 1 0 6 
1 -1 0 1 1 1 0 6 1 3 0 9 1 3 0 10 
1 2 0 10 1 1 0 7 1 1 0 2 1 3 0 2 
1 2 0 4 1 1 0 6 1 1 0 9 1 1 0 4 
1 2 0 13 1 2 0 13 1 3 0 15 1 3 0 19 
1 4 0 19 1 4 0 7 1 13 0 15 1 4 0 16 
1 5 0 26 1 4 0 31 1 5 0 26 1 6 0 27 
1 5 0 30 1 6 0 25 1 5 0 25 1 13 0 28 
1 6 0 34 1 8 0 31 1 8 0 24 1 6 0 32 
1 6 0 32 1 11 0 24 1 6 0 27 1 5 0 19 
1 25 0 11 1 10 0 15 1 6 0 25 1 9 0 19 
1 7 0 14 1 4 0 14 1 2 0 9 1 4 0 7 
1 1 0 4 1 0 0 4 1 1 1 -1 0 -3 1 -1 
0 -1 1 -2 0 -1 1 -3 0 -4 1 -1 0 -6 1 -2 
0 -6 1 -4 0 -5 1 -5 0 -16 1 -5 0 -8 1 -3 
0 -5 1 -3 0 -1 1 -2 0 -5 1 -2 0 -11 1 -2 
0 -14 1 -1 0 -8 1 -3 0 -6 1 -5 1 -1 0 -1 
0 1 1 -3 0 -3 1 -2 0 -1 1 -2 0 -2 1 -1 
0 -4 1 1 0 1 0 -1 1 1 0 4 1 1 0 5 
1 1 0 4 1 1 0 1 1 1 0 -2 1 -1 0 -2 
1 -1 0 3 0 -6 1 1 0 7 1 0 0 6 1 2 
0 12 1 6 0 7 1 2 0 2 1 -1 0 -1 1 -2 
0 -7 1 -3 0 -7 1 -3 0 -10 1 -1 0 -5 1 -2 
0 -4 1 1 1 0 0 1 0 -1 1 -2 0 -3 1 -2 
0 -10 1 -1 0 -12 1 -3 0 -9 1 -2 0 -5 2 0 
0 6 1 4 0 2 1 1 0 3 1 -3 0 1 0 -1 
1 -2 0 -3 1 -4 0 -7 1 -2 0 -9 1 -1 0 -8 
1 -3 0 -2 1 -1 0 -2 1 1 0 6 1 0 0 6 
1 2 0 5 1 2 0 3 1 1 0 4 1 1 1 0 
-1 0 2 -5 0 -4 1 -2 0 -5 1 -2 0 -6 1 -1 
1 1 0 5 1 2 1 1 1 0 0 1 0 -2 1 -1 
0 1 0 -3 1 -2 1 -1 0 -1 2 -3 0 -2 1 -1 
0 -1 1 -1 0 -2 1 -1 0 -3 1 -2 0 -3 1 -1 
0 -4 2 -2 0 -1 0 1 1 -1 0 1 1 1 0 2 
1 1 0 3 1 1 1 -1 0 -4 1 -3 0 -4 1 -2 
0 -11 1 -2 0 -8 1 -6 0 -13 1 -2 0 -13 1 -3 
0 -12 1 -2 0 -8 2907 1597 300 MP stroke
1 -4 0 -15 1 -4 0 -8 1 -2 0 -8 1 -2 0 -5 
1 -1 0 -2 1 1 0 5 1 3 0 9 1 3 0 11 
1 5 0 11 1 3 0 8 1 1 0 2 1 -1 0 -5 
1 -1 0 -6 1 -1 0 4 1 1 0 15 1 9 0 24 
1 5 0 28 1 6 0 23 1 12 0 23 1 5 0 17 
1 5 0 1 0 -1 1 1 0 -11 1 -3 0 -5 1 -1 
0 3 1 7 0 19 1 14 0 35 1 8 0 15 1 40 
0 17 1 5 0 19 1 5 0 19 1 4 0 14 1 3 
0 13 1 3 0 16 1 2 0 10 1 6 0 19 1 5 
0 12 1 16 0 9 1 6 0 16 1 6 0 8 1 2 
0 6 1 1 0 2 1 -1 0 -4 1 -2 0 -11 1 -2 
0 -9 1 -5 0 -8 1 -7 0 -1 1 -2 0 -5 1 -1 
1 -1 0 -4 1 -1 0 -2 1 -2 0 -9 1 -1 0 -11 
1 -5 0 -14 1 -7 0 -20 1 -3 0 -25 1 -6 0 -16 
1 -2 0 -11 1 -8 0 -14 1 -2 0 -14 1 -5 0 -11 
1 -2 0 -18 1 -5 0 -21 1 -13 0 -6 1 -26 0 -23 
1 -6 0 -17 1 -10 0 -15 1 -9 0 -11 1 -1 0 -10 
1 -2 0 -2 1 -1 0 -1 1 -5 0 -2 1 -2 0 -8 
1 -5 0 -22 1 -10 0 -12 1 -5 0 -21 1 -8 0 -14 
1 -2 0 -9 1 0 0 7 1 2 0 12 1 3 0 15 
1 3 0 2 1 11 0 10 1 1 0 10 1 2 0 8 
1 1 0 8 1 1 0 7 1 5 0 18 1 5 0 28 
1 7 0 26 1 7 0 36 1 8 0 36 1 5 0 32 
1 6 0 30 1 5 0 20 1 14 0 15 1 11 0 19 
1 7 0 25 1 9 0 17 1 3 0 15 1 3 0 15 
1 2 0 8 1 2 0 12 1 2 0 8 1 3 0 10 
1 2 0 8 1 3 0 2 2 2 0 -4 1 -3 0 -5 
1 -2 0 -9 1 -3 0 -5 1 -2 0 -4 1 -2 0 -2 
0 1 1 -2 0 1 1 3 0 3 1 2 0 1 0 -1 
1 1 0 2 1 1 0 1 0 -1 1 -1 0 1 0 -6 
1 -4 0 -7 1 -3 0 -5 1 -2 0 1 0 -4 1 -2 
0 1 0 -8 1 -1 0 -6 1 -2 0 -8 1 -4 0 -10 
1 -3 0 -12 1 -3 0 -12 1 -4 0 -18 1 -3 0 -12 
1 -3 0 -13 1 -2 0 -12 1 -1 0 -16 1 -5 0 -17 
1 -8 0 -22 1 -14 0 -17 1 -9 0 -16 1 -5 0 -22 
1 -4 0 -23 1 -5 0 -22 1 -5 0 -20 1 -4 0 -21 
1 -3 0 -17 1 -4 0 -12 1 -9 0 -14 1 -3 0 -12 
1 -3 0 -6 1 -3 2759 1577 300 MP stroke
0 -6 1 -4 0 -5 1 -3 0 -5 1 -2 0 -4 1 -4 
0 -7 1 -2 0 -6 1 -2 0 -7 1 -1 0 -8 1 -1 
0 -5 1 -1 1 1 0 2 1 2 0 6 1 2 0 2 
1 2 0 4 1 -1 0 1 0 -1 1 -1 1 -3 -1 0 
2 2 0 5 1 2 0 10 1 3 0 17 1 4 0 17 
1 9 0 14 1 5 0 22 1 6 0 25 1 4 0 22 
1 4 0 16 1 7 0 13 1 3 0 15 1 3 0 11 
1 1 0 7 1 0 0 8 1 5 0 11 1 2 0 4 
1 13 0 11 1 1 0 5 1 1 0 1 0 -2 1 -2 
0 -3 1 -2 0 -6 1 -2 0 -10 1 -2 0 -14 1 -9 
0 -15 1 -4 0 -15 1 -8 0 -15 1 -6 0 -15 1 -5 
0 -17 1 -7 0 -18 1 -11 0 -12 1 -4 0 -18 1 -4 
0 -17 1 -8 0 -15 1 -3 0 -12 1 -2 0 -9 1 -5 
0 -17 1 -3 0 -21 1 -4 0 -21 1 -3 0 -22 1 -4 
0 -15 1 -6 0 -12 1 -3 0 -14 1 -5 0 -8 1 -2 
0 -9 1 -3 0 -4 1 -1 0 -1 1 -1 0 2 1 1 
0 3 1 4 0 7 1 2 0 12 1 4 0 14 1 4 
0 10 1 7 0 19 1 4 0 17 1 8 0 20 1 1 
0 18 1 4 0 11 1 3 0 13 1 3 0 10 1 4 
0 6 1 1 0 6 1 3 1 5 0 2 1 1 0 -1 
0 1 1 -1 0 -5 1 -1 0 -7 1 -1 0 -9 1 -4 
0 -6 1 -5 0 -7 1 0 0 -5 1 -3 0 -2 1 0 
1 1 0 6 1 2 0 8 1 2 0 8 1 1 0 6 
1 1 0 -4 1 1 0 -5 1 -1 0 -4 1 -1 1 1 
-1 0 2 0 0 3 1 1 0 4 1 1 0 3 1 1 
0 -1 1 4 0 5 1 3 0 4 1 3 0 3 0 -1 
1 -1 0 -2 1 -1 0 -3 1 1 0 -3 1 1 0 2 
1 1 0 6 1 2 0 8 1 3 0 2 1 1 0 -1 
0 1 1 2 0 -2 0 3 1 -1 0 4 1 -1 0 4 
1 1 0 2 1 1 0 3 1 1 0 4 1 1 0 8 
1 1 0 7 1 1 0 5 1 1 0 3 1 3 0 3 
1 -1 0 3 1 1 0 4 1 2 0 7 1 1 0 4 
1 1 0 4 1 1 0 3 1 1 0 1 1 1 0 2 
1 1 0 1 1 1 0 4 1 1 0 2 1 1 0 3 
1 1 0 1 1 1 1 1 0 2 1 1 0 2 1 1 
0 4 1 4 0 3 1 2 0 4 1 1 0 6 1 2 
0 4 1 4 0 8 1 1 0 3 1 3 0 3 1 2 
0 4 1 2 0 2 2610 1381 300 MP stroke
1 1 0 2 1 1 1 1 0 2 1 1 1 -1 0 2 
0 -1 1 1 0 4 1 3 0 8 1 3 0 13 1 4 
0 16 1 15 0 11 1 3 0 21 1 10 0 19 1 5 
0 23 1 5 0 20 1 5 0 22 1 5 0 16 1 8 
0 16 1 4 0 12 1 22 0 15 1 4 0 26 1 5 
0 28 1 7 0 29 1 6 0 26 1 6 0 21 1 5 
0 22 1 8 0 7 1 3 0 10 1 5 0 1 1 1 
0 2 0 -1 1 -1 0 -4 1 -4 0 -12 1 -3 0 -15 
1 -3 0 -17 1 -5 0 -17 1 -5 0 -21 1 -5 0 -21 
1 -24 0 -15 1 -5 0 -24 1 -13 0 -26 1 -9 0 -18 
1 -15 0 -31 1 -5 0 -24 1 -7 0 -26 1 -4 0 -19 
1 -8 0 -17 1 -10 0 -21 1 -8 0 -22 1 -4 0 -15 
1 -9 0 -17 1 -3 0 -11 1 -4 0 -1 1 -1 0 -1 
0 3 1 2 0 5 1 3 0 3 1 3 0 6 1 2 
0 3 1 -1 0 3 1 -1 0 -2 1 1 0 2 1 1 
0 2 1 1 0 5 1 2 0 6 1 2 0 7 1 4 
0 8 1 2 0 11 1 4 0 7 1 4 0 8 1 2 
0 11 1 2 0 13 1 3 0 10 1 7 0 23 1 3 
0 20 1 9 0 22 1 12 0 20 1 11 0 24 1 7 
0 26 1 8 0 35 1 11 0 21 1 5 0 18 1 4 
0 15 1 4 0 19 1 10 0 15 1 5 0 30 1 9 
0 21 1 11 0 15 1 4 0 15 1 3 0 5 1 3 
0 3 1 1 0 4 1 2 0 7 1 6 1 0 -1 0 
2 -3 0 -6 1 -2 0 -11 1 -2 0 -12 1 -3 0 -9 
1 -3 0 -16 1 -7 0 -15 1 -3 0 -21 1 -7 0 -31 
1 -12 0 -22 1 -7 0 -40 1 -7 0 -31 1 -12 0 -36 
1 -8 0 -36 1 -8 0 -35 1 -8 0 -41 1 -8 0 -43 
1 -7 0 -5 1 -44 0 -18 1 -8 0 -32 1 -13 0 -23 
1 -8 0 -28 1 -6 0 -28 1 -8 0 -24 1 -6 0 -26 
1 -8 0 -20 1 -11 0 -24 1 -4 0 -17 1 -4 0 -16 
1 -2 0 -13 1 -3 0 -15 1 -2 0 -11 1 -4 0 -7 
2 1 0 7 1 2 0 7 1 5 0 11 1 3 0 10 
1 2 0 8 1 1 0 9 1 3 0 6 1 1 0 6 
1 1 0 5 1 3 0 7 1 2 0 12 1 3 0 10 
1 2 0 14 1 3 0 10 1 5 0 9 1 1 0 13 
1 4 0 13 1 3 0 23 1 9 0 9 6 148 0 13 
1 3 0 23 1 4 0 18 1 8 0 13 1 7 0 12 
1 4 0 10 1 4 2454 1193 300 MP stroke
0 7 1 1 0 3 1 1 0 2 0 -1 2 -2 0 -1 
0 1 1 -4 0 -7 1 -1 0 -5 1 -8 0 -7 1 -2 
0 -9 1 -3 0 -11 1 -6 0 -10 1 -3 0 -11 1 -2 
0 -4 1 -1 1 -2 -1 0 2 0 0 -2 1 -2 1 -1 
0 -3 1 -1 0 2 1 1 0 3 1 1 0 4 1 1 
0 2 1 1 0 4 1 -1 0 -1 1 1 1 1 1 0 
0 1 0 -1 1 -1 1 -1 0 -2 1 -1 0 -3 0 1 
1 -1 0 -7 1 0 0 1 0 -2 1 -1 0 2 0 -1 
1 1 0 3 1 1 0 4 1 3 0 7 1 1 0 4 
1 1 0 -2 1 -2 0 -9 1 -1 0 -9 1 -3 0 -4 
1 -2 0 1 0 -1 1 -1 1 -2 -1 0 2 0 0 2 
2 2 1 1 0 4 1 2 0 9 1 4 0 10 1 3 
0 9 1 0 0 8 1 1 0 3 1 2 1 -1 0 1 
0 -3 1 -2 0 -2 1 -4 0 -4 1 -2 1 2 0 7 
1 1 0 11 1 1 0 7 1 1 0 11 1 3 0 1 
0 -2 1 1 0 2 0 -4 1 -1 0 -5 1 -4 0 1 
0 -6 1 -4 0 -11 1 -6 0 -17 1 -10 0 -14 1 -4 
0 -13 1 -16 0 -3 1 -2 0 -12 1 -2 0 -10 1 0 
0 -18 1 -3 0 -13 1 -3 0 -27 1 -2 0 -31 1 -6 
0 -33 1 -6 0 -24 1 -5 0 -9 1 -9 0 -14 1 -4 
0 -5 1 -2 0 -8 1 -4 0 -5 1 -3 0 -7 1 -1 
0 -6 1 -6 0 -15 1 -5 0 -15 1 -3 0 -21 1 -5 
0 -19 1 -4 0 -7 1 -4 0 -14 1 -1 0 1 0 -14 
1 -4 0 -15 1 -3 0 -22 1 -3 0 -19 1 -5 0 -14 
1 0 0 -6 1 -3 0 -3 1 -2 0 -2 1 2 0 3 
1 -1 0 7 1 2 0 8 1 3 0 9 1 3 0 10 
1 2 0 9 1 2 0 3 1 1 0 3 2 2 0 10 
1 1 0 10 1 6 0 16 1 5 0 20 1 4 0 19 
1 3 0 11 1 6 0 6 1 7 0 5 1 7 0 9 
1 5 0 16 1 12 0 32 1 5 0 29 1 10 0 27 
1 3 0 13 1 2 0 10 1 3 0 1 1 10 1 1 
0 5 1 1 0 1 0 -3 1 8 0 4 0 -2 1 -1 
0 -2 0 1 1 1 0 -14 1 -3 0 -8 1 -1 0 -12 
1 -2 0 -7 1 -9 0 -5 1 -1 0 3 1 -1 0 -5 
0 1 1 2 0 1 0 -10 1 -2 0 -3 0 1 1 -2 
0 -11 1 -5 0 -6 1 -6 0 -14 1 -2 0 -5 1 -7 
0 -9 1 -3 0 -12 1 -3 0 -11 1 -5 0 -13 1 -5 
0 -12 1 -3 0 -12 2306 1645 300 MP stroke
1 -4 0 -1 1 -1 0 -2 0 1 1 1 0 2 1 1 
0 4 1 -1 0 4 1 1 0 4 1 2 0 1 1 3 
0 4 1 1 0 5 1 2 0 0 0 4 1 1 0 -1 
0 2 1 -1 0 1 0 -1 1 3 0 1 0 -1 1 3 
0 3 1 2 0 5 1 1 0 13 1 5 0 9 1 3 
0 15 1 3 0 12 1 3 0 10 1 2 0 14 1 1 
0 17 1 3 0 18 1 7 0 17 1 4 0 21 1 5 
0 15 1 2 0 22 1 3 0 12 1 0 0 10 1 1 
0 6 1 1 0 1 1 4 1 0 -1 0 2 2 0 2 
0 -1 1 -1 0 4 1 1 0 2 0 -1 1 2 0 6 
1 2 0 1 0 -1 1 3 0 2 1 -1 0 1 0 -2 
1 -1 0 1 0 -8 1 -2 0 -11 1 -4 0 -9 1 -3 
0 -9 1 -5 0 -13 1 -7 0 -14 1 -10 0 -12 1 -6 
0 -4 1 -31 0 -13 1 -9 0 -15 1 -5 0 -27 1 -5 
0 -13 1 -8 0 -17 1 -3 0 -15 1 -2 0 -11 1 -7 
0 -13 1 -4 0 -6 1 -14 0 -16 1 -3 0 -15 1 -3 
0 -9 1 -1 0 -11 1 -2 0 -8 1 -2 0 -9 1 -3 
0 -9 1 -3 0 -9 1 -3 0 -7 1 -2 0 -7 1 -2 
0 -5 1 0 0 -2 1 -1 0 -3 1 -1 0 -3 1 -2 
0 -3 1 -1 0 -3 0 1 1 1 0 5 1 2 0 3 
1 2 0 7 1 3 0 9 1 1 0 4 1 1 0 1 
1 1 0 5 1 0 0 3 1 1 0 10 1 2 0 4 
1 1 0 2 1 1 0 -1 1 1 0 2 1 -1 0 -1 
0 2 1 -1 1 -1 0 -1 0 2 1 1 0 1 1 -1 
0 4 1 1 0 1 1 1 0 0 0 2 1 3 1 0 
0 3 1 1 1 1 0 3 1 1 0 5 1 1 0 1 
1 4 0 9 1 1 0 6 1 1 0 3 1 2 0 4 
1 3 0 4 1 2 0 8 1 1 0 12 1 7 0 12 
1 4 0 13 1 6 0 13 1 6 0 11 1 6 0 13 
1 3 0 12 1 2 0 11 1 2 0 16 1 5 0 16 
1 3 0 13 1 6 0 10 1 6 0 16 1 3 0 16 
1 4 0 13 1 4 0 19 1 4 0 22 1 5 0 22 
1 5 0 25 1 5 0 26 1 5 0 20 1 5 0 15 
1 7 0 20 1 7 0 17 1 4 0 15 1 10 0 18 
1 3 0 22 1 8 0 13 1 4 0 21 1 5 0 23 
1 4 0 23 1 5 0 26 1 6 0 20 1 6 0 19 
1 10 0 17 1 4 0 22 1 4 0 13 1 4 0 24 
1 3 0 17 1 8 2161 777 300 MP stroke
0 29 1 6 0 29 1 9 0 41 1 6 0 30 1 5 
0 27 1 14 0 29 1 6 0 16 1 9 0 19 1 5 
0 23 1 3 0 18 1 4 0 13 1 7 0 12 1 4 
0 13 1 2 0 14 1 5 0 8 1 1 0 6 1 1 
0 2 0 -1 1 -1 0 -4 0 2 1 -2 0 -4 0 1 
1 -1 0 -6 1 -3 0 -3 1 -3 0 -5 1 -1 0 -1 
1 -5 0 -9 1 0 0 -5 1 -2 0 -6 1 0 0 -3 
1 -2 0 -4 1 -3 0 -8 1 -7 0 -3 1 -3 0 -13 
1 -6 0 -10 1 -4 0 -19 1 -10 0 -14 1 -4 0 -25 
1 -5 0 -27 1 -9 0 -32 1 -6 0 -33 1 -6 0 -24 
1 -10 0 -30 1 -8 0 -32 1 -8 0 -29 1 -17 0 -28 
1 -21 0 -45 1 -11 0 -41 1 -10 0 -49 1 -19 0 -36 
1 -6 0 -50 1 -10 0 -40 1 -6 0 -51 1 -8 0 -45 
1 -17 0 -26 1 -7 0 -19 1 -16 0 -43 1 -12 0 -38 
1 -8 0 -33 1 -5 0 -39 1 -22 0 -26 1 -8 0 -23 
1 -3 0 -18 1 -9 0 -7 1 -1 0 -4 1 1 0 -3 
1 -1 0 -5 1 -2 0 -7 1 -2 0 -13 1 -1 0 -5 
1 -5 0 -7 1 1 0 -5 1 -2 0 -2 1 0 0 -1 
0 2 1 -2 0 -4 1 -5 0 -9 1 -2 0 -17 1 -4 
0 -15 1 -7 0 -23 1 -5 0 -16 1 -4 0 -9 1 -3 
0 -6 1 -1 0 -4 1 -1 1 0 -1 0 2 0 0 -2 
1 -1 0 -1 1 -3 0 -2 1 -1 0 -4 1 -4 0 -14 
1 -5 0 -11 1 -3 0 -17 1 -3 0 -13 1 -3 0 -6 
1 -3 0 -5 1 -3 0 -4 1 -2 0 -11 1 -1 0 -8 
1 -9 0 -14 1 -1 0 -6 1 -3 0 -7 1 -1 0 -2 
1 -1 0 6 1 2 0 10 1 3 1 16 0 12 1 2 
0 13 1 5 0 16 1 4 0 16 1 8 0 18 1 6 
0 20 1 11 0 24 1 6 0 25 1 4 0 10 1 24 
0 18 1 5 0 19 1 5 0 24 1 6 0 23 1 12 
0 14 1 10 0 29 1 6 0 32 1 7 0 31 1 7 
0 19 1 5 0 21 1 3 0 17 1 2 0 11 1 3 
0 10 1 2 0 9 1 5 0 9 1 3 0 10 1 3 
0 10 1 2 0 3 1 16 0 13 1 3 0 16 1 3 
0 12 1 2 0 7 1 1 0 3 1 -1 0 -1 1 -1 
0 -2 1 -1 0 -1 0 1 1 -3 0 -2 1 -2 0 -2 
1 -2 0 -5 1 -1 0 -7 1 -1 0 -9 1 -1 0 -4 
1 -1 0 -9 1 -2 0 -6 1 -4 0 -15 1 -2 0 -17 
1 -3 0 -6 1 -5 2013 1445 300 MP stroke
0 -7 1 -2 0 -12 1 -3 0 -10 1 -3 0 -10 1 -1 
0 -3 1 -1 0 6 1 -1 0 -1 0 4 1 5 0 5 
0 0 1 2 0 6 1 4 0 12 1 2 0 9 1 4 
0 8 1 3 0 3 1 4 0 4 1 1 0 -3 1 3 
0 -3 1 -1 1 2 0 6 1 3 0 15 1 10 0 19 
1 3 0 18 1 3 0 7 1 1 0 5 1 1 0 -2 
1 -1 0 -3 1 -1 0 -6 0 1 1 -2 0 -8 1 -3 
0 -9 1 -2 0 -5 1 -1 0 -3 1 -2 0 3 1 1 
0 3 1 1 1 0 0 -5 1 -1 0 -5 1 -5 0 -4 
1 -2 0 -11 1 -3 0 -13 1 -3 0 -14 1 -2 0 -14 
1 -3 0 -15 1 -1 0 -8 1 -5 0 -12 1 -2 0 -9 
1 -3 0 -2 1 -1 0 -9 1 -1 0 -10 1 -2 0 -12 
1 -3 0 -16 1 -7 0 -10 1 -4 0 -16 1 -3 0 -12 
1 -6 0 -11 1 -3 0 -4 1 -2 1 -1 0 1 0 -1 
2 -2 0 1 0 -1 1 -2 0 -2 1 1 0 -2 1 -1 
0 -2 1 1 0 -1 0 1 1 1 1 1 1 0 1 1 
1 0 0 -3 1 -1 0 -6 1 -2 0 -6 1 -3 0 -3 
1 -1 0 -3 1 -1 0 1 0 -1 1 1 0 8 1 1 
0 10 1 1 0 8 1 1 0 5 1 3 0 1 1 1 
0 0 0 1 1 1 0 2 1 1 0 5 1 5 0 5 
1 1 0 7 1 1 0 9 1 2 0 12 1 5 0 8 
1 3 0 16 1 7 0 10 1 6 0 18 1 3 0 12 
1 9 0 10 1 5 0 15 1 3 0 13 1 6 0 13 
1 3 0 17 1 4 0 17 1 4 0 18 1 4 0 23 
1 5 0 23 1 4 0 18 1 9 0 23 1 4 0 23 
1 4 0 15 1 10 0 21 1 4 0 21 1 4 0 20 
1 3 0 19 1 6 0 13 1 4 0 12 1 5 0 10 
1 3 0 13 1 2 0 10 1 1 0 4 1 2 0 5 
2 2 0 -1 1 -2 0 -1 1 -1 0 -5 1 -3 0 -7 
1 -5 0 -11 1 -2 0 -11 1 -3 0 -15 1 -2 0 -15 
1 -5 0 -22 1 -5 0 -25 1 -5 0 -22 1 -11 0 -20 
1 -6 0 -20 1 -4 0 -24 1 -4 0 -18 1 -3 0 -13 
1 -3 0 -11 1 -4 0 -10 1 -5 0 -9 1 -3 0 -12 
1 -3 0 -16 1 -4 0 -17 1 -6 0 -21 1 0 0 -23 
1 -6 0 -14 1 -8 0 -11 1 -5 0 -4 1 -1 0 -1 
0 6 1 3 0 14 1 5 0 13 1 5 0 9 1 1 
0 8 1 0 0 2 0 -1 1 1 0 1 0 -1 1 1 
0 3 1 1 0 -3 1864 1431 300 MP stroke
0 3 1 2 0 4 1 2 0 5 1 15 0 3 1 5 
0 26 1 6 0 16 7 139 0 8 1 2 0 7 1 1 
0 1 1 -1 0 -2 1 1 0 -3 1 -1 1 0 -1 0 
2 0 0 3 1 2 0 7 1 -1 0 5 1 1 0 3 
0 -2 1 1 0 -2 1 1 0 1 0 -2 0 1 1 -1 
1 1 0 3 1 -1 0 -1 0 1 1 1 0 -2 0 1 
1 -1 0 1 1 -1 0 -5 1 -1 0 -2 1 -2 0 -9 
1 -2 0 -8 1 -2 0 -14 1 -3 0 -12 1 -4 0 -16 
1 -8 0 -23 1 -3 0 -19 1 -9 0 -29 1 -6 0 -27 
1 -7 0 -20 1 -14 0 -20 1 -13 0 -32 1 -7 0 -26 
1 -14 0 -45 1 -10 0 -40 1 -5 0 -52 1 -25 0 -31 
1 -13 0 -52 1 -9 0 -32 1 -9 0 -45 1 -6 0 -35 
1 -13 0 -20 1 -4 0 -25 1 -5 0 -22 1 -4 0 -18 
1 -12 1 -9 0 -18 1 -1 0 -5 1 -1 0 3 0 -1 
1 4 0 5 0 -1 1 1 0 4 1 2 0 5 1 1 
0 7 1 1 0 13 1 3 0 13 1 5 0 9 1 4 
0 15 1 7 0 22 1 5 0 22 1 13 0 27 1 6 
0 24 1 8 0 27 1 12 0 22 1 7 0 18 1 3 
0 8 1 9 0 15 1 5 0 24 1 7 0 28 1 15 
0 27 1 8 0 36 1 8 0 37 1 14 0 26 1 7 
0 17 1 14 0 25 1 4 0 13 1 7 0 15 1 4 
0 18 1 6 0 16 1 4 0 17 1 3 0 11 1 5 
0 8 1 3 0 6 1 5 0 -1 0 6 1 2 0 4 
1 1 0 7 1 0 0 2 1 -1 0 -5 1 2 0 -7 
1 -1 0 -7 1 -3 0 -12 1 -4 0 -14 1 -12 0 -9 
1 -4 0 -21 1 -5 0 -14 1 -9 0 -21 1 -4 0 -21 
1 -8 0 -30 1 -5 0 -23 1 -5 0 -21 1 -4 0 -19 
1 -8 0 -16 1 -7 0 -21 1 -2 0 -15 1 -4 0 -19 
1 -4 0 -16 1 -11 0 -8 1 -3 0 -9 1 -3 0 -14 
1 -5 0 -9 1 -8 0 -15 1 -3 0 -14 1 -7 0 -10 
1 -4 0 -4 1 -6 0 -5 1 -4 0 -5 1 -2 0 -2 
1 -1 0 -1 0 2 1 1 0 -1 0 6 1 1 0 2 
0 -2 1 -1 0 -5 1 -3 0 -12 1 -4 0 -8 1 -1 
0 -4 1 -2 0 -1 0 3 1 3 0 4 1 2 0 8 
1 2 0 3 1 8 0 6 1 4 0 8 1 3 0 13 
1 4 0 9 1 2 0 12 1 3 0 6 1 3 0 9 
1 -1 0 8 1 1 0 9 1 10 0 15 1 5 0 25 
1 4 0 29 1 11 1713 1637 300 MP stroke
0 16 1 12 0 28 1 5 0 22 1 12 0 24 1 6 
0 28 1 12 1 26 0 18 1 4 0 19 1 8 0 21 
1 4 0 21 1 4 0 15 1 3 0 17 1 3 0 13 
1 1 0 8 1 2 0 1 0 -1 1 4 0 -3 1 -1 
0 -7 1 -2 0 -9 1 -3 0 -15 1 -3 0 -18 1 -5 
0 -17 1 -10 0 -23 1 -6 0 -22 1 -5 0 -10 1 -24 
0 -12 1 -6 0 -14 1 -4 0 -11 1 -7 0 -10 1 -4 
0 -16 1 -4 0 -9 1 -3 0 -7 1 -1 0 -1 0 1 
1 -1 0 4 1 2 0 10 1 6 0 15 1 5 0 20 
1 7 0 21 1 12 0 17 1 6 0 31 1 6 0 30 
1 5 0 23 1 5 0 6 1 29 0 19 1 6 0 27 
1 6 0 18 1 13 0 31 1 13 0 29 1 8 0 35 
1 7 0 33 1 7 0 29 1 6 0 27 1 10 0 19 
1 6 0 18 1 4 0 13 1 4 0 16 1 4 0 12 
1 6 0 12 1 2 0 5 1 1 1 1 1 -1 0 1 
1 -1 0 -2 1 -1 0 -3 1 -2 0 -6 1 -1 0 -4 
1 -2 0 -10 1 0 0 -11 1 -7 0 -18 1 -7 0 -4 
1 -14 0 -13 1 -2 0 -9 1 -2 0 -14 1 -4 0 -18 
1 -5 0 -22 1 -5 0 -16 1 -4 0 -22 1 -3 0 -13 
1 -4 0 -17 1 -6 0 -13 1 -8 0 -15 1 -7 0 -19 
1 -8 0 -18 1 -8 0 -22 1 -8 0 -23 1 -5 0 -28 
1 -6 0 -30 1 -7 0 -9 1 -34 0 -20 1 -4 0 -27 
1 -7 0 -26 1 -16 0 -25 1 -6 0 -29 1 -10 0 -37 
1 -6 0 -25 1 -10 0 -25 1 -5 0 -27 1 -5 0 -21 
1 -5 0 -12 1 -12 0 -21 1 -2 0 -27 1 -6 0 -23 
1 -11 0 -27 1 -6 0 -33 1 -17 0 -22 1 -4 0 -20 
1 -8 0 -15 1 -9 0 -13 1 -3 0 -14 1 -5 0 -15 
1 -13 0 -19 1 -5 0 -18 1 -3 0 -16 1 -3 0 -13 
1 1 0 -9 1 -3 0 -10 1 -2 0 -4 1 -4 0 -7 
1 -2 0 -7 1 -2 0 -9 1 -1 0 -12 1 -4 0 -10 
1 -11 0 -25 1 -4 0 -28 1 -5 0 -25 1 -7 0 -27 
1 -6 0 -25 1 -4 0 -16 1 -6 0 -11 1 -4 0 -5 
1 0 0 -1 0 1 1 1 0 3 1 1 0 5 1 1 
0 1 1 1 0 2 1 -1 0 -1 1 -1 0 2 1 0 
0 4 1 3 0 -1 0 2 1 2 0 12 1 2 0 15 
1 5 0 2 1 2 0 6 1 0 0 -1 0 4 1 -1 
0 -1 1 -3 0 1 0 -5 1 -2 0 -8 1 -1 0 -8 
1 -2 0 -5 1 -1 1565 2416 300 MP stroke
0 -3 1 -1 0 2 1 -1 0 -2 1 -1 0 -6 1 -3 
0 -9 1 -2 0 -11 1 -1 0 -11 1 -1 0 -4 1 -2 
0 -4 1 -1 0 -4 0 0 1 -1 0 1 1 -1 0 -1 
0 1 1 1 0 -1 0 3 2 0 1 3 0 2 0 -1 
1 2 0 4 1 2 0 4 1 1 0 8 1 2 0 4 
1 15 0 5 1 2 0 7 1 6 0 12 1 2 0 14 
1 3 0 11 1 3 0 6 1 2 0 4 1 1 0 5 
1 0 0 4 1 2 0 3 1 1 0 11 1 2 0 9 
1 3 0 15 1 5 0 9 1 3 0 12 1 3 0 15 
1 7 0 11 1 4 0 4 1 28 0 14 1 4 0 19 
1 3 0 14 1 6 0 7 1 2 0 11 1 3 0 18 
1 3 0 14 1 4 0 15 1 2 0 14 1 3 0 8 
1 2 0 13 1 3 0 6 1 5 0 17 1 3 0 10 
1 7 0 15 1 2 0 11 1 2 0 7 1 1 0 6 
1 1 0 6 1 3 0 4 1 2 0 4 1 1 0 2 
1 -1 0 -2 1 -4 0 -5 1 -2 0 -8 1 -4 0 -10 
1 -3 0 -11 1 -4 0 -15 1 -6 0 -10 1 -6 0 -12 
1 -8 0 -12 1 -2 0 -22 1 -4 0 -16 1 -7 0 -26 
1 -5 0 -23 1 -6 0 -19 1 -7 0 -14 1 -3 0 -10 
1 -6 0 -14 1 -3 0 -12 1 -8 0 -14 1 -3 0 -8 
1 -2 0 -19 1 -16 0 -4 1 -8 0 -9 1 -2 0 -12 
1 -2 0 -3 0 1 1 -3 0 -4 1 -1 0 2 0 -3 
0 2 1 -2 0 1 1 2 0 3 1 1 0 5 2 5 
0 9 1 3 0 7 1 2 0 11 1 2 0 16 1 3 
0 19 1 6 0 20 1 6 0 33 1 7 0 28 1 6 
0 14 1 37 0 6 1 6 0 23 1 6 0 29 1 26 
0 5 1 9 0 22 1 6 0 25 1 5 0 25 1 4 
0 24 1 5 0 19 1 5 0 16 1 16 0 11 1 4 
0 9 1 3 0 13 1 1 0 9 1 3 0 2 1 1 
0 -3 1 -1 0 -4 1 2 0 -3 1 -1 0 -2 1 1 
0 -7 1 -1 0 -3 1 -3 0 1 0 -6 1 -2 0 -6 
1 -1 0 -5 1 -5 0 -3 0 1 1 -4 0 -13 1 -4 
0 -15 1 -8 0 -19 1 -11 0 -15 1 -5 0 -24 1 -5 
0 -19 1 -5 0 -16 1 -5 0 -19 1 -5 0 -7 1 -7 
0 -4 1 1 0 -8 1 -2 0 -17 1 -5 0 -17 1 -1 
0 -3 0 1 1 -1 0 -2 0 4 1 5 0 3 1 2 
0 14 1 5 0 5 1 2 0 14 1 2 0 6 1 -1 
0 8 1 4 0 4 1419 1996 300 MP stroke
1 3 0 14 1 1 0 8 1 3 0 9 1 2 0 12 
1 1 0 8 1 7 0 8 1 1 0 -7 1 -2 0 -2 
1 -2 0 -2 2 -4 0 1 0 -4 1 -3 0 -18 1 -3 
0 -14 1 -3 0 -10 1 -6 0 -17 1 -2 0 -19 1 -3 
0 -27 1 -4 0 -11 1 -10 0 -9 1 -3 0 -12 1 -3 
0 -12 1 -4 0 -12 1 -3 0 -19 1 -4 0 -15 1 -8 
0 -12 1 -2 0 -10 1 -8 0 -8 1 -8 0 -12 1 -5 
0 -17 1 -4 0 -13 1 -6 0 -25 1 -11 0 -10 1 -9 
0 -18 1 -1 0 -18 1 -2 0 -12 1 -7 0 -4 1 -5 
0 -10 1 -4 0 -15 1 -3 0 -15 1 -3 0 -10 1 -5 
0 -10 1 -2 0 -4 1 -1 0 -4 1 1 0 -2 1 1 
0 -2 1 1 0 1 1 1 0 -1 0 1 1 -3 0 -1 
1 -1 0 -3 1 -2 0 1 0 -1 1 -3 1 -2 -1 0 
2 -1 0 3 0 -1 1 -1 0 6 1 2 0 8 1 3 
0 12 1 2 0 7 1 3 0 1 1 1 0 -2 0 1 
1 -1 0 -1 1 -1 0 3 1 1 0 4 1 2 0 -1 
0 1 1 -3 0 -2 1 -1 0 -2 1 -2 0 -1 1 1 
0 6 1 4 0 8 1 3 0 19 1 4 0 20 1 4 
0 16 1 4 0 12 1 6 0 13 1 6 0 10 1 3 
0 6 1 3 0 11 1 1 0 14 1 2 0 15 1 4 
0 16 1 4 0 16 1 4 0 3 1 10 1 6 -1 0 
2 -2 0 -2 1 -1 0 -4 0 1 1 -6 0 -4 1 -3 
0 -8 1 -2 0 -11 1 -1 0 -15 1 -3 0 -10 1 -5 
0 -10 1 -3 0 -11 1 -2 0 -13 1 -3 0 -15 1 -2 
0 -19 1 -4 0 -12 1 -6 0 -17 1 -3 0 -15 1 -6 
0 -16 1 -9 0 -10 1 -4 0 -13 1 -2 0 -13 1 -6 
0 -11 1 -2 0 -15 1 -5 0 -5 1 -1 0 -6 1 1 
0 -2 1 -1 1 -1 0 -2 0 3 1 1 0 2 1 2 
0 3 1 1 0 2 1 1 1 1 0 -2 1 -1 0 -2 
0 1 1 -1 0 2 1 1 0 2 1 17 0 11 1 3 
0 21 1 4 0 14 1 6 0 18 1 3 0 17 1 2 
0 13 1 3 0 11 1 1 0 4 1 1 0 3 1 3 
0 3 1 1 0 3 1 3 0 9 1 3 0 10 1 2 
0 10 1 2 0 14 1 7 0 5 1 2 0 11 1 4 
0 10 1 8 0 7 1 2 0 9 1 2 0 8 1 1 
0 5 1 1 0 8 1 3 0 10 1 1 0 7 1 5 
0 10 1 2 0 15 1 3 0 17 1 3 0 11 1 8 
0 17 1 4 0 16 1271 2115 300 MP stroke
1 4 0 15 1 3 0 3 1 4 0 10 1 1 0 7 
1 1 0 10 1 1 0 13 1 7 0 9 1 3 0 16 
1 6 0 10 1 3 0 7 1 5 0 9 1 2 0 8 
1 5 0 10 1 4 11 79 1 1 0 6 1 5 0 6 
1 1 0 9 1 2 0 3 1 1 0 5 1 1 0 5 
1 3 0 5 1 1 0 2 1 4 0 2 1 2 0 3 
0 -1 1 -1 0 -1 1 -1 1 -1 0 -2 0 1 1 1 
1 0 0 -1 0 1 1 1 0 3 1 5 0 1 1 1 
0 5 1 1 0 3 1 1 0 8 1 2 0 5 1 1 
0 10 1 4 0 7 1 4 0 4 1 1 0 1 1 -1 
0 -4 1 -2 0 -4 1 -1 0 -4 1 1 0 4 1 1 
0 4 1 2 0 9 1 1 0 8 1 1 0 6 1 3 
0 2 1 1 0 -2 1 -1 0 -2 0 1 1 -2 0 -2 
1 1 1 1 0 5 1 3 0 7 1 1 0 6 1 1 
0 4 1 1 0 4 0 -1 1 -1 0 1 0 -1 1 -2 
0 1 0 -3 1 -2 0 -5 1 -1 0 -2 1 -1 0 -2 
0 0 2 2 0 -1 0 1 1 1 1 1 1 -2 1 -1 
0 -2 1 -1 0 1 1 -1 0 -2 2 -2 0 -3 1 1 
0 1 1 -1 0 1 0 -1 1 1 0 1 0 -1 1 2 
0 4 1 1 0 3 1 -1 0 4 1 -1 0 2 1 1 
0 -1 0 1 1 -3 1 -1 0 2 1 1 0 1 1 1 
0 3 1 2 1 1 0 3 0 -1 1 2 0 1 1 1 
0 1 0 -1 1 3 0 2 1 1 0 1 1 -1 1 1 
0 2 0 -1 1 -1 0 1 1 -1 1 0 -1 0 2 2 
0 1 1 1 0 3 1 0 0 1 0 -1 1 1 0 3 
1 1 0 2 1 0 1 0 -1 0 2 0 1 1 1 3 
-1 0 2 0 0 1 0 -1 1 -2 0 3 1 -2 1 -1 
0 0 2 2 1 -1 1 1 1 -2 0 4 1 -1 1 -1 
-1 0 2 -1 0 1 1 -1 0 -1 1 -1 0 -2 1 1 
1 0 1 1 1 0 0 -1 0 1 1 -1 0 -1 0 1 
1 1 0 1 1 -1 0 -1 1 -2 1 1 1 1 1 1 
0 -2 1 -1 0 1 1 1 0 1 2 0 1 1 0 1 
0 -1 2 0 0 -2 1 1 1 -1 -1 0 2 2 1 -1 
1 0 -1 0 2 0 1 1 1 -2 -1 0 2 2 1 -1 
0 2 0 -1 1 -1 0 -2 1 1 1 1 0 0 0 -2 
1 1 0 -3 0 1 2 2 1 0 0 2 1 -6 1 1 
1 1 0 1 0 -1 1 1 0 -3 1 -1 0 2 1 1 
1 0 0 4 2 2 1097 1650 300 MP stroke
0 1 1 -1 0 -1 2 -3 0 2 1 -1 0 -2 1 1 
0 1 0 -1 1 1 1 2 -1 0 2 -2 1 1 0 -3 
1 1 0 1 1 1 1 -1 0 1 0 -3 2 0 0 1 
0 0 1 -1 1 1 0 1 0 -1 1 -2 0 2 1 0 
0 -2 0 0 1 1 0 2 1 1 0 -1 0 1 1 1 
0 2 0 -2 2 0 0 -2 0 2 1 -1 0 1 0 -1 
1 -1 0 -1 0 1 2 -1 0 2 1 0 0 1 0 -1 
1 -1 0 2 1 0 1 -1 1 0 -1 0 2 -2 0 2 
1 -5 -1 0 2 2 1 0 1 1 0 3 1 -1 0 1 
1 1 1 0 0 -3 1 -4 0 1 2 2 0 -1 0 1 
1 -1 0 1 0 -3 1 1 0 2 1 -1 1 0 0 1 
1 -3 -1 0 2 2 0 1 2 2 0 -2 0 2 2 0 
0 -2 1 1 0 1 0 -1 1 -2 1 1 1 0 1 0 
0 -5 0 2 1 1 1 0 -1 0 2 3 0 -6 1 0 
0 -1 0 2 1 1 1 0 0 3 1 0 0 -3 1 1 
0 3 0 -2 1 1 0 1 1 1 0 -5 1 -1 0 1 
1 1 1 -1 0 3 1 1 0 -3 0 2 1 -1 0 1 
1 -1 1 1 0 -1 1 -5 0 3 1 -1 1 0 0 3 
1 -1 0 -3 0 1 1 1 0 1 1 1 0 3 1 -1 
0 -3 1 -1 0 2 1 -1 1 1 0 2 0 0 1 -2 
0 -3 0 1 1 2 1 0 1 2 0 -1 1 1 0 1 
0 -1 1 1 1 1 0 1 0 1 1 -3 1 2 -1 0 
2 0 0 1 1 1 0 -4 1 -1 0 -2 1 1 0 -1 
0 1 2 0 0 -2 0 1 1 1 1 0 -1 0 2 2 
1 -6 -1 0 2 2 1 0 -1 0 2 0 0 4 1 1 
0 -1 0 0 1 1 1 0 0 -2 0 2 1 0 1 -1 
0 1 0 -1 1 -1 1 1 0 -4 1 1 1 0 1 1 
0 -3 1 1 0 0 2 2 1 1 0 -2 0 1 1 1 
1 0 1 0 0 -3 1 1 0 1 0 -1 2 3 0 -1 
1 1 0 -1 1 1 1 0 -1 0 2 0 1 -3 -1 0 
2 2 0 2 1 -1 0 -2 1 1 0 -2 0 1 1 1 
1 -1 1 1 0 -3 1 2 0 -1 1 1 0 -1 0 1 
1 1 1 -1 0 -1 0 3 1 -1 0 -1 1 1 1 1 
0 -1 0 1 1 1 1 0 0 -1 0 2 1 -1 0 -1 
1 -1 0 4 1 -1 0 1 2 -1 0 3 1 1 0 -2 
1 -2 1 0 1 0 0 4 1 -1 0 0 0 -1 1 -1 
0 3 0 -1 1 -2 1 4 0 1 0 -3 1 -1 0 -1 
0 1 2 -2 1 1 933 1649 300 MP stroke
1 -1 0 -2 1 0 0 1 1 1 1 0 0 -1 0 1 
1 1 0 -1 0 1 1 -3 0 4 0 -1 2 -2 0 1 
1 -1 0 2 1 1 1 -1 0 2 1 -1 0 -1 1 -1 
0 3 1 -1 0 -3 0 1 1 -1 0 1 0 -1 1 -1 
1 3 -1 0 2 0 0 1 0 -3 1 -1 1 1 0 5 
1 -1 0 -1 1 2 0 -1 1 -1 0 -2 0 4 1 1 
0 -2 1 -1 0 -1 0 1 1 -1 0 -1 1 1 0 2 
0 -2 1 -1 0 -1 2 0 0 -1 2 -2 0 2 2 0 
1 0 -1 0 2 2 0 -3 1 1 0 -4 1 0 1 0 
0 2 1 1 0 1 0 -1 1 -1 0 3 1 0 1 1 
0 1 2 0 0 -2 1 -1 1 1 0 -2 1 1 0 -2 
1 -1 0 1 0 -1 1 1 0 0 0 1 1 1 0 5 
1 -1 0 1 0 -1 1 1 0 -2 1 -1 0 1 1 -4 
1 -2 0 1 1 1 1 -1 -1 0 2 2 1 2 0 -3 
1 1 1 1 0 -1 1 -1 0 3 0 -1 2 -2 0 3 
0 -2 1 -2 0 1 1 -1 1 0 1 1 1 1 0 2 
0 -1 1 -1 0 -2 1 1 1 -2 0 -1 1 1 1 1 
-1 0 2 0 0 3 1 0 0 2 1 -1 0 -1 1 -1 
0 2 0 -4 1 -1 1 -1 1 1 0 1 1 1 0 2 
1 -1 0 2 0 -1 1 -1 1 1 0 -1 2 0 1 -1 
0 3 1 -2 1 -1 0 -1 2 0 0 1 2 2 0 -1 
1 1 0 -1 0 1 1 1 1 -1 0 -1 2 0 0 2 
0 -2 1 1 0 -1 0 1 1 -2 1 1 0 1 1 -1 
0 -2 0 1 1 -1 0 1 2 3 0 -2 2 0 1 1 
1 0 1 -2 -1 0 2 0 1 1 0 -3 1 -1 1 1 
1 0 0 2 1 0 0 -4 1 0 0 1 2 2 0 -3 
1 0 0 2 1 1 0 -2 1 0 0 3 2 0 1 1 
0 2 1 1 0 -1 1 -3 1 0 1 -1 1 1 0 -3 
1 1 0 1 2 2 0 -3 0 1 1 -1 0 2 0 -1 
1 -1 0 2 1 2 0 -1 1 1 0 -2 1 0 0 2 
2 0 0 -2 1 1 1 -2 -1 0 2 2 0 2 0 -3 
1 -2 1 1 0 1 1 -1 0 -1 0 1 1 1 0 2 
1 1 1 1 1 0 0 2 0 -2 1 0 1 -1 0 1 
0 -2 1 1 1 0 0 2 0 -3 0 2 2 0 0 1 
0 -1 1 -1 0 -1 1 -1 0 -1 0 1 1 1 0 -2 
1 1 1 0 0 -1 0 1 1 -3 0 2 1 -1 0 1 
2 0 1 1 -1 0 2 1 0 -1 0 1 1 -2 1 -3 
-1 0 2 2 1 3 760 1651 300 MP stroke
-1 0 2 -2 0 -1 0 1 2 1 0 1 0 -2 0 1 
1 1 0 -1 0 2 1 1 0 1 1 -2 -1 0 2 2 
0 -4 1 4 0 -1 1 1 1 -2 0 1 1 -1 0 -1 
1 1 0 -1 0 1 1 -2 0 3 1 -1 0 -2 1 -1 
0 4 1 -3 1 1 0 -1 2 0 0 2 0 -1 1 -1 
0 1 0 -1 1 -1 1 0 1 1 1 1 0 2 0 -1 
1 -2 0 2 1 2 0 -1 1 -1 0 -2 1 2 1 2 
0 1 0 -2 1 -1 1 -1 -1 0 2 0 1 2 -1 0 
2 -2 0 2 1 -1 1 -3 0 3 1 -1 1 1 1 -1 
1 1 0 -2 1 1 0 2 1 -1 0 -1 0 1 1 -3 
0 1 2 0 0 2 1 -1 0 2 1 0 0 -1 0 1 
1 -1 1 1 1 1 -1 -2 0 2 2 -2 0 1 0 -2 
0 1 1 1 1 -1 0 -1 0 4 1 -1 0 -1 1 1 
0 -1 2 0 0 2 0 -3 1 -1 0 1 1 1 0 -1 
1 -3 0 -1 0 7 1 -1 1 1 -1 0 2 -2 0 -3 
1 5 0 -1 0 1 1 -1 1 1 1 -1 0 4 0 -1 
2 -3 0 2 0 -2 2 -3 0 4 0 -2 2 0 0 -1 
1 -1 0 8 1 -1 0 -1 2 -2 0 -2 1 5 1 -3 
-1 0 2 0 0 -1 1 -1 0 3 0 -4 0 2 1 -1 
0 -1 0 1 1 -1 0 1 0 -1 1 -1 0 -2 1 10 
0 -1 1 -1 0 2 0 -1 1 -1 1 -2 -1 0 2 0 
0 -1 0 1 1 -1 0 1 1 -1 0 -2 1 7 0 -1 
1 -1 1 -1 0 -3 1 -1 0 -1 0 7 1 -1 0 -2 
1 1 0 1 0 -2 1 -1 0 -1 0 1 1 6 1 -3 
-1 0 2 0 0 -3 1 -1 0 9 1 -1 0 -2 1 -1 
0 -2 1 -1 0 -2 655 1649 204 MP stroke
gr

1418  188 mt 
(Perpendicular y-error on Ord Mountain Road) s
2408 3652 mt 
(time \(s\)) s
 302 2054 mt  -90 rotate
(error \(m\)) s
90 rotate

end %%Color Dict

eplot
%%EndObject

epage
end

showpage

%%Trailer
%%EOF
