#FIG 3.2
Landscape
Center
Inches
Letter  
100.00
Single
-2
1200 2
2 2 0 1 0 7 50 -1 -1 0.000 0 0 -1 0 0 5
	 7500 2100 9000 2100 9000 3000 7500 3000 7500 2100
2 2 0 1 0 7 50 -1 -1 0.000 0 0 -1 0 0 5
	 9900 2100 11400 2100 11400 3000 9900 3000 9900 2100
2 1 0 1 0 7 50 -1 -1 0.000 0 0 -1 1 0 2
	1 1 1.00 60.00 120.00
	 9000 2550 9900 2550
2 1 0 1 0 7 50 -1 -1 0.000 0 0 -1 1 0 2
	1 1 1.00 60.00 120.00
	 11400 2550 12600 2550
2 1 0 1 0 7 50 -1 -1 0.000 0 0 -1 1 0 2
	1 1 1.00 60.00 120.00
	 6600 2550 7500 2550
2 1 0 1 0 7 50 -1 -1 0.000 0 0 -1 1 0 3
	1 1 1.00 60.00 120.00
	 10650 3000 10650 4350 9000 4350
2 2 0 1 0 7 50 -1 -1 0.000 0 0 -1 0 0 5
	 7500 3900 9000 3900 9000 4800 7500 4800 7500 3900
2 1 0 1 0 7 50 -1 -1 0.000 0 0 -1 1 0 3
	1 1 1.00 60.00 120.00
	 7500 4350 5850 4350 5850 3000
2 2 0 1 0 7 50 -1 -1 0.000 0 0 -1 0 0 5
	 5100 2100 6600 2100 6600 3000 5100 3000 5100 2100
2 1 0 1 0 7 50 -1 -1 0.000 0 0 -1 1 0 2
	1 1 1.00 60.00 120.00
	 4200 2550 5100 2550
2 2 0 1 0 7 50 -1 -1 0.000 0 0 -1 0 0 5
	 2700 2100 4200 2100 4200 3000 2700 3000 2700 2100
4 1 0 50 -1 0 12 0.0000 4 180 1125 3450 2625 plannerModule\001
4 1 0 50 -1 0 12 0.0000 4 135 465 8250 2625 adrive\001
4 1 0 50 -1 0 12 0.0000 4 135 405 10650 2625 Alice\001
4 1 0 50 -1 0 12 0.0000 4 105 480 8250 4425 astate\001
4 1 1 50 -1 2 12 0.0000 4 180 1020 5850 2625 trajFollower\001
