

                                                                      Page 1
ispDesignEXPERT 8.4  -  Device Utilization Chart         Fri Aug 01 10:18:54 2003

Transmission jerry-rig



--------------------------------------------------------------------------------

Module                   : 'trans_x'

--------------------------------------------------------------------------------

Input files:

    ABEL PLA file        : trans_x.tt3
    Device library       : P22V10G.dev

Output files:

    Report file          : trans_x.rpt
    Programmer load file : trans_x.jed

--------------------------------------------------------------------------------


                                                                      Page 2
ispDesignEXPERT 8.4  -  Device Utilization Chart         Fri Aug 01 10:18:54 2003

Transmission jerry-rig

P22V10G Programmed Logic:
--------------------------------------------------------------------------------



Q1.D   = (  Q1.Q & !Q2.Q & swN & swF & sw1 & sw3 & DB0 
          #   Q1.Q & !Q3.Q & swN & swF & sw1 & sw3 & DB0 
          #   Q1.Q & !Q2.Q & !DB1 
          #   Q1.Q & !Q3.Q & !DB1 
          #   !Q2.Q & Q3.Q & !swN & swF & sw1 & sw2 & sw3 & DB0 & DB1 & DB2 
          #   swN & !swF & sw1 & sw2 & sw3 & DB0 & DB1 & DB2 
          #   swN & swF & sw1 & !sw2 & sw3 & DB0 & DB1 & DB2 
          #   Q1.Q & !Q2.Q & !DB2 
          #   Q1.Q & !Q3.Q & !DB2 ); " ISTYPE 'BUFFER'
Q1.C   = (  CLOCK );

Q2.D   = (  Q2.Q & !Q3.Q & swN & swF & sw1 & sw3 & DB0 
          #   Q2.Q & !Q3.Q & !DB1 
          #   swN & swF & !sw1 & sw2 & sw3 & DB0 & DB1 & DB2 
          #   swN & swF & sw1 & !sw2 & sw3 & DB0 & DB1 & DB2 
          #   Q2.Q & !Q3.Q & !DB2 ); " ISTYPE 'BUFFER'
Q2.C   = (  CLOCK );

Q3.D   = (  !Q2.Q & Q3.Q & swF & sw1 & sw2 & sw3 & DB0 
          #   !Q2.Q & Q3.Q & !DB1 
          #   swN & swF & sw1 & sw2 & !sw3 & DB0 & DB1 & DB2 
          #   !Q2.Q & Q3.Q & !DB2 ); " ISTYPE 'BUFFER'
Q3.C   = (  CLOCK );

sol     = (  !Q2.Q & Q3.Q & swF & sw1 & sw2 & sw3 & DB0 & DB1 
           #   Q2.Q & !Q3.Q & swN & swF & sw1 & sw2 & DB0 & DB2 
           #   swN & swF & !sw1 & sw2 & sw3 & DB0 & DB1 & DB2 
           #   swN & swF & sw1 & !sw2 & sw3 & DB0 & DB1 & DB2 
           #   swN & swF & sw1 & sw2 & !sw3 & DB0 & DB1 & DB2 
           #   !Q2.Q & !DB1 & DB2 
           #   !Q3.Q & !DB1 & DB2 
           #   !Q2.Q & DB1 & !DB2 
           #   !Q3.Q & DB1 & !DB2 );

green     = (  !Q2.Q & Q3.Q & swF & sw1 & sw2 & sw3 & DB0 & DB2 
             #   swN & swF & sw1 & sw2 & !sw3 & DB0 & DB1 & DB2 
             #   !Q2.Q & !DB1 & DB2 
             #   !Q3.Q & !DB1 & DB2 );

white     = (  Q1.Q & Q2.Q & !Q3.Q & swN & swF & sw1 & sw3 & DB0 & DB1 
             #   Q1.Q & !Q2.Q & Q3.Q & swF & sw1 & sw2 & sw3 & DB0 & DB1 
             #   !Q2.Q & Q3.Q & !swN & swF & sw1 & sw2 & sw3 & DB0 & DB1 
             #   swN & swF & sw1 & !sw2 & sw3 & DB0 & DB1 & DB2 
             #   !Q2.Q & DB0 & !DB1 & DB2 
             #   !Q3.Q & DB0 & !DB1 & DB2 
             #   !Q2.Q & DB0 & DB1 & !DB2 
             #   !Q3.Q & DB0 & DB1 & !DB2 );

red     = (  Q2.Q & !Q3.Q & swN & swF & sw1 & sw2 & DB0 
           #   Q1.Q & !Q3.Q & swN & sw1 & sw2 & sw3 & DB0 


                                                                      Page 3
ispDesignEXPERT 8.4  -  Device Utilization Chart         Fri Aug 01 10:18:54 2003

Transmission jerry-rig

P22V10G Programmed Logic:
--------------------------------------------------------------------------------



           #   !Q2.Q & Q3.Q & swF & sw1 & sw2 & sw3 & DB0 
           #   !Q2.Q & DB0 & !DB1 
           #   !Q3.Q & DB0 & !DB1 
           #   swN & !swF & sw1 & sw2 & sw3 & DB0 & DB1 & DB2 
           #   swN & swF & !sw1 & sw2 & sw3 & DB0 & DB1 & DB2 
           #   swN & swF & sw1 & !sw2 & sw3 & DB0 & DB1 & DB2 
           #   swN & swF & sw1 & sw2 & !sw3 & DB0 & DB1 & DB2 
           #   !Q2.Q & !DB1 & DB2 
           #   !Q3.Q & !DB1 & DB2 
           #   !Q2.Q & DB1 & !DB2 
           #   !Q3.Q & DB1 & !DB2 );



                                                                      Page 4
ispDesignEXPERT 8.4  -  Device Utilization Chart         Fri Aug 01 10:18:54 2003

Transmission jerry-rig

P22V10G Chip Diagram:
--------------------------------------------------------------------------------




                                   P22V10G

                         +---------\       /---------+
                         |          \     /          |
                         |           -----           |
                   CLOCK |  1                    24  | Vcc                     
                         |                           |
                     DB0 |  2                    23  | Q3                      
                         |                           |
                     DB1 |  3                    22  | green                   
                         |                           |
                     DB2 |  4                    21  | white                   
                         |                           |
                     swN |  5                    20  | sol                     
                         |                           |
                     swF |  6                    19  |                         
                         |                           |
                     sw1 |  7                    18  |                         
                         |                           |
                     sw2 |  8                    17  | red                     
                         |                           |
                     sw3 |  9                    16  |                         
                         |                           |
                         | 10                    15  | Q1                      
                         |                           |
                         | 11                    14  | Q2                      
                         |                           |
                     GND | 12                    13  |                         
                         |                           |
                         |                           |
                         `---------------------------'

                        SIGNATURE: N/A


                                                                      Page 5
ispDesignEXPERT 8.4  -  Device Utilization Chart         Fri Aug 01 10:18:54 2003

Transmission jerry-rig

P22V10G Resource Allocations:
--------------------------------------------------------------------------------



        Device        | Resource  |   Design    |
       Resources      | Available | Requirement | Unused
======================|===========|=============|==============
                      |           |             |
Input Pins:           |           |             |
                      |           |             |
          Input:      |     12    |      9      |    3 ( 25 %)
                      |           |             |
Output Pins:          |           |             |
                      |           |             |
          In/Out:     |     10    |      7      |    3 ( 30 %)
          Output:     |      -    |      -      |    -
                      |           |             |
Buried Nodes:         |           |             |
                      |           |             |
          Input Reg:  |      -    |      -      |    -
          Pin Reg:    |     10    |      3      |    7 ( 70 %)
          Buried Reg: |      -    |      -      |    -


                                                                      Page 6
ispDesignEXPERT 8.4  -  Device Utilization Chart         Fri Aug 01 10:18:54 2003

Transmission jerry-rig

P22V10G Product Terms Distribution:
--------------------------------------------------------------------------------



            Signal                       |    Pin   | Terms | Terms | Terms
             Name                        | Assigned | Used  |  Max  | Unused
=========================================|==========|=======|=======|=======
Q1.D                                     |   15     |   9   |  10   |   1
Q2.D                                     |   14     |   5   |   8   |   3
Q3.D                                     |   23     |   4   |   8   |   4
sol                                      |   20     |   9   |  14   |   5
green                                    |   22     |   4   |  10   |   6
white                                    |   21     |   8   |  12   |   4
red                                      |   17     |  13   |  14   |   1


     ==== List of Inputs/Feedbacks ====

Signal Name                              | Pin      | Pin Type
=========================================|==========|=========
CLOCK                                    |    1     | CLK/IN
swN                                      |    5     | INPUT
swF                                      |    6     | INPUT
sw1                                      |    7     | INPUT
sw2                                      |    8     | INPUT
sw3                                      |    9     | INPUT
DB0                                      |    2     | INPUT
DB1                                      |    3     | INPUT
DB2                                      |    4     | INPUT


                                                                      Page 7
ispDesignEXPERT 8.4  -  Device Utilization Chart         Fri Aug 01 10:18:54 2003

Transmission jerry-rig

P22V10G Unused Resources:
--------------------------------------------------------------------------------



 Pin   |  Pin   |   Product   | Flip-flop
Number |  Type  |   Terms     |   Type
=======|========|=============|==========
   10  |  INPUT |      -      |    -   
   11  |  INPUT |      -      |    -   
   13  |  INPUT |      -      |    -   
   16  |  BIDIR | NORMAL 12   |    D
   18  |  BIDIR | NORMAL 16   |    D
   19  |  BIDIR | NORMAL 16   |    D
