0.270097	568	0
0.410002	579	0
0.530004	578	0
0.650011	572	0
0.810059	564	0
1.00005	561	0
1.1	564	0
1.23	569	0
1.39001	565	0
1.47001	573	0
1.59	578	0
1.80002	572	1.06452
1.87999	579	1.06452
1.96	579	1.06452
2.03999	583	1.06452
2.12	591	1.06452
2.2	630	1.06452
2.28	698	1.06452
2.47	831	1.06452
2.56006	872	1.06452
2.64001	885	1.06452
2.81999	880	1.06452
2.91	850	1.06452
2.99069	840	1.06452
3.14	840	1.06452
3.24	853	1.06452
3.31999	862	1.06452
3.41	866	1.06452
3.53	874	1.06452
3.61999	883	1.06452
3.76005	887	1.06452
3.84	890	1.06452
3.94	882	1.06452
4.02	879	1.06452
4.11	879	1.06452
4.18999	879	1.06452
4.39	882	2.12903
4.47	899	2.12903
4.66	908	2.12903
4.73999	909	2.12903
4.82	905	2.12903
4.90999	905	2.12903
4.99	905	2.12903
5.06999	905	2.12903
5.21	905	2.12903
5.29	906	2.12903
5.44	905	2.12903
5.59	923	2.12903
5.67001	925	2.12903
5.76	927	2.12903
5.95999	939	2.12903
6.06999	940	2.12903
6.22	951	2.12903
6.31069	962	2.12903
6.39	962	2.12903
6.5	962	2.12903
6.62	976	2.12903
6.7	979	2.12903
6.83005	976	2.12903
6.91	977	2.12903
7	976	2.12903
7.1	987	3.19355
7.19006	997	3.19355
7.27	1000	3.19355
7.44999	1006	3.19355
7.54	1017	3.19355
7.78999	1027	3.19355
7.89	1033	3.19355
7.97	1041	3.19355
8.15007	1041	3.19355
8.24	1046	3.19355
8.32	1055	3.19355
8.46007	1060	3.19355
8.54999	1059	3.19355
8.64	1066	3.19355
8.76	1069	3.19355
8.93	1070	3.19355
9.01	1086	3.19355
9.21	1094	3.19355
9.29	1093	3.19355
9.37	1097	3.19355
9.45	1103	3.19355
9.65001	1106	3.19355
9.79071	1115	3.19355
9.87	1113	3.19355
10.01	1119	3.19355
10.15	1125	3.19355
10.2401	1132	3.19355
10.32	1136	3.19355
10.54	1139	3.19355
10.62	1140	3.19355
10.76	1144	3.19355
10.84	1163	3.19355
10.92	1163	3.19355
11	1164	3.19355
11.18	1163	3.19355
11.26	1167	3.19355
11.41	1175	3.19355
11.5	1171	3.19355
11.58	1167	3.19355
11.7	1177	3.19355
11.78	1174	3.19355
11.87	1184	3.19355
12.03	1187	3.19355
12.18	1188	3.19355
12.33	1185	3.19355
12.43	1184	3.19355
12.52	1188	3.19355
12.6	1191	3.19355
12.72	1200	3.19355
12.8	1197	3.19355
12.88	1198	3.19355
13.02	1184	3.19355
13.1008	1191	3.19355
13.23	1188	3.19355
13.32	1197	3.19355
13.53	1194	3.19355
13.62	1207	3.19355
13.7801	1204	3.19355
13.87	1206	3.19355
13.95	1208	3.19355
14.03	1219	3.19355
14.12	1228	3.19355
14.22	1230	3.19355
14.3	1217	3.19355
14.38	1213	3.19355
14.58	1213	3.19355
14.67	1207	3.19355
14.75	1207	3.19355
14.93	1216	3.19355
15.02	1217	3.19355
15.2	1210	3.19355
15.28	1197	3.19355
15.37	1192	3.19355
15.46	1197	3.19355
15.55	1195	3.19355
15.63	1197	3.19355
15.77	1206	3.19355
15.9101	1204	3.19355
16	1187	3.19355
16.1	1187	3.19355
16.25	1185	3.19355
16.41	1191	3.19355
16.5008	1200	3.19355
16.7	1195	3.19355
16.79	1192	3.19355
16.97	1187	3.19355
17.06	1177	3.19355
17.15	1148	3.19355
17.25	1109	3.19355
17.33	1082	3.19355
17.48	1053	3.19355
17.56	1013	3.19355
17.76	981	3.19355
17.85	976	3.19355
18.08	972	3.19355
18.16	962	3.19355
18.32	958	3.19355
18.41	937	3.19355
18.5	910	3.19355
18.58	910	3.19355
18.66	903	3.19355
18.78	883	3.19355
18.86	869	3.19355
19.0201	859	3.19355
19.11	863	3.19355
19.2	853	3.19355
19.3	829	3.19355
19.49	832	3.19355
19.57	823	3.19355
19.65	823	3.19355
19.8	831	3.19355
19.88	827	3.19355
20.05	830	3.19355
20.1301	810	2.12903
20.21	801	2.12903
20.3	797	2.12903
20.47	776	2.12903
20.55	763	2.12903
20.64	761	2.12903
20.72	766	2.12903
20.91	774	2.12903
20.99	763	2.12903
21.07	765	2.12903
21.23	733	2.12903
21.31	731	2.12903
21.44	746	2.12903
21.52	724	2.12903
21.6	725	2.12903
21.7	739	2.12903
21.91	717	2.12903
21.99	733	2.12903
22.07	750	2.12903
22.15	742	2.12903
22.24	728	2.12903
22.43	736	2.12903
22.52	729	2.12903
22.6801	717	2.12903
22.76	715	2.12903
22.88	698	2.12903
22.99	688	2.12903
23.08	698	2.12903
23.16	709	2.12903
23.24	713	2.12903
23.37	702	2.12903
23.52	694	2.12903
23.6101	701	2.12903
23.69	695	2.12903
23.78	698	2.12903
23.99	698	2.12903
24.08	686	2.12903
24.16	682	2.12903
24.31	678	2.12903
24.47	663	2.12903
24.5501	680	1.06452
24.63	687	1.06452
24.71	680	1.06452
24.7901	673	1.06452
24.98	666	1.06452
25.06	667	1.06452
25.14	657	1.06452
25.23	653	1.06452
25.31	639	1.06452
25.48	647	1.06452
25.56	660	1.06452
25.72	671	1.06452
25.81	653	1.06452
25.94	652	1.06452
26.02	655	1.06452
26.11	660	1.06452
26.2	658	1.06452
26.28	653	1.06452
26.4101	654	1.06452
26.57	658	1.06452
26.66	661	1.06452
26.74	655	1.06452
26.82	650	1.06452
27.03	660	1.06452
27.12	648	1.06452
27.26	648	1.06452
27.3401	649	1.06452
27.4202	644	1.06452
27.5801	641	1.06452
27.67	639	1.06452
27.76	641	1.06452
27.89	646	1.06452
28.07	639	1.06452
28.22	645	1.06452
28.31	644	1.06452
28.4701	634	1.06452
28.56	640	1.06452
28.74	646	1.06452
28.82	644	1.06452
28.91	632	1.06452
28.99	641	1.06452
29.09	624	1.06452
29.17	626	1.06452
29.26	636	1.06452
29.44	632	1.06452
29.52	632	1.06452
29.6801	636	1.06452
29.76	627	1.06452
29.92	627	1.06452
30.01	631	1.06452
30.11	626	1.06452
30.19	623	1.06452
30.27	625	1.06452
30.42	628	1.06452
30.53	626	1.06452
30.65	621	1.06452
30.73	634	1.06452
30.81	641	1.06452
30.89	634	1.06452
30.97	629	1.06452
31.15	633	1.06452
31.23	633	1.06452
31.31	629	1.06452
31.47	623	1.06452
31.55	608	1.06452
31.63	614	1.06452
31.71	618	1.06452
31.84	619	1.06452
31.93	613	1.06452
32.02	618	1.06452
32.1	620	1.06452
32.19	619	1.06452
32.27	620	1.06452
32.35	625	1.06452
32.44	622	1.06452
32.6	629	1.06452
32.7	628	1.06452
32.79	625	1.06452
32.99	623	1.06452
33.07	624	1.06452
33.17	614	1.06452
33.32	613	1.06452
33.4	616	1.06452
33.49	610	1.06452
33.67	619	1.06452
33.7501	615	1.06452
33.84	616	1.06452
33.95	624	1.06452
34.09	625	1.06452
34.17	628	1.06452
34.35	623	1.06452
34.44	616	1.06452
34.59	615	1.06452
34.67	630	1.06452
34.82	625	1.06452
34.92	615	1.06452
35.0201	615	1.06452
35.1	610	1.06452
35.19	616	1.06452
35.29	620	1.06452
35.48	619	1.06452
35.5701	618	1.06452
35.67	611	1.06452
35.75	607	1.06452
35.83	612	1.06452
36.07	623	1.06452
36.15	632	1.06452
36.31	614	1.06452
36.42	611	1.06452
36.51	621	1.06452
36.5901	628	1.06452
36.68	623	1.06452
36.8	620	1.06452
36.88	624	1.06452
37.02	613	1.06452
37.1401	621	1.06452
37.23	613	1.06452
37.32	621	1.06452
37.53	628	1.06452
37.62	619	1.06452
37.7	619	1.06452
37.87	625	1.06452
37.9501	633	1.06452
38.03	625	1.06452
38.12	625	1.06452
38.2	631	1.06452
38.29	627	1.06452
38.4301	630	1.06452
38.52	690	1.06452
38.68	778	1.06452
38.77	818	1.06452
38.9701	882	1.06452
39.05	943	1.06452
39.13	958	1.06452
39.32	968	1.06452
39.4	983	1.06452
39.55	999	1.06452
39.63	1037	1.06452
39.72	1058	1.06452
39.81	1081	1.06452
39.9	1088	2.12903
39.98	1106	2.12903
40.07	1116	2.12903
40.23	1118	2.12903
40.41	1137	2.12903
40.53	1134	2.12903
40.61	1098	2.12903
40.7	1047	2.12903
40.78	1025	2.12903
40.86	989	2.12903
41.03	992	2.12903
41.16	1063	2.12903
41.25	1149	2.12903
41.35	1224	2.12903
41.52	1261	2.12903
41.61	1288	2.12903
41.76	1293	2.12903
41.85	1310	3.19355
41.93	1314	3.19355
42.01	1326	3.19355
42.1	1332	3.19355
42.18	1335	3.19355
42.26	1350	3.19355
42.35	1350	3.19355
42.52	1359	3.19355
42.6	1374	3.19355
42.68	1374	3.19355
42.7601	1378	3.19355
42.9	1402	3.19355
43.08	1408	3.19355
43.26	1404	3.19355
43.35	1410	3.19355
43.5	1430	3.19355
43.5801	1424	3.19355
43.71	1418	3.19355
43.8	1420	3.19355
44	1432	3.19355
44.11	1432	3.19355
44.28	1458	4.25806
44.36	1475	4.25806
44.51	1480	4.25806
44.67	1489	4.25806
44.83	1507	4.25806
44.9101	1514	4.25806
45	1512	4.25806
45.11	1524	4.25806
