@16 22 
@16 23 
@16 
@16 1 65535 
@16 12 1 
@16 21 
@16 22 
@16 23 
@16 
@16 1 65535 
@16 12 1 
@16 21 
@16 22 
@16 23 
@16 
@16 1 65535 
@16 12 1 
@16 21 
@16 22 
@16 23 
@16 
@16 1 65535 
@16 12 1 
@16 21 
@16 22 
@16 23 
@16 
@16 1 65535 
@16 12 1 
@16 21 
@16 22 
@16 23 
@16 
@16 1 65535 
@16 12 1 
@16 21 
@16 22 
@16 23 
@16 
@16 1 65535 
@16 12 1 
@16 21 
@16 22 
@16 23 
@16 
@16 1 65535 
@16 12 1 
@16 21 
@16 22 
@16 23 
@16 
@16 1 65535 
@16 12 1 
@16 21 
@16 22 
@16 23 
@16 
@16 1 65535 
@16 12 1 
@16 21 
@16 22 
@16 23 
@16 
@16 1 65535 
@16 5 
@16 12 214 
@16 5 
@16 12 212 
@16 5 
@16 12 212 
@16 5 
@16 12 213 
@16 5 
@16 12 213 
@16 5 
@16 5 
@16 12 1 
@16 12 0 
@16 12 7 
@16 12 6 
@16 12 6 
@16 12 9 
@16 12 2 
@16 12 4 
@16 21 
@16 22 
@16 23 
@16 
@16 1 65535 
@16 3 500000 
@16 
@16 1 65535 
@16 211 65524 
@16 193 9 10 
@16 12 10 
@16 193 7 10 
@16 12 10 
@16 
@16 1 65535 
@16 12 1 
@16 12 0 
@16 12 7 
@16 12 6 
@16 12 6 
@16 12 9 
@16 12 2 
@16 12 4 
@16 21 
@16 22 
@16 23 
@16 
@16 1 65535 
@16 12 1 
@16 12 0 
@16 12 7 
@16 12 6 
@16 12 6 
@16 12 9 
@16 12 2 
@16 12 4 
@16 21 
@16 5 
@16 22 
@16 23 
@16 
@16 1 65535 
@16 3 500000 
@16 
@16 1 65535 
@16 5 
@16 8 
@16 9 
@16 135 200000 1070735 2147483647 0 0 
@16 128 
@16 10 
@16 
@16 1 65535 
@16 12 1 
@16 12 0 
@16 12 7 
@16 12 6 
@16 12 6 
@16 12 9 
@16 12 2 
@16 12 4 
@16 21 
@16 22 
@16 23 
@16 
@16 1 65535 
@16 12 1 
@16 12 0 
@16 12 7 
@16 12 6 
@16 12 6 
@16 12 9 
@16 12 2 
@16 12 4 
@16 5 
@16 21 
@16 22 
@16 23 
@16 
@16 1 65535 
@16 3 500000 
@16 
@16 1 65535 
@16 5 
@16 8 
@16 9 
@16 135 -200000 1070735 2147483647 0 0 
@16 128 
@16 10 
@16 
@16 1 65535 
@16 12 1 
@16 12 0 
@16 12 7 
@16 12 6 
@16 12 6 
@16 12 9 
@16 12 2 
@16 12 4 
@16 21 
@16 22 
@16 23 
@16 
@16 1 65535 
@16 12 1 
@16 12 0 
@16 12 7 
@16 12 6 
@16 12 6 
@16 12 9 
@16 5 
@16 12 2 
@16 12 4 
@16 21 
@16 22 
@16 23 
@16 
@16 1 65535 
@16 3 500000 
@16 
@16 1 65535 
@16 5 
@16 8 
@16 9 
@16 135 200000 1070735 2147483647 0 0 
@16 128 
@16 10 
@16 
@16 1 65535 
@16 12 1 
@16 12 0 
@16 12 7 
@16 12 6 
@16 12 6 
@16 12 9 
@16 12 2 
@16 12 4 
@16 21 
@16 22 
@16 23 
@16 
@16 1 65535 
@16 12 1 
@16 12 0 
@16 12 7 
@16 12 6 
@16 5 
@16 12 6 
@16 12 9 
@16 12 2 
@16 12 4 
@16 21 
@16 22 
@16 23 
@16 
@16 1 65535 
@16 3 500000 
@16 
@16 1 65535 
@16 5 
@16 8 
@16 9 
@16 135 -200000 1070735 2147483647 0 0 
@16 128 
@16 10 
@16 
@16 1 65535 
@16 12 1 
@16 12 0 
@16 12 7 
@16 12 6 
@16 12 6 
@16 12 9 
@16 12 2 
@16 12 4 
@16 21 
@16 22 
@16 23 
@16 
@16 1 65535 
@16 12 1 
@16 12 0 
@16 12 7 
@16 12 6 
@16 12 6 
@16 12 9 
@16 12 2 
@16 5 
@16 12 4 
@16 21 
@16 22 
@16 23 
@16 
@16 1 65535 
@16 3 500000 
@16 
@16 1 65535 
@16 5 
@16 8 
@16 9 
@16 135 200000 1070735 2147483647 0 0 
@16 128 
@16 10 
@16 
@16 1 65535 
@16 12 1 
@16 12 0 
@16 12 7 
@16 12 6 
@16 12 6 
@16 12 9 
@16 12 2 
@16 12 4 
@16 21 
@16 22 
@16 23 
@16 
@16 1 65535 
@16 12 1 
@16 12 0 
@16 5 
@16 12 7 
@16 12 6 
@16 12 6 
@16 12 9 
@16 12 2 
@16 12 4 
@16 21 
@16 22 
@16 23 
@16 
@16 1 65535 
@16 3 500000 
@16 
@16 1 65535 
@16 5 
@16 8 
@16 9 
@16 135 -200000 1070735 2147483647 0 0 
@16 128 
@16 10 
@16 
@16 1 65535 
@16 12 1 
@16 12 0 
@16 12 7 
@16 12 6 
@16 12 6 
@16 12 9 
@16 12 2 
@16 12 4 
@16 21 
@16 22 
@16 23 
@16 
@16 1 65535 
@16 12 1 
@16 12 0 
@16 12 7 
@16 12 6 
@16 12 6 
@16 12 9 
@16 12 2 
@16 12 4 
@16 21 
@16 22 
@16 23 
@16 
@16 1 65535 
@16 12 1 
@16 12 0 
@16 12 7 
@16 12 6 
@16 12 6 
@16 12 9 
@16 5 
@16 12 2 
@16 12 4 
@16 21 
@16 22 
@16 23 
@16 
@16 1 65535 
@16 3 500000 
@16 
@16 1 65535 
@16 5 
@16 8 
@16 9 
@16 135 200000 1070735 2147483647 0 0 
@16 128 
@16 10 
@16 
@16 1 65535 
@16 12 1 
@16 12 0 
@16 12 7 
@16 12 6 
@16 12 6 
@16 12 9 
@16 12 2 
@16 12 4 
@16 21 
@16 22 
@16 23 
@16 
@16 1 65535 
@16 12 1 
@16 12 0 
@16 12 7 
@16 5 
@16 12 6 
@16 12 6 
@16 12 9 
@16 12 2 
@16 12 4 
@16 21 
@16 22 
@16 23 
@16 
@16 1 65535 
@16 3 500000 
@16 
@16 1 65535 
@16 5 
@16 8 
@16 9 
@16 135 -200000 1070735 2147483647 0 0 
@16 128 
@16 10 
@16 
@16 1 65535 
@16 12 1 
@16 12 0 
@16 12 7 
@16 12 6 
@16 12 6 
@16 12 9 
@16 12 2 
@16 12 4 
@16 21 
@16 22 
@16 23 
@16 
@16 1 65535 
@16 12 1 
@16 12 0 
@16 12 7 
@16 12 6 
@16 5 
@16 12 6 
@16 12 9 
@16 12 2 
@16 12 4 
@16 21 
@16 22 
@16 23 
@16 
@16 1 65535 
@16 3 500000 
@16 
@16 1 65535 
@16 5 
@16 8 
@16 9 
@16 135 200000 1070735 2147483647 0 0 
@16 128 
@16 10 
@16 
@16 1 65535 
@16 12 1 
@16 12 0 
@16 12 7 
@16 12 6 
@16 12 6 
@16 12 9 
@16 12 2 
@16 12 4 
@16 21 
@16 22 
@16 23 
@16 
@16 5 
@16 1 65535 
@16 12 1 
@16 12 0 
@16 12 7 
@16 12 6 
@16 12 6 
@16 12 9 
@16 12 2 
@16 12 4 
@16 21 
@16 22 
@16 23 
@16 
@16 1 65535 
@16 3 500000 
@16 
@16 1 65535 
@16 5 
@16 8 
@16 9 
@16 135 -200000 1070735 2147483647 0 0 
@16 128 
@16 10 
@16 5 
@16 
@16 1 65535 
@16 12 1 
@16 12 0 
@16 12 7 
@16 12 6 
@16 12 6 
@16 12 9 
@16 12 2 
@16 12 4 
@16 21 
@16 22 
@16 23 
@16 
@16 1 65535 
@16 3 500000 
@16 
@16 
@16 
@16 
@16 
@16 
@16 
@16 
@16 
@16 1 65535 
@16 
@16 1 65535 
@16 
@16 1 65535 
@16 
@16 1 65535 
@16 
@16 1 65535 
@16 5 
@16 8 
@16 9 
@16 135 200000 1070735 2147483647 0 0 
@16 128 
@16 10 
@16 
@16 1 65535 
@16 12 1 
@16 12 0 
@16 12 7 
@16 12 6 
@16 12 6 
@16 12 9 
@16 12 2 
@16 12 4 
@16 21 
@16 5 
@16 22 
@16 23 
@16 
@16 1 65535 
@16 3 500000 
@16 
@16 
@16 
@16 
@16 
@16 
@16 
@16 
@16 
@16 
@16 
@16 
@16 
@16 
@16 
@16 
@16 
@16 
@16 
@16 1 65535 
@16 5 
@16 8 
@16 9 
@16 135 -200000 1070735 2147483647 0 0 
@16 128 
@16 10 
@16 
@16 1 65535 
@16 12 1 
@16 12 0 
@16 12 7 
@16 12 6 
@16 5 
@16 12 6 
@16 12 9 
@16 12 2 
@16 12 4 
@16 21 
@16 22 
@16 23 
@16 
@16 1 65535 
@16 3 500000 
@16 
@16 
@16 
@16 
@16 
@16 
@16 
@16 1 65535 
@16 
@16 1 65535 
@16 
@16 1 65535 
@16 
@16 1 65535 
@16 
@16 1 65535 
@16 
@16 1 65535 
@16 5 
@16 8 
@16 9 
@16 135 200000 1070735 2147483647 0 0 
@16 128 
@16 10 
@16 5 
@16 
@16 1 65535 
@16 3 500000 
@16 
@16 1 65535 
@16 
@16 1 65535 
@16 
@16 
@16 
@16 
@16 
@16 
@16 
@16 
@16 
@16 
@16 1 65535 
@16 5 
@16 8 
@16 9 
@16 135 -200000 1070735 2147483647 0 0 
@16 128 
@16 10 
@16 
@16 1 65535 
@16 12 1 
@16 12 0 
@16 12 7 
@16 12 6 
@16 12 6 
@16 12 9 
@16 12 2 
@16 12 4 
@16 21 
@16 22 
@16 23 
@16 
@16 1 65535 
@16 12 1 
@16 12 0 
@16 12 7 
@16 12 6 
@16 12 6 
@16 12 9 
@16 12 2 
@16 12 4 
@16 21 
@16 22 
@16 23 
@16 
@16 1 65535 
@16 12 1 
@16 12 0 
@16 12 7 
@16 12 6 
@16 12 6 
@16 12 9 
@16 12 2 
@16 12 4 
@16 21 
@16 22 
@16 23 
@16 
@16 1 65535 
@16 12 1 
@16 12 0 
@16 12 7 
@16 12 6 
@16 12 6 
@16 12 9 
@16 12 2 
@16 12 4 
@16 21 
@16 22 
@16 23 
@16 
@16 1 65535 
@16 12 1 
@16 12 0 
@16 12 7 
@16 12 6 
@16 12 6 
@16 12 9 
@16 12 2 
@16 12 4 
@16 21 
@16 22 
@16 23 
@16 
@16 1 65535 
@16 12 1 
@16 12 0 
@16 12 7 
@16 5 
@16 12 6 
@16 12 6 
@16 12 9 
@16 12 2 
@16 12 4 
@16 21 
@16 22 
@16 23 
@16 
@16 1 65535 
@16 3 500000 
@16 
@16 1 65535 
@16 5 
@16 8 
@16 9 
@16 135 200000 1070735 2147483647 0 0 
@16 128 
@16 10 
@16 
@16 1 65535 
@16 12 1 
@16 12 0 
@16 12 7 
@16 12 6 
@16 12 6 
@16 12 9 
@16 12 2 
@16 12 4 
@16 21 
@16 22 
@16 23 
@16 
@16 1 65535 
@16 12 1 
@16 12 0 
@16 12 7 
@16 12 6 
@16 12 6 
@16 12 9 
@16 12 2 
@16 12 4 
@16 21 
@16 22 
@16 23 
@16 
@16 1 65535 
@16 12 1 
@16 12 0 
@16 12 7 
@16 5 
@16 12 6 
@16 12 6 
@16 12 9 
@16 12 2 
@16 12 4 
@16 21 
@16 22 
@16 23 
@16 
@16 1 65535 
@16 3 500000 
@16 
@16 1 65535 
@16 5 
@16 8 
@16 9 
@16 135 200000 1070735 2147483647 0 0 
@16 128 
@16 10 
@16 
@16 1 65535 
@16 12 1 
@16 12 0 
@16 12 7 
@16 12 6 
@16 12 6 
@16 12 9 
@16 12 2 
@16 12 4 
@16 21 
@16 22 
@16 23 
@16 
@16 1 65535 
@16 12 1 
@16 12 0 
@16 5 
@16 12 7 
@16 12 6 
@16 12 6 
@16 12 9 
@16 12 2 
@16 12 4 
@16 21 
@16 22 
@16 23 
@16 
@16 1 65535 
@16 3 500000 
@16 
@16 1 65535 
@16 5 
@16 8 
@16 9 
@16 135 -200000 1070735 2147483647 0 0 
@16 128 
@16 10 
@16 
@16 1 65535 
@16 12 1 
@16 12 0 
@16 12 7 
@16 12 6 
@16 12 6 
@16 12 9 
@16 12 2 
@16 12 4 
@16 21 
@16 22 
@16 23 
@16 
@16 1 65535 
@16 12 1 
@16 12 0 
@16 12 7 
@16 12 6 
@16 12 6 
@16 12 9 
@16 12 2 
@16 12 4 
@16 21 
@16 22 
@16 23 
@16 
@16 1 65535 
@16 12 1 
@16 12 0 
@16 12 7 
@16 12 6 
@16 12 6 
@16 12 9 
@16 12 2 
@16 12 4 
@16 21 
@16 22 
@16 23 
@16 
@16 1 65535 
@16 12 1 
@16 21 
@16 22 
@16 23 
@16 
@16 1 65535 
@16 12 1 
@16 21 
@16 22 
@16 23 
@16 
@16 1 65535 
@16 12 1 
@16 21 
@16 22 
@16 23 
@16 
@16 1 65535 
@16 12 1 
@16 21 
@16 22 
@16 23 
@16 
@16 1 65535 
@16 12 1 
@16 21 
@16 22 
@16 23 

