Connecting to /dev/ttyS0..
TX: @16 22 
RC: # 10 0016 0000
TX: @16 23 
RC: # 10 0017 0001
TX: @16 
RC: # 10 0000 2000
TX: @16 1 65535 
RC: * 10
TX: @16 12 1 
RC: # 10 000C FFFF FFFF
TX: @16 21 
RC: # 10 0015 F0F0
TX: @16 22 
RC: # 10 0016 0000
TX: @16 23 
RC: # 10 0017 0001
TX: @16 
RC: * 10
TX: @16 1 65535 
RC: * 10
TX: @16 12 1 
RC: # 10 000C FFFF FFFF
TX: @16 21 
RC: # 10 0015 F0F0
TX: @16 22 
RC: # 10 0016 0000
TX: @16 23 
RC: # 10 0017 0001
TX: @16 
RC: * 10
TX: @16 1 65535 
RC: * 10
TX: @16 12 1 
RC: # 10 000C FFFF FFFF
TX: @16 21 
RC: # 10 0015 F0F0
TX: @16 22 
RC: # 10 0016 0000
TX: @16 23 
RC: # 10 0017 0001
TX: @16 
RC: * 10
TX: @16 1 65535 
RC: * 10
TX: @16 12 1 
RC: # 10 000C FFFF FFFF
TX: @16 21 
RC: # 10 0015 F0F0
TX: @16 22 
RC: # 10 0016 0000
TX: @16 23 
RC: # 10 0017 0001
TX: @16 
RC: * 10
TX: @16 1 65535 
RC: * 10
TX: @16 12 1 
RC: # 10 000C FFFF FFFF
TX: @16 21 
RC: # 10 0015 F0F0
TX: @16 22 
RC: # 10 0016 0000
TX: @16 23 
RC: # 10 0017 0001
TX: @16 
RC: * 10
TX: @16 1 65535 
RC: * 10
TX: @16 12 1 
RC: # 10 000C FFFF FFFF
TX: @16 21 
RC: # 10 0015 F0F0
TX: @16 22 
RC: # 10 0016 0000
TX: @16 23 
RC: # 10 0017 0001
TX: @16 
RC: * 10
TX: @16 1 65535 
RC: * 10
TX: @16 12 1 
RC: # 10 000C FFFF FFFF
TX: @16 21 
RC: # 10 0015 F0F0
TX: @16 22 
RC: # 10 0016 0000
TX: @16 23 
RC: # 10 0017 0001
TX: @16 
RC: * 10
TX: @16 1 65535 
RC: * 10
TX: @16 12 1 
RC: # 10 000C FFFF FFFF
TX: @16 21 
RC: # 10 0015 F0F0
TX: @16 22 
RC: # 10 0016 0000
TX: @16 23 
RC: # 10 0017 0001
TX: @16 
RC: * 10
TX: @16 1 65535 
RC: * 10
TX: @16 12 1 
RC: # 10 000C FFFF FFFF
TX: @16 21 
RC: # 10 0015 F0F0
TX: @16 22 
RC: # 10 0016 0000
TX: @16 23 
RC: # 10 0017 0001
TX: @16 
RC: * 10
TX: @16 1 65535 
RC: * 10
TX: @16 12 1 
RC: # 10 000C FFFF FFFF
TX: @16 21 
RC: # 10 0015 F0F0
TX: @16 22 
RC: # 10 0016 0000
TX: @16 23 
RC: # 10 0017 0001
TX: @16 
RC: * 10
TX: @16 1 65535 
RC: * 10
TX: @16 5 
RC: # 10 0005 0906 2002 0438 C815
TX: @16 12 214 
RC: # 10 000C 6FBE 3C4B
TX: @16 5 
RC: # 10 0005 0906 2002 0438 C815
TX: @16 12 212 
RC: # 10 000C 7AD7 7F81
TX: @16 5 
RC: # 10 0005 0906 2002 0438 C815
TX: @16 12 212 
RC: # 10 000C 7ADD 7F80
TX: @16 5 
RC: # 10 0005 0906 2002 0438 C815
TX: @16 12 213 
RC: # 10 000C 7F6B 7F6B
TX: @16 5 
RC: # 10 0005 0906 2002 0438 C815
TX: @16 12 213 
RC: # 10 000C 7F67 7F6C
TX: @16 5 
RC: # 10 0005 0906 2002 0438 C815
TX: @16 5 
RC: # 10 0005 0906 2002 0438 C815
TX: @16 12 1 
RC: # 10 000C FFFF FFFF
TX: @16 12 0 
RC: # 10 000C 0000 0000
TX: @16 12 7 
RC: # 10 000C 0000 0000
TX: @16 12 6 
RC: # 10 000C 0027 0001
TX: @16 12 6 
RC: # 10 000C 0027 0001
TX: @16 12 9 
RC: # 10 000C 0003 1770
TX: @16 12 2 
RC: # 10 000C 0000 0000
TX: @16 12 4 
RC: # 10 000C 0000 0000
TX: @16 21 
RC: # 10 0015 F0F0
TX: @16 22 
RC: # 10 0016 0000
TX: @16 23 
RC: # 10 0017 0001
TX: @16 
RC: * 10
TX: @16 1 65535 
RC: * 10
TX: @16 3 500000 
RC: * 10
TX: @16 
RC: # 10 0000 2000
TX: @16 1 65535 
RC: * 10
TX: @16 211 65524 
RC: * 10
TX: @16 193 9 10 
RC: * 10
TX: @16 12 10 
RC: # 10 000C 0000 0257
TX: @16 193 7 10 
RC: * 10
TX: @16 12 10 
RC: # 10 000C 0000 6FCE
TX: @16 
RC: # 10 0000 2000
TX: @16 1 65535 
RC: * 10
TX: @16 12 1 
RC: # 10 000C FFFF FFFF
TX: @16 12 0 
RC: # 10 000C 0000 0000
TX: @16 12 7 
RC: # 10 000C 0000 0000
TX: @16 12 6 
RC: # 10 000C 0027 0001
TX: @16 12 6 
RC: # 10 000C 0027 0001
TX: @16 12 9 
RC: # 10 000C 0003 1770
TX: @16 12 2 
RC: # 10 000C 0000 0000
TX: @16 12 4 
RC: # 10 000C 0000 0000
TX: @16 21 
RC: # 10 0015 F0F0
TX: @16 22 
RC: # 10 0016 0000
TX: @16 23 
RC: # 10 0017 0001
TX: @16 
RC: * 10
TX: @16 1 65535 
RC: * 10
TX: @16 12 1 
RC: # 10 000C FFFF FFFF
TX: @16 12 0 
RC: # 10 000C 0000 0000
TX: @16 12 7 
RC: # 10 000C 0000 0000
TX: @16 12 6 
RC: # 10 000C 0027 0001
TX: @16 12 6 
RC: # 10 000C 0027 0001
TX: @16 12 9 
RC: # 10 000C 0003 1770
TX: @16 12 2 
RC: # 10 000C 0000 0000
TX: @16 12 4 
RC: # 10 000C 0000 0000
TX: @16 21 
RC: # 10 0015 F0F0
TX: @16 5 
RC: # 10 0005 0906 2002 0438 C815
TX: @16 22 
RC: # 10 0016 0000
TX: @16 23 
RC: # 10 0017 0001
TX: @16 
RC: * 10
TX: @16 1 65535 
RC: * 10
TX: @16 3 500000 
RC: * 10
TX: @16 
RC: # 10 0000 2000
TX: @16 1 65535 
RC: * 10
TX: @16 5 
RC: # 10 0005 0906 2002 0438 C815
TX: @16 8 
RC: * 10
TX: @16 9 
RC: * 10
TX: @16 135 200000 1070735 2147483647 0 0 
RC: * 10
TX: @16 128 
RC: * 10
TX: @16 10 
RC: * 10
TX: @16 
RC: * 10
TX: @16 1 65535 
RC: * 10
TX: @16 12 1 
RC: # 10 000C 0000 1022
TX: @16 12 0 
RC: # 10 000C 0000 1D3C
TX: @16 12 7 
RC: # 10 000C 4D1F 4CE7
TX: @16 12 6 
RC: # 10 000C 0027 FFEF
TX: @16 12 6 
RC: # 10 000C 0027 0007
TX: @16 12 9 
RC: # 10 000C 0001 4DA1
TX: @16 12 2 
RC: # 10 000C 0000 93D6
TX: @16 12 4 
RC: # 10 000C 0000 0000
TX: @16 21 
RC: # 10 0015 F0F8
TX: @16 22 
RC: # 10 0016 0289
TX: @16 23 
RC: # 10 0017 0081
TX: @16 
RC: * 10
TX: @16 1 65535 
RC: * 10
TX: @16 12 1 
RC: # 10 000C 0001 72AD
TX: @16 12 0 
RC: # 10 000C 0001 91F0
TX: @16 12 7 
RC: # 10 000C 7E4C 7E24
TX: @16 12 6 
RC: # 10 000C 0169 003F
TX: @16 12 6 
RC: # 10 000C 0169 FFF9
TX: @16 12 9 
RC: # 10 000C 0001 4E20
TX: @16 12 2 
RC: # 10 000C 0002 2A16
TX: @16 12 4 
RC: # 10 000C 0000 0000
TX: @16 5 
RC: # 10 0005 0906 2002 0438 C815
TX: @16 21 
RC: # 10 0015 F0F8
TX: @16 22 
RC: # 10 0016 0289
TX: @16 23 
RC: # 10 0017 0081
TX: @16 
RC: * 10
TX: @16 1 65535 
RC: * 10
TX: @16 3 500000 
RC: * 10
TX: @16 
RC: * 10
TX: @16 1 65535 
RC: * 10
TX: @16 5 
RC: # 10 0005 0906 2002 0438 C815
TX: @16 8 
RC: ! 10 0008 0002
TX: @16 9 
RC: ! 10 0009 0002
TX: @16 135 -200000 1070735 2147483647 0 0 
RC: ! 10 0087 0002
TX: @16 128 
RC: * 10
TX: @16 10 
RC: * 10
TX: @16 
RC: # 10 0000 2000
TX: @16 1 65535 
RC: * 10
TX: @16 12 1 
RC: # 10 000C 0003 22F5
TX: @16 12 0 
RC: # 10 000C 0003 22F5
TX: @16 12 7 
RC: # 10 000C 0000 0000
TX: @16 12 6 
RC: # 10 000C 0169 0000
TX: @16 12 6 
RC: # 10 000C 0169 0000
TX: @16 12 9 
RC: # 10 000C 0003 1770
TX: @16 12 2 
RC: # 10 000C 0003 1476
TX: @16 12 4 
RC: # 10 000C 0000 0000
TX: @16 21 
RC: # 10 0015 F0F0
TX: @16 22 
RC: # 10 0016 0000
TX: @16 23 
RC: # 10 0017 0001
TX: @16 
RC: * 10
TX: @16 1 65535 
RC: * 10
TX: @16 12 1 
RC: # 10 000C 0003 22F5
TX: @16 12 0 
RC: # 10 000C 0003 22F5
TX: @16 12 7 
RC: # 10 000C 0000 0000
TX: @16 12 6 
RC: # 10 000C 0169 0000
TX: @16 12 6 
RC: # 10 000C 0169 0000
TX: @16 12 9 
RC: # 10 000C 0003 1770
TX: @16 5 
RC: # 10 0005 0906 2002 0438 C815
TX: @16 12 2 
RC: # 10 000C 0003 1476
TX: @16 12 4 
RC: # 10 000C 0000 0000
TX: @16 21 
RC: # 10 0015 F0F0
TX: @16 22 
RC: # 10 0016 0000
TX: @16 23 
RC: # 10 0017 0001
TX: @16 
RC: * 10
TX: @16 1 65535 
RC: * 10
TX: @16 3 500000 
RC: * 10
TX: @16 
RC: # 10 0000 2000
TX: @16 1 65535 
RC: * 10
TX: @16 5 
RC: # 10 0005 0906 2002 0438 C815
TX: @16 8 
RC: * 10
TX: @16 9 
RC: * 10
TX: @16 135 200000 1070735 2147483647 0 0 
RC: * 10
TX: @16 128 
RC: * 10
TX: @16 10 
RC: * 10
TX: @16 
RC: * 10
TX: @16 1 65535 
RC: * 10
TX: @16 12 1 
RC: # 10 000C 0003 3319
TX: @16 12 0 
RC: # 10 000C 0003 4040
TX: @16 12 7 
RC: # 10 000C 4C4A 4C19
TX: @16 12 6 
RC: # 10 000C 0169 FFF2
TX: @16 12 6 
RC: # 10 000C 0EA1 0EA1
TX: @16 12 9 
RC: # 10 000C 0001 4E20
TX: @16 12 2 
RC: # 10 000C 0003 6296
TX: @16 12 4 
RC: # 10 000C 0000 0000
TX: @16 21 
RC: # 10 0015 F1F8
TX: @16 22 
RC: # 10 0016 0289
TX: @16 23 
RC: # 10 0017 0081
TX: @16 
RC: # 10 0000 0100
TX: @16 1 65535 
RC: * 10
TX: @16 12 1 
RC: # 10 000C 0003 707C
TX: @16 12 0 
RC: # 10 000C 0004 B505
TX: @16 12 7 
RC: # 10 000C 0000 0000
TX: @16 12 6 
RC: # 10 000C 7FFF 7FFF
TX: @16 5 
RC: # 10 0005 0906 2002 0438 C815
TX: @16 12 6 
RC: # 10 000C 7FFF 7FFF
TX: @16 12 9 
RC: # 10 000C 0001 4E20
TX: @16 12 2 
RC: # 10 000C 0003 6296
TX: @16 12 4 
RC: # 10 000C 0000 0000
TX: @16 21 
RC: # 10 0015 F1F8
TX: @16 22 
RC: # 10 0016 0289
TX: @16 23 
RC: # 10 0017 0081
TX: @16 
RC: # 10 0000 0100
TX: @16 1 65535 
RC: * 10
TX: @16 3 500000 
RC: * 10
TX: @16 
RC: # 10 0000 0100
TX: @16 1 65535 
RC: * 10
TX: @16 5 
RC: # 10 0005 0906 2002 0438 C815
TX: @16 8 
RC: ! 10 0008 0002
TX: @16 9 
RC: ! 10 0009 0002
TX: @16 135 -200000 1070735 2147483647 0 0 
RC: ! 10 0087 0002
TX: @16 128 
RC: * 10
TX: @16 10 
RC: * 10
TX: @16 
RC: # 10 0000 2100
TX: @16 1 65535 
RC: * 10
TX: @16 12 1 
RC: # 10 000C 0003 7079
TX: @16 12 0 
RC: # 10 000C 0006 45EA
TX: @16 12 7 
RC: # 10 000C 0000 0000
TX: @16 12 6 
RC: # 10 000C 7FFF 7FFF
TX: @16 12 6 
RC: # 10 000C 7FFF 7FFF
TX: @16 12 9 
RC: # 10 000C 0001 3A98
TX: @16 12 2 
RC: # 10 000C 0003 6296
TX: @16 12 4 
RC: # 10 000C 0000 0000
TX: @16 21 
RC: # 10 0015 F3F0
TX: @16 22 
RC: # 10 0016 0000
TX: @16 23 
RC: # 10 0017 0001
TX: @16 
RC: # 10 0000 0300
TX: @16 1 65535 
RC: * 10
TX: @16 12 1 
RC: # 10 000C 0003 7078
TX: @16 12 0 
RC: # 10 000C 0006 45EA
TX: @16 12 7 
RC: # 10 000C 0000 0000
TX: @16 12 6 
RC: # 10 000C 7FFF 7FFF
TX: @16 12 6 
RC: # 10 000C 7FFF 7FFF
TX: @16 12 9 
RC: # 10 000C 0001 3A98
TX: @16 12 2 
RC: # 10 000C 0003 6296
TX: @16 5 
RC: # 10 0005 0906 2002 0438 C815
TX: @16 12 4 
RC: # 10 000C 0000 0000
TX: @16 21 
RC: # 10 0015 F3F0
TX: @16 22 
RC: # 10 0016 0000
TX: @16 23 
RC: # 10 0017 0001
TX: @16 
RC: # 10 0000 0300
TX: @16 1 65535 
RC: * 10
TX: @16 3 500000 
RC: * 10
TX: @16 
RC: # 10 0000 2300
TX: @16 1 65535 
RC: * 10
TX: @16 5 
RC: # 10 0005 0906 2002 0438 C815
TX: @16 8 
RC: * 10
TX: @16 9 
RC: * 10
TX: @16 135 200000 1070735 2147483647 0 0 
RC: * 10
TX: @16 128 
RC: * 10
TX: @16 10 
RC: * 10
TX: @16 
RC: # 10 0000 0300
TX: @16 1 65535 
RC: * 10
TX: @16 12 1 
RC: # 10 000C 0003 7079
TX: @16 12 0 
RC: # 10 000C 0006 62AA
TX: @16 12 7 
RC: # 10 000C 0000 0000
TX: @16 12 6 
RC: # 10 000C 7FFF 7FFF
TX: @16 12 6 
RC: # 10 000C 7FFF 7FFF
TX: @16 12 9 
RC: # 10 000C 0001 4E20
TX: @16 12 2 
RC: # 10 000C 0003 6296
TX: @16 12 4 
RC: # 10 000C 0000 0000
TX: @16 21 
RC: # 10 0015 F3F8
TX: @16 22 
RC: # 10 0016 0289
TX: @16 23 
RC: # 10 0017 0081
TX: @16 
RC: # 10 0000 0100
TX: @16 1 65535 
RC: * 10
TX: @16 12 1 
RC: # 10 000C 0003 7079
TX: @16 12 0 
RC: # 10 000C 0007 D6DA
TX: @16 5 
RC: # 10 0005 0906 2002 0438 C815
TX: @16 12 7 
RC: # 10 000C 0000 0000
TX: @16 12 6 
RC: # 10 000C 7FFF 7FFF
TX: @16 12 6 
RC: # 10 000C 7FFF 7FFF
TX: @16 12 9 
RC: # 10 000C 0001 4E20
TX: @16 12 2 
RC: # 10 000C 0003 6296
TX: @16 12 4 
RC: # 10 000C 0000 0000
TX: @16 21 
RC: # 10 0015 F3F8
TX: @16 22 
RC: # 10 0016 0289
TX: @16 23 
RC: # 10 0017 0081
TX: @16 
RC: # 10 0000 0100
TX: @16 1 65535 
RC: * 10
TX: @16 3 500000 
RC: * 10
TX: @16 
RC: # 10 0000 0100
TX: @16 1 65535 
RC: * 10
TX: @16 5 
RC: # 10 0005 0906 2002 0438 C815
TX: @16 8 
RC: ! 10 0008 0002
TX: @16 9 
RC: ! 10 0009 0002
TX: @16 135 -200000 1070735 2147483647 0 0 
RC: ! 10 0087 0002
TX: @16 128 
RC: * 10
TX: @16 10 
RC: * 10
TX: @16 
RC: # 10 0000 2100
TX: @16 1 65535 
RC: * 10
TX: @16 12 1 
RC: # 10 000C 0003 7077
TX: @16 12 0 
RC: # 10 000C 0009 6952
TX: @16 12 7 
RC: # 10 000C 0000 0000
TX: @16 12 6 
RC: # 10 000C 7FFF 7FFF
TX: @16 12 6 
RC: # 10 000C 7FFF 7FFF
TX: @16 12 9 
RC: # 10 000C 0001 3A98
TX: @16 12 2 
RC: # 10 000C 0003 6296
TX: @16 12 4 
RC: # 10 000C 0000 0000
TX: @16 21 
RC: # 10 0015 F3F0
TX: @16 22 
RC: # 10 0016 0000
TX: @16 23 
RC: # 10 0017 0001
TX: @16 
RC: # 10 0000 0300
TX: @16 1 65535 
RC: * 10
TX: @16 12 1 
RC: # 10 000C 0003 7077
TX: @16 12 0 
RC: # 10 000C 0009 6952
TX: @16 12 7 
RC: # 10 000C 0000 0000
TX: @16 12 6 
RC: # 10 000C 7FFF 7FFF
TX: @16 12 6 
RC: # 10 000C 7FFF 7FFF
TX: @16 12 9 
RC: # 10 000C 0001 3A98
TX: @16 12 2 
RC: # 10 000C 0003 6296
TX: @16 12 4 
RC: # 10 000C 0000 0000
TX: @16 21 
RC: # 10 0015 F3F0
TX: @16 22 
RC: # 10 0016 0000
TX: @16 23 
RC: # 10 0017 0001
TX: @16 
RC: # 10 0000 0300
TX: @16 1 65535 
RC: * 10
TX: @16 12 1 
RC: # 10 000C 0003 7077
TX: @16 12 0 
RC: # 10 000C 0009 6952
TX: @16 12 7 
RC: # 10 000C 0000 0000
TX: @16 12 6 
RC: # 10 000C 7FFF 7FFF
TX: @16 12 6 
RC: # 10 000C 7FFF 7FFF
TX: @16 12 9 
RC: # 10 000C 0001 3A98
TX: @16 5 
RC: # 10 0005 0906 2002 0438 C815
TX: @16 12 2 
RC: # 10 000C 0003 6296
TX: @16 12 4 
RC: # 10 000C 0000 0000
TX: @16 21 
RC: # 10 0015 F3F0
TX: @16 22 
RC: # 10 0016 0000
TX: @16 23 
RC: # 10 0017 0001
TX: @16 
RC: # 10 0000 0300
TX: @16 1 65535 
RC: * 10
TX: @16 3 500000 
RC: * 10
TX: @16 
RC: # 10 0000 2300
TX: @16 1 65535 
RC: * 10
TX: @16 5 
RC: # 10 0005 0906 2002 0438 C815
TX: @16 8 
RC: * 10
TX: @16 9 
RC: * 10
TX: @16 135 200000 1070735 2147483647 0 0 
RC: * 10
TX: @16 128 
RC: * 10
TX: @16 10 
RC: * 10
TX: @16 
RC: # 10 0000 0300
TX: @16 1 65535 
RC: * 10
TX: @16 12 1 
RC: # 10 000C 0003 7079
TX: @16 12 0 
RC: # 10 000C 0009 8622
TX: @16 12 7 
RC: # 10 000C 0000 0000
TX: @16 12 6 
RC: # 10 000C 7FFF 7FFF
TX: @16 12 6 
RC: # 10 000C 7FFF 7FFF
TX: @16 12 9 
RC: # 10 000C 0001 4E20
TX: @16 12 2 
RC: # 10 000C 0003 6296
TX: @16 12 4 
RC: # 10 000C 0000 0000
TX: @16 21 
RC: # 10 0015 F3F8
TX: @16 22 
RC: # 10 0016 0289
TX: @16 23 
RC: # 10 0017 0081
TX: @16 
RC: # 10 0000 0100
TX: @16 1 65535 
RC: * 10
TX: @16 12 1 
RC: # 10 000C 0003 7079
TX: @16 12 0 
RC: # 10 000C 000A FA62
TX: @16 12 7 
RC: # 10 000C 0000 0000
TX: @16 5 
RC: # 10 0005 0906 2002 0438 C815
TX: @16 12 6 
RC: # 10 000C 7FFF 7FFF
TX: @16 12 6 
RC: # 10 000C 7FFF 7FFF
TX: @16 12 9 
RC: # 10 000C 0001 4E20
TX: @16 12 2 
RC: # 10 000C 0003 6296
TX: @16 12 4 
RC: # 10 000C 0000 0000
TX: @16 21 
RC: # 10 0015 F3F8
TX: @16 22 
RC: # 10 0016 0289
TX: @16 23 
RC: # 10 0017 0081
TX: @16 
RC: # 10 0000 0100
TX: @16 1 65535 
RC: * 10
TX: @16 3 500000 
RC: * 10
TX: @16 
RC: # 10 0000 0100
TX: @16 1 65535 
RC: * 10
TX: @16 5 
RC: # 10 0005 0906 2002 0438 C815
TX: @16 8 
RC: ! 10 0008 0002
TX: @16 9 
RC: ! 10 0009 0002
TX: @16 135 -200000 1070735 2147483647 0 0 
RC: ! 10 0087 0002
TX: @16 128 
RC: * 10
TX: @16 10 
RC: * 10
TX: @16 
RC: # 10 0000 2100
TX: @16 1 65535 
RC: * 10
TX: @16 12 1 
RC: # 10 000C 0003 7077
TX: @16 12 0 
RC: # 10 000C 000C 8CBA
TX: @16 12 7 
RC: # 10 000C 0000 0000
TX: @16 12 6 
RC: # 10 000C 7FFF 7FFF
TX: @16 12 6 
RC: # 10 000C 7FFF 7FFF
TX: @16 12 9 
RC: # 10 000C 0001 3A98
TX: @16 12 2 
RC: # 10 000C 0003 6296
TX: @16 12 4 
RC: # 10 000C 0000 0000
TX: @16 21 
RC: # 10 0015 F3F0
TX: @16 22 
RC: # 10 0016 0000
TX: @16 23 
RC: # 10 0017 0001
TX: @16 
RC: # 10 0000 0300
TX: @16 1 65535 
RC: * 10
TX: @16 12 1 
RC: # 10 000C 0003 7077
TX: @16 12 0 
RC: # 10 000C 000C 8CBA
TX: @16 12 7 
RC: # 10 000C 0000 0000
TX: @16 12 6 
RC: # 10 000C 7FFF 7FFF
TX: @16 5 
RC: # 10 0005 0906 2002 0438 C815
TX: @16 12 6 
RC: # 10 000C 7FFF 7FFF
TX: @16 12 9 
RC: # 10 000C 0001 3A98
TX: @16 12 2 
RC: # 10 000C 0003 6296
TX: @16 12 4 
RC: # 10 000C 0000 0000
TX: @16 21 
RC: # 10 0015 F3F0
TX: @16 22 
RC: # 10 0016 0000
TX: @16 23 
RC: # 10 0017 0001
TX: @16 
RC: # 10 0000 0300
TX: @16 1 65535 
RC: * 10
TX: @16 3 500000 
RC: * 10
TX: @16 
RC: # 10 0000 2300
TX: @16 1 65535 
RC: * 10
TX: @16 5 
RC: # 10 0005 0906 2002 0438 C815
TX: @16 8 
RC: * 10
TX: @16 9 
RC: * 10
TX: @16 135 200000 1070735 2147483647 0 0 
RC: * 10
TX: @16 128 
RC: * 10
TX: @16 10 
RC: * 10
TX: @16 
RC: # 10 0000 0300
TX: @16 1 65535 
RC: * 10
TX: @16 12 1 
RC: # 10 000C 0003 7079
TX: @16 12 0 
RC: # 10 000C 000C A97A
TX: @16 12 7 
RC: # 10 000C 0000 0000
TX: @16 12 6 
RC: # 10 000C 7FFF 7FFF
TX: @16 12 6 
RC: # 10 000C 7FFF 7FFF
TX: @16 12 9 
RC: # 10 000C 0001 4E20
TX: @16 12 2 
RC: # 10 000C 0003 6296
TX: @16 12 4 
RC: # 10 000C 0000 0000
TX: @16 21 
RC: # 10 0015 F3F8
TX: @16 22 
RC: # 10 0016 0289
TX: @16 23 
RC: # 10 0017 0081
TX: @16 
RC: # 10 0000 0100
TX: @16 5 
RC: # 10 0005 0906 2002 0438 C815
TX: @16 1 65535 
RC: * 10
TX: @16 12 1 
RC: # 10 000C 0003 7079
TX: @16 12 0 
RC: # 10 000C 000E 3CE8
TX: @16 12 7 
RC: # 10 000C 0000 0000
TX: @16 12 6 
RC: # 10 000C 7FFF 7FFF
TX: @16 12 6 
RC: # 10 000C 7FFF 7FFF
TX: @16 12 9 
RC: # 10 000C 0001 4E20
TX: @16 12 2 
RC: # 10 000C 0003 6296
TX: @16 12 4 
RC: # 10 000C 0000 0000
TX: @16 21 
RC: # 10 0015 F3F8
TX: @16 22 
RC: # 10 0016 0289
TX: @16 23 
RC: # 10 0017 0081
TX: @16 
RC: # 10 0000 0100
TX: @16 1 65535 
RC: * 10
TX: @16 3 500000 
RC: * 10
TX: @16 
RC: # 10 0000 0100
TX: @16 1 65535 
RC: * 10
TX: @16 5 
RC: # 10 0005 0906 2002 0438 C815
TX: @16 8 
RC: ! 10 0008 0002
TX: @16 9 
RC: ! 10 0009 0002
TX: @16 135 -200000 1070735 2147483647 0 0 
RC: ! 10 0087 0002
TX: @16 128 
RC: * 10
TX: @16 10 
RC: * 10
TX: @16 5 
RC: # 10 0005 0906 2002 0438 C815
TX: @16 
RC: # 10 0000 2100
TX: @16 1 65535 
RC: * 10
TX: @16 12 1 
RC: # 10 000C 0003 7076
TX: @16 12 0 
RC: # 10 000C 000F B022
TX: @16 12 7 
RC: # 10 000C FFDE FFD7
TX: @16 12 6 
RC: # 10 000C 7FFF 7FFF
TX: @16 12 6 
RC: # 10 000C 7FFF 7FFF
TX: @16 12 9 
RC: # 10 000C 0001 3A98
TX: @16 12 2 
RC: # 10 000C 0003 6296
TX: @16 12 4 
RC: # 10 000C 0000 0000
TX: @16 21 
RC: # 10 0015 F3F0
TX: @16 22 
RC: # 10 0016 0000
TX: @16 23 
RC: # 10 0017 0001
TX: @16 
RC: # 10 0000 0300
TX: @16 1 65535 
RC: * 10
TX: @16 3 500000 
RC: * 10
TX: @16 
RC: # 10 0000 2300
TX: @16 
RC: # 10 0000 2300
TX: @16 
RC: # 10 0000 2300
TX: @16 
RC: # 10 0000 2300
TX: @16 
RC: # 10 0000 2300
TX: @16 
RC: # 10 0000 2300
TX: @16 
RC: # 10 0000 2300
TX: @16 
RC: # 10 0000 2300
TX: @16 
RC: # 10 0000 2300
TX: @16 1 65535 
RC: * 10
TX: @16 
RC: # 10 0000 0300
TX: @16 1 65535 
RC: * 10
TX: @16 
RC: # 10 0000 0300
TX: @16 1 65535 
RC: * 10
TX: @16 
RC: # 10 0000 0300
TX: @16 1 65535 
RC: * 10
TX: @16 
RC: # 10 0000 0300
TX: @16 1 65535 
RC: * 10
TX: @16 5 
RC: # 10 0005 0906 2002 0438 C815
TX: @16 8 
RC: * 10
TX: @16 9 
RC: * 10
TX: @16 135 200000 1070735 2147483647 0 0 
RC: * 10
TX: @16 128 
RC: * 10
TX: @16 10 
RC: * 10
TX: @16 
RC: # 10 0000 0300
TX: @16 1 65535 
RC: * 10
TX: @16 12 1 
RC: # 10 000C 0003 7078
TX: @16 12 0 
RC: # 10 000C 000F CCE2
TX: @16 12 7 
RC: # 10 000C 0013 0016
TX: @16 12 6 
RC: # 10 000C 7FFF 7FFF
TX: @16 12 6 
RC: # 10 000C 7FFF 7FFF
TX: @16 12 9 
RC: # 10 000C 0001 4E20
TX: @16 12 2 
RC: # 10 000C 0003 6296
TX: @16 12 4 
RC: # 10 000C 0000 0000
TX: @16 21 
RC: # 10 0015 F3F8
TX: @16 5 
RC: # 10 0005 0906 2002 0438 C815
TX: @16 22 
RC: # 10 0016 0289
TX: @16 23 
RC: # 10 0017 0081
TX: @16 
RC: # 10 0000 0100
TX: @16 1 65535 
RC: * 10
TX: @16 3 500000 
RC: * 10
TX: @16 
RC: # 10 0000 0100
TX: @16 
RC: # 10 0000 0100
TX: @16 
RC: # 10 0000 0100
TX: @16 
RC: # 10 0000 0100
TX: @16 
RC: # 10 0000 0100
TX: @16 
RC: # 10 0000 0100
TX: @16 
RC: # 10 0000 0100
TX: @16 
RC: # 10 0000 0100
TX: @16 
RC: # 10 0000 0100
TX: @16 
RC: # 10 0000 0100
TX: @16 
RC: # 10 0000 0100
TX: @16 
RC: # 10 0000 0100
TX: @16 
RC: # 10 0000 0100
TX: @16 
RC: # 10 0000 0100
TX: @16 
RC: # 10 0000 0100
TX: @16 
RC: # 10 0000 0100
TX: @16 
RC: # 10 0000 0100
TX: @16 
RC: # 10 0000 2100
TX: @16 
RC: # 10 0000 2100
TX: @16 1 65535 
RC: * 10
TX: @16 5 
RC: # 10 0005 0906 2002 0438 C815
TX: @16 8 
RC: * 10
TX: @16 9 
RC: * 10
TX: @16 135 -200000 1070735 2147483647 0 0 
RC: * 10
TX: @16 128 
RC: * 10
TX: @16 10 
RC: * 10
TX: @16 
RC: # 10 0000 0300
TX: @16 1 65535 
RC: * 10
TX: @16 12 1 
RC: # 10 000C 0003 7078
TX: @16 12 0 
RC: # 10 000C 0012 317C
TX: @16 12 7 
RC: # 10 000C 0018 001A
TX: @16 12 6 
RC: # 10 000C 7FFF 7FFF
TX: @16 5 
RC: # 10 0005 0906 2002 0438 C815
TX: @16 12 6 
RC: # 10 000C 7FFF 7FFF
TX: @16 12 9 
RC: # 10 000C 0001 4E20
TX: @16 12 2 
RC: # 10 000C 0003 6296
TX: @16 12 4 
RC: # 10 000C 0000 0000
TX: @16 21 
RC: # 10 0015 F3F8
TX: @16 22 
RC: # 10 0016 0289
TX: @16 23 
RC: # 10 0017 0081
TX: @16 
RC: # 10 0000 0100
TX: @16 1 65535 
RC: * 10
TX: @16 3 500000 
RC: * 10
TX: @16 
RC: # 10 0000 0100
TX: @16 
RC: # 10 0000 0100
TX: @16 
RC: # 10 0000 0100
TX: @16 
RC: # 10 0000 0100
TX: @16 
RC: # 10 0000 0100
TX: @16 
RC: # 10 0000 0100
TX: @16 
RC: # 10 0000 0100
TX: @16 1 65535 
RC: * 10
TX: @16 
RC: # 10 0000 0100
TX: @16 1 65535 
RC: * 10
TX: @16 
RC: # 10 0000 0100
TX: @16 1 65535 
RC: * 10
TX: @16 
RC: # 10 0000 0100
TX: @16 1 65535 
RC: * 10
TX: @16 
RC: # 10 0000 0100
TX: @16 1 65535 
RC: * 10
TX: @16 
RC: # 10 0000 0100
TX: @16 1 65535 
RC: * 10
TX: @16 5 
RC: # 10 0005 0906 2002 0438 C815
TX: @16 8 
RC: * 10
TX: @16 9 
RC: * 10
TX: @16 135 200000 1070735 2147483647 0 0 
RC: * 10
TX: @16 128 
RC: * 10
TX: @16 10 
RC: * 10
TX: @16 5 
RC: # 10 0005 0906 2002 0438 C815
TX: @16 
RC: # 10 0000 2300
TX: @16 1 65535 
RC: * 10
TX: @16 3 500000 
RC: * 10
TX: @16 
RC: # 10 0000 0100
TX: @16 1 65535 
RC: * 10
TX: @16 
RC: # 10 0000 0100
TX: @16 1 65535 
RC: * 10
TX: @16 
RC: # 10 0000 0100
TX: @16 
RC: # 10 0000 0100
TX: @16 
RC: # 10 0000 0100
TX: @16 
RC: # 10 0000 0100
TX: @16 
RC: # 10 0000 2100
TX: @16 
RC: # 10 0000 2100
TX: @16 
RC: # 10 0000 2100
TX: @16 
RC: # 10 0000 2100
TX: @16 
RC: # 10 0000 2300
TX: @16 
RC: # 10 0000 2300
TX: @16 1 65535 
RC: * 10
TX: @16 5 
RC: # 10 0005 0906 2002 0438 C815
TX: @16 8 
RC: * 10
TX: @16 9 
RC: * 10
TX: @16 135 -200000 1070735 2147483647 0 0 
RC: * 10
TX: @16 128 
RC: * 10
TX: @16 10 
RC: * 10
TX: @16 
RC: # 10 0000 0300
TX: @16 1 65535 
RC: * 10
TX: @16 12 1 
RC: # 10 000C 0003 7078
TX: @16 12 0 
RC: # 10 000C 000F EEE2
TX: @16 12 7 
RC: # 10 000C 000A 0011
TX: @16 12 6 
RC: # 10 000C 7FFF 7FFF
TX: @16 12 6 
RC: # 10 000C 7FFF 7FFF
TX: @16 12 9 
RC: # 10 000C 0001 4E20
TX: @16 12 2 
RC: # 10 000C 0003 6296
TX: @16 12 4 
RC: # 10 000C 0000 0000
TX: @16 21 
RC: # 10 0015 F3F8
TX: @16 22 
RC: # 10 0016 0289
TX: @16 23 
RC: # 10 0017 0081
TX: @16 
RC: # 10 0000 0100
TX: @16 1 65535 
RC: * 10
TX: @16 12 1 
RC: # 10 000C 0003 7079
TX: @16 12 0 
RC: # 10 000C 000E 7AA2
TX: @16 12 7 
RC: # 10 000C FFDF FFDA
TX: @16 12 6 
RC: # 10 000C 7FFF 7FFF
TX: @16 12 6 
RC: # 10 000C 7FFF 7FFF
TX: @16 12 9 
RC: # 10 000C 0001 4E20
TX: @16 12 2 
RC: # 10 000C 0003 6296
TX: @16 12 4 
RC: # 10 000C 0000 0000
TX: @16 21 
RC: # 10 0015 F3F8
TX: @16 22 
RC: # 10 0016 0289
TX: @16 23 
RC: # 10 0017 0081
TX: @16 
RC: # 10 0000 0100
TX: @16 1 65535 
RC: * 10
TX: @16 12 1 
RC: # 10 000C 0003 7078
TX: @16 12 0 
RC: # 10 000C 000D 121E
TX: @16 12 7 
RC: # 10 000C 002B 0021
TX: @16 12 6 
RC: # 10 000C 7FFF 7FFF
TX: @16 12 6 
RC: # 10 000C 7FFF 7FFF
TX: @16 12 9 
RC: # 10 000C 0001 4E20
TX: @16 12 2 
RC: # 10 000C 0003 6296
TX: @16 12 4 
RC: # 10 000C 0000 0000
TX: @16 21 
RC: # 10 0015 F3F0
TX: @16 22 
RC: # 10 0016 0000
TX: @16 23 
RC: # 10 0017 0001
TX: @16 
RC: # 10 0000 2300
TX: @16 1 65535 
RC: * 10
TX: @16 12 1 
RC: # 10 000C 0003 7077
TX: @16 12 0 
RC: # 10 000C 000C FE72
TX: @16 12 7 
RC: # 10 000C FFBE FFE4
TX: @16 12 6 
RC: # 10 000C 7FFF 7FFF
TX: @16 12 6 
RC: # 10 000C 7FFF 7FFF
TX: @16 12 9 
RC: # 10 000C 0001 3A98
TX: @16 12 2 
RC: # 10 000C 0003 6296
TX: @16 12 4 
RC: # 10 000C 0000 0000
TX: @16 21 
RC: # 10 0015 F3F0
TX: @16 22 
RC: # 10 0016 0000
TX: @16 23 
RC: # 10 0017 0001
TX: @16 
RC: # 10 0000 0300
TX: @16 1 65535 
RC: * 10
TX: @16 12 1 
RC: # 10 000C 0003 7077
TX: @16 12 0 
RC: # 10 000C 000C FE72
TX: @16 12 7 
RC: # 10 000C FFD3 FFDB
TX: @16 12 6 
RC: # 10 000C 7FFF 7FFF
TX: @16 12 6 
RC: # 10 000C 7FFF 7FFF
TX: @16 12 9 
RC: # 10 000C 0001 3A98
TX: @16 12 2 
RC: # 10 000C 0003 6296
TX: @16 12 4 
RC: # 10 000C 0000 0000
TX: @16 21 
RC: # 10 0015 F3F0
TX: @16 22 
RC: # 10 0016 0000
TX: @16 23 
RC: # 10 0017 0001
TX: @16 
RC: # 10 0000 0300
TX: @16 1 65535 
RC: * 10
TX: @16 12 1 
RC: # 10 000C 0003 7076
TX: @16 12 0 
RC: # 10 000C 000C FE72
TX: @16 12 7 
RC: # 10 000C FFDD FFDC
TX: @16 5 
RC: # 10 0005 0906 2002 0438 C815
TX: @16 12 6 
RC: # 10 000C 7FFF 7FFF
TX: @16 12 6 
RC: # 10 000C 7FFF 7FFF
TX: @16 12 9 
RC: # 10 000C 0001 3A98
TX: @16 12 2 
RC: # 10 000C 0003 6296
TX: @16 12 4 
RC: # 10 000C 0000 0000
TX: @16 21 
RC: # 10 0015 F3F0
TX: @16 22 
RC: # 10 0016 0000
TX: @16 23 
RC: # 10 0017 0001
TX: @16 
RC: # 10 0000 0300
TX: @16 1 65535 
RC: * 10
TX: @16 3 500000 
RC: * 10
TX: @16 
RC: # 10 0000 2300
TX: @16 1 65535 
RC: * 10
TX: @16 5 
RC: # 10 0005 0906 2002 0438 C815
TX: @16 8 
RC: * 10
TX: @16 9 
RC: * 10
TX: @16 135 200000 1070735 2147483647 0 0 
RC: * 10
TX: @16 128 
RC: * 10
TX: @16 10 
RC: * 10
TX: @16 
RC: # 10 0000 0300
TX: @16 1 65535 
RC: * 10
TX: @16 12 1 
RC: # 10 000C 0003 7078
TX: @16 12 0 
RC: # 10 000C 000D 1B32
TX: @16 12 7 
RC: # 10 000C FF9C FFFD
TX: @16 12 6 
RC: # 10 000C 7FFF 7FFF
TX: @16 12 6 
RC: # 10 000C 7FFF 7FFF
TX: @16 12 9 
RC: # 10 000C 0001 4E20
TX: @16 12 2 
RC: # 10 000C 0003 6296
TX: @16 12 4 
RC: # 10 000C 0000 0000
TX: @16 21 
RC: # 10 0015 F3F8
TX: @16 22 
RC: # 10 0016 0289
TX: @16 23 
RC: # 10 0017 0081
TX: @16 
RC: # 10 0000 0100
TX: @16 1 65535 
RC: * 10
TX: @16 12 1 
RC: # 10 000C 0003 7079
TX: @16 12 0 
RC: # 10 000C 000E 8F62
TX: @16 12 7 
RC: # 10 000C FFE3 FFDC
TX: @16 12 6 
RC: # 10 000C 7FFF 7FFF
TX: @16 12 6 
RC: # 10 000C 7FFF 7FFF
TX: @16 12 9 
RC: # 10 000C 0001 4E20
TX: @16 12 2 
RC: # 10 000C 0003 6296
TX: @16 12 4 
RC: # 10 000C 0000 0000
TX: @16 21 
RC: # 10 0015 F3F8
TX: @16 22 
RC: # 10 0016 0289
TX: @16 23 
RC: # 10 0017 0081
TX: @16 
RC: # 10 0000 0100
TX: @16 1 65535 
RC: * 10
TX: @16 12 1 
RC: # 10 000C 0003 7078
TX: @16 12 0 
RC: # 10 000C 000F F7F9
TX: @16 12 7 
RC: # 10 000C FF9E FFFF
TX: @16 5 
RC: # 10 0005 0906 2002 0438 C815
TX: @16 12 6 
RC: # 10 000C 7FFF 7FFF
TX: @16 12 6 
RC: # 10 000C 7FFF 7FFF
TX: @16 12 9 
RC: # 10 000C 0001 4E20
TX: @16 12 2 
RC: # 10 000C 0003 6296
TX: @16 12 4 
RC: # 10 000C 0000 0000
TX: @16 21 
RC: # 10 0015 F3F0
TX: @16 22 
RC: # 10 0016 0000
TX: @16 23 
RC: # 10 0017 0001
TX: @16 
RC: # 10 0000 2300
TX: @16 1 65535 
RC: * 10
TX: @16 3 500000 
RC: * 10
TX: @16 
RC: # 10 0000 2300
TX: @16 1 65535 
RC: * 10
TX: @16 5 
RC: # 10 0005 0906 2002 0438 C815
TX: @16 8 
RC: * 10
TX: @16 9 
RC: * 10
TX: @16 135 200000 1070735 2147483647 0 0 
RC: * 10
TX: @16 128 
RC: * 10
TX: @16 10 
RC: * 10
TX: @16 
RC: # 10 0000 0300
TX: @16 1 65535 
RC: * 10
TX: @16 12 1 
RC: # 10 000C 0003 7078
TX: @16 12 0 
RC: # 10 000C 0010 2882
TX: @16 12 7 
RC: # 10 000C FFAB FFF3
TX: @16 12 6 
RC: # 10 000C 7FFF 7FFF
TX: @16 12 6 
RC: # 10 000C 7FFF 7FFF
TX: @16 12 9 
RC: # 10 000C 0001 4E20
TX: @16 12 2 
RC: # 10 000C 0003 6296
TX: @16 12 4 
RC: # 10 000C 0000 0000
TX: @16 21 
RC: # 10 0015 F3F8
TX: @16 22 
RC: # 10 0016 0289
TX: @16 23 
RC: # 10 0017 0081
TX: @16 
RC: # 10 0000 0100
TX: @16 1 65535 
RC: * 10
TX: @16 12 1 
RC: # 10 000C 0003 7079
TX: @16 12 0 
RC: # 10 000C 0011 9CC2
TX: @16 5 
RC: # 10 0005 0906 2002 0438 C815
TX: @16 12 7 
RC: # 10 000C 0018 001E
TX: @16 12 6 
RC: # 10 000C 7FFF 7FFF
TX: @16 12 6 
RC: # 10 000C 7FFF 7FFF
TX: @16 12 9 
RC: # 10 000C 0001 4E20
TX: @16 12 2 
RC: # 10 000C 0003 6296
TX: @16 12 4 
RC: # 10 000C 0000 0000
TX: @16 21 
RC: # 10 0015 F3F8
TX: @16 22 
RC: # 10 0016 0289
TX: @16 23 
RC: # 10 0017 0081
TX: @16 
RC: # 10 0000 0100
TX: @16 1 65535 
RC: * 10
TX: @16 3 500000 
RC: * 10
TX: @16 
RC: # 10 0000 0100
TX: @16 1 65535 
RC: * 10
TX: @16 5 
RC: # 10 0005 0906 2002 0438 C815
TX: @16 8 
RC: ! 10 0008 0002
TX: @16 9 
RC: ! 10 0009 0002
TX: @16 135 -200000 1070735 2147483647 0 0 
RC: ! 10 0087 0002
TX: @16 128 
RC: * 10
TX: @16 10 
RC: * 10
TX: @16 
RC: # 10 0000 2100
TX: @16 1 65535 
RC: * 10
TX: @16 12 1 
RC: # 10 000C 0003 7076
TX: @16 12 0 
RC: # 10 000C 0013 2F0B
TX: @16 12 7 
RC: # 10 000C FFE5 FFE0
TX: @16 12 6 
RC: # 10 000C 7FFF 7FFF
TX: @16 12 6 
RC: # 10 000C 7FFF 7FFF
TX: @16 12 9 
RC: # 10 000C 0001 3A98
TX: @16 12 2 
RC: # 10 000C 0003 6296
TX: @16 12 4 
RC: # 10 000C 0000 0000
TX: @16 21 
RC: # 10 0015 F3F0
TX: @16 22 
RC: # 10 0016 0000
TX: @16 23 
RC: # 10 0017 0001
TX: @16 
RC: # 10 0000 0300
TX: @16 1 65535 
RC: * 10
TX: @16 12 1 
RC: # 10 000C 0003 7076
TX: @16 12 0 
RC: # 10 000C 0013 2F0B
TX: @16 12 7 
RC: # 10 000C FFEB FFE4
TX: @16 12 6 
RC: # 10 000C 7FFF 7FFF
TX: @16 12 6 
RC: # 10 000C 7FFF 7FFF
TX: @16 12 9 
RC: # 10 000C 0001 3A98
TX: @16 12 2 
RC: # 10 000C 0003 6296
TX: @16 12 4 
RC: # 10 000C 0000 0000
TX: @16 21 
RC: # 10 0015 F3F0
TX: @16 22 
RC: # 10 0016 0000
TX: @16 23 
RC: # 10 0017 0001
TX: @16 
RC: # 10 0000 0300
TX: @16 1 65535 
RC: * 10
TX: @16 12 1 
RC: # 10 000C 0003 7076
TX: @16 12 0 
RC: # 10 000C 0013 2F0B
TX: @16 12 7 
RC: # 10 000C 0023 0023
TX: @16 12 6 
RC: # 10 000C 7FFF 7FFF
TX: @16 12 6 
RC: # 10 000C 7FFF 7FFF
TX: @16 12 9 
RC: # 10 000C 0001 3A98
TX: @16 12 2 
RC: # 10 000C 0003 6296
TX: @16 12 4 
RC: # 10 000C 0000 0000
TX: @16 21 
RC: # 10 0015 F3F0
TX: @16 22 
RC: # 10 0016 0000
TX: @16 23 
RC: # 10 0017 0001
TX: @16 
RC: # 10 0000 0300
TX: @16 1 65535 
RC: * 10
TX: @16 12 1 
RC: # 10 000C 0003 7076
TX: @16 21 
RC: # 10 0015 F3F0
TX: @16 22 
RC: # 10 0016 0000
TX: @16 23 
RC: # 10 0017 0001
TX: @16 
RC: # 10 0000 0300
TX: @16 1 65535 
RC: * 10
TX: @16 12 1 
RC: # 10 000C 0003 7076
TX: @16 21 
RC: # 10 0015 F3F0
TX: @16 22 
RC: # 10 0016 0000
TX: @16 23 
RC: # 10 0017 0001
TX: @16 
RC: # 10 0000 0300
TX: @16 1 65535 
RC: * 10
TX: @16 12 1 
RC: # 10 000C 0003 7076
TX: @16 21 
RC: # 10 0015 F3F0
TX: @16 22 
RC: # 10 0016 0000
TX: @16 23 
RC: # 10 0017 0001
TX: @16 
RC: # 10 0000 0300
TX: @16 1 65535 
RC: * 10
TX: @16 12 1 
RC: # 10 000C 0003 7076
TX: @16 21 
RC: # 10 0015 F3F0
TX: @16 22 
RC: # 10 0016 0000
TX: @16 23 
RC: # 10 0017 0001
TX: @16 
RC: # 10 0000 0300
TX: @16 1 65535 
RC: * 10
TX: @16 12 1 
RC: # 10 000C 0003 7077
TX: @16 21 
RC: # 10 0015 F3F0
TX: @16 22 
RC: # 10 0016 0000
TX: @16 23 
RC: # 10 0017 0001
TX: 
RC: # 10 0017 0001
TX: 
RC: # 10 0017 0001
