1,34.0885820,-117.4975100,10,10
2,34.0886500,-117.4974370,10,10
3,34.0887020,-117.4973570,10,10
4,34.0887140,-117.4971880,10,10
5,34.0886820,-117.4971390,10,10
6,34.0885060,-117.4971230,10,10
7,34.0884470,-117.4970910,10,10
8,34.0884230,-117.4970170,10,10
9,34.0884260,-117.4969290,10,10
10,34.0884520,-117.4968450,10,10
11,34.0885040,-117.4967810,10,10
12,34.0885740,-117.4967680,10,10
13,34.0886350,-117.4968110,10,10
14,34.0886720,-117.4968570,10,10
15,34.0886920,-117.4969220,10,10
16,34.0887120,-117.4971710,10,10
17,34.0886800,-117.4972240,10,10
18,34.0885010,-117.4972530,10,10
19,34.0884440,-117.4972850,5,10
20,34.0884250,-117.4973490,5,10
21,34.0884170,-117.4974980,5,10
22,34.0884420,-117.4975600,5,10
23,34.0884890,-117.4975840,5,10
24,34.0885280,-117.4975590,5,0
