1,34.0885860,-117.4989740,10,10
2,34.0886430,-117.4990390,10,10
3,34.0887130,-117.4991630,10,10
4,34.0887190,-117.4994880,10,10
5,34.0886850,-117.4996300,10,10
6,34.0886160,-117.4997010,10,10
7,34.0885620,-117.4997130,10,10
8,34.0885140,-117.4996890,10,10
9,34.0884750,-117.4996390,10,10
10,34.0884370,-117.4995020,10,10
11,34.0884250,-117.4992200,5,10
12,34.0884170,-117.4990200,5,10
13,34.0884650,-117.4989130,5,10
14,34.0885090,-117.4989050,5,10
15,34.0885360,-117.4989250,5,0
