MDF_name	mdf_1	
RNDF	site_visit_rndf	
format_version	1.0	
creation_date	1-Jun-07	
checkpoints		
num_checkpoints	5	
3		
4		
5		
6		
2		
end_checkpoints		
speed_limits		
num_speed_limits	2	
1	5	15
2	5	15
end_speed_limits		
end_file		

