0.35792	557	0
0.497919	568	0
0.737925	569	0
0.848004	562	0
0.95792	547	0
1.04793	552	0
1.12793	542	0
1.26793	753	0
1.40799	1076	0
1.49792	1390	0
1.57792	1443	0
1.69792	1454	0
1.77792	1484	1.06452
1.85792	1514	1.06452
1.99792	1550	1.06452
2.15793	1557	1.06452
2.32792	1585	2.12903
2.49792	1614	2.12903
2.57792	1619	2.12903
2.65793	1649	3.19355
2.84793	1680	3.19355
2.92793	1689	3.19355
3.00799	1691	3.19355
3.08793	1730	3.19355
3.17792	1733	3.19355
3.26793	1752	4.25806
3.34793	1771	4.25806
3.52793	1793	4.25806
3.61793	1807	4.25806
3.79792	1830	4.25806
3.92793	1858	5.32258
4.00793	1872	5.32258
4.08793	1897	5.32258
4.23792	1905	5.32258
4.32793	1923	5.32258
4.48793	1958	5.32258
4.57792	1981	5.32258
4.65793	2006	5.32258
4.86797	2043	6.3871
4.94793	2069	6.3871
5.03792	2095	6.3871
5.21792	2123	6.3871
5.29792	2169	6.3871
5.37792	2184	6.3871
5.47792	2213	6.3871
5.62797	2234	6.3871
5.70792	2265	6.3871
5.78792	2296	7.45161
5.89799	2323	7.45161
5.97793	2329	7.45161
6.07793	2346	7.45161
6.15794	2374	7.45161
6.24792	2391	7.45161
6.4081	2421	7.45161
6.58792	2457	7.45161
6.67793	2488	7.45161
6.87793	2514	8.51613
6.98792	2553	8.51613
7.14797	2573	8.51613
7.23793	2607	8.51613
7.33793	2621	8.51613
7.43799	2649	8.51613
7.53793	2685	8.51613
7.63793	2700	8.51613
7.73792	2715	8.51613
7.90793	2745	8.51613
7.98792	2761	8.51613
8.07793	2768	8.51613
8.16792	2800	9.58065
8.34792	2808	9.58065
8.43793	2841	9.58065
8.61799	2857	9.58065
8.70792	2882	9.58065
8.81793	2700	9.58065
8.93792	2586	9.58065
9.01793	2607	9.58065
9.10792	2656	9.58065
9.18792	2664	9.58065
9.35793	2635	9.58065
9.44792	2593	9.58065
9.53793	2573	8.51613
9.61793	2553	8.51613
9.81792	2546	8.51613
10.028	2514	8.51613
10.1179	2482	8.51613
10.2179	2463	8.51613
10.3079	2451	8.51613
10.3879	2439	8.51613
10.4779	2409	8.51613
10.5679	2403	8.51613
10.7179	2391	8.51613
10.8779	2380	8.51613
11.0579	2351	8.51613
11.1379	2312	8.51613
11.3079	2286	8.51613
11.3879	2244	8.51613
11.488	2229	7.45161
11.5679	2208	7.45161
11.7179	2184	7.45161
11.808	2141	7.45161
11.9179	2109	7.45161
12.0079	2087	7.45161
12.0979	2047	7.45161
12.2079	2022	7.45161
12.368	1993	7.45161
12.4679	1950	7.45161
12.5579	1934	7.45161
