1,34.0885680,-117.4978870,10,10
2,34.0886480,-117.4979550,10,10
3,34.0886890,-117.4980160,10,10
4,34.0887120,-117.4980970,10,10
5,34.0887130,-117.4982500,10,10
6,34.0886930,-117.4982760,10,10
7,34.0885000,-117.4983120,10,10
8,34.0884440,-117.4983650,10,10
9,34.0884340,-117.4984040,10,10
10,34.0884380,-117.4984980,10,10
11,34.0884710,-117.4985960,10,10
12,34.0885290,-117.4986620,10,10
13,34.0885950,-117.4986700,10,10
14,34.0886260,-117.4986530,10,10
15,34.0886770,-117.4985910,10,10
16,34.0887060,-117.4985080,10,10
17,34.0887170,-117.4982480,10,10
18,34.0886850,-117.4981970,10,10
19,34.0884990,-117.4981830,10,10
20,34.0884460,-117.4981400,5,10
21,34.0884110,-117.4979690,5,10
22,34.0884130,-117.4979030,5,10
23,34.0884370,-117.4978440,5,10
24,34.0884810,-117.4978180,5,10
25,34.0885230,-117.4978550,5,0
