% Time(s)	accel([-1,1])	steer(rad)	Speed(m/s)	Easting	Northing	Altitude	EastVel	NorthVel	VertVel	OBD Speed	OBD RPM	Yaw(rad)
0.1099720000	0.000000000	-0.000000000	0.000000000	396260.0000	3777630.000	0	0.000000000	0.000000000	0	0	0	3.140000105	
0.2199540000	0.000000000	-0.000000000	0.000000000	396260.0000	3777630.000	0	0.000000000	0.000000000	0	0	0	3.140000105	
0.3299410000	0.000000000	-0.000000000	0.000000000	396260.0000	3777630.000	0	0.000000000	0.000000000	0	0	0	3.140000105	
0.4399520000	0.000000000	-0.000000000	0.000000000	396260.0000	3777630.000	0	0.000000000	0.000000000	0	0	0	3.140000105	
0.5499060000	0.000000000	-0.000000000	0.000000000	396260.0000	3777630.000	0	0.000000000	0.000000000	0	0	0	3.140000105	
0.6599550000	0.000000000	-0.000000000	0.000000000	396260.0000	3777630.000	0	0.000000000	0.000000000	0	0	0	3.140000105	
0.7800640000	0.000000000	-0.000000000	0.000000000	396260.0000	3777630.000	0	0.000000000	0.000000000	0	0	0	3.140000105	
0.8899040000	0.000000000	-0.000000000	0.000000000	396260.0000	3777630.000	0	0.000000000	0.000000000	0	0	0	3.140000105	
0.9999950000	0.000000000	-0.000000000	0.000000000	396260.0000	3777630.000	0	0.000000000	0.000000000	0	0	0	3.140000105	
1.109918000	0.000000000	-0.000000000	0.000000000	396260.0000	3777630.000	0	0.000000000	0.000000000	0	0	0	3.140000105	
1.229929000	0.000000000	-0.000000000	0.000000000	396260.0000	3777630.000	0	0.000000000	0.000000000	0	0	0	3.140000105	
1.340120000	0.000000000	-0.000000000	0.000000000	396260.0000	3777630.000	0	0.000000000	0.000000000	0	0	0	3.140000105	
1.449925000	0.000000000	-0.000000000	0.000000000	396260.0000	3777630.000	0	0.000000000	0.000000000	0	0	0	3.140000105	
1.560045000	0.000000000	-0.000000000	0.000000000	396260.0000	3777630.000	0	0.000000000	0.000000000	0	0	0	3.140000105	
1.680007000	0.000000000	-0.000000000	0.000000000	396260.0000	3777630.000	0	0.000000000	0.000000000	0	0	0	3.140000105	
1.789946000	0.000000000	-0.000000000	0.000000000	396260.0000	3777630.000	0	0.000000000	0.000000000	0	0	0	3.140000105	
1.900057000	0.000000000	-0.000000000	0.000000000	396260.0000	3777630.000	0	0.000000000	0.000000000	0	0	0	3.140000105	
2.009925000	0.000000000	-0.000000000	0.000000000	396260.0000	3777630.000	0	0.000000000	0.000000000	0	0	0	3.140000105	
2.120046000	0.000000000	-0.000000000	0.000000000	396260.0000	3777630.000	0	0.000000000	0.000000000	0	0	0	3.140000105	
2.229932000	0.000000000	-0.000000000	0.000000000	396260.0000	3777630.000	0	0.000000000	0.000000000	0	0	0	3.140000105	
2.339989000	0.000000000	-0.000000000	0.000000000	396260.0000	3777630.000	0	0.000000000	0.000000000	0	0	0	3.140000105	
2.449937000	0.000000000	-0.000000000	0.000000000	396260.0000	3777630.000	0	0.000000000	0.000000000	0	0	0	3.140000105	
2.559965000	0.000000000	-0.000000000	0.000000000	396260.0000	3777630.000	0	0.000000000	0.000000000	0	0	0	3.140000105	
2.669957000	0.000000000	-0.000000000	0.000000000	396260.0000	3777630.000	0	0.000000000	0.000000000	0	0	0	3.140000105	
2.780209000	0.000000000	-0.000000000	0.000000000	396260.0000	3777630.000	0	0.000000000	0.000000000	0	0	0	3.140000105	
2.889944000	0.000000000	-0.000000000	0.000000000	396260.0000	3777630.000	0	0.000000000	0.000000000	0	0	0	3.140000105	
3.000077000	0.000000000	-0.000000000	0.000000000	396260.0000	3777630.000	0	0.000000000	0.000000000	0	0	0	3.140000105	
3.120011000	0.000000000	-0.000000000	0.000000000	396260.0000	3777630.000	0	0.000000000	0.000000000	0	0	0	3.140000105	
3.229940000	0.000000000	-0.000000000	0.000000000	396260.0000	3777630.000	0	0.000000000	0.000000000	0	0	0	3.140000105	
3.340064000	0.000000000	-0.000000000	0.000000000	396260.0000	3777630.000	0	0.000000000	0.000000000	0	0	0	3.140000105	
3.449921000	0.000000000	-0.000000000	0.000000000	396260.0000	3777630.000	0	0.000000000	0.000000000	0	0	0	3.140000105	
3.569947000	0.000000000	-0.000000000	0.000000000	396260.0000	3777630.000	0	0.000000000	0.000000000	0	0	0	3.140000105	
3.680067000	0.000000000	-0.000000000	0.000000000	396260.0000	3777630.000	0	0.000000000	0.000000000	0	0	0	3.140000105	
3.789912000	0.000000000	-0.000000000	0.000000000	396260.0000	3777630.000	0	0.000000000	0.000000000	0	0	0	3.140000105	
3.900078000	0.000000000	-0.000000000	0.000000000	396260.0000	3777630.000	0	0.000000000	0.000000000	0	0	0	3.140000105	
4.020009000	0.000000000	-0.000000000	0.000000000	396260.0000	3777630.000	0	0.000000000	0.000000000	0	0	0	3.140000105	
4.129923000	0.000000000	-0.000000000	0.000000000	396260.0000	3777630.000	0	0.000000000	0.000000000	0	0	0	3.140000105	
4.240075000	0.000000000	-0.000000000	0.000000000	396260.0000	3777630.000	0	0.000000000	0.000000000	0	0	0	3.140000105	
4.349941000	0.000000000	-0.000000000	0.000000000	396260.0000	3777630.000	0	0.000000000	0.000000000	0	0	0	3.140000105	
4.469937000	0.000000000	-0.000000000	0.000000000	396260.0000	3777630.000	0	0.000000000	0.000000000	0	0	0	3.140000105	
4.580230000	0.000000000	-0.000000000	0.000000000	396260.0000	3777630.000	0	0.000000000	0.000000000	0	0	0	3.140000105	
4.689941000	0.000000000	-0.000000000	0.000000000	396260.0000	3777630.000	0	0.000000000	0.000000000	0	0	0	3.140000105	
4.800056000	0.000000000	-0.000000000	0.000000000	396260.0000	3777630.000	0	0.000000000	0.000000000	0	0	0	3.140000105	
4.920006000	0.000000000	-0.000000000	0.000000000	396260.0000	3777630.000	0	0.000000000	0.000000000	0	0	0	3.140000105	
5.029927000	0.000000000	-0.000000000	0.000000000	396260.0000	3777630.000	0	0.000000000	0.000000000	0	0	0	3.140000105	
5.140062000	0.000000000	-0.000000000	0.000000000	396260.0000	3777630.000	0	0.000000000	0.000000000	0	0	0	3.140000105	
5.249970000	0.000000000	-0.000000000	0.000000000	396260.0000	3777630.000	0	0.000000000	0.000000000	0	0	0	3.140000105	
5.370492000	0.000000000	-0.000000000	0.000000000	396260.0000	3777630.000	0	0.000000000	0.000000000	0	0	0	3.140000105	
5.480635000	0.000000000	-0.000000000	0.000000000	396260.0000	3777630.000	0	0.000000000	0.000000000	0	0	0	3.140000105	
5.590486000	0.000000000	-0.000000000	0.000000000	396260.0000	3777630.000	0	0.000000000	0.000000000	0	0	0	3.140000105	
5.700624000	0.000000000	-0.000000000	0.000000000	396260.0000	3777630.000	0	0.000000000	0.000000000	0	0	0	3.140000105	
5.820010000	0.000000000	-0.000000000	0.000000000	396260.0000	3777630.000	0	0.000000000	0.000000000	0	0	0	3.140000105	
5.929925000	0.000000000	-0.000000000	0.000000000	396260.0000	3777630.000	0	0.000000000	0.000000000	0	0	0	3.140000105	
6.040079000	0.000000000	-0.000000000	0.000000000	396260.0000	3777630.000	0	0.000000000	0.000000000	0	0	0	3.140000105	
6.149919000	0.000000000	-0.000000000	0.000000000	396260.0000	3777630.000	0	0.000000000	0.000000000	0	0	0	3.140000105	
6.269943000	0.000000000	-0.000000000	0.000000000	396260.0000	3777630.000	0	0.000000000	0.000000000	0	0	0	3.140000105	
6.380152000	0.000000000	-0.000000000	0.000000000	396260.0000	3777630.000	0	0.000000000	0.000000000	0	0	0	3.140000105	
6.489945000	0.000000000	-0.000000000	0.000000000	396260.0000	3777630.000	0	0.000000000	0.000000000	0	0	0	3.140000105	
6.600085000	0.000000000	-0.000000000	0.000000000	396260.0000	3777630.000	0	0.000000000	0.000000000	0	0	0	3.140000105	
6.719990000	0.000000000	-0.000000000	0.000000000	396260.0000	3777630.000	0	0.000000000	0.000000000	0	0	0	3.140000105	
6.829935000	0.000000000	-0.000000000	0.000000000	396260.0000	3777630.000	0	0.000000000	0.000000000	0	0	0	3.140000105	
6.940157000	0.000000000	-0.000000000	0.000000000	396260.0000	3777630.000	0	0.000000000	0.000000000	0	0	0	3.140000105	
7.049918000	0.000000000	-0.000000000	0.000000000	396260.0000	3777630.000	0	0.000000000	0.000000000	0	0	0	3.140000105	
7.169936000	0.000000000	-0.000000000	0.000000000	396260.0000	3777630.000	0	0.000000000	0.000000000	0	0	0	3.140000105	
7.280109000	0.000000000	-0.000000000	0.000000000	396260.0000	3777630.000	0	0.000000000	0.000000000	0	0	0	3.140000105	
7.389908000	0.000000000	-0.000000000	0.000000000	396260.0000	3777630.000	0	0.000000000	0.000000000	0	0	0	3.140000105	
7.500072000	0.000000000	-0.000000000	0.000000000	396260.0000	3777630.000	0	0.000000000	0.000000000	0	0	0	3.140000105	
7.620013000	0.000000000	-0.000000000	0.000000000	396260.0000	3777630.000	0	0.000000000	0.000000000	0	0	0	3.140000105	
7.729926000	0.000000000	-0.000000000	0.000000000	396260.0000	3777630.000	0	0.000000000	0.000000000	0	0	0	3.140000105	
7.840062000	0.000000000	-0.000000000	0.000000000	396260.0000	3777630.000	0	0.000000000	0.000000000	0	0	0	3.140000105	
7.949928000	0.000000000	-0.000000000	0.000000000	396260.0000	3777630.000	0	0.000000000	0.000000000	0	0	0	3.140000105	
8.069941000	0.000000000	-0.000000000	0.000000000	396260.0000	3777630.000	0	0.000000000	0.000000000	0	0	0	3.140000105	
8.180146000	0.000000000	-0.000000000	0.000000000	396260.0000	3777630.000	0	0.000000000	0.000000000	0	0	0	3.140000105	
8.289927000	0.000000000	-0.000000000	0.000000000	396260.0000	3777630.000	0	0.000000000	0.000000000	0	0	0	3.140000105	
8.400053000	0.000000000	-0.000000000	0.000000000	396260.0000	3777630.000	0	0.000000000	0.000000000	0	0	0	3.140000105	
8.519989000	0.000000000	-0.000000000	0.000000000	396260.0000	3777630.000	0	0.000000000	0.000000000	0	0	0	3.140000105	
8.629929000	0.000000000	-0.000000000	0.000000000	396260.0000	3777630.000	0	0.000000000	0.000000000	0	0	0	3.140000105	
8.740055000	0.000000000	-0.000000000	0.000000000	396260.0000	3777630.000	0	0.000000000	0.000000000	0	0	0	3.140000105	
8.849931000	0.000000000	-0.000000000	0.000000000	396260.0000	3777630.000	0	0.000000000	0.000000000	0	0	0	3.140000105	
8.969933000	0.000000000	-0.000000000	0.000000000	396260.0000	3777630.000	0	0.000000000	0.000000000	0	0	0	3.140000105	
9.080065000	0.000000000	-0.000000000	0.000000000	396260.0000	3777630.000	0	0.000000000	0.000000000	0	0	0	3.140000105	
9.189934000	0.000000000	-0.000000000	0.000000000	396260.0000	3777630.000	0	0.000000000	0.000000000	0	0	0	3.140000105	
9.300048000	0.000000000	-0.000000000	0.000000000	396260.0000	3777630.000	0	0.000000000	0.000000000	0	0	0	3.140000105	
9.419990000	0.000000000	-0.000000000	0.000000000	396260.0000	3777630.000	0	0.000000000	0.000000000	0	0	0	3.140000105	
9.529922000	0.000000000	-0.000000000	0.000000000	396260.0000	3777630.000	0	0.000000000	0.000000000	0	0	0	3.140000105	
9.640048000	0.000000000	-0.000000000	0.000000000	396260.0000	3777630.000	0	0.000000000	0.000000000	0	0	0	3.140000105	
9.749931000	0.000000000	-0.000000000	0.000000000	396260.0000	3777630.000	0	0.000000000	0.000000000	0	0	0	3.140000105	
9.869935000	0.000000000	-0.000000000	0.000000000	396260.0000	3777630.000	0	0.000000000	0.000000000	0	0	0	3.140000105	
9.980113000	0.000000000	-0.000000000	0.000000000	396260.0000	3777630.000	0	0.000000000	0.000000000	0	0	0	3.140000105	
10.08994200	13.25666678	0.03636102608	0.1348297447	396260.0000	3777629.985	0	0.000000000	-0.1348295063	0	0	0	3.139730930	
10.20005500	13.25666678	0.03636102608	0.2730394006	396260.0001	3777629.955	0	0.000000000	-0.2730385959	0	0	0	3.139184237	
10.32057500	13.26780530	0.03636102608	0.4277933836	396260.0002	3777629.904	0	0.000000000	-0.4277909994	0	0	0	3.138246536	
10.43051200	13.29042764	0.03636102608	0.5717180967	396260.0005	3777629.841	0	0.000000000	-0.5717123747	0	0	0	3.137103796	
10.54063100	13.32922995	0.03636102608	0.7186045647	396260.0009	3777629.762	0	0.000000000	-0.7185919285	0	0	0	3.135664940	
10.65050000	2.575958667	-0.2908882087	0.8645182252	396260.0014	3777629.667	0	0.000000000	-0.8645048141	0	0	0	3.136024952	
10.76994500	2.516418390	-0.2908882087	1.022342086	396260.0019	3777629.545	0	0.000000000	-1.022339702	0	0	0	3.139407635	
10.88008100	2.531315791	-0.2908882087	1.167158604	396260.0018	3777629.416	0	0.000000000	-1.167148232	0	0	0	3.145815134	
10.98993800	2.426269379	-0.2908882087	1.310924053	396260.0004	3777629.272	0	-0.01915562712	-1.310784101	0	0	0	3.156205416	
11.10005700	2.691413528	-0.2908882087	1.454357743	396259.9969	3777629.112	0	-0.04331801087	-1.453712463	0	0	0	3.171381950	
11.22000900	2.866650379	-0.2908882087	1.609962940	396259.9889	3777628.919	0	-0.08519273996	-1.607707381	0	0	0	3.194533348	
11.32995500	3.229683282	-0.2908882087	1.752223134	396259.9760	3777628.727	0	-0.1410026103	-1.746540666	0	0	0	3.222150564	
11.44005900	4.187694722	-0.2545271826	1.895022869	396259.9564	3777628.519	0	-0.2036900222	-1.884044051	0	0	0	3.249287605	
11.54995100	5.160608496	-0.2545271826	2.038196325	396259.9291	3777628.297	0	-0.2780062258	-2.019147396	0	0	0	3.278417349	
11.66995200	5.998138435	-0.2181661565	2.195664644	396259.8894	3777628.037	0	-0.3628715575	-2.165471792	0	0	0	3.307621717	
11.78021100	7.016089717	-0.1818051304	2.341586828	396259.8437	3777627.783	0	-0.4416702092	-2.299555779	0	0	0	3.331349373	
11.88994500	8.141277626	-0.1818051304	2.488189459	396259.7889	3777627.515	0	-0.5304700136	-2.430984974	0	0	0	3.356436729	
12.00004800	8.920485718	-0.1454441043	2.636820316	396259.7240	3777627.232	0	-0.6167906523	-2.563667536	0	0	0	3.377694607	
12.12000900	9.864162109	-0.1090830782	2.800718546	396259.6424	3777626.906	0	-0.7051073909	-2.710506916	0	0	0	3.396090508	
12.22995200	10.64456397	-0.1090830782	2.952597857	396259.5579	3777626.593	0	-0.7940021753	-2.843834400	0	0	0	3.413860559	
12.34004900	11.30135192	-0.07272205217	3.106473207	396259.4639	3777626.264	0	-0.8725829720	-2.981404781	0	0	0	3.426315784	
12.44995400	11.68022934	-0.07272205217	3.261839628	396259.3610	3777625.921	0	-0.9570137858	-3.118288517	0	0	0	3.439370871	
12.56995800	12.20329092	-0.07272205217	3.433649063	396259.2372	3777625.528	0	-1.056570530	-3.267048359	0	0	0	3.454378605	
12.68005600	12.75163369	-0.03636102608	3.593057871	396259.1141	3777625.152	0	-1.130182981	-3.410681963	0	0	0	3.461571217	
12.78993800	13.09713994	-0.03636102608	3.754016638	396258.9829	3777624.761	0	-1.207512856	-3.554511786	0	0	0	3.469073534	
12.90005500	13.54613875	-0.03636102608	3.917107344	396258.8426	3777624.353	0	-1.289021254	-3.698939562	0	0	0	3.476916313	
13.02001000	13.70522030	-0.03636102608	4.096944809	396258.6788	3777623.890	0	-1.382725358	-3.856556177	0	0	0	3.485854149	
13.12994500	13.68203067	-0.03636102608	4.263425827	396258.5188	3777623.450	0	-1.473062515	-4.000860691	0	0	0	3.494376421	
13.24004900	14.39960693	-0.000000000	4.431967258	396258.3502	3777622.992	0	-1.531295538	-4.159022808	0	0	0	3.494376421	
13.34994700	14.55544756	-0.000000000	4.601920605	396258.1755	3777622.517	0	-1.590016365	-4.318509102	0	0	0	3.494376421	
13.46995000	14.53674195	-0.000000000	4.789505005	396257.9770	3777621.978	0	-1.654828906	-4.494541168	0	0	0	3.494376421	
13.58013400	14.27698948	-0.000000000	4.963256359	396257.7881	3777621.465	0	-1.714861989	-4.657591820	0	0	0	3.494376421	
13.68994400	8.987959436	0.1454441043	5.136763096	396257.5965	3777620.935	0	-1.714966536	-4.842026711	0	0	0	3.481989622	
13.80005900	8.750691187	0.1454441043	5.311003208	396257.4084	3777620.381	0	-1.643518925	-5.050307274	0	0	0	3.456212997	
13.92000700	9.007459247	0.1454441043	5.501151562	396257.2185	3777619.749	0	-1.464690208	-5.302579880	0	0	0	3.411094666	
14.02994500	9.797539482	0.1090830782	5.675900459	396257.0627	3777619.145	0	-1.323491216	-5.519439697	0	0	0	3.376936436	
14.14005900	11.51768126	0.07272205217	5.851762295	396256.9198	3777618.517	0	-1.230603099	-5.720903397	0	0	0	3.353470564	
14.24995200	12.71369102	0.07272205217	6.028255463	396256.7884	3777617.868	0	-1.125185132	-5.922315598	0	0	0	3.329345703	
14.36995300	13.61128906	0.03636102608	6.222334385	396256.6540	3777617.134	0	-1.078290343	-6.128191471	0	0	0	3.315765381	
14.48004900	14.65035322	-0.000000000	6.401586056	396256.5319	3777616.440	0	-1.109352827	-6.304731369	0	0	0	3.315765381	
14.58993200	14.93275139	-0.000000000	6.581760406	396256.4066	3777615.727	0	-1.140575886	-6.482180119	0	0	0	3.315765381	
14.70005400	14.89505405	-0.000000000	6.763450623	396256.2776	3777614.994	0	-1.172061682	-6.661121368	0	0	0	3.315765381	
14.82000900	14.85030759	-0.000000000	6.962727070	396256.1328	3777614.172	0	-1.206594944	-6.857382774	0	0	0	3.315765381	
14.92995000	14.79632671	-0.000000000	7.146355629	396255.9967	3777613.398	0	-1.238416553	-7.038232803	0	0	0	3.315765381	
15.04006500	14.92259945	-0.000000000	7.331290245	396255.8569	3777612.603	0	-1.270464540	-7.220369339	0	0	0	3.315765381	
15.14993800	14.86392243	-0.000000000	7.516766548	396255.7138	3777611.790	0	-1.302606344	-7.403039455	0	0	0	3.315765381	
15.27051200	2.000000000	0.4363323130	7.424447536	396255.5682	3777610.907	0	-1.128392339	-7.338198185	0	0	0	3.294167280	
15.38070000	2.000000000	0.4363323130	7.339629173	396255.4603	3777610.105	0	-0.8433270454	-7.291018963	0	0	0	3.256747484	
15.49051100	2.000000000	0.4363323130	7.253670692	396255.3904	3777609.312	0	-0.4392400980	-7.240359783	0	0	0	3.202183962	
15.60061300	2.000000000	0.4363323130	7.166389942	396255.3710	3777608.524	0	0.08084049821	-7.165934086	0	0	0	3.130311966	
15.72000200	2.000000000	0.4363323130	7.070389748	396255.4217	3777607.682	0	0.7705534101	-7.028275490	0	0	0	3.032392502	
15.82995000	2.000000000	0.4363323130	6.980949879	396255.5460	3777606.925	0	1.497449756	-6.818453312	0	0	0	2.925407410	
15.94005000	2.000000000	0.4363323130	6.890332699	396255.7541	3777606.196	0	2.298959255	-6.495496273	0	0	0	2.801419973	
16.04994200	2.000000000	0.4363323130	6.798888206	396256.0520	3777605.511	0	3.144072533	-6.028241158	0	0	0	2.660848379	
16.16994000	2.000000000	0.4363323130	6.697885990	396256.4835	3777604.835	0	4.076902390	-5.314183235	0	0	0	2.487190485	
16.28010900	2.000000000	0.4363323130	6.604262829	396256.9729	3777604.298	0	4.846675873	-4.486203194	0	0	0	2.317589760	
16.38992600	2.000000000	0.4363323130	6.510046482	396257.5355	3777603.858	0	5.444931507	-3.568392992	0	0	0	2.150930643	
16.50005600	2.557449221	0.2908882087	6.416199684	396258.1524	3777603.515	0	5.821338654	-2.698079586	0	0	0	2.004804373	
16.62000900	7.928588938	0.1818051304	6.601989269	396258.8920	3777603.234	0	6.322476387	-1.900671482	0	0	0	1.862823129	
16.72993500	2.000000000	0.4363323130	6.503096104	396259.5890	3777603.079	0	6.434045792	-0.9451507330	0	0	0	1.716651559	
16.84005300	2.000000000	0.4363323130	6.406282425	396260.2921	3777603.034	0	6.405371189	0.1080431268	0	0	0	1.553930402	
16.95003600	2.000000000	0.4363323130	6.307881355	396260.9817	3777603.101	0	6.207556248	1.120541096	0	0	0	1.392207026	
17.06994800	2.000000000	0.4363323130	6.200038433	396261.6982	3777603.296	0	5.820049286	2.137171984	0	0	0	1.218873978	
17.18020400	2.000000000	0.4363323130	6.100121021	396262.3087	3777603.576	0	5.327666759	2.971101284	0	0	0	1.062080503	
17.28994300	2.000000000	0.4363323130	6.000064850	396262.8568	3777603.940	0	4.731981277	3.689055681	0	0	0	0.9086183906	
17.40004700	2.000000000	0.4363323130	5.899017811	396263.3368	3777604.376	0	4.052001953	4.287154198	0	0	0	0.7572070956	
17.52009500	2.000000000	0.4363323130	5.788115978	396263.7712	3777604.917	0	3.245324612	4.792718887	0	0	0	0.5952159166	
17.62994600	2.000000000	0.4363323130	5.686101913	396264.0825	3777605.458	0	2.471323967	5.120967865	0	0	0	0.4496222138	
17.74004100	2.000000000	0.3999712869	5.583210945	396264.3129	3777606.027	0	1.754770398	5.300285339	0	0	0	0.3197129965	
17.84993600	3.945221096	0.2545271826	5.480233669	396264.4698	3777606.608	0	1.130339146	5.362396240	0	0	0	0.2077486366	
17.96995000	8.813600644	0.1454441043	5.656384468	396264.5737	3777607.279	0	0.5634604096	5.628249645	0	0	0	0.09978043288	
18.08006300	13.14887828	0.03636102608	5.819435120	396264.6099	3777607.918	0	0.07685126364	5.818927288	0	0	0	0.01320634969	
18.18993700	12.24711956	-0.07272205217	5.983394146	396264.5944	3777608.575	0	-0.3606298268	5.972516537	0	0	0	6.222877026	
18.30005700	8.346165686	-0.1454441043	6.147639275	396264.5333	3777609.249	0	-0.7389297485	6.103068829	0	0	0	6.162696838	
18.42000700	4.668241813	-0.2545271826	6.037648678	396264.4296	3777609.966	0	-1.004217386	5.953549385	0	0	0	6.116082668	
18.52993700	2.000000000	-0.3272492347	5.933454990	396264.3123	3777610.607	0	-1.147261381	5.821484089	0	0	0	6.088604927	
18.64004500	2.000000000	-0.4363323130	5.830649853	396264.1841	3777611.236	0	-1.200841069	5.705651283	0	0	0	6.075747490	
18.74994600	2.000000000	-0.4363323130	5.726957798	396264.0549	3777611.852	0	-1.172587991	5.605629444	0	0	0	6.076978207	
18.86994600	2.000000000	-0.4363323130	5.613270760	396263.9228	3777612.513	0	-1.052999973	5.513619423	0	0	0	6.094476223	
18.98021200	13.98522634	0.03636102608	5.775591850	396263.8041	3777613.138	0	-1.069336176	5.675736427	0	0	0	6.096963406	
19.08993700	13.11528715	0.03636102608	5.938511848	396263.6798	3777613.777	0	-1.168000937	5.822515965	0	0	0	6.085212231	
19.20005900	12.84996542	0.03636102608	6.103342056	396263.5436	3777614.435	0	-1.273464203	5.969009399	0	0	0	6.072990417	
19.32001200	13.34750410	0.03636102608	6.284518242	396263.3813	3777615.172	0	-1.395406365	6.127643108	0	0	0	6.059280396	
19.42994800	13.76805478	0.03636102608	6.451883316	396263.2194	3777615.862	0	-1.513580441	6.271831989	0	0	0	6.046383381	
19.54006200	14.23867948	0.03636102608	6.620923996	396263.0437	3777616.569	0	-1.638424516	6.414998055	0	0	0	6.033125877	
19.64994600	14.89379024	-0.000000000	6.791065693	396262.8590	3777617.292	0	-1.680527687	6.579848289	0	0	0	6.033125877	
19.76995000	14.53972867	-0.000000000	6.978471279	396262.6518	3777618.104	0	-1.726903200	6.761424541	0	0	0	6.033125877	
19.88010200	14.51885751	-0.000000000	7.151701927	396262.4569	3777618.867	0	-1.769771218	6.929267883	0	0	0	6.033125877	
19.98994100	14.49418800	-0.000000000	7.325659275	396262.2578	3777619.646	0	-1.812818885	7.097814560	0	0	0	6.033125877	
20.10006100	14.46457572	-0.000000000	7.501150608	396262.0535	3777620.446	0	-1.856246352	7.267847538	0	0	0	6.033125877	
20.22057100	14.60230269	-0.000000000	7.694566250	396261.8240	3777621.345	0	-1.904109120	7.455247402	0	0	0	6.033125877	
20.33052500	14.57782556	-0.000000000	7.872025013	396261.6099	3777622.183	0	-1.948023438	7.627186775	0	0	0	6.033125877	
20.44061900	14.05635732	-0.03636102608	8.050607681	396261.3976	3777623.043	0	-1.866245508	7.831309319	0	0	0	6.049242973	
20.55050000	2.000000000	-0.3999712869	7.959505081	396261.2098	3777623.897	0	-1.571542501	7.802818298	0	0	0	6.084437370	
20.66994300	2.000000000	-0.4363323130	7.859004974	396261.0524	3777624.822	0	-1.083523989	7.783953667	0	0	0	6.144874573	
20.78012100	2.000000000	-0.4363323130	7.765071392	396260.9661	3777625.673	0	-0.4962232113	7.749199390	0	0	0	6.219237328	
20.88994500	2.000000000	-0.3999712869	7.670398712	396260.9512	3777626.515	0	0.2183143944	7.667291641	0	0	0	0.02846592292	
21.00004700	2.000000000	-0.3636102608	7.574515820	396261.0210	3777627.345	0	1.052583814	7.501023769	0	0	0	0.1394150257	
21.12000400	2.000000000	-0.3272492347	7.468914509	396261.2082	3777628.221	0	2.078096867	7.173994064	0	0	0	0.2819537520	
21.22994200	4.946080982	-0.2545271826	7.374907017	396261.4759	3777628.985	0	2.814400911	6.816773415	0	0	0	0.3915466666	
21.34005000	9.260158804	-0.1454441043	7.544795036	396261.8281	3777629.737	0	3.513742208	6.676641941	0	0	0	0.4844450951	
21.44994700	2.942088288	0.2908882087	7.445246696	396262.2350	3777630.447	0	3.937391758	6.318911552	0	0	0	0.5572407842	
21.56994800	2.000000000	0.3999712869	7.336317539	396262.7215	3777631.180	0	4.226457596	5.996550083	0	0	0	0.6139501333	
21.68011300	2.000000000	0.4363323130	7.235336304	396263.1915	3777631.824	0	4.364476204	5.770739555	0	0	0	0.6475282311	
21.78992700	2.000000000	0.4363323130	7.133974552	396263.6689	3777632.445	0	4.392329216	5.621479988	0	0	0	0.6632634997	
21.90006000	2.000000000	0.4363323130	7.031582355	396264.1451	3777633.055	0	4.320946693	5.547302723	0	0	0	0.6617591381	
22.02000700	2.000000000	0.4363323130	6.919218540	396264.6479	3777633.715	0	4.133358955	5.548957348	0	0	0	0.6402222514	
22.12993700	2.000000000	0.4363323130	6.815611362	396265.0845	3777634.324	0	3.872123718	5.608851910	0	0	0	0.6042264104	
22.24005200	2.000000000	0.4363323130	6.711182117	396265.4882	3777634.943	0	3.520543575	5.713644981	0	0	0	0.5522202253	
22.34993100	2.000000000	0.4363323130	6.606365681	396265.8479	3777635.573	0	3.078495741	5.845248699	0	0	0	0.4847523868	
22.46994600	2.000000000	0.4363323130	6.491189480	396266.1787	3777636.278	0	2.484799385	5.996775150	0	0	0	0.3928205967	
22.58021000	2.000000000	0.4363323130	6.384842396	396266.4153	3777636.940	0	1.845151424	6.112416267	0	0	0	0.2931709588	
22.68993900	2.000000000	0.4363323130	6.278514385	396266.5764	3777637.610	0	1.118737936	6.178039074	0	0	0	0.1791417599	
22.80005100	2.000000000	0.4363323130	6.171308994	396266.6539	3777638.284	0	0.3071784377	6.163659573	0	0	0	0.04979582503	
22.92000500	2.000000000	0.4363323130	6.053941727	396266.6325	3777639.009	0	-0.6572356224	6.018160343	0	0	0	6.174407482	
23.02994600	2.000000000	0.4363323130	5.945974350	396266.5124	3777639.651	0	-1.535203576	5.744367599	0	0	0	6.022035122	
23.14004600	14.31555731	-0.000000000	6.104898930	396266.2944	3777640.286	0	-2.378322840	5.622576714	0	0	0	5.883014202	
23.24993800	7.816028217	-0.1818051304	6.263320923	396265.9875	3777640.901	0	-3.139987946	5.419378757	0	0	0	5.758050442	
23.36994600	2.000000000	-0.3272492347	6.142897606	396265.5824	3777641.517	0	-3.664981842	4.929817200	0	0	0	5.643901348	
23.48009900	2.000000000	-0.4363323130	6.035551071	396265.1631	3777642.032	0	-4.008615017	4.512081623	0	0	0	5.556806087	
23.58992900	2.000000000	-0.4363323130	5.927043915	396264.7141	3777642.503	0	-4.237539291	4.144045353	0	0	0	5.486632824	
23.70004100	2.000000000	-0.4363323130	5.818240643	396264.2442	3777642.938	0	-4.374880314	3.835667849	0	0	0	5.432208061	
23.82000400	2.000000000	-0.4363323130	5.699087620	396263.7210	3777643.378	0	-4.436905384	3.576796055	0	0	0	5.390866756	
23.92994000	2.000000000	-0.4363323130	5.589532852	396263.2383	3777643.758	0	-4.432888508	3.404758453	0	0	0	5.367353439	
24.04005000	2.000000000	-0.4363323130	5.479273319	396262.7581	3777644.123	0	-4.377829075	3.295003891	0	0	0	5.357588291	
24.14993500	2.000000000	-0.4363323130	5.368727684	396262.2874	3777644.479	0	-4.278448582	3.243163824	0	0	0	5.361005306	
24.26994800	2.000000000	-0.4363323130	5.247434616	396261.7892	3777644.864	0	-4.121520519	3.247866392	0	0	0	5.379786015	
24.38015000	2.000000000	-0.4363323130	5.135598660	396261.3500	3777645.221	0	-3.938389063	3.295976639	0	0	0	5.409219265	
24.48993800	2.000000000	-0.4363323130	5.023767471	396260.9345	3777645.583	0	-3.717312813	3.379323006	0	0	0	5.450196266	
24.60005200	2.000000000	-0.4363323130	4.911172390	396260.5442	3777645.957	0	-3.455844879	3.489520311	0	0	0	5.502635479	
24.72000600	2.000000000	-0.4363323130	4.788033962	396260.1547	3777646.379	0	-3.122491121	3.629781961	0	0	0	5.572775364	
24.82994800	2.000000000	-0.4363323130	4.674818516	396259.8345	3777646.781	0	-2.775068760	3.762036800	0	0	0	5.647634983	
24.94005600	2.000000000	-0.4363323130	4.561063766	396259.5540	3777647.197	0	-2.384937763	3.887849808	0	0	0	5.732946396	
25.04993500	2.000000000	-0.4363323130	4.447193623	396259.3187	3777647.625	0	-1.954590559	3.994634628	0	0	0	5.828131199	
25.17051100	2.000000000	-0.4363323130	4.321860313	396259.1174	3777648.105	0	-1.436368346	4.076189518	0	0	0	5.944391727	
25.28066800	2.000000000	-0.4363323130	4.207057953	396258.9873	3777648.550	0	-0.9622401595	4.095538139	0	0	0	6.052422047	
25.39049800	2.000000000	-0.4363323130	4.092308998	396258.9076	3777648.992	0	-0.5142285824	4.059872150	0	0	0	6.157195091	
25.50063700	2.000000000	-0.4363323130	3.976977110	396258.8748	3777649.428	0	-0.09501598775	3.975841999	0	0	0	6.259291649	
25.62000500	2.000000000	-0.4363323130	3.851659060	396258.8885	3777649.888	0	0.3204396665	3.838306427	0	0	0	0.08329170197	
25.73004500	2.000000000	-0.4363323130	3.735955715	396258.9422	3777650.295	0	0.6654728651	3.676208973	0	0	0	0.1790822148	
25.84004300	2.000000000	-0.4363323130	3.619982481	396259.0312	3777650.683	0	0.9723166227	3.486957550	0	0	0	0.2719362676	
25.94994400	2.000000000	-0.4363323130	3.503944159	396259.1511	3777651.048	0	1.239931464	3.277223587	0	0	0	0.3617027998	
26.06994800	2.000000000	-0.4363323130	3.376991510	396259.3122	3777651.420	0	1.487649441	3.031661510	0	0	0	0.4561834633	
26.18012100	2.000000000	-0.4363323130	3.260267019	396259.4837	3777651.736	0	1.675997257	2.796493292	0	0	0	0.5399201512	
26.28994600	2.000000000	-0.4363323130	3.143773317	396259.6729	3777652.024	0	1.827642322	2.557935715	0	0	0	0.6203906536	
26.40004200	2.000000000	-0.4363323130	3.026818752	396259.8769	3777652.287	0	1.945465207	2.318792105	0	0	0	0.6980728507	
26.52000500	2.000000000	-0.4363323130	2.899207115	396260.1110	3777652.545	0	2.037211895	2.062806368	0	0	0	0.7791557312	
26.62993800	2.000000000	-0.4363323130	2.782160521	396260.3334	3777652.754	0	2.091002703	1.835245252	0	0	0	0.8504466414	
26.74004600	2.000000000	-0.4363323130	2.664805174	396260.5603	3777652.940	0	2.118255854	1.616842151	0	0	0	0.9188441038	
26.84994300	2.000000000	-0.4363323130	2.547570705	396260.7882	3777653.103	0	2.121563673	1.410348773	0	0	0	0.9841089845	
26.96994500	2.000000000	-0.4363323130	2.419438124	396261.0352	3777653.255	0	2.100837708	1.200067520	0	0	0	1.051797748	
27.08011700	2.000000000	0.4363323130	2.301739693	396261.2586	3777653.375	0	2.055739403	1.035345912	0	0	0	1.104243517	
27.18992600	2.000000000	0.4363323130	2.184358597	396261.4750	3777653.478	0	1.991828203	0.8966845274	0	0	0	1.147791386	
27.30005100	2.000000000	0.4363323130	2.066620827	396261.6841	3777653.568	0	1.913569093	0.7804967165	0	0	0	1.183519721	
27.42000400	2.000000000	0.4363323130	2.015386820	396261.9094	3777653.655	0	1.889302135	0.7016558647	0	0	0	1.215199947	
27.52993800	2.000000000	0.4363323130	2.013732910	396262.1177	3777653.730	0	1.903941512	0.6558406353	0	0	0	1.239061236	
27.64005200	2.000000000	0.4363323130	2.013392448	396262.3280	3777653.800	0	1.915632606	0.6197589040	0	0	0	1.257897258	
27.74994200	2.000000000	0.4363323130	2.013011456	396262.5389	3777653.867	0	1.923654795	0.5930995941	0	0	0	1.271724820	
27.86994500	2.000000000	0.4363323130	2.013796091	396262.7701	3777653.937	0	1.929809690	0.5755074620	0	0	0	1.280973554	
27.98011000	2.000000000	0.4363323130	2.012325287	396262.9826	3777654.000	0	1.930449724	0.5681697130	0	0	0	1.284558773	
28.08994200	2.000000000	0.4363323130	2.011956453	396263.1945	3777654.062	0	1.929367781	0.5705336332	0	0	0	1.283279777	
28.20005000	2.000000000	0.4363323130	2.011664391	396263.4067	3777654.126	0	1.925534248	0.5823323727	0	0	0	1.277114987	
28.32001000	2.000000000	0.4363323130	2.012330770	396263.6373	3777654.197	0	1.918711543	0.6066473722	0	0	0	1.264567494	
28.42994700	2.000000000	0.4363323130	2.010991335	396263.8475	3777654.266	0	1.907218099	0.6376559734	0	0	0	1.248141646	
28.54004300	2.000000000	0.4363323130	2.010706186	396264.0566	3777654.338	0	1.892823577	0.6783496737	0	0	0	1.226675868	
28.64993100	2.000000000	0.4363323130	2.010391951	396264.2635	3777654.415	0	1.873886824	0.7281648517	0	0	0	1.200168848	
28.76994400	2.000000000	0.4363323130	2.011003733	396264.4869	3777654.507	0	1.847696066	0.7938231826	0	0	0	1.165011764	
28.88004700	2.000000000	0.4363323130	2.009812355	396264.6884	3777654.598	0	1.815486073	0.8621810675	0	0	0	1.127426505	
28.98993100	2.000000000	0.4363323130	2.009520531	396264.8858	3777654.697	0	1.776475668	0.9393121004	0	0	0	1.084413886	
29.10002600	2.000000000	0.4363323130	2.009267330	396265.0787	3777654.805	0	1.728332400	1.024705887	0	0	0	1.035623312	
29.22000200	2.000000000	0.4363323130	2.009785891	396265.2825	3777654.934	0	1.668461084	1.120480776	0	0	0	0.9794099331	
29.32994700	2.000000000	0.4363323130	2.008710384	396265.4626	3777655.061	0	1.607736707	1.204201221	0	0	0	0.9279329777	
29.44004600	2.000000000	0.4363323130	2.008471966	396265.6360	3777655.198	0	1.543371558	1.285287380	0	0	0	0.8763853312	
29.54994500	2.000000000	0.4363323130	2.008211136	396265.8019	3777655.344	0	1.475042701	1.362777114	0	0	0	0.8249379992	
29.66994400	2.000000000	0.4363323130	2.008680105	396265.9742	3777655.512	0	1.396495819	1.443812847	0	0	0	0.7687405348	
29.78013000	2.000000000	0.4363323130	2.007734776	396266.1239	3777655.675	0	1.319592834	1.513166904	0	0	0	0.7171701193	
29.89000000	2.000000000	0.4363323130	2.007483006	396266.2644	3777655.845	0	1.239939213	1.578777671	0	0	0	0.6657620668	
30.00006800	2.000000000	0.3999712869	2.007273197	396266.3968	3777656.022	0	1.164774299	1.634761930	0	0	0	0.6190686226	
30.12057100	2.000000000	0.3636102608	2.007699490	396266.5326	3777656.222	0	1.088553905	1.686981678	0	0	0	0.5730409026	
30.23050500	2.000000000	0.3272492347	2.006809950	396266.6487	3777656.410	0	1.024200439	1.725775242	0	0	0	0.5356061459	
30.34062600	3.165988340	0.2908882087	2.145323515	396266.7656	3777656.615	0	1.028994679	1.882440805	0	0	0	0.5002505779	
30.45051600	4.545396459	0.2545271826	2.283981323	396266.8823	3777656.837	0	1.029511452	2.038793087	0	0	0	0.4676087201	
30.56995000	5.696699217	0.2181661565	2.435686350	396267.0092	3777657.099	0	1.027228475	2.208476782	0	0	0	0.4353644252	
30.68005100	6.862074346	0.1818051304	2.576719999	396267.1255	3777657.357	0	1.025439620	2.363886595	0	0	0	0.4092955291	
30.78994000	8.002079497	0.1818051304	2.718974590	396267.2406	3777657.633	0	1.013156056	2.523160219	0	0	0	0.3818354011	
30.90004900	8.876979961	0.1454441043	2.863075495	396267.3546	3777657.927	0	1.005247235	2.680798054	0	0	0	0.3587536216	
31.02000800	10.04613617	0.1090830782	3.022166014	396267.4785	3777658.267	0	1.004730105	2.850264072	0	0	0	0.3389040232	
31.12995000	10.89822314	0.1090830782	3.169774294	396267.5912	3777658.597	0	0.9965831637	3.009034872	0	0	0	0.3198265731	
31.24004900	11.48696894	0.07272205217	3.319478750	396267.7038	3777658.945	0	1.001619577	3.164758682	0	0	0	0.3065172136	
31.34995100	12.03078452	0.07272205217	3.470819712	396267.8163	3777659.309	0	1.001217961	3.323274136	0	0	0	0.2926256955	
31.46995300	12.58863795	0.07272205217	3.638398647	396267.9389	3777659.728	0	0.9940282106	3.499979019	0	0	0	0.2767230570	
31.58013700	13.02835054	0.03636102608	3.794196129	396268.0516	3777660.131	0	1.008815050	3.657624483	0	0	0	0.2691205442	
31.68995000	13.68640625	0.03636102608	3.951424599	396268.1653	3777660.549	0	1.020534992	3.817363739	0	0	0	0.2612311542	
31.80004800	14.00100040	0.03636102608	4.111071110	396268.2804	3777660.987	0	1.029041409	3.980198622	0	0	0	0.2530002296	
31.92001200	14.16503460	0.03636102608	4.287336826	396268.4068	3777661.485	0	1.034290433	4.160709381	0	0	0	0.2436465621	
32.02994000	14.49401560	-0.000000000	4.450745583	396268.5248	3777661.960	0	1.073711514	4.319291592	0	0	0	0.2436465621	
32.14004500	14.86767030	-0.000000000	4.616340637	396268.6474	3777662.453	0	1.113660336	4.479995728	0	0	0	0.2436465621	
32.24994500	14.85203296	-0.000000000	4.783458233	396268.7741	3777662.963	0	1.153976202	4.642177582	0	0	0	0.2436465621	
32.36995700	14.83354439	-0.000000000	4.968072891	396268.9180	3777663.542	0	1.198513269	4.821339607	0	0	0	0.2436465621	
32.48005800	14.81135121	-0.000000000	5.139074802	396269.0544	3777664.091	0	1.239766359	4.987290859	0	0	0	0.2436465621	
32.58992900	2.000000000	-0.4363323130	5.043375015	396269.1914	3777664.628	0	1.276214600	4.879232407	0	0	0	0.2558292150	
32.70005000	2.000000000	-0.4363323130	4.948118687	396269.3355	3777665.153	0	1.366748095	4.755615234	0	0	0	0.2798543870	
32.82000200	2.000000000	-0.4363323130	4.843272209	396269.5070	3777665.708	0	1.521645308	4.598030090	0	0	0	0.3195897639	
32.92993900	2.000000000	-0.4363323130	4.746414661	396269.6826	3777666.199	0	1.703230500	4.430288792	0	0	0	0.3670309484	
33.04004800	2.000000000	-0.4363323130	4.648612499	396269.8801	3777666.671	0	1.918043852	4.234466553	0	0	0	0.4253127277	
33.14994400	2.000000000	-0.4363323130	4.550249577	396270.1018	3777667.119	0	2.157247543	4.006376266	0	0	0	0.4939351976	
33.26994500	2.000000000	-0.3999712869	4.441974163	396270.3746	3777667.577	0	2.438182116	3.713004112	0	0	0	0.5810430646	
33.38010600	2.000000000	-0.3636102608	4.341896057	396270.6547	3777667.964	0	2.699755430	3.400496960	0	0	0	0.6710285544	
33.48994100	3.285933305	-0.2908882087	4.241765499	396270.9579	3777668.318	0	2.882584095	3.111797571	0	0	0	0.7471787333	
33.60005400	6.179948394	-0.2181661565	4.405312061	396271.2993	3777668.662	0	3.205293655	3.022063017	0	0	0	0.8148131967	
33.72000700	9.351864149	-0.1454441043	4.584556103	396271.7109	3777669.026	0	3.526057720	2.930029392	0	0	0	0.8774575591	
33.82995400	11.36519123	-0.07272205217	4.750020027	396272.1202	3777669.350	0	3.793393135	2.858820915	0	0	0	0.9249750376	
33.94005800	14.23041783	-0.03636102608	4.917443752	396272.5585	3777669.668	0	4.034020901	2.812103987	0	0	0	0.9620212913	
34.04995500	13.49772351	0.03636102608	5.086039066	396273.0210	3777669.982	0	4.245972157	2.799912453	0	0	0	0.9878219366	
34.16995400	12.60334420	0.07272205217	5.271648884	396273.5514	3777670.326	0	4.440981388	2.840417147	0	0	0	1.001772404	
34.28005200	10.96348313	0.1090830782	5.442790031	396274.0561	3777670.649	0	4.585204601	2.932552338	0	0	0	1.001789331	
34.38993400	9.449954001	0.1454441043	5.614102840	396274.5735	3777670.985	0	4.688117981	3.088640690	0	0	0	0.9882435203	
34.50005600	9.887816748	0.1090830782	5.786334038	396275.1004	3777671.343	0	4.740671635	3.317784309	0	0	0	0.9601674676	
34.62000100	2.000000000	-0.4363323130	5.681420803	396275.6560	3777671.737	0	4.609922409	3.320716619	0	0	0	0.9465487003	
34.72994600	2.000000000	-0.4363323130	5.587202549	396276.1545	3777672.096	0	4.537495613	3.260055780	0	0	0	0.9477814436	
34.84004300	2.000000000	-0.4363323130	5.491857529	396276.6480	3777672.445	0	4.506162167	3.139267445	0	0	0	0.9623148441	
34.94994500	2.000000000	-0.4363323130	5.395827770	396277.1391	3777672.777	0	4.510061264	2.962145090	0	0	0	0.9896654487	
35.07052900	2.000000000	-0.4363323130	5.289447308	396277.6798	3777673.115	0	4.547306538	2.701898813	0	0	0	1.034670472	
35.18070200	2.000000000	-0.4363323130	5.191414356	396278.1790	3777673.394	0	4.597980499	2.410261154	0	0	0	1.087976694	
35.29053100	2.000000000	-0.4363323130	5.092947483	396278.6823	3777673.637	0	4.654667854	2.066925526	0	0	0	1.152897835	
35.40063300	2.000000000	-0.4363323130	4.993428707	396279.1928	3777673.841	0	4.705644608	1.670700073	0	0	0	1.229637146	
35.52000300	2.000000000	-0.4363323130	4.884676933	396279.7508	3777674.009	0	4.739333153	1.182704926	0	0	0	1.326240301	
35.62993600	2.000000000	-0.4363323130	4.783837318	396280.2664	3777674.111	0	4.734034061	0.6884905100	0	0	0	1.426374674	
35.74005100	2.000000000	-0.4363323130	4.682141304	396280.7796	3777674.157	0	4.679589272	0.1545677334	0	0	0	1.537778139	
35.84994400	2.000000000	-0.4363323130	4.579998970	396281.2824	3777674.144	0	4.563732147	-0.3856684566	0	0	0	1.655103207	
35.96994400	2.000000000	-0.4363323130	4.467703819	396281.8123	3777674.065	0	4.370204926	-0.9282695055	0	0	0	1.780094385	
36.08005900	2.000000000	-0.4363323130	4.364074230	396282.2757	3777673.939	0	4.140735149	-1.378207326	0	0	0	1.892103910	
36.18992600	2.000000000	-0.4363323130	4.260078430	396282.7108	3777673.768	0	3.871512890	-1.777541876	0	0	0	2.001219749	
36.30004900	2.000000000	-0.4363323130	4.155303955	396283.1156	3777673.555	0	3.570260286	-2.125980139	0	0	0	2.107877731	
36.42000100	2.000000000	-0.4363323130	4.040521145	396283.5171	3777673.284	0	3.216411829	-2.445507765	0	0	0	2.220870733	
36.52993800	2.000000000	-0.4363323130	3.934830904	396283.8476	3777673.005	0	2.876647472	-2.684733629	0	0	0	2.321699858	
36.64000900	2.000000000	-0.4363323130	3.828509808	396284.1410	3777672.703	0	2.529231310	-2.874104500	0	0	0	2.419934034	
36.74994300	2.000000000	-0.4363323130	3.721854210	396284.3962	3777672.384	0	2.181513548	-3.015492916	0	0	0	2.515311003	
36.86994800	2.000000000	-0.4363323130	3.604879618	396284.6317	3777672.021	0	1.808136106	-3.118621588	0	0	0	2.616168261	
36.98021600	2.000000000	-0.3636102608	3.496975183	396284.8116	3777671.680	0	1.507451415	-3.155380487	0	0	0	2.695911169	
37.08996000	4.027592052	-0.2545271826	3.652397394	396284.9710	3777671.313	0	1.330723166	-3.401350021	0	0	0	2.768666029	
37.20005200	6.473281682	-0.2181661565	3.808572292	396285.1108	3777670.918	0	1.151287317	-3.630393982	0	0	0	2.834500074	
37.32001200	9.217235049	-0.1454441043	3.980116606	396285.2408	3777670.458	0	0.9635740519	-3.861716509	0	0	0	2.897066116	
37.42994800	2.000000000	-0.3999712869	3.872709274	396285.3301	3777670.042	0	0.6880829930	-3.811091661	0	0	0	2.962969542	
37.54004400	2.000000000	-0.3272492347	3.764840126	396285.3894	3777669.632	0	0.4068796337	-3.742789030	0	0	0	3.033307552	
37.64994800	3.206991875	-0.2908882087	3.657049417	396285.4207	3777669.232	0	0.1759608537	-3.652813911	0	0	0	3.093458652	
37.76995000	5.915946215	-0.2181661565	3.827328920	396285.4298	3777668.773	0	-0.03353895992	-3.827181816	0	0	0	3.150355816	
37.88004900	8.088860478	-0.1818051304	3.984381199	396285.4163	3777668.334	0	-0.2108857483	-3.978796482	0	0	0	3.194545507	
37.98994000	10.09837688	-0.1090830782	4.142416477	396285.3841	3777667.880	0	-0.3660944402	-4.126207829	0	0	0	3.230085135	
38.10005000	11.79710982	-0.07272205217	4.302257061	396285.3360	3777667.409	0	-0.4930551946	-4.273910999	0	0	0	3.256448746	
38.22001100	13.26154905	-0.03636102608	4.478503227	396285.2700	3777666.876	0	-0.5884470940	-4.439675808	0	0	0	3.273367405	
38.32995400	14.20535863	-0.03636102608	4.641820431	396285.2006	3777666.371	0	-0.6525789499	-4.595719337	0	0	0	3.282646894	
38.44004800	14.88317560	-0.000000000	4.807279587	396285.1262	3777665.847	0	-0.6758407950	-4.759535313	0	0	0	3.282646894	
38.54994600	14.77130828	-0.000000000	4.974224567	396285.0493	3777665.306	0	-0.6993111372	-4.924822330	0	0	0	3.282646894	
38.66994800	14.80109322	-0.000000000	5.158603191	396284.9623	3777664.693	0	-0.7252323627	-5.107369423	0	0	0	3.282646894	
38.78013900	14.83497247	-0.000000000	5.329515934	396284.8798	3777664.112	0	-0.7492604256	-5.276585102	0	0	0	3.282646894	
38.88994300	14.68579621	-0.000000000	5.501423836	396284.7949	3777663.514	0	-0.7734284997	-5.446785450	0	0	0	3.282646894	
39.00005600	14.73283648	-0.000000000	5.675322533	396284.7070	3777662.895	0	-0.7978763580	-5.618957043	0	0	0	3.282646894	
39.12000100	14.54031470	-0.000000000	5.866450787	396284.6081	3777662.198	0	-0.8247464895	-5.808187008	0	0	0	3.282646894	
39.22994300	14.56343033	-0.000000000	6.042924881	396284.5148	3777661.541	0	-0.8495564461	-5.982908726	0	0	0	3.282646894	
39.34006900	2.000000000	-0.4363323130	5.950345993	396284.4180	3777660.893	0	-0.9214763641	-5.878562927	0	0	0	3.297079325	
39.44994200	2.000000000	-0.4363323130	5.860479832	396284.3092	3777660.258	0	-1.071596622	-5.761675835	0	0	0	3.325478554	
39.56994900	2.000000000	-0.4363323130	5.760475636	396284.1668	3777659.582	0	-1.319859862	-5.607232094	0	0	0	3.372769594	
39.68005000	2.000000000	-0.4363323130	5.668256283	396284.0067	3777658.979	0	-1.609689355	-5.434890270	0	0	0	3.429538488	
39.78993400	2.000000000	-0.4363323130	5.575222492	396283.8124	3777658.398	0	-1.952072382	-5.222310066	0	0	0	3.499306202	
39.90013200	2.000000000	-0.4363323130	5.481021881	396283.5779	3777657.842	0	-2.337619781	-4.957533360	0	0	0	3.582205057	
40.02058700	2.000000000	-0.4363323130	5.376915932	396283.2711	3777657.272	0	-2.794732809	-4.593549252	0	0	0	3.688168526	
40.13053100	2.000000000	-0.4363323130	5.281054020	396282.9429	3777656.794	0	-3.220658302	-4.185318470	0	0	0	3.797465801	
40.24063000	2.000000000	-0.4363323130	5.184199810	396282.5682	3777656.364	0	-3.638293028	-3.693068027	0	0	0	3.919519663	
40.35055000	2.000000000	-0.4363323130	5.086691380	396282.1511	3777655.992	0	-4.010536194	-3.128902197	0	0	0	4.049856663	
40.46996300	2.000000000	-0.3999712869	4.979841232	396281.6606	3777655.657	0	-4.279271603	-2.546891689	0	0	0	4.175529003	
40.58012400	3.626787824	-0.2908882087	4.880863190	396281.1856	3777655.405	0	-4.422342300	-2.065360785	0	0	0	4.275464535	
40.68994800	8.701671501	-0.1454441043	5.046275139	396280.6739	3777655.194	0	-4.744498253	-1.718902946	0	0	0	4.364804268	
40.80007200	12.66540634	-0.07272205217	5.213491917	396280.1272	3777655.020	0	-5.026279449	-1.384563565	0	0	0	4.443590641	
40.92002700	13.78654564	0.03636102608	5.397487164	396279.4973	3777654.870	0	-5.293704033	-1.053360105	0	0	0	4.515971184	
41.02996200	10.61193898	0.1090830782	5.566908360	396278.8943	3777654.767	0	-5.510871410	-0.7878857851	0	0	0	4.570382118	
41.14005400	7.630396729	0.1818051304	5.736263752	396278.2675	3777654.691	0	-5.707555771	-0.5731742382	0	0	0	4.612300873	
41.24995200	4.566681985	0.2545271826	5.640621185	396277.6501	3777654.638	0	-5.625706673	-0.4099125862	0	0	0	4.639653206	
41.36994800	2.000000000	0.3272492347	5.533007622	396276.9876	3777654.594	0	-5.523237705	-0.3286660910	0	0	0	4.652953148	
41.48006900	2.000000000	0.3636102608	5.435075283	396276.3905	3777654.558	0	-5.425089359	-0.3293145597	0	0	0	4.651761055	
41.58994100	2.000000000	0.3999712869	5.336469173	396275.8055	3777654.518	0	-5.321591377	-0.3982097208	0	0	0	4.637699127	
41.70005100	2.000000000	0.4363323130	5.236900330	396275.2312	3777654.468	0	-5.210066795	-0.5294636488	0	0	0	4.611113548	
41.82000400	2.000000000	0.4363323130	5.127525806	396274.6209	3777654.392	0	-5.074018478	-0.7388221622	0	0	0	4.567796230	
41.92994100	2.000000000	0.4363323130	5.026584148	396274.0765	3777654.299	0	-4.930369377	-0.9787769318	0	0	0	4.516417027	
42.04007000	2.000000000	0.4363323130	4.924773693	396273.5484	3777654.176	0	-4.760696888	-1.260620117	0	0	0	4.453532696	
42.14995900	2.000000000	0.3999712869	4.822515011	396273.0417	3777654.022	0	-4.558063507	-1.575026035	0	0	0	4.379686356	
42.26994700	2.000000000	0.3999712869	4.710051537	396272.5170	3777653.813	0	-4.288483620	-1.947689414	0	0	0	4.286074638	
42.37997000	2.000000000	0.3636102608	4.606346607	396272.0665	3777653.581	0	-3.991256714	-2.299629927	0	0	0	4.189678192	
42.48996200	3.596505978	0.2908882087	4.502542496	396271.6481	3777653.317	0	-3.704274893	-2.559538603	0	0	0	4.107749939	
42.60006900	2.000000000	0.3636102608	4.397607327	396271.2630	3777653.024	0	-3.372622490	-2.822121382	0	0	0	4.015624046	
42.72002100	2.288523993	0.2908882087	4.282869816	396270.8833	3777652.678	0	-3.042827606	-3.013996840	0	0	0	3.931750774	
42.82996100	5.607329606	0.2181661565	4.441362858	396270.5485	3777652.323	0	-2.935815334	-3.332670450	0	0	0	3.863765717	
42.94006800	8.628700213	0.1454441043	4.600915909	396270.2251	3777651.933	0	-2.833661795	-3.624746561	0	0	0	3.805108786	
43.04997100	11.58644609	0.07272205217	4.761577606	396269.9130	3777651.513	0	-2.746896267	-3.889367580	0	0	0	3.756506205	
43.16997000	13.60076222	0.03636102608	4.939044952	396269.5810	3777651.022	0	-2.683763981	-4.146272182	0	0	0	3.716047287	
43.28005200	14.24472822	-0.03636102608	5.103544712	396269.2819	3777650.547	0	-2.661626339	-4.354528427	0	0	0	3.690229893	
43.38994100	12.41255502	-0.07272205217	5.269117832	396268.9834	3777650.051	0	-2.685552835	-4.533366203	0	0	0	3.676403046	
43.50006800	11.16925341	-0.1090830782	5.436023235	396268.6787	3777649.536	0	-2.765443325	-4.680028915	0	0	0	3.675296307	
43.62002600	10.40221481	-0.1090830782	5.618931770	396268.3315	3777648.958	0	-2.930424213	-4.794268131	0	0	0	3.690232277	
43.72996100	10.03269020	-0.1090830782	5.787212372	396267.9922	3777648.420	0	-3.155908346	-4.850986481	0	0	0	3.718368769	
43.84005200	10.50972275	-0.1090830782	5.956516743	396267.6249	3777647.877	0	-3.425351858	-4.873095512	0	0	0	3.754269600	
43.94996700	11.51300848	-0.07272205217	6.126440525	396267.2310	3777647.331	0	-3.644894123	-4.924227715	0	0	0	3.778789759	
44.06998300	12.94135357	-0.03636102608	6.313373089	396266.7761	3777646.726	0	-3.825677633	-5.022237778	0	0	0	3.792569876	
44.18014800	13.13294797	-0.03636102608	6.486077785	396266.3395	3777646.160	0	-3.997051001	-5.108109951	0	0	0	3.805565834	
44.28994500	13.85942814	-0.03636102608	6.659336090	396265.8852	3777645.587	0	-4.173181057	-5.189539433	0	0	0	3.818860531	
44.40004900	14.58949947	-0.000000000	6.834374905	396265.4137	3777645.001	0	-4.282872200	-5.325944901	0	0	0	3.818860531	
44.52002300	2.000000000	0.4363323130	6.731128693	396264.9139	3777644.367	0	-4.115713120	-5.326255322	0	0	0	3.799477816	
44.62995500	2.000000000	0.4363323130	6.638086796	396264.4776	3777643.782	0	-3.879901409	-5.386145115	0	0	0	3.765845060	
44.74006300	2.000000000	0.4363323130	6.543217182	396264.0711	3777643.188	0	-3.558245182	-5.491136551	0	0	0	3.716559172	
44.84994700	2.000000000	0.4363323130	6.447953224	396263.7053	3777642.581	0	-3.150786638	-5.625712872	0	0	0	3.652133465	
44.97051300	2.000000000	0.4363323130	6.342346191	396263.3617	3777641.898	0	-2.596412659	-5.786535740	0	0	0	3.563364029	
45.08065500	2.000000000	0.4363323130	6.245154858	396263.1107	3777641.258	0	-1.998879313	-5.916624069	0	0	0	3.467394829	
45.19052900	2.000000000	0.4363323130	6.147422791	396262.9303	3777640.608	0	-1.313567638	-6.005443096	0	0	0	3.356930733	
45.30062100	2.000000000	0.3636102608	6.048810005	396262.8291	3777639.950	0	-0.5435708165	-6.024336815	0	0	0	3.231578112	
45.42000800	3.850003516	0.2545271826	5.942062855	396262.8060	3777639.242	0	0.1459635049	-5.940269470	0	0	0	3.117025614	
45.52994200	8.325651550	0.1454441043	6.107671261	396262.8534	3777638.573	0	0.7123251557	-6.065990448	0	0	0	3.024698734	
45.64007500	12.50770239	0.07272205217	6.274752617	396262.9609	3777637.890	0	1.220403075	-6.154927731	0	0	0	2.945850849	
45.74996500	13.91443014	-0.03636102608	6.442843914	396263.1209	3777637.201	0	1.658301115	-6.225775242	0	0	0	2.881276131	
45.86995100	9.997868753	-0.1090830782	6.626875401	396263.3458	3777636.438	0	2.042336941	-6.304310799	0	0	0	2.828302860	
45.98012200	2.000000000	-0.3636102608	6.526126862	396263.5782	3777635.758	0	2.208050966	-6.141241550	0	0	0	2.796440125	
46.08996400	2.000000000	-0.3999712869	6.427948475	396263.8222	3777635.096	0	2.269596577	-6.013938427	0	0	0	2.780728817	
46.20006400	2.000000000	-0.4363323130	6.327845573	396264.0682	3777634.444	0	2.235194683	-5.919926643	0	0	0	2.780569553	
46.32000700	2.000000000	-0.4363323130	6.218299866	396264.3254	3777633.744	0	2.093009233	-5.855473042	0	0	0	2.798300743	
46.42994600	2.000000000	-0.4363323130	6.117188454	396264.5419	3777633.108	0	1.880388856	-5.821007729	0	0	0	2.829138994	
46.54004600	2.000000000	-0.4363323130	6.015323162	396264.7312	3777632.473	0	1.588889956	-5.801684380	0	0	0	2.874279976	
46.64994500	2.000000000	-0.3999712869	5.913046360	396264.8843	3777631.842	0	1.223254800	-5.785133362	0	0	0	2.933213949	
46.76996000	2.000000000	-0.3636102608	5.800663471	396265.0007	3777631.156	0	0.7393877506	-5.753346920	0	0	0	3.013778925	
46.88005100	2.052349535	-0.3272492347	5.697198868	396265.0534	3777630.531	0	0.2309541106	-5.692515373	0	0	0	3.101043463	
46.99004100	5.386151208	-0.2181661565	5.594288349	396265.0564	3777629.916	0	-0.1715270877	-5.591658115	0	0	0	3.172258615	
47.10005200	8.997177738	-0.1454441043	5.755838394	396265.0185	3777629.284	0	-0.5139344335	-5.732847691	0	0	0	3.231000900	
47.22002500	11.94408107	-0.07272205217	5.933493614	396264.9377	3777628.577	0	-0.8158432841	-5.877137661	0	0	0	3.279527664	
47.32995000	14.37485357	-0.000000000	6.097849369	396264.8354	3777627.915	0	-1.023832679	-6.011283875	0	0	0	3.310292244	
47.44005200	13.61709510	0.03636102608	6.263873577	396264.7141	3777627.236	0	-1.152822495	-6.156875610	0	0	0	3.326690912	
47.54995200	12.34404802	0.07272205217	6.430701256	396264.5836	3777626.542	0	-1.191522598	-6.319350719	0	0	0	3.327956200	
47.66995400	11.66546645	0.07272205217	6.613986969	396264.4434	3777625.761	0	-1.110672474	-6.520063877	0	0	0	3.310319901	
47.78013300	11.61310849	0.07272205217	6.783107281	396264.3280	3777625.022	0	-0.9566757679	-6.715304852	0	0	0	3.283102512	
47.88994400	12.34289865	0.07272205217	6.952583313	396264.2309	3777624.265	0	-0.7888730764	-6.907683372	0	0	0	3.255302191	
48.00005400	13.46916193	0.03636102608	7.123654842	396264.1474	3777623.486	0	-0.7072488070	-7.088459492	0	0	0	3.241038322	
48.12001200	14.61954717	-0.000000000	7.311567307	396264.0604	3777622.613	0	-0.7259058356	-7.275443554	0	0	0	3.241038322	
48.22994200	14.79020989	-0.000000000	7.484956264	396263.9787	3777621.794	0	-0.7431201935	-7.447975636	0	0	0	3.241038322	
48.34005700	14.79020989	-0.000000000	7.659836769	396263.8950	3777620.955	0	-0.7604826689	-7.621992111	0	0	0	3.241038322	
48.44995300	14.79020989	-0.000000000	7.835496902	396263.8095	3777620.099	0	-0.7779225707	-7.796784401	0	0	0	3.241038322	
48.56995100	14.79020989	-0.000000000	8.028605461	396263.7139	3777619.140	0	-0.7970947027	-7.988938808	0	0	0	3.241038322	
48.68005100	14.79020989	-0.000000000	8.206740379	396263.6242	3777618.241	0	-0.8147802353	-8.166193008	0	0	0	3.241038322	
48.78993500	14.79020989	-0.000000000	8.385526657	396263.5327	3777617.324	0	-0.8325304985	-8.344096184	0	0	0	3.241038322	
48.90005300	14.79020989	-0.000000000	8.565558434	396263.4391	3777616.386	0	-0.8504044414	-8.523239136	0	0	0	3.241038322	
49.02000800	14.79020989	-0.000000000	8.762740135	396263.3347	3777615.340	0	-0.8699809313	-8.719446182	0	0	0	3.241038322	
49.12994400	14.79020989	-0.000000000	8.944213867	396263.2371	3777614.362	0	-0.8879979849	-8.900023460	0	0	0	3.241038322	
49.24004200	14.79020989	-0.000000000	9.126720428	396263.1374	3777613.363	0	-0.9061175585	-9.081628799	0	0	0	3.241038322	
49.34995100	14.79020989	-0.000000000	9.309613228	396263.0358	3777612.345	0	-0.9242755175	-9.263617516	0	0	0	3.241038322	
49.46994900	14.79020989	-0.000000000	9.510126114	396262.9226	3777611.209	0	-0.9441827536	-9.463139534	0	0	0	3.241038322	
49.58011400	14.79020989	-0.000000000	9.694781303	396262.8165	3777610.147	0	-0.9625157118	-9.646883011	0	0	0	3.241038322	
49.68996500	14.79020989	-0.000000000	9.879440308	396262.7088	3777609.067	0	-0.9808490276	-9.830630302	0	0	0	3.241038322	
49.80004900	14.79020989	-0.000000000	10.06509018	396262.5988	3777607.965	0	-0.9992806911	-10.01536274	0	0	0	3.241038322	
49.92063400	14.79020989	-0.000000000	10.26903152	396262.4759	3777606.733	0	-1.019528389	-10.21829605	0	0	0	3.241038322	
50.03050600	14.79020989	-0.000000000	10.45525360	396262.3619	3777605.590	0	-1.038016796	-10.40359783	0	0	0	3.241038322	
50.14063200	14.79020989	-0.000000000	10.64231873	396262.2456	3777604.424	0	-1.056589007	-10.58973885	0	0	0	3.241038322	
50.25051500	14.79020496	-0.000000000	10.82933235	396262.1275	3777603.240	0	-1.075155973	-10.77582836	0	0	0	3.241038322	
50.36994600	14.79020989	-0.000000000	11.03299713	396261.9966	3777601.929	0	-1.095376253	-10.97848701	0	0	0	3.241038322	
50.48005700	14.79020989	-0.000000000	11.22093391	396261.8740	3777600.700	0	-1.114035010	-11.16549492	0	0	0	3.241038322	
50.58993200	14.79020989	-0.000000000	11.40867138	396261.7496	3777599.453	0	-1.132673860	-11.35230541	0	0	0	3.241038322	
50.70004900	14.79020989	-0.000000000	11.59686279	396261.6228	3777598.183	0	-1.151357889	-11.53956604	0	0	0	3.241038322	
50.82000800	14.79020496	-0.000000000	11.80194187	396261.4823	3777596.774	0	-1.171718478	-11.74363232	0	0	0	3.241038322	
50.92994300	14.79020496	-0.000000000	11.98977089	396261.3515	3777595.463	0	-1.190366507	-11.93053341	0	0	0	3.241038322	
51.04005900	14.79020496	-0.000000000	12.17780209	396261.2184	3777594.129	0	-1.209034562	-12.11763573	0	0	0	3.241038322	
51.14994400	14.79020496	-0.000000000	12.36524582	396261.0835	3777592.777	0	-1.227644324	-12.30415344	0	0	0	3.241038322	
51.26994800	14.79020496	-0.000000000	12.56968021	396260.9337	3777591.276	0	-1.247941017	-12.50757790	0	0	0	3.241038322	
51.38010800	14.79020496	-0.000000000	12.75699043	396260.7942	3777589.878	0	-1.266537547	-12.69396305	0	0	0	3.241038322	
51.48994500	14.79020496	-0.000000000	12.94333839	396260.6532	3777588.464	0	-1.285038471	-12.87938976	0	0	0	3.241038322	
51.60005400	14.79020496	-0.000000000	13.12973881	396260.5096	3777587.026	0	-1.303544641	-13.06486893	0	0	0	3.241038322	
51.72000500	14.79020496	-0.000000000	13.33223724	396260.3509	3777585.434	0	-1.323649049	-13.26636696	0	0	0	3.241038322	
51.82995600	14.79020496	-0.000000000	13.51725483	396260.2034	3777583.956	0	-1.342017889	-13.45047092	0	0	0	3.241038322	
51.94004700	14.79020496	-0.000000000	13.70190907	396260.0536	3777582.455	0	-1.360350728	-13.63421249	0	0	0	3.241038322	
52.04994700	14.79020496	-0.000000000	13.88557816	396259.9022	3777580.937	0	-1.378585815	-13.81697464	0	0	0	3.241038322	
52.16994900	14.79020496	-0.000000000	14.08530331	396259.7344	3777579.255	0	-1.398414850	-14.01571274	0	0	0	3.241038322	
52.28004800	14.79020496	-0.000000000	14.26770878	396259.5785	3777577.693	0	-1.416524410	-14.19721699	0	0	0	3.241038322	
52.38993500	14.79020496	-0.000000000	14.44897079	396259.4208	3777576.113	0	-1.434520483	-14.37758350	0	0	0	3.241038322	
52.50004800	14.79020496	-0.000000000	14.62967300	396259.2610	3777574.511	0	-1.452460885	-14.55739307	0	0	0	3.241038322	
52.62000300	14.79020496	-0.000000000	14.82547569	396259.0844	3777572.741	0	-1.471900463	-14.75222778	0	0	0	3.241038322	
52.72994300	14.79020496	-0.000000000	14.83731174	396258.9225	3777571.119	0	-1.473075509	-14.76400566	0	0	0	3.241038322	
52.84007100	14.79020496	-0.000000000	14.83702564	396258.7604	3777569.493	0	-1.473047256	-14.76372147	0	0	0	3.241038322	
52.94993200	14.79020496	-0.000000000	14.83658504	396258.5985	3777567.871	0	-1.473003507	-14.76328278	0	0	0	3.241038322	
53.06995100	14.79020496	-0.000000000	14.84043694	396258.4217	3777566.099	0	-1.473385930	-14.76711559	0	0	0	3.241038322	
53.18016800	14.79020496	-0.000000000	14.83600235	396258.2594	3777564.472	0	-1.472945690	-14.76270294	0	0	0	3.241038322	
53.28994400	14.79020496	-0.000000000	14.83548069	396258.0978	3777562.852	0	-1.472893834	-14.76218414	0	0	0	3.241038322	
53.40005500	14.79020496	-0.000000000	14.83530426	396257.9356	3777561.227	0	-1.472876310	-14.76200771	0	0	0	3.241038322	
53.52000400	14.79020496	-0.000000000	14.83895588	396257.7589	3777559.456	0	-1.473238826	-14.76564217	0	0	0	3.241038322	
53.62994100	14.79020496	-0.000000000	14.83457470	396257.5971	3777557.834	0	-1.472803831	-14.76128197	0	0	0	3.241038322	
53.74005500	14.79020496	-0.000000000	14.83434868	396257.4349	3777556.209	0	-1.472781420	-14.76105690	0	0	0	3.241038322	
53.84993300	14.79020496	-0.000000000	14.83396530	396257.2731	3777554.587	0	-1.472743392	-14.76067543	0	0	0	3.241038322	
53.96994500	14.79020496	-0.000000000	14.83764839	396257.0964	3777552.816	0	-1.473109007	-14.76434135	0	0	0	3.241038322	
54.08011000	14.79020496	-0.000000000	14.83347511	396256.9342	3777551.190	0	-1.472694635	-14.76018810	0	0	0	3.241038322	
54.18993100	14.79020496	-0.000000000	14.83306885	396256.7725	3777549.569	0	-1.472654343	-14.75978374	0	0	0	3.241038322	
54.30005200	14.79020496	-0.000000000	14.83290958	396256.6103	3777547.945	0	-1.472638607	-14.75962543	0	0	0	3.241038322	
54.42000300	14.79020496	-0.000000000	14.83641338	396256.4337	3777546.174	0	-1.472986460	-14.76311207	0	0	0	3.241038322	
54.52994800	14.79020496	-0.000000000	14.83229923	396256.2718	3777544.552	0	-1.472577929	-14.75901794	0	0	0	3.241038322	
54.64004900	14.79020496	-0.000000000	14.83211040	396256.1097	3777542.927	0	-1.472559214	-14.75883007	0	0	0	3.241038322	
54.74993700	14.79020496	-0.000000000	14.83178997	396255.9479	3777541.305	0	-1.472527385	-14.75851154	0	0	0	3.241038322	
54.87051100	14.79020496	-0.000000000	14.83553505	396255.7704	3777539.526	0	-1.472899199	-14.76223755	0	0	0	3.241038322	
54.98077300	14.79020496	-0.000000000	14.83142757	396255.6080	3777537.899	0	-1.472491384	-14.75815105	0	0	0	3.241038322	
55.09051300	14.79020496	-0.000000000	14.83099747	396255.4465	3777536.280	0	-1.472448707	-14.75772285	0	0	0	3.241038322	
55.20061600	14.79020496	-0.000000000	14.83091450	396255.2844	3777534.655	0	-1.472440481	-14.75764084	0	0	0	3.241038322	
55.32001100	14.79020496	-0.000000000	14.83409023	396255.1086	3777532.893	0	-1.472755671	-14.76079941	0	0	0	3.241038322	
55.42994500	14.79020496	-0.000000000	14.83039570	396254.9468	3777531.271	0	-1.472388983	-14.75712395	0	0	0	3.241038322	
55.54005500	14.79020496	-0.000000000	14.83025455	396254.7847	3777529.647	0	-1.472374916	-14.75698376	0	0	0	3.241038322	
55.64994800	14.79020496	-0.000000000	14.82997227	396254.6229	3777528.026	0	-1.472346902	-14.75670242	0	0	0	3.241038322	
55.76994500	14.79020496	-0.000000000	14.83338928	396254.4462	3777526.255	0	-1.472686172	-14.76010323	0	0	0	3.241038322	
55.88011100	14.79020496	-0.000000000	14.82965469	396254.2841	3777524.629	0	-1.472315431	-14.75638676	0	0	0	3.241038322	
55.98992700	14.79020496	-0.000000000	14.82934189	396254.1224	3777523.009	0	-1.472284317	-14.75607491	0	0	0	3.241038322	
56.10006400	14.79020496	-0.000000000	14.82926369	396253.9603	3777521.384	0	-1.472276568	-14.75599766	0	0	0	3.241038322	
56.22000500	14.79020496	-0.000000000	14.83252621	396253.7837	3777519.614	0	-1.472600460	-14.75924397	0	0	0	3.241038322	
56.32994900	14.79020496	-0.000000000	14.82881832	396253.6219	3777517.993	0	-1.472232342	-14.75555420	0	0	0	3.241038322	
56.44005400	14.79020496	-0.000000000	14.82870293	396253.4598	3777516.368	0	-1.472220898	-14.75543976	0	0	0	3.241038322	
56.54994600	14.79020496	-0.000000000	14.82845974	396253.2981	3777514.747	0	-1.472196698	-14.75519753	0	0	0	3.241038322	
56.66996000	14.79020003	-0.000000000	14.83177948	396253.1214	3777512.976	0	-1.472526312	-14.75850105	0	0	0	3.241038322	
56.78011000	14.79020003	-0.000000000	14.82820034	396252.9592	3777511.351	0	-1.472170949	-14.75493908	0	0	0	3.241038322	
56.88992800	14.79020003	-0.000000000	14.82792473	396252.7976	3777509.731	0	-1.472143650	-14.75466537	0	0	0	3.241038322	
57.00009300	14.79020003	-0.000000000	14.82789040	396252.6355	3777508.106	0	-1.472140312	-14.75463104	0	0	0	3.241038322	
57.11999400	14.79020003	-0.000000000	14.83103657	396252.4589	3777506.337	0	-1.472452641	-14.75776196	0	0	0	3.241038322	
57.22992600	14.79020003	-0.000000000	14.82749557	396252.2971	3777504.715	0	-1.472101092	-14.75423908	0	0	0	3.241038322	
57.33997700	14.79020003	-0.000000000	14.82738876	396252.1352	3777503.092	0	-1.472090483	-14.75413227	0	0	0	3.241038322	
57.44992100	14.79020003	-0.000000000	14.82721710	396251.9733	3777501.470	0	-1.472073436	-14.75396156	0	0	0	3.241038322	
57.56994100	14.79020003	-0.000000000	14.83043480	396251.7966	3777499.699	0	-1.472392797	-14.75716305	0	0	0	3.241038322	
57.68001700	0.000000000	-0.000000000	14.72930431	396251.6357	3777498.086	0	-1.462352514	-14.65653229	0	0	0	3.241038322	
