% time	latitude	longitude	easting	northing	n.velocity	e.velocity

0.43736100	34.132087	-118.04803	403364.83	3777297.6	-0.0078125000	-0.0019531250
0.53744805	34.132087	-118.04803	403364.83	3777297.6	0.0019531250	-0.0068359375
0.65736198	34.132087	-118.04803	403364.83	3777297.6	0.0019531250	-0.0068359375
0.82737696	34.132087	-118.04803	403364.83	3777297.6	-0.011718750	-0.0068359375
0.91735303	34.132087	-118.04803	403364.83	3777297.6	-0.011718750	-0.0068359375
1.0073560	34.132087	-118.04803	403364.84	3777297.6	0.054687500	0.055664062
1.1373630	34.132087	-118.04803	403364.84	3777297.6	0.019531250	0.042968750
1.2173600	34.132087	-118.04803	403364.85	3777297.7	0.11914062	0.11816406
1.2973650	34.132087	-118.04803	403364.87	3777297.7	0.098632812	0.13183594
1.3873560	34.132087	-118.04803	403364.87	3777297.7	0.098632812	0.13183594
1.5473540	34.132087	-118.04803	403364.87	3777297.7	0.098632812	0.13183594
1.6973600	34.132088	-118.04803	403364.88	3777297.7	0.16308594	0.16699219
1.7773629	34.132088	-118.04803	403364.90	3777297.7	0.13281250	0.19531250
1.8673530	34.132088	-118.04803	403364.93	3777297.7	0.18261719	0.24218750
2.0173630	34.132088	-118.04803	403364.93	3777297.7	0.18261719	0.24218750
2.1974239	34.132088	-118.04803	403364.93	3777297.7	0.18261719	0.24218750
2.2773610	34.132088	-118.04803	403364.96	3777297.7	0.18847656	0.24804688
2.4273599	34.132088	-118.04803	403364.96	3777297.7	0.18847656	0.24804688
2.6074090	34.132088	-118.04803	403364.99	3777297.8	0.21386719	0.28222656
2.7273600	34.132088	-118.04803	403365.02	3777297.8	0.24414062	0.29101562
2.8173569	34.132088	-118.04803	403365.02	3777297.8	0.24414062	0.29101562
2.8973529	34.132089	-118.04803	403365.05	3777297.8	0.24023438	0.30664062
3.0673630	34.132089	-118.04803	403365.08	3777297.8	0.27539062	0.34179688
3.1473620	34.132089	-118.04803	403365.12	3777297.9	0.27050781	0.36718750
3.2274270	34.132089	-118.04803	403365.16	3777297.9	0.31054688	0.38085938
3.3173540	34.132089	-118.04803	403365.16	3777297.9	0.31054688	0.38085938
3.4173549	34.132089	-118.04803	403365.16	3777297.9	0.31054688	0.38085938
3.5173540	34.132090	-118.04803	403365.20	3777297.9	0.31738281	0.39941406
3.6674050	34.132090	-118.04802	403365.24	3777298.0	0.34082031	0.41015625
3.7473630	34.132090	-118.04802	403365.29	3777298.0	0.38476562	0.49414062
3.9073590	34.132090	-118.04802	403365.29	3777298.0	0.38476562	0.49414062
4.0173529	34.132090	-118.04802	403365.29	3777298.0	0.38476562	0.49414062
4.1974040	34.132091	-118.04802	403365.34	3777298.0	0.38476562	0.56835938
4.2773629	34.132091	-118.04802	403365.34	3777298.0	0.38476562	0.56835938
4.4274520	34.132091	-118.04802	403365.42	3777298.1	0.63183594	0.78027344
4.5173550	34.132092	-118.04802	403365.52	3777298.2	0.77246094	0.98339844
4.5973620	34.132093	-118.04802	403365.65	3777298.3	1.0371094	1.2373047
4.7173560	34.132094	-118.04802	403365.79	3777298.4	1.1347656	1.4345703
4.7973540	34.132094	-118.04802	403365.79	3777298.4	1.1347656	1.4345703
4.8773550	34.132095	-118.04802	403365.96	3777298.5	1.3115234	1.6962891
5.0173540	34.132096	-118.04801	403366.15	3777298.7	1.4306641	1.8417969
5.1773570	34.132096	-118.04801	403366.15	3777298.7	1.4306641	1.8417969
5.3573580	34.132096	-118.04801	403366.15	3777298.7	1.4306641	1.8417969
5.4473550	34.132098	-118.04801	403366.36	3777298.8	1.5820312	2.0693359
5.5273550	34.132099	-118.04801	403366.58	3777299.0	1.7519531	2.2138672
5.6173600	34.132101	-118.04801	403366.82	3777299.2	1.8935547	2.3906250
5.7173630	34.132101	-118.04801	403366.82	3777299.2	1.8935547	2.3906250
5.8774070	34.132101	-118.04801	403366.82	3777299.2	1.8935547	2.3906250
5.9773550	34.132103	-118.04800	403367.10	3777299.4	2.0449219	2.5595703
6.0973560	34.132103	-118.04800	403367.10	3777299.4	2.0449219	2.5595703
6.1873610	34.132105	-118.04800	403367.37	3777299.6	2.1533203	2.7294922
6.2773570	34.132107	-118.04800	403367.67	3777299.8	2.2724609	2.9228516
6.3773559	34.132107	-118.04800	403367.67	3777299.8	2.2724609	2.9228516
6.4773530	34.132109	-118.04800	403367.97	3777300.0	2.4052734	3.0400391
6.6973540	34.132111	-118.04799	403368.30	3777300.3	2.4746094	3.2216797
6.7773540	34.132114	-118.04799	403368.63	3777300.5	2.6113281	3.3398438
6.9473760	34.132116	-118.04798	403368.98	3777300.8	2.6650391	3.4726562
7.0273640	34.132116	-118.04798	403368.98	3777300.8	2.6650391	3.4726562
7.1073630	34.132116	-118.04798	403368.98	3777300.8	2.6650391	3.4726562
7.2674150	34.132119	-118.04798	403369.34	3777301.1	2.8896484	3.5371094
7.3573540	34.132121	-118.04798	403369.72	3777301.4	2.9560547	3.7490234
7.5173550	34.132124	-118.04797	403370.11	3777301.7	3.1328125	3.8798828
7.6073530	34.132124	-118.04797	403370.11	3777301.7	3.1328125	3.8798828
7.6973900	34.132124	-118.04797	403370.11	3777301.7	3.1328125	3.8798828
7.7773660	34.132127	-118.04797	403370.51	3777302.0	3.1513672	3.9882812
7.8573610	34.132127	-118.04797	403370.51	3777302.0	3.1513672	3.9882812
8.0273560	34.132130	-118.04796	403370.92	3777302.3	3.2529297	4.1542969
8.1073570	34.132133	-118.04796	403371.35	3777302.7	3.2988281	4.2607422
8.1973630	34.132133	-118.04796	403371.35	3777302.7	3.2988281	4.2607422
8.3573540	34.132136	-118.04795	403371.80	3777303.0	3.4511719	4.4482422
8.4473540	34.132139	-118.04795	403372.25	3777303.3	3.5517578	4.4111328
8.5374300	34.132143	-118.04794	403372.71	3777303.7	3.7089844	4.5673828
8.7374080	34.132146	-118.04794	403373.18	3777304.1	3.6738281	4.6767578
8.8173550	34.132146	-118.04794	403373.18	3777304.1	3.6738281	4.6767578
8.9073660	34.132146	-118.04794	403373.18	3777304.1	3.6738281	4.6767578
8.9973620	34.132149	-118.04793	403373.66	3777304.4	3.7363281	4.7978516
9.0973560	34.132153	-118.04793	403374.16	3777304.8	3.8007812	4.9462891
9.1773549	34.132156	-118.04792	403374.67	3777305.2	3.9794922	5.0917969
9.2573580	34.132156	-118.04792	403374.67	3777305.2	3.9794922	5.0917969
9.3473670	34.132156	-118.04792	403374.67	3777305.2	3.9794922	5.0917969
9.4573780	34.132160	-118.04792	403375.19	3777305.6	4.0126953	5.1806641
9.5273550	34.132160	-118.04792	403375.19	3777305.6	4.0126953	5.1806641
9.6773640	34.132164	-118.04791	403375.73	3777306.0	4.1259766	5.2773438
9.8473550	34.132168	-118.04791	403376.26	3777306.4	4.1816406	5.3320312
9.9873650	34.132171	-118.04790	403376.81	3777306.8	4.2519531	5.4072266
10.167406	34.132171	-118.04790	403376.81	3777306.8	4.2519531	5.4072266
10.247551	34.132175	-118.04789	403377.37	3777307.3	4.3066406	5.5478516
10.327373	34.132179	-118.04789	403377.94	3777307.7	4.3486328	5.6611328
10.427429	34.132183	-118.04788	403378.52	3777308.1	4.5146484	5.7910156
10.527361	34.132183	-118.04788	403378.52	3777308.1	4.5146484	5.7910156
10.657357	34.132183	-118.04788	403378.52	3777308.1	4.5146484	5.7910156
10.747371	34.132187	-118.04788	403379.11	3777308.6	4.6210938	5.8232422
10.997384	34.132192	-118.04787	403379.71	3777309.1	4.6269531	5.9824219
11.087357	34.132196	-118.04786	403380.32	3777309.5	4.6962891	6.0595703
11.187355	34.132196	-118.04786	403380.32	3777309.5	4.6962891	6.0595703
11.387354	34.132196	-118.04786	403380.32	3777309.5	4.6962891	6.0595703
11.487365	34.132200	-118.04786	403380.94	3777310.0	4.7822266	6.1630859
11.657355	34.132204	-118.04785	403381.57	3777310.5	4.7958984	6.2353516
11.737355	34.132204	-118.04785	403381.57	3777310.5	4.7958984	6.2353516
11.827361	34.132209	-118.04784	403382.21	3777310.9	4.8593750	6.3408203
11.927358	34.132209	-118.04784	403382.21	3777310.9	4.8593750	6.3408203
12.037355	34.132213	-118.04784	403382.85	3777311.4	5.0009766	6.3964844
12.127367	34.132218	-118.04783	403383.50	3777311.9	5.0410156	6.4912109
12.207365	34.132222	-118.04782	403384.18	3777312.4	5.0224609	6.6748047
12.437354	34.132227	-118.04781	403384.85	3777312.9	5.1992188	6.7207031
12.527353	34.132227	-118.04781	403384.85	3777312.9	5.1992188	6.7207031
12.647355	34.132227	-118.04781	403384.85	3777312.9	5.1992188	6.7207031
12.847360	34.132232	-118.04781	403385.54	3777313.5	5.2333984	6.7509766
12.937354	34.132236	-118.04780	403386.23	3777314.0	5.3017578	6.9140625
13.107407	34.132241	-118.04779	403386.94	3777314.5	5.3095703	7.0019531
13.187359	34.132241	-118.04779	403386.94	3777314.5	5.3095703	7.0019531
13.277359	34.132241	-118.04779	403386.94	3777314.5	5.3095703	7.0019531
13.357354	34.132246	-118.04778	403387.66	3777315.0	5.4921875	7.1513672
13.447362	34.132246	-118.04778	403387.66	3777315.0	5.4921875	7.1513672
13.537355	34.132251	-118.04778	403388.38	3777315.6	5.5126953	7.1552734
13.627366	34.132256	-118.04777	403389.12	3777316.1	5.4892578	7.2666016
13.707364	34.132261	-118.04776	403389.84	3777316.7	5.4248047	7.2197266
13.837357	34.132266	-118.04775	403390.58	3777317.2	5.6162109	7.3369141
13.927361	34.132266	-118.04775	403390.58	3777317.2	5.6162109	7.3369141
14.027361	34.132271	-118.04774	403391.33	3777317.8	5.8281250	7.3837891
14.107431	34.132277	-118.04774	403392.10	3777318.4	5.8154297	7.6835938
14.187363	34.132277	-118.04774	403392.10	3777318.4	5.8154297	7.6835938
14.377356	34.132277	-118.04774	403392.10	3777318.4	5.8154297	7.6835938
14.497363	34.132282	-118.04773	403392.89	3777318.9	5.7988281	7.8330078
14.577354	34.132287	-118.04772	403393.67	3777319.5	5.9003906	7.7167969
14.747363	34.132292	-118.04771	403394.45	3777320.1	5.8613281	7.7871094
14.827364	34.132292	-118.04771	403394.45	3777320.1	5.8613281	7.7871094
14.907362	34.132292	-118.04771	403394.45	3777320.1	5.8613281	7.7871094
14.997366	34.132298	-118.04770	403395.25	3777320.7	5.9755859	7.8486328
15.127366	34.132298	-118.04770	403395.25	3777320.7	5.9755859	7.8486328
15.227430	34.132303	-118.04769	403396.05	3777321.3	5.9707031	7.9414062
15.327362	34.132309	-118.04768	403396.87	3777321.9	5.9726562	8.1660156
15.527354	34.132309	-118.04768	403396.87	3777321.9	5.9726562	8.1660156
15.687360	34.132314	-118.04768	403397.70	3777322.5	5.9697266	8.1777344
15.837360	34.132320	-118.04767	403398.52	3777323.1	6.1865234	8.1943359
15.927357	34.132325	-118.04766	403399.35	3777323.7	6.4951172	8.2050781
16.027355	34.132331	-118.04765	403400.18	3777324.4	6.5839844	8.2382812
16.187354	34.132331	-118.04765	403400.18	3777324.4	6.5839844	8.2382812
16.267358	34.132331	-118.04765	403400.18	3777324.4	6.5839844	8.2382812
16.347356	34.132337	-118.04764	403401.01	3777325.0	6.5683594	8.2431641
16.427354	34.132343	-118.04763	403401.83	3777325.7	6.6367188	8.1416016
16.527354	34.132349	-118.04762	403402.65	3777326.3	6.8476562	8.1220703
16.677365	34.132349	-118.04762	403402.65	3777326.3	6.8476562	8.1220703
16.827358	34.132349	-118.04762	403402.65	3777326.3	6.8476562	8.1220703
16.987355	34.132356	-118.04761	403403.48	3777327.0	6.9033203	8.2773438
17.077364	34.132356	-118.04761	403403.48	3777327.0	6.9033203	8.2773438
17.267359	34.132362	-118.04760	403404.33	3777327.7	6.9179688	8.4589844
17.397361	34.132368	-118.04759	403405.19	3777328.4	6.9814453	8.5458984
