<kml>
<Folder>
<name>stemp.rndf</name>
<Folder>
<name>1</name>
<description>Fast_Lane</description>
	<Placemark>
		<name>1.1</name>
		<DrawOrder>0</DrawOrder>
		<Style>
			<LineStyle>
				<color>ffff1111</color>
				<width>4</width>
			</LineStyle>
		</Style>
		<LineString>
		   <coordinates>
-118.044195,34.134213,0.0
-118.044299,34.133974,0.0
-118.044394,34.133758,0.0
-118.044519,34.133545,0.0
-118.044578,34.133440,0.0
-118.044909,34.132782,0.0
-118.044980,34.132706,0.0
-118.045035,34.132706,0.0
-118.045329,34.132840,0.0
		  </coordinates>
		</LineString> 
	</Placemark>
	<Placemark>
		<name>1.2</name>
		<DrawOrder>0</DrawOrder>
		<Style>
			<LineStyle>
				<color>ffff1111</color>
				<width>4</width>
			</LineStyle>
		</Style>
		<LineString>
		   <coordinates>
-118.045341,34.132800,0.0
-118.045020,34.132666,0.0
-118.044971,34.132670,0.0
-118.044879,34.132753,0.0
-118.044519,34.133419,0.0
-118.044469,34.133511,0.0
-118.044385,34.133668,0.0
-118.044257,34.133920,0.0
-118.044134,34.134190,0.0
		  </coordinates>
		</LineString> 
	</Placemark>
</Folder>
<Folder>
<name>2</name>
<description>Murray_Road</description>
	<Placemark>
		<name>2.1</name>
		<DrawOrder>0</DrawOrder>
		<Style>
			<LineStyle>
				<color>ffff1111</color>
				<width>4</width>
			</LineStyle>
		</Style>
		<LineString>
		   <coordinates>
-118.045100,34.133637,0.0
-118.045373,34.132901,0.0
		  </coordinates>
		</LineString> 
	</Placemark>
	<Placemark>
		<name>2.2</name>
		<DrawOrder>0</DrawOrder>
		<Style>
			<LineStyle>
				<color>ffff1111</color>
				<width>4</width>
			</LineStyle>
		</Style>
		<LineString>
		   <coordinates>
-118.045337,34.132886,0.0
-118.045060,34.133616,0.0
		  </coordinates>
		</LineString> 
	</Placemark>
</Folder>
<Folder>
<name>3</name>
<description>St_Luke_Lane</description>
	<Placemark>
		<name>3.1</name>
		<DrawOrder>0</DrawOrder>
		<Style>
			<LineStyle>
				<color>ffff1111</color>
				<width>4</width>
			</LineStyle>
		</Style>
		<LineString>
		   <coordinates>
-118.045012,34.133626,0.0
-118.044824,34.133551,0.0
-118.044769,34.133533,0.0
-118.044605,34.133484,0.0
		  </coordinates>
		</LineString> 
	</Placemark>
	<Placemark>
		<name>3.2</name>
		<DrawOrder>0</DrawOrder>
		<Style>
			<LineStyle>
				<color>ffff1111</color>
				<width>4</width>
			</LineStyle>
		</Style>
		<LineString>
		   <coordinates>
-118.044587,34.133532,0.0
-118.044728,34.133555,0.0
-118.044799,34.133579,0.0
-118.044999,34.133662,0.0
		  </coordinates>
		</LineString> 
	</Placemark>
</Folder>
<Folder>
<name>4</name>
<description>Dont_panic</description>
	<Placemark>
		<name>4.1</name>
		<DrawOrder>0</DrawOrder>
		<Style>
			<LineStyle>
				<color>ffff1111</color>
				<width>4</width>
			</LineStyle>
		</Style>
		<LineString>
		   <coordinates>
-118.045115,34.133689,0.0
-118.045228,34.133744,0.0
-118.045291,34.133798,0.0
-118.045316,34.133897,0.0
-118.045326,34.134031,0.0
-118.045301,34.134234,0.0
-118.045264,34.134366,0.0
-118.045111,34.134456,0.0
-118.044999,34.134458,0.0
-118.044905,34.134440,0.0
		  </coordinates>
		</LineString> 
	</Placemark>
</Folder>
<Folder>
<name>5</name>
<description>Winding_Way</description>
	<Placemark>
		<name>5.1</name>
		<DrawOrder>0</DrawOrder>
		<Style>
			<LineStyle>
				<color>ffff1111</color>
				<width>4</width>
			</LineStyle>
		</Style>
		<LineString>
		   <coordinates>
-118.044874,34.134402,0.0
-118.044457,34.134298,0.0
-118.044222,34.134255,0.0
		  </coordinates>
		</LineString> 
	</Placemark>
	<Placemark>
		<name>5.2</name>
		<DrawOrder>0</DrawOrder>
		<Style>
			<LineStyle>
				<color>ffff1111</color>
				<width>4</width>
			</LineStyle>
		</Style>
		<LineString>
		   <coordinates>
-118.044211,34.134312,0.0
-118.044440,34.134355,0.0
-118.044863,34.134465,0.0
		  </coordinates>
		</LineString> 
	</Placemark>
</Folder>
<Folder>
<name>6</name>
-118.044863,34.134465,0.0
-118.044863,34.134465,0.0
	<Placemark>
		<name>6.0</name>
		<DrawOrder>0</DrawOrder>
		<Style>
			<LineStyle>
				<color>ff00ffff</color>
				<width>4</width>
			</LineStyle>
		</Style>
		<LineString>
		   <coordinates>
-118.044819,34.134221,0.0
-118.044773,34.134163,0.0
-118.044769,34.134109,0.0
-118.044679,34.134060,0.0
-118.044651,34.134149,0.0
-118.044519,34.134272,0.0
-118.044584,34.134296,0.0
-118.044763,34.134338,0.0
		  </coordinates>
		</LineString> 
	</Placemark>
	<Placemark>
		<name>6.1</name>
		<DrawOrder>0</DrawOrder>
		<Style>
			<LineStyle>
				<color>ffffffff</color>
				<width>4</width>
			</LineStyle>
		</Style>
		<LineString>
		   <coordinates>
-118.044713,34.134131,0.0
-118.044744,34.134142,0.0
		  </coordinates>
		</LineString> 
	</Placemark>
	<Placemark>
		<name>6.2</name>
		<DrawOrder>0</DrawOrder>
		<Style>
			<LineStyle>
				<color>ffffffff</color>
				<width>4</width>
			</LineStyle>
		</Style>
		<LineString>
		   <coordinates>
-118.044700,34.134169,0.0
-118.044730,34.134180,0.0
		  </coordinates>
		</LineString> 
	</Placemark>
	<Placemark>
		<name>6.3</name>
		<DrawOrder>0</DrawOrder>
		<Style>
			<LineStyle>
				<color>ffffffff</color>
				<width>4</width>
			</LineStyle>
		</Style>
		<LineString>
		   <coordinates>
-118.044686,34.134205,0.0
-118.044716,34.134216,0.0
		  </coordinates>
		</LineString> 
	</Placemark>
</Folder>
</Folder>
</kml>
